%!PS-Adobe-3.0 EPSF-3.0
%%Title: Figures/resamples/lininterp_synth/6cluster_belonging.eps
%%Creator: matplotlib version 3.1.1, http://matplotlib.org/
%%CreationDate: Wed Jul 13 18:49:05 2022
%%Orientation: portrait
%%BoundingBox: 198.0 316.8 414.0 475.20000000000005
%%EndComments
%%BeginProlog
/mpldict 8 dict def
mpldict begin
/m { moveto } bind def
/l { lineto } bind def
/r { rlineto } bind def
/c { curveto } bind def
/cl { closepath } bind def
/box {
m
1 index 0 r
0 exch r
neg 0 r
cl
} bind def
/clipbox {
box
clip
newpath
} bind def
%!PS-Adobe-3.0 Resource-Font
%%Title: DejaVu Sans
%%Copyright: Copyright (c) 2003 by Bitstream, Inc. All Rights Reserved. Copyright (c) 2006 by Tavmjong Bah. All Rights Reserved. DejaVu changes are in public domain 
%%Creator: Converted from TrueType to type 3 by PPR
25 dict begin
/_d{bind def}bind def
/_m{moveto}_d
/_l{lineto}_d
/_cl{closepath eofill}_d
/_c{curveto}_d
/_sc{7 -1 roll{setcachedevice}{pop pop pop pop pop pop}ifelse}_d
/_e{exec}_d
/FontName /DejaVuSans def
/PaintType 0 def
/FontMatrix[.001 0 0 .001 0 0]def
/FontBBox[-1021 -463 1793 1232]def
/FontType 3 def
/Encoding [ /period /zero /one /two /three /four /six /eight ] def
/FontInfo 10 dict dup begin
/FamilyName (DejaVu Sans) def
/FullName (DejaVu Sans) def
/Notice (Copyright (c) 2003 by Bitstream, Inc. All Rights Reserved. Copyright (c) 2006 by Tavmjong Bah. All Rights Reserved. DejaVu changes are in public domain ) def
/Weight (Book) def
/Version (Version 2.35) def
/ItalicAngle 0.0 def
/isFixedPitch false def
/UnderlinePosition -130 def
/UnderlineThickness 90 def
end readonly def
/CharStrings 9 dict dup begin
/.notdef 0 def
/period{318 0 107 0 210 124 _sc
107 124 _m
210 124 _l
210 0 _l
107 0 _l
107 124 _l
_cl}_d
/zero{636 0 66 -13 570 742 _sc
318 664 _m
267 664 229 639 203 589 _c
177 539 165 464 165 364 _c
165 264 177 189 203 139 _c
229 89 267 64 318 64 _c
369 64 407 89 433 139 _c
458 189 471 264 471 364 _c
471 464 458 539 433 589 _c
407 639 369 664 318 664 _c
318 742 _m
399 742 461 709 505 645 _c
548 580 570 486 570 364 _c
570 241 548 147 505 83 _c
461 19 399 -13 318 -13 _c
236 -13 173 19 130 83 _c
87 147 66 241 66 364 _c
66 486 87 580 130 645 _c
173 709 236 742 318 742 _c
_cl}_d
/one{636 0 110 0 544 729 _sc
124 83 _m
285 83 _l
285 639 _l
110 604 _l
110 694 _l
284 729 _l
383 729 _l
383 83 _l
544 83 _l
544 0 _l
124 0 _l
124 83 _l
_cl}_d
/two{{636 0 73 0 536 742 _sc
192 83 _m
536 83 _l
536 0 _l
73 0 _l
73 83 _l
110 121 161 173 226 239 _c
290 304 331 346 348 365 _c
380 400 402 430 414 455 _c
426 479 433 504 433 528 _c
433 566 419 598 392 622 _c
365 646 330 659 286 659 _c
255 659 222 653 188 643 _c
154 632 117 616 78 594 _c
78 694 _l
118 710 155 722 189 730 _c
223 738 255 742 284 742 _c
}_e{359 742 419 723 464 685 _c
509 647 532 597 532 534 _c
532 504 526 475 515 449 _c
504 422 484 390 454 354 _c
446 344 420 317 376 272 _c
332 227 271 164 192 83 _c
_cl}_e}_d
/three{{636 0 76 -13 556 742 _sc
406 393 _m
453 383 490 362 516 330 _c
542 298 556 258 556 212 _c
556 140 531 84 482 45 _c
432 6 362 -13 271 -13 _c
240 -13 208 -10 176 -4 _c
144 1 110 10 76 22 _c
76 117 _l
103 101 133 89 166 81 _c
198 73 232 69 268 69 _c
330 69 377 81 409 105 _c
441 129 458 165 458 212 _c
458 254 443 288 413 312 _c
383 336 341 349 287 349 _c
}_e{202 349 _l
202 430 _l
291 430 _l
339 430 376 439 402 459 _c
428 478 441 506 441 543 _c
441 580 427 609 401 629 _c
374 649 336 659 287 659 _c
260 659 231 656 200 650 _c
169 644 135 635 98 623 _c
98 711 _l
135 721 170 729 203 734 _c
235 739 266 742 296 742 _c
370 742 429 725 473 691 _c
517 657 539 611 539 553 _c
539 513 527 479 504 451 _c
481 423 448 403 406 393 _c
_cl}_e}_d
/four{636 0 49 0 580 729 _sc
378 643 _m
129 254 _l
378 254 _l
378 643 _l
352 729 _m
476 729 _l
476 254 _l
580 254 _l
580 172 _l
476 172 _l
476 0 _l
378 0 _l
378 172 _l
49 172 _l
49 267 _l
352 729 _l
_cl}_d
/six{{636 0 70 -13 573 742 _sc
330 404 _m
286 404 251 388 225 358 _c
199 328 186 286 186 234 _c
186 181 199 139 225 109 _c
251 79 286 64 330 64 _c
374 64 409 79 435 109 _c
461 139 474 181 474 234 _c
474 286 461 328 435 358 _c
409 388 374 404 330 404 _c
526 713 _m
526 623 _l
501 635 476 644 451 650 _c
425 656 400 659 376 659 _c
310 659 260 637 226 593 _c
}_e{192 549 172 482 168 394 _c
187 422 211 444 240 459 _c
269 474 301 482 336 482 _c
409 482 467 459 509 415 _c
551 371 573 310 573 234 _c
573 159 550 99 506 54 _c
462 9 403 -13 330 -13 _c
246 -13 181 19 137 83 _c
92 147 70 241 70 364 _c
70 479 97 571 152 639 _c
206 707 280 742 372 742 _c
396 742 421 739 447 735 _c
472 730 498 723 526 713 _c
_cl}_e}_d
/eight{{636 0 68 -13 568 742 _sc
318 346 _m
271 346 234 333 207 308 _c
180 283 167 249 167 205 _c
167 161 180 126 207 101 _c
234 76 271 64 318 64 _c
364 64 401 76 428 102 _c
455 127 469 161 469 205 _c
469 249 455 283 429 308 _c
402 333 365 346 318 346 _c
219 388 _m
177 398 144 418 120 447 _c
96 476 85 511 85 553 _c
85 611 105 657 147 691 _c
188 725 245 742 318 742 _c
}_e{390 742 447 725 489 691 _c
530 657 551 611 551 553 _c
551 511 539 476 515 447 _c
491 418 459 398 417 388 _c
464 377 501 355 528 323 _c
554 291 568 251 568 205 _c
568 134 546 80 503 43 _c
459 5 398 -13 318 -13 _c
237 -13 175 5 132 43 _c
89 80 68 134 68 205 _c
68 251 81 291 108 323 _c
134 355 171 377 219 388 _c
183 544 _m
183 506 194 476 218 455 _c
}_e{242 434 275 424 318 424 _c
360 424 393 434 417 455 _c
441 476 453 506 453 544 _c
453 582 441 611 417 632 _c
393 653 360 664 318 664 _c
275 664 242 653 218 632 _c
194 611 183 582 183 544 _c
_cl}_e}_d
end readonly def

/BuildGlyph
 {exch begin
 CharStrings exch
 2 copy known not{pop /.notdef}if
 true 3 1 roll get exec
 end}_d

/BuildChar {
 1 index /Encoding get exch get
 1 index /BuildGlyph get exec
}_d

FontName currentdict end definefont pop
end
%%EndProlog
mpldict begin
198 316.8 translate
216 158.4 0 0 clipbox
gsave
0 0 m
216 0 l
216 158.4 l
0 158.4 l
cl
grestore
gsave
27 17.424 m
194.4 17.424 l
194.4 139.392 l
27 139.392 l
cl
grestore
gsave
167.4 122 27 17.42 clipbox
27 17.424 m
31.185 17.424 l
31.185 17.424 l
27 17.424 l
cl
0.122 0.467 0.706 setrgbcolor
fill
grestore
gsave
167.4 122 27 17.42 clipbox
31.185 17.424 m
35.37 17.424 l
35.37 17.424 l
31.185 17.424 l
cl
0.122 0.467 0.706 setrgbcolor
fill
grestore
gsave
167.4 122 27 17.42 clipbox
35.37 17.424 m
39.555 17.424 l
39.555 17.424 l
35.37 17.424 l
cl
0.122 0.467 0.706 setrgbcolor
fill
grestore
gsave
167.4 122 27 17.42 clipbox
39.555 17.424 m
43.74 17.424 l
43.74 31.944 l
39.555 31.944 l
cl
0.122 0.467 0.706 setrgbcolor
fill
grestore
gsave
167.4 122 27 17.42 clipbox
43.74 17.424 m
47.925 17.424 l
47.925 31.944 l
43.74 31.944 l
cl
0.122 0.467 0.706 setrgbcolor
fill
grestore
gsave
167.4 122 27 17.42 clipbox
47.925 17.424 m
52.11 17.424 l
52.11 27.104 l
47.925 27.104 l
cl
0.122 0.467 0.706 setrgbcolor
fill
grestore
gsave
167.4 122 27 17.42 clipbox
52.11 17.424 m
56.295 17.424 l
56.295 36.784 l
52.11 36.784 l
cl
0.122 0.467 0.706 setrgbcolor
fill
grestore
gsave
167.4 122 27 17.42 clipbox
56.295 17.424 m
60.48 17.424 l
60.48 31.944 l
56.295 31.944 l
cl
0.122 0.467 0.706 setrgbcolor
fill
grestore
gsave
167.4 122 27 17.42 clipbox
60.48 17.424 m
64.665 17.424 l
64.665 65.824 l
60.48 65.824 l
cl
0.122 0.467 0.706 setrgbcolor
fill
grestore
gsave
167.4 122 27 17.42 clipbox
64.665 17.424 m
68.85 17.424 l
68.85 46.464 l
64.665 46.464 l
cl
0.122 0.467 0.706 setrgbcolor
fill
grestore
gsave
167.4 122 27 17.42 clipbox
68.85 17.424 m
73.035 17.424 l
73.035 56.144 l
68.85 56.144 l
cl
0.122 0.467 0.706 setrgbcolor
fill
grestore
gsave
167.4 122 27 17.42 clipbox
73.035 17.424 m
77.22 17.424 l
77.22 56.144 l
73.035 56.144 l
cl
0.122 0.467 0.706 setrgbcolor
fill
grestore
gsave
167.4 122 27 17.42 clipbox
77.22 17.424 m
81.405 17.424 l
81.405 46.464 l
77.22 46.464 l
cl
0.122 0.467 0.706 setrgbcolor
fill
grestore
gsave
167.4 122 27 17.42 clipbox
81.405 17.424 m
85.59 17.424 l
85.59 85.184 l
81.405 85.184 l
cl
0.122 0.467 0.706 setrgbcolor
fill
grestore
gsave
167.4 122 27 17.42 clipbox
85.59 17.424 m
89.775 17.424 l
89.775 56.144 l
85.59 56.144 l
cl
0.122 0.467 0.706 setrgbcolor
fill
grestore
gsave
167.4 122 27 17.42 clipbox
89.775 17.424 m
93.96 17.424 l
93.96 65.824 l
89.775 65.824 l
cl
0.122 0.467 0.706 setrgbcolor
fill
grestore
gsave
167.4 122 27 17.42 clipbox
93.96 17.424 m
98.145 17.424 l
98.145 90.024 l
93.96 90.024 l
cl
0.122 0.467 0.706 setrgbcolor
fill
grestore
gsave
167.4 122 27 17.42 clipbox
98.145 17.424 m
102.33 17.424 l
102.33 133.584 l
98.145 133.584 l
cl
0.122 0.467 0.706 setrgbcolor
fill
grestore
gsave
167.4 122 27 17.42 clipbox
102.33 17.424 m
106.515 17.424 l
106.515 94.864 l
102.33 94.864 l
cl
0.122 0.467 0.706 setrgbcolor
fill
grestore
gsave
167.4 122 27 17.42 clipbox
106.515 17.424 m
110.7 17.424 l
110.7 133.584 l
106.515 133.584 l
cl
0.122 0.467 0.706 setrgbcolor
fill
grestore
gsave
167.4 122 27 17.42 clipbox
110.7 17.424 m
114.885 17.424 l
114.885 85.184 l
110.7 85.184 l
cl
0.122 0.467 0.706 setrgbcolor
fill
grestore
gsave
167.4 122 27 17.42 clipbox
114.885 17.424 m
119.07 17.424 l
119.07 128.744 l
114.885 128.744 l
cl
0.122 0.467 0.706 setrgbcolor
fill
grestore
gsave
167.4 122 27 17.42 clipbox
119.07 17.424 m
123.255 17.424 l
123.255 65.824 l
119.07 65.824 l
cl
0.122 0.467 0.706 setrgbcolor
fill
grestore
gsave
167.4 122 27 17.42 clipbox
123.255 17.424 m
127.44 17.424 l
127.44 36.784 l
123.255 36.784 l
cl
0.122 0.467 0.706 setrgbcolor
fill
grestore
gsave
167.4 122 27 17.42 clipbox
127.44 17.424 m
131.625 17.424 l
131.625 31.944 l
127.44 31.944 l
cl
0.122 0.467 0.706 setrgbcolor
fill
grestore
gsave
167.4 122 27 17.42 clipbox
131.625 17.424 m
135.81 17.424 l
135.81 90.024 l
131.625 90.024 l
cl
0.122 0.467 0.706 setrgbcolor
fill
grestore
gsave
167.4 122 27 17.42 clipbox
135.81 17.424 m
139.995 17.424 l
139.995 119.064 l
135.81 119.064 l
cl
0.122 0.467 0.706 setrgbcolor
fill
grestore
gsave
167.4 122 27 17.42 clipbox
139.995 17.424 m
144.18 17.424 l
144.18 109.384 l
139.995 109.384 l
cl
0.122 0.467 0.706 setrgbcolor
fill
grestore
gsave
167.4 122 27 17.42 clipbox
144.18 17.424 m
148.365 17.424 l
148.365 75.504 l
144.18 75.504 l
cl
0.122 0.467 0.706 setrgbcolor
fill
grestore
gsave
167.4 122 27 17.42 clipbox
148.365 17.424 m
152.55 17.424 l
152.55 65.824 l
148.365 65.824 l
cl
0.122 0.467 0.706 setrgbcolor
fill
grestore
gsave
167.4 122 27 17.42 clipbox
152.55 17.424 m
156.735 17.424 l
156.735 41.624 l
152.55 41.624 l
cl
0.122 0.467 0.706 setrgbcolor
fill
grestore
gsave
167.4 122 27 17.42 clipbox
156.735 17.424 m
160.92 17.424 l
160.92 17.424 l
156.735 17.424 l
cl
0.122 0.467 0.706 setrgbcolor
fill
grestore
gsave
167.4 122 27 17.42 clipbox
160.92 17.424 m
165.105 17.424 l
165.105 17.424 l
160.92 17.424 l
cl
0.122 0.467 0.706 setrgbcolor
fill
grestore
gsave
167.4 122 27 17.42 clipbox
165.105 17.424 m
169.29 17.424 l
169.29 17.424 l
165.105 17.424 l
cl
0.122 0.467 0.706 setrgbcolor
fill
grestore
gsave
167.4 122 27 17.42 clipbox
169.29 17.424 m
173.475 17.424 l
173.475 17.424 l
169.29 17.424 l
cl
0.122 0.467 0.706 setrgbcolor
fill
grestore
gsave
167.4 122 27 17.42 clipbox
173.475 17.424 m
177.66 17.424 l
177.66 17.424 l
173.475 17.424 l
cl
0.122 0.467 0.706 setrgbcolor
fill
grestore
gsave
167.4 122 27 17.42 clipbox
177.66 17.424 m
181.845 17.424 l
181.845 17.424 l
177.66 17.424 l
cl
0.122 0.467 0.706 setrgbcolor
fill
grestore
gsave
167.4 122 27 17.42 clipbox
181.845 17.424 m
186.03 17.424 l
186.03 17.424 l
181.845 17.424 l
cl
0.122 0.467 0.706 setrgbcolor
fill
grestore
gsave
167.4 122 27 17.42 clipbox
186.03 17.424 m
190.215 17.424 l
190.215 17.424 l
186.03 17.424 l
cl
0.122 0.467 0.706 setrgbcolor
fill
grestore
gsave
167.4 122 27 17.42 clipbox
190.215 17.424 m
194.4 17.424 l
194.4 17.424 l
190.215 17.424 l
cl
0.122 0.467 0.706 setrgbcolor
fill
grestore
0.800 setlinewidth
1 setlinejoin
0 setlinecap
[] 0 setdash
0.000 setgray
gsave
/o {
gsave
newpath
translate
0.8 setlinewidth
1 setlinejoin
0 setlinecap
0 0 m
0 -3.5 l

gsave
0.000 setgray
fill
grestore
stroke
grestore
} bind def
27 17.424 o
grestore
/DejaVuSans findfont
10.000 scalefont
setfont
gsave
19.046875 2.830250 translate
0.000000 rotate
0.000000 0.000000 m /zero glyphshow
6.362305 0.000000 m /period glyphshow
9.541016 0.000000 m /zero glyphshow
grestore
gsave
/o {
gsave
newpath
translate
0.8 setlinewidth
1 setlinejoin
0 setlinecap
0 0 m
0 -3.5 l

gsave
0.000 setgray
fill
grestore
stroke
grestore
} bind def
60.48 17.424 o
grestore
gsave
52.526875 2.830250 translate
0.000000 rotate
0.000000 0.000000 m /zero glyphshow
6.362305 0.000000 m /period glyphshow
9.541016 0.000000 m /two glyphshow
grestore
gsave
/o {
gsave
newpath
translate
0.8 setlinewidth
1 setlinejoin
0 setlinecap
0 0 m
0 -3.5 l

gsave
0.000 setgray
fill
grestore
stroke
grestore
} bind def
93.96 17.424 o
grestore
gsave
86.006875 2.830250 translate
0.000000 rotate
0.000000 0.000000 m /zero glyphshow
6.362305 0.000000 m /period glyphshow
9.541016 0.000000 m /four glyphshow
grestore
gsave
/o {
gsave
newpath
translate
0.8 setlinewidth
1 setlinejoin
0 setlinecap
0 0 m
0 -3.5 l

gsave
0.000 setgray
fill
grestore
stroke
grestore
} bind def
127.44 17.424 o
grestore
gsave
119.486875 2.830250 translate
0.000000 rotate
0.000000 0.000000 m /zero glyphshow
6.362305 0.000000 m /period glyphshow
9.541016 0.000000 m /six glyphshow
grestore
gsave
/o {
gsave
newpath
translate
0.8 setlinewidth
1 setlinejoin
0 setlinecap
0 0 m
0 -3.5 l

gsave
0.000 setgray
fill
grestore
stroke
grestore
} bind def
160.92 17.424 o
grestore
gsave
152.966875 2.830250 translate
0.000000 rotate
0.000000 0.000000 m /zero glyphshow
6.362305 0.000000 m /period glyphshow
9.541016 0.000000 m /eight glyphshow
grestore
gsave
/o {
gsave
newpath
translate
0.8 setlinewidth
1 setlinejoin
0 setlinecap
0 0 m
0 -3.5 l

gsave
0.000 setgray
fill
grestore
stroke
grestore
} bind def
194.4 17.424 o
grestore
gsave
186.446875 2.830250 translate
0.000000 rotate
0.000000 0.000000 m /one glyphshow
6.362305 0.000000 m /period glyphshow
9.541016 0.000000 m /zero glyphshow
grestore
gsave
/o {
gsave
newpath
translate
0.8 setlinewidth
1 setlinejoin
0 setlinecap
0 0 m
-3.5 0 l

gsave
0.000 setgray
fill
grestore
stroke
grestore
} bind def
27 17.424 o
grestore
gsave
13.640625 13.627125 translate
0.000000 rotate
0.000000 0.000000 m /zero glyphshow
grestore
gsave
/o {
gsave
newpath
translate
0.8 setlinewidth
1 setlinejoin
0 setlinecap
0 0 m
-3.5 0 l

gsave
0.000 setgray
fill
grestore
stroke
grestore
} bind def
27 53.724 o
grestore
gsave
13.640625 49.927125 translate
0.000000 rotate
0.000000 0.000000 m /one glyphshow
grestore
gsave
/o {
gsave
newpath
translate
0.8 setlinewidth
1 setlinejoin
0 setlinecap
0 0 m
-3.5 0 l

gsave
0.000 setgray
fill
grestore
stroke
grestore
} bind def
27 90.024 o
grestore
gsave
13.640625 86.227125 translate
0.000000 rotate
0.000000 0.000000 m /two glyphshow
grestore
gsave
/o {
gsave
newpath
translate
0.8 setlinewidth
1 setlinejoin
0 setlinecap
0 0 m
-3.5 0 l

gsave
0.000 setgray
fill
grestore
stroke
grestore
} bind def
27 126.324 o
grestore
gsave
13.640625 122.527125 translate
0.000000 rotate
0.000000 0.000000 m /three glyphshow
grestore
1.500 setlinewidth
2 setlinecap
gsave
167.4 122 27 17.42 clipbox
110.204618 17.424 m
110.204618 139.392 l
stroke
grestore
1.000 0.000 0.000 setrgbcolor
gsave
167.4 122 27 17.42 clipbox
107.805667 17.424 m
107.805667 139.392 l
stroke
grestore
0.800 setlinewidth
0 setlinejoin
[] 0 setdash
0.000 setgray
gsave
27 17.424 m
27 139.392 l
stroke
grestore
gsave
194.4 17.424 m
194.4 139.392 l
stroke
grestore
gsave
27 17.424 m
194.4 17.424 l
stroke
grestore
gsave
27 139.392 m
194.4 139.392 l
stroke
grestore

end
showpage
