\relax 
\bibstyle{unsrtnat}
\citation{wang2010neurobiological}
\citation{platt1991pain}
\citation{wang2010neurobiological}
\citation{platt1991pain}
\citation{tran2017targeting}
\bibdata{scdpain}
\bibcite{wang2010neurobiological}{{1}{2010}{{Wang et~al.}}{{Wang, Wilkie, and Molokie}}}
\bibcite{platt1991pain}{{2}{1991}{{Platt et~al.}}{{Platt, Thorington, Brambilla, Milner, Rosse, Vichinsky, and Kinney}}}
\bibcite{tran2017targeting}{{3}{2017}{{Tran et~al.}}{{Tran, Gupta, and Gupta}}}
\@writefile{toc}{\contentsline {subsection}{\numberline {0.1}Exploratory}{1}\protected@file@percent }
