\begin{thebibliography}{3}
\providecommand{\natexlab}[1]{#1}
\providecommand{\url}[1]{\texttt{#1}}
\expandafter\ifx\csname urlstyle\endcsname\relax
  \providecommand{\doi}[1]{doi: #1}\else
  \providecommand{\doi}{doi: \begingroup \urlstyle{rm}\Url}\fi

\bibitem[Wang et~al.(2010)Wang, Wilkie, and Molokie]{wang2010neurobiological}
Zaijie~J Wang, Diana~J Wilkie, and Robert Molokie.
\newblock Neurobiological mechanisms of pain in sickle cell disease.
\newblock \emph{Hematology 2010, the American Society of Hematology Education
  Program Book}, 2010\penalty0 (1):\penalty0 403--408, 2010.

\bibitem[Platt et~al.(1991)Platt, Thorington, Brambilla, Milner, Rosse,
  Vichinsky, and Kinney]{platt1991pain}
Orah~S Platt, Bruce~D Thorington, Donald~J Brambilla, Paul~F Milner, Wendell~F
  Rosse, Elliott Vichinsky, and Thomas~R Kinney.
\newblock Pain in sickle cell disease: rates and risk factors.
\newblock \emph{New England Journal of Medicine}, 325\penalty0 (1):\penalty0
  11--16, 1991.

\bibitem[Tran et~al.(2017)Tran, Gupta, and Gupta]{tran2017targeting}
Huy Tran, Mihir Gupta, and Kalpna Gupta.
\newblock Targeting novel mechanisms of pain in sickle cell disease.
\newblock \emph{Blood, The Journal of the American Society of Hematology},
  130\penalty0 (22):\penalty0 2377--2385, 2017.

\end{thebibliography}
