%!PS-Adobe-3.0 EPSF-3.0
%%Title: BICcomp_synth.eps
%%Creator: Matplotlib v3.4.2, https://matplotlib.org/
%%CreationDate: Mon Nov 22 10:21:54 2021
%%Orientation: portrait
%%BoundingBox: 91 312 521 480
%%HiResBoundingBox: 91.215625 312.206250 520.784375 479.793750
%%EndComments
%%BeginProlog
/mpldict 11 dict def
mpldict begin
/_d { bind def } bind def
/m { moveto } _d
/l { lineto } _d
/r { rlineto } _d
/c { curveto } _d
/cl { closepath } _d
/ce { closepath eofill } _d
/box {
      m
      1 index 0 r
      0 exch r
      neg 0 r
      cl
    } _d
/clipbox {
      box
      clip
      newpath
    } _d
/sc { setcachedevice } _d
%!PS-Adobe-3.0 Resource-Font
%%Creator: Converted from TrueType to Type 3 by Matplotlib.
10 dict begin
/FontName /DejaVuSans def
/PaintType 0 def
/FontMatrix [0.00048828125 0 0 0.00048828125 0 0] def
/FontBBox [-2090 -948 3673 2524] def
/FontType 3 def
/Encoding [/space /zero /one /two /four /five /six /nine /B /C /I /N /a /b /c /e /f /i /l /m /n /o /r /s /t /u /y] def
/CharStrings 28 dict dup begin
/.notdef 0 def
/space{651 0 0 0 0 0 sc
ce} _d
/zero{1303 0 135 -29 1167 1520 sc
651 1360 m
547 1360 469 1309 416 1206 c
364 1104 338 950 338 745 c
338 540 364 387 416 284 c
469 182 547 131 651 131 c
756 131 834 182 886 284 c
939 387 965 540 965 745 c
965 950 939 1104 886 1206 c
834 1309 756 1360 651 1360 c

651 1520 m
818 1520 946 1454 1034 1321 c
1123 1189 1167 997 1167 745 c
1167 494 1123 302 1034 169 c
946 37 818 -29 651 -29 c
484 -29 356 37 267 169 c
179 302 135 494 135 745 c
135 997 179 1189 267 1321 c
356 1454 484 1520 651 1520 c

ce} _d
/one{1303 0 225 0 1114 1493 sc
254 170 m
584 170 l
584 1309 l
225 1237 l
225 1421 l
582 1493 l
784 1493 l
784 170 l
1114 170 l
1114 0 l
254 0 l
254 170 l

ce} _d
/two{1303 0 150 0 1098 1520 sc
393 170 m
1098 170 l
1098 0 l
150 0 l
150 170 l
227 249 331 356 463 489 c
596 623 679 709 713 748 c
778 821 823 882 848 932 c
874 983 887 1032 887 1081 c
887 1160 859 1225 803 1275 c
748 1325 675 1350 586 1350 c
523 1350 456 1339 385 1317 c
315 1295 240 1262 160 1217 c
160 1421 l
241 1454 317 1478 388 1495 c
459 1512 523 1520 582 1520 c
737 1520 860 1481 952 1404 c
1044 1327 1090 1223 1090 1094 c
1090 1033 1078 974 1055 919 c
1032 864 991 800 930 725 c
913 706 860 650 771 557 c
682 465 556 336 393 170 c

ce} _d
/four{1303 0 100 0 1188 1493 sc
774 1317 m
264 520 l
774 520 l
774 1317 l

721 1493 m
975 1493 l
975 520 l
1188 520 l
1188 352 l
975 352 l
975 0 l
774 0 l
774 352 l
100 352 l
100 547 l
721 1493 l

ce} _d
/five{1303 0 158 -29 1124 1493 sc
221 1493 m
1014 1493 l
1014 1323 l
406 1323 l
406 957 l
435 967 465 974 494 979 c
523 984 553 987 582 987 c
749 987 881 941 978 850 c
1075 759 1124 635 1124 479 c
1124 318 1074 193 974 104 c
874 15 733 -29 551 -29 c
488 -29 424 -24 359 -13 c
294 -2 227 14 158 35 c
158 238 l
218 205 280 181 344 165 c
408 149 476 141 547 141 c
662 141 754 171 821 232 c
888 293 922 375 922 479 c
922 583 888 665 821 726 c
754 787 662 817 547 817 c
493 817 439 811 385 799 c
332 787 277 768 221 743 c
221 1493 l

ce} _d
/six{1303 0 143 -29 1174 1520 sc
676 827 m
585 827 513 796 460 734 c
407 672 381 587 381 479 c
381 372 407 287 460 224 c
513 162 585 131 676 131 c
767 131 838 162 891 224 c
944 287 971 372 971 479 c
971 587 944 672 891 734 c
838 796 767 827 676 827 c

1077 1460 m
1077 1276 l
1026 1300 975 1318 923 1331 c
872 1344 821 1350 770 1350 c
637 1350 535 1305 464 1215 c
394 1125 354 989 344 807 c
383 865 433 909 492 940 c
551 971 617 987 688 987 c
838 987 956 941 1043 850 c
1130 759 1174 636 1174 479 c
1174 326 1129 203 1038 110 c
947 17 827 -29 676 -29 c
503 -29 371 37 280 169 c
189 302 143 494 143 745 c
143 981 199 1169 311 1309 c
423 1450 573 1520 762 1520 c
813 1520 864 1515 915 1505 c
967 1495 1021 1480 1077 1460 c

ce} _d
/nine{1303 0 129 -29 1159 1520 sc
225 31 m
225 215 l
276 191 327 173 379 160 c
431 147 482 141 532 141 c
665 141 767 186 837 275 c
908 365 948 501 958 684 c
919 627 870 583 811 552 c
752 521 686 506 614 506 c
465 506 346 551 259 641 c
172 732 129 855 129 1012 c
129 1165 174 1288 265 1381 c
356 1474 476 1520 627 1520 c
800 1520 931 1454 1022 1321 c
1113 1189 1159 997 1159 745 c
1159 510 1103 322 991 181 c
880 41 730 -29 541 -29 c
490 -29 439 -24 387 -14 c
335 -4 281 11 225 31 c

627 664 m
718 664 789 695 842 757 c
895 819 922 904 922 1012 c
922 1119 895 1204 842 1266 c
789 1329 718 1360 627 1360 c
536 1360 464 1329 411 1266 c
358 1204 332 1119 332 1012 c
332 904 358 819 411 757 c
464 695 536 664 627 664 c

ce} _d
/B{1405 0 201 0 1260 1493 sc
403 713 m
403 166 l
727 166 l
836 166 916 188 968 233 c
1021 278 1047 347 1047 440 c
1047 533 1021 602 968 646 c
916 691 836 713 727 713 c
403 713 l

403 1327 m
403 877 l
702 877 l
801 877 874 895 922 932 c
971 969 995 1026 995 1102 c
995 1177 971 1234 922 1271 c
874 1308 801 1327 702 1327 c
403 1327 l

201 1493 m
717 1493 l
871 1493 990 1461 1073 1397 c
1156 1333 1198 1242 1198 1124 c
1198 1033 1177 960 1134 906 c
1091 852 1029 818 946 805 c
1045 784 1122 739 1177 671 c
1232 604 1260 519 1260 418 c
1260 285 1215 182 1124 109 c
1033 36 904 0 737 0 c
201 0 l
201 1493 l

ce} _d
/C{1430 0 115 -29 1319 1520 sc
1319 1378 m
1319 1165 l
1251 1228 1178 1276 1101 1307 c
1024 1338 943 1354 856 1354 c
685 1354 555 1302 464 1197 c
373 1093 328 942 328 745 c
328 548 373 398 464 293 c
555 189 685 137 856 137 c
943 137 1024 153 1101 184 c
1178 215 1251 263 1319 326 c
1319 115 l
1248 67 1173 31 1094 7 c
1015 -17 932 -29 844 -29 c
618 -29 440 40 310 178 c
180 317 115 506 115 745 c
115 985 180 1174 310 1312 c
440 1451 618 1520 844 1520 c
933 1520 1017 1508 1096 1484 c
1175 1461 1250 1425 1319 1378 c

ce} _d
/I{604 0 201 0 403 1493 sc
201 1493 m
403 1493 l
403 0 l
201 0 l
201 1493 l

ce} _d
/N{1532 0 201 0 1331 1493 sc
201 1493 m
473 1493 l
1135 244 l
1135 1493 l
1331 1493 l
1331 0 l
1059 0 l
397 1249 l
397 0 l
201 0 l
201 1493 l

ce} _d
/a{1255 0 123 -29 1069 1147 sc
702 563 m
553 563 450 546 393 512 c
336 478 307 420 307 338 c
307 273 328 221 371 182 c
414 144 473 125 547 125 c
649 125 731 161 792 233 c
854 306 885 402 885 522 c
885 563 l
702 563 l

1069 639 m
1069 0 l
885 0 l
885 170 l
843 102 791 52 728 19 c
665 -13 589 -29 498 -29 c
383 -29 292 3 224 67 c
157 132 123 218 123 326 c
123 452 165 547 249 611 c
334 675 460 707 627 707 c
885 707 l
885 725 l
885 810 857 875 801 921 c
746 968 668 991 567 991 c
503 991 441 983 380 968 c
319 953 261 930 205 899 c
205 1069 l
272 1095 338 1114 401 1127 c
464 1140 526 1147 586 1147 c
748 1147 869 1105 949 1021 c
1029 937 1069 810 1069 639 c

ce} _d
/b{1300 0 186 -29 1188 1556 sc
997 559 m
997 694 969 800 913 877 c
858 954 781 993 684 993 c
587 993 510 954 454 877 c
399 800 371 694 371 559 c
371 424 399 317 454 240 c
510 163 587 125 684 125 c
781 125 858 163 913 240 c
969 317 997 424 997 559 c

371 950 m
410 1017 458 1066 517 1098 c
576 1131 647 1147 729 1147 c
865 1147 975 1093 1060 985 c
1145 877 1188 735 1188 559 c
1188 383 1145 241 1060 133 c
975 25 865 -29 729 -29 c
647 -29 576 -13 517 19 c
458 52 410 101 371 168 c
371 0 l
186 0 l
186 1556 l
371 1556 l
371 950 l

ce} _d
/c{1126 0 113 -29 999 1147 sc
999 1077 m
999 905 l
947 934 895 955 842 969 c
790 984 737 991 684 991 c
565 991 472 953 406 877 c
340 802 307 696 307 559 c
307 422 340 316 406 240 c
472 165 565 127 684 127 c
737 127 790 134 842 148 c
895 163 947 184 999 213 c
999 43 l
948 19 894 1 839 -11 c
784 -23 726 -29 664 -29 c
495 -29 361 24 262 130 c
163 236 113 379 113 559 c
113 742 163 885 263 990 c
364 1095 501 1147 676 1147 c
733 1147 788 1141 842 1129 c
896 1118 948 1100 999 1077 c

ce} _d
/e{1260 0 113 -29 1151 1147 sc
1151 606 m
1151 516 l
305 516 l
313 389 351 293 419 226 c
488 160 583 127 705 127 c
776 127 844 136 910 153 c
977 170 1043 196 1108 231 c
1108 57 l
1042 29 974 8 905 -7 c
836 -22 765 -29 694 -29 c
515 -29 374 23 269 127 c
165 231 113 372 113 549 c
113 732 162 878 261 985 c
360 1093 494 1147 662 1147 c
813 1147 932 1098 1019 1001 c
1107 904 1151 773 1151 606 c

967 660 m
966 761 937 841 882 901 c
827 961 755 991 664 991 c
561 991 479 962 417 904 c
356 846 320 764 311 659 c
967 660 l

ce} _d
/f{721 0 47 0 760 1556 sc
760 1556 m
760 1403 l
584 1403 l
518 1403 472 1390 446 1363 c
421 1336 408 1288 408 1219 c
408 1120 l
711 1120 l
711 977 l
408 977 l
408 0 l
223 0 l
223 977 l
47 977 l
47 1120 l
223 1120 l
223 1198 l
223 1323 252 1413 310 1470 c
368 1527 460 1556 586 1556 c
760 1556 l

ce} _d
/i{569 0 193 0 377 1556 sc
193 1120 m
377 1120 l
377 0 l
193 0 l
193 1120 l

193 1556 m
377 1556 l
377 1323 l
193 1323 l
193 1556 l

ce} _d
/l{569 0 193 0 377 1556 sc
193 1556 m
377 1556 l
377 0 l
193 0 l
193 1556 l

ce} _d
/m{1995 0 186 0 1821 1147 sc
1065 905 m
1111 988 1166 1049 1230 1088 c
1294 1127 1369 1147 1456 1147 c
1573 1147 1663 1106 1726 1024 c
1789 943 1821 827 1821 676 c
1821 0 l
1636 0 l
1636 670 l
1636 777 1617 857 1579 909 c
1541 961 1483 987 1405 987 c
1310 987 1234 955 1179 892 c
1124 829 1096 742 1096 633 c
1096 0 l
911 0 l
911 670 l
911 778 892 858 854 909 c
816 961 757 987 678 987 c
584 987 509 955 454 891 c
399 828 371 742 371 633 c
371 0 l
186 0 l
186 1120 l
371 1120 l
371 946 l
413 1015 463 1065 522 1098 c
581 1131 650 1147 731 1147 c
812 1147 881 1126 938 1085 c
995 1044 1038 984 1065 905 c

ce} _d
/n{1298 0 186 0 1124 1147 sc
1124 676 m
1124 0 l
940 0 l
940 670 l
940 776 919 855 878 908 c
837 961 775 987 692 987 c
593 987 514 955 457 892 c
400 829 371 742 371 633 c
371 0 l
186 0 l
186 1120 l
371 1120 l
371 946 l
415 1013 467 1064 526 1097 c
586 1130 655 1147 733 1147 c
862 1147 959 1107 1025 1027 c
1091 948 1124 831 1124 676 c

ce} _d
/o{1253 0 113 -29 1141 1147 sc
627 991 m
528 991 450 952 393 875 c
336 798 307 693 307 559 c
307 425 335 319 392 242 c
449 165 528 127 627 127 c
725 127 803 166 860 243 c
917 320 946 426 946 559 c
946 692 917 797 860 874 c
803 952 725 991 627 991 c

627 1147 m
787 1147 913 1095 1004 991 c
1095 887 1141 743 1141 559 c
1141 376 1095 232 1004 127 c
913 23 787 -29 627 -29 c
466 -29 340 23 249 127 c
158 232 113 376 113 559 c
113 743 158 887 249 991 c
340 1095 466 1147 627 1147 c

ce} _d
/r{842 0 186 0 842 1147 sc
842 948 m
821 960 799 969 774 974 c
750 980 723 983 694 983 c
590 983 510 949 454 881 c
399 814 371 717 371 590 c
371 0 l
186 0 l
186 1120 l
371 1120 l
371 946 l
410 1014 460 1064 522 1097 c
584 1130 659 1147 748 1147 c
761 1147 775 1146 790 1144 c
805 1143 822 1140 841 1137 c
842 948 l

ce} _d
/s{1067 0 111 -29 967 1147 sc
907 1087 m
907 913 l
855 940 801 960 745 973 c
689 986 631 993 571 993 c
480 993 411 979 365 951 c
320 923 297 881 297 825 c
297 782 313 749 346 724 c
379 700 444 677 543 655 c
606 641 l
737 613 829 573 884 522 c
939 471 967 400 967 309 c
967 205 926 123 843 62 c
761 1 648 -29 504 -29 c
444 -29 381 -23 316 -11 c
251 0 183 18 111 41 c
111 231 l
179 196 246 169 312 151 c
378 134 443 125 508 125 c
595 125 661 140 708 169 c
755 199 778 241 778 295 c
778 345 761 383 727 410 c
694 437 620 462 506 487 c
442 502 l
328 526 246 563 195 612 c
144 662 119 730 119 817 c
119 922 156 1004 231 1061 c
306 1118 412 1147 549 1147 c
617 1147 681 1142 741 1132 c
801 1122 856 1107 907 1087 c

ce} _d
/t{803 0 55 0 754 1438 sc
375 1438 m
375 1120 l
754 1120 l
754 977 l
375 977 l
375 369 l
375 278 387 219 412 193 c
437 167 488 154 565 154 c
754 154 l
754 0 l
565 0 l
423 0 325 26 271 79 c
217 132 190 229 190 369 c
190 977 l
55 977 l
55 1120 l
190 1120 l
190 1438 l
375 1438 l

ce} _d
/u{1298 0 174 -29 1112 1147 sc
174 442 m
174 1120 l
358 1120 l
358 449 l
358 343 379 263 420 210 c
461 157 523 131 606 131 c
705 131 784 163 841 226 c
899 289 928 376 928 485 c
928 1120 l
1112 1120 l
1112 0 l
928 0 l
928 172 l
883 104 831 53 772 20 c
713 -13 645 -29 567 -29 c
438 -29 341 11 274 91 c
207 171 174 288 174 442 c

637 1147 m
637 1147 l

ce} _d
/y{1212 0 61 -426 1151 1120 sc
659 -104 m
607 -237 556 -324 507 -365 c
458 -406 392 -426 309 -426 c
162 -426 l
162 -272 l
270 -272 l
321 -272 360 -260 388 -236 c
416 -212 447 -155 481 -66 c
514 18 l
61 1120 l
256 1120 l
606 244 l
956 1120 l
1151 1120 l
659 -104 l

ce} _d
end readonly def

/BuildGlyph {
 exch begin
 CharStrings exch
 2 copy known not {pop /.notdef} if
 true 3 1 roll get exec
 end
} _d

/BuildChar {
 1 index /Encoding get exch get
 1 index /BuildGlyph get exec
} _d

FontName currentdict end definefont pop
end
%%EndProlog
mpldict begin
91.216 312.206 translate
429.569 167.588 0 0 clipbox
gsave
0 0 m
429.56875 0 l
429.56875 167.5875 l
0 167.5875 l
cl
grestore
gsave
59.66875 43.02375 m
138.516576 43.02375 l
138.516576 124.56375 l
59.66875 124.56375 l
cl
grestore
0.800 setlinewidth
1 setlinejoin
0 setlinecap
[] 0 setdash
0.000 setgray
gsave
/o {
gsave
newpath
translate
0.8 setlinewidth
1 setlinejoin

0 setlinecap

0 0 m
0 -3.5 l

gsave
0.000 setgray
fill
grestore
stroke
grestore
} bind def
63.2527 43.0237 o
grestore
/DejaVuSans 10.000 selectfont
gsave

60.073055 28.430000 translate
0.000000 rotate
0.000000 0 m /two glyphshow
grestore
gsave
/o {
gsave
newpath
translate
0.8 setlinewidth
1 setlinejoin

0 setlinecap

0 0 m
0 -3.5 l

gsave
0.000 setgray
fill
grestore
stroke
grestore
} bind def
99.0927 43.0237 o
grestore
gsave

95.912976 28.430000 translate
0.000000 rotate
0.000000 0 m /four glyphshow
grestore
gsave
/o {
gsave
newpath
translate
0.8 setlinewidth
1 setlinejoin

0 setlinecap

0 0 m
0 -3.5 l

gsave
0.000 setgray
fill
grestore
stroke
grestore
} bind def
134.933 43.0237 o
grestore
gsave

131.752896 28.430000 translate
0.000000 rotate
0.000000 0 m /six glyphshow
grestore
gsave
/o {
gsave
newpath
translate
0.8 setlinewidth
1 setlinejoin

0 setlinecap

-0 0 m
-3.5 0 l

gsave
0.000 setgray
fill
grestore
stroke
grestore
} bind def
59.6688 43.3048 o
grestore
gsave

20.871875 39.507954 translate
0.000000 rotate
0.000000 0 m /one glyphshow
6.362305 0 m /zero glyphshow
12.724609 0 m /zero glyphshow
19.086914 0 m /zero glyphshow
25.449219 0 m /zero glyphshow
grestore
gsave
/o {
gsave
newpath
translate
0.8 setlinewidth
1 setlinejoin

0 setlinecap

-0 0 m
-3.5 0 l

gsave
0.000 setgray
fill
grestore
stroke
grestore
} bind def
59.6688 67.9017 o
grestore
gsave

20.871875 64.104863 translate
0.000000 rotate
0.000000 0 m /one glyphshow
6.362305 0 m /five glyphshow
12.724609 0 m /zero glyphshow
19.086914 0 m /zero glyphshow
25.449219 0 m /zero glyphshow
grestore
gsave
/o {
gsave
newpath
translate
0.8 setlinewidth
1 setlinejoin

0 setlinecap

-0 0 m
-3.5 0 l

gsave
0.000 setgray
fill
grestore
stroke
grestore
} bind def
59.6688 92.4986 o
grestore
gsave

20.871875 88.701772 translate
0.000000 rotate
0.000000 0 m /two glyphshow
6.362305 0 m /zero glyphshow
12.724609 0 m /zero glyphshow
19.086914 0 m /zero glyphshow
25.449219 0 m /zero glyphshow
grestore
gsave
/o {
gsave
newpath
translate
0.8 setlinewidth
1 setlinejoin

0 setlinecap

-0 0 m
-3.5 0 l

gsave
0.000 setgray
fill
grestore
stroke
grestore
} bind def
59.6688 117.096 o
grestore
gsave

20.871875 113.298682 translate
0.000000 rotate
0.000000 0 m /two glyphshow
6.362305 0 m /five glyphshow
12.724609 0 m /zero glyphshow
19.086914 0 m /zero glyphshow
25.449219 0 m /zero glyphshow
grestore
gsave

14.793750 7.200000 translate
90.000000 rotate
0.000000 0 m /B glyphshow
6.860352 0 m /a glyphshow
12.988281 0 m /y glyphshow
18.906250 0 m /e glyphshow
25.058594 0 m /s glyphshow
30.268555 0 m /i glyphshow
33.046875 0 m /a glyphshow
39.174805 0 m /n glyphshow
45.512695 0 m /space glyphshow
48.691406 0 m /I glyphshow
51.640625 0 m /n glyphshow
57.978516 0 m /f glyphshow
61.499023 0 m /o glyphshow
67.617188 0 m /r glyphshow
71.603516 0 m /m glyphshow
81.344727 0 m /a glyphshow
87.472656 0 m /t glyphshow
91.393555 0 m /i glyphshow
94.171875 0 m /o glyphshow
100.290039 0 m /n glyphshow
106.627930 0 m /space glyphshow
109.806641 0 m /C glyphshow
116.789062 0 m /r glyphshow
120.900391 0 m /i glyphshow
123.678711 0 m /t glyphshow
127.599609 0 m /e glyphshow
133.751953 0 m /r glyphshow
137.863281 0 m /i glyphshow
140.641602 0 m /o glyphshow
146.759766 0 m /n glyphshow
grestore
1.500 setlinewidth
2 setlinecap
gsave
78.848 81.54 59.669 43.024 clipbox
63.252742 46.730114 m
81.172703 64.410317 l
99.092663 83.242325 l
117.012624 102.193357 l
134.932584 120.857386 l
stroke
grestore
1.000 setlinewidth
0 setlinecap
gsave
78.848 81.54 59.669 43.024 clipbox
/o {
gsave
newpath
translate
1.0 setlinewidth
1 setlinejoin

0 setlinecap

0 -3 m
0.795609 -3 1.55874 -2.683901 2.12132 -2.12132 c
2.683901 -1.55874 3 -0.795609 3 0 c
3 0.795609 2.683901 1.55874 2.12132 2.12132 c
1.55874 2.683901 0.795609 3 0 3 c
-0.795609 3 -1.55874 2.683901 -2.12132 2.12132 c
-2.683901 1.55874 -3 0.795609 -3 0 c
-3 -0.795609 -2.683901 -1.55874 -2.12132 -2.12132 c
-1.55874 -2.683901 -0.795609 -3 0 -3 c
cl

gsave
0.000 setgray
fill
grestore
stroke
grestore
} bind def
63.2527 46.7301 o
81.1727 64.4103 o
99.0927 83.2423 o
117.013 102.193 o
134.933 120.857 o
grestore
0.800 setlinewidth
0 setlinejoin
2 setlinecap
gsave
59.66875 43.02375 m
59.66875 124.56375 l
stroke
grestore
gsave
138.516576 43.02375 m
138.516576 124.56375 l
stroke
grestore
gsave
59.66875 43.02375 m
138.516576 43.02375 l
stroke
grestore
gsave
59.66875 124.56375 m
138.516576 124.56375 l
stroke
grestore
1.000 setlinewidth
1 setlinejoin
0 setlinecap
gsave
78.848 81.54 59.669 43.024 clipbox
/o {
gsave
newpath
translate
1.0 setlinewidth
1 setlinejoin

0 setlinecap

0 7.071068 m
-2.078135 2.860307 l
-6.724985 2.18508 l
-3.362493 -1.09254 l
-4.156269 -5.720614 l
-0 -3.535534 l
4.156269 -5.720614 l
3.362493 -1.09254 l
6.724985 2.18508 l
2.078135 2.860307 l
cl

gsave
1.000 1.000 0.000 setrgbcolor
fill
grestore
stroke
grestore
} bind def
63.2527 46.7301 o
grestore
gsave
154.286141 43.02375 m
233.133967 43.02375 l
233.133967 124.56375 l
154.286141 124.56375 l
cl
grestore
0.800 setlinewidth
gsave
/o {
gsave
newpath
translate
0.8 setlinewidth
1 setlinejoin

0 setlinecap

0 0 m
0 -3.5 l

gsave
0.000 setgray
fill
grestore
stroke
grestore
} bind def
157.87 43.0237 o
grestore
gsave

154.690446 28.430000 translate
0.000000 rotate
0.000000 0 m /two glyphshow
grestore
gsave
/o {
gsave
newpath
translate
0.8 setlinewidth
1 setlinejoin

0 setlinecap

0 0 m
0 -3.5 l

gsave
0.000 setgray
fill
grestore
stroke
grestore
} bind def
193.71 43.0237 o
grestore
gsave

190.530367 28.430000 translate
0.000000 rotate
0.000000 0 m /four glyphshow
grestore
gsave
/o {
gsave
newpath
translate
0.8 setlinewidth
1 setlinejoin

0 setlinecap

0 0 m
0 -3.5 l

gsave
0.000 setgray
fill
grestore
stroke
grestore
} bind def
229.55 43.0237 o
grestore
gsave

226.370288 28.430000 translate
0.000000 rotate
0.000000 0 m /six glyphshow
grestore
gsave

145.983492 14.758125 translate
0.000000 rotate
0.000000 0 m /N glyphshow
7.480469 0 m /u glyphshow
13.818359 0 m /m glyphshow
23.559570 0 m /b glyphshow
29.907227 0 m /e glyphshow
36.059570 0 m /r glyphshow
40.170898 0 m /space glyphshow
43.349609 0 m /o glyphshow
49.467773 0 m /f glyphshow
52.988281 0 m /space glyphshow
56.166992 0 m /c glyphshow
61.665039 0 m /l glyphshow
64.443359 0 m /u glyphshow
70.781250 0 m /s glyphshow
75.991211 0 m /t glyphshow
79.912109 0 m /e glyphshow
86.064453 0 m /r glyphshow
90.175781 0 m /s glyphshow
grestore
gsave
/o {
gsave
newpath
translate
0.8 setlinewidth
1 setlinejoin

0 setlinecap

-0 0 m
-3.5 0 l

gsave
0.000 setgray
fill
grestore
stroke
grestore
} bind def
154.286 43.5263 o
grestore
gsave

115.489266 39.729461 translate
0.000000 rotate
0.000000 0 m /one glyphshow
6.362305 0 m /zero glyphshow
12.724609 0 m /zero glyphshow
19.086914 0 m /zero glyphshow
25.449219 0 m /zero glyphshow
grestore
gsave
/o {
gsave
newpath
translate
0.8 setlinewidth
1 setlinejoin

0 setlinecap

-0 0 m
-3.5 0 l

gsave
0.000 setgray
fill
grestore
stroke
grestore
} bind def
154.286 68.222 o
grestore
gsave

115.489266 64.425116 translate
0.000000 rotate
0.000000 0 m /one glyphshow
6.362305 0 m /five glyphshow
12.724609 0 m /zero glyphshow
19.086914 0 m /zero glyphshow
25.449219 0 m /zero glyphshow
grestore
gsave
/o {
gsave
newpath
translate
0.8 setlinewidth
1 setlinejoin

0 setlinecap

-0 0 m
-3.5 0 l

gsave
0.000 setgray
fill
grestore
stroke
grestore
} bind def
154.286 92.9176 o
grestore
gsave

115.489266 89.120771 translate
0.000000 rotate
0.000000 0 m /two glyphshow
6.362305 0 m /zero glyphshow
12.724609 0 m /zero glyphshow
19.086914 0 m /zero glyphshow
25.449219 0 m /zero glyphshow
grestore
gsave
/o {
gsave
newpath
translate
0.8 setlinewidth
1 setlinejoin

0 setlinecap

-0 0 m
-3.5 0 l

gsave
0.000 setgray
fill
grestore
stroke
grestore
} bind def
154.286 117.613 o
grestore
gsave

115.489266 113.816426 translate
0.000000 rotate
0.000000 0 m /two glyphshow
6.362305 0 m /five glyphshow
12.724609 0 m /zero glyphshow
19.086914 0 m /zero glyphshow
25.449219 0 m /zero glyphshow
grestore
1.500 setlinewidth
2 setlinecap
gsave
78.848 81.54 154.286 43.024 clipbox
157.870133 46.730114 m
175.790094 64.244866 l
193.710054 83.146978 l
211.630015 102.150691 l
229.549975 120.857386 l
stroke
grestore
1.000 setlinewidth
0 setlinecap
gsave
78.848 81.54 154.286 43.024 clipbox
/o {
gsave
newpath
translate
1.0 setlinewidth
1 setlinejoin

0 setlinecap

0 -3 m
0.795609 -3 1.55874 -2.683901 2.12132 -2.12132 c
2.683901 -1.55874 3 -0.795609 3 0 c
3 0.795609 2.683901 1.55874 2.12132 2.12132 c
1.55874 2.683901 0.795609 3 0 3 c
-0.795609 3 -1.55874 2.683901 -2.12132 2.12132 c
-2.683901 1.55874 -3 0.795609 -3 0 c
-3 -0.795609 -2.683901 -1.55874 -2.12132 -2.12132 c
-1.55874 -2.683901 -0.795609 -3 0 -3 c
cl

gsave
0.000 setgray
fill
grestore
stroke
grestore
} bind def
157.87 46.7301 o
175.79 64.2449 o
193.71 83.147 o
211.63 102.151 o
229.55 120.857 o
grestore
0.800 setlinewidth
0 setlinejoin
2 setlinecap
gsave
154.286141 43.02375 m
154.286141 124.56375 l
stroke
grestore
gsave
233.133967 43.02375 m
233.133967 124.56375 l
stroke
grestore
gsave
154.286141 43.02375 m
233.133967 43.02375 l
stroke
grestore
gsave
154.286141 124.56375 m
233.133967 124.56375 l
stroke
grestore
1.000 setlinewidth
1 setlinejoin
0 setlinecap
gsave
78.848 81.54 154.286 43.024 clipbox
/o {
gsave
newpath
translate
1.0 setlinewidth
1 setlinejoin

0 setlinecap

0 7.071068 m
-2.078135 2.860307 l
-6.724985 2.18508 l
-3.362493 -1.09254 l
-4.156269 -5.720614 l
-0 -3.535534 l
4.156269 -5.720614 l
3.362493 -1.09254 l
6.724985 2.18508 l
2.078135 2.860307 l
cl

gsave
1.000 1.000 0.000 setrgbcolor
fill
grestore
stroke
grestore
} bind def
157.87 46.7301 o
grestore
gsave
248.903533 43.02375 m
327.751359 43.02375 l
327.751359 124.56375 l
248.903533 124.56375 l
cl
grestore
0.800 setlinewidth
gsave
/o {
gsave
newpath
translate
0.8 setlinewidth
1 setlinejoin

0 setlinecap

0 0 m
0 -3.5 l

gsave
0.000 setgray
fill
grestore
stroke
grestore
} bind def
252.488 43.0237 o
grestore
gsave

249.307837 28.430000 translate
0.000000 rotate
0.000000 0 m /two glyphshow
grestore
gsave
/o {
gsave
newpath
translate
0.8 setlinewidth
1 setlinejoin

0 setlinecap

0 0 m
0 -3.5 l

gsave
0.000 setgray
fill
grestore
stroke
grestore
} bind def
288.327 43.0237 o
grestore
gsave

285.147758 28.430000 translate
0.000000 rotate
0.000000 0 m /four glyphshow
grestore
gsave
/o {
gsave
newpath
translate
0.8 setlinewidth
1 setlinejoin

0 setlinecap

0 0 m
0 -3.5 l

gsave
0.000 setgray
fill
grestore
stroke
grestore
} bind def
324.167 43.0237 o
grestore
gsave

320.987679 28.430000 translate
0.000000 rotate
0.000000 0 m /six glyphshow
grestore
gsave
/o {
gsave
newpath
translate
0.8 setlinewidth
1 setlinejoin

0 setlinecap

-0 0 m
-3.5 0 l

gsave
0.000 setgray
fill
grestore
stroke
grestore
} bind def
248.904 58.3263 o
grestore
gsave

222.825408 54.529455 translate
0.000000 rotate
0.000000 0 m /four glyphshow
6.362305 0 m /nine glyphshow
12.724609 0 m /zero glyphshow
grestore
gsave
/o {
gsave
newpath
translate
0.8 setlinewidth
1 setlinejoin

0 setlinecap

-0 0 m
-3.5 0 l

gsave
0.000 setgray
fill
grestore
stroke
grestore
} bind def
248.904 80.5317 o
grestore
gsave

222.825408 76.734803 translate
0.000000 rotate
0.000000 0 m /five glyphshow
6.362305 0 m /zero glyphshow
12.724609 0 m /zero glyphshow
grestore
gsave
/o {
gsave
newpath
translate
0.8 setlinewidth
1 setlinejoin

0 setlinecap

-0 0 m
-3.5 0 l

gsave
0.000 setgray
fill
grestore
stroke
grestore
} bind def
248.904 102.737 o
grestore
gsave

222.825408 98.940150 translate
0.000000 rotate
0.000000 0 m /five glyphshow
6.362305 0 m /one glyphshow
12.724609 0 m /zero glyphshow
grestore
1.500 setlinewidth
2 setlinecap
gsave
78.848 81.54 248.904 43.024 clipbox
252.487525 120.857386 m
270.407485 106.500602 l
288.327446 66.858616 l
306.247406 46.730114 l
324.167367 103.125344 l
stroke
grestore
1.000 setlinewidth
0 setlinecap
gsave
78.848 81.54 248.904 43.024 clipbox
/o {
gsave
newpath
translate
1.0 setlinewidth
1 setlinejoin

0 setlinecap

0 -3 m
0.795609 -3 1.55874 -2.683901 2.12132 -2.12132 c
2.683901 -1.55874 3 -0.795609 3 0 c
3 0.795609 2.683901 1.55874 2.12132 2.12132 c
1.55874 2.683901 0.795609 3 0 3 c
-0.795609 3 -1.55874 2.683901 -2.12132 2.12132 c
-2.683901 1.55874 -3 0.795609 -3 0 c
-3 -0.795609 -2.683901 -1.55874 -2.12132 -2.12132 c
-1.55874 -2.683901 -0.795609 -3 0 -3 c
cl

gsave
0.000 setgray
fill
grestore
stroke
grestore
} bind def
252.488 120.857 o
270.407 106.501 o
288.327 66.8586 o
306.247 46.7301 o
324.167 103.125 o
grestore
0.800 setlinewidth
0 setlinejoin
2 setlinecap
gsave
248.903533 43.02375 m
248.903533 124.56375 l
stroke
grestore
gsave
327.751359 43.02375 m
327.751359 124.56375 l
stroke
grestore
gsave
248.903533 43.02375 m
327.751359 43.02375 l
stroke
grestore
gsave
248.903533 124.56375 m
327.751359 124.56375 l
stroke
grestore
1.000 setlinewidth
1 setlinejoin
0 setlinecap
gsave
78.848 81.54 248.904 43.024 clipbox
/o {
gsave
newpath
translate
1.0 setlinewidth
1 setlinejoin

0 setlinecap

0 7.071068 m
-2.078135 2.860307 l
-6.724985 2.18508 l
-3.362493 -1.09254 l
-4.156269 -5.720614 l
-0 -3.535534 l
4.156269 -5.720614 l
3.362493 -1.09254 l
6.724985 2.18508 l
2.078135 2.860307 l
cl

gsave
1.000 1.000 0.000 setrgbcolor
fill
grestore
stroke
grestore
} bind def
306.247 46.7301 o
grestore
gsave
343.520924 43.02375 m
422.36875 43.02375 l
422.36875 124.56375 l
343.520924 124.56375 l
cl
grestore
0.800 setlinewidth
gsave
/o {
gsave
newpath
translate
0.8 setlinewidth
1 setlinejoin

0 setlinecap

0 0 m
0 -3.5 l

gsave
0.000 setgray
fill
grestore
stroke
grestore
} bind def
347.105 43.0237 o
grestore
gsave

343.925229 28.430000 translate
0.000000 rotate
0.000000 0 m /two glyphshow
grestore
gsave
/o {
gsave
newpath
translate
0.8 setlinewidth
1 setlinejoin

0 setlinecap

0 0 m
0 -3.5 l

gsave
0.000 setgray
fill
grestore
stroke
grestore
} bind def
382.945 43.0237 o
grestore
gsave

379.765149 28.430000 translate
0.000000 rotate
0.000000 0 m /four glyphshow
grestore
gsave
/o {
gsave
newpath
translate
0.8 setlinewidth
1 setlinejoin

0 setlinecap

0 0 m
0 -3.5 l

gsave
0.000 setgray
fill
grestore
stroke
grestore
} bind def
418.785 43.0237 o
grestore
gsave

415.605070 28.430000 translate
0.000000 rotate
0.000000 0 m /six glyphshow
grestore
gsave
/o {
gsave
newpath
translate
0.8 setlinewidth
1 setlinejoin

0 setlinecap

-0 0 m
-3.5 0 l

gsave
0.000 setgray
fill
grestore
stroke
grestore
} bind def
343.521 63.063 o
grestore
gsave

317.442799 59.266106 translate
0.000000 rotate
0.000000 0 m /nine glyphshow
6.362305 0 m /zero glyphshow
12.724609 0 m /zero glyphshow
grestore
gsave
/o {
gsave
newpath
translate
0.8 setlinewidth
1 setlinejoin

0 setlinecap

-0 0 m
-3.5 0 l

gsave
0.000 setgray
fill
grestore
stroke
grestore
} bind def
343.521 86.5431 o
grestore
gsave

311.083424 82.746200 translate
0.000000 rotate
0.000000 0 m /one glyphshow
6.362305 0 m /zero glyphshow
12.724609 0 m /zero glyphshow
19.086914 0 m /zero glyphshow
grestore
gsave
/o {
gsave
newpath
translate
0.8 setlinewidth
1 setlinejoin

0 setlinecap

-0 0 m
-3.5 0 l

gsave
0.000 setgray
fill
grestore
stroke
grestore
} bind def
343.521 110.023 o
grestore
gsave

311.083424 106.226294 translate
0.000000 rotate
0.000000 0 m /one glyphshow
6.362305 0 m /one glyphshow
12.724609 0 m /zero glyphshow
19.086914 0 m /zero glyphshow
grestore
1.500 setlinewidth
2 setlinecap
gsave
78.848 81.54 343.521 43.024 clipbox
347.104916 50.300392 m
365.024876 46.730114 l
382.944837 71.758227 l
400.864797 97.00573 l
418.784758 120.857386 l
stroke
grestore
1.000 setlinewidth
0 setlinecap
gsave
78.848 81.54 343.521 43.024 clipbox
/o {
gsave
newpath
translate
1.0 setlinewidth
1 setlinejoin

0 setlinecap

0 -3 m
0.795609 -3 1.55874 -2.683901 2.12132 -2.12132 c
2.683901 -1.55874 3 -0.795609 3 0 c
3 0.795609 2.683901 1.55874 2.12132 2.12132 c
1.55874 2.683901 0.795609 3 0 3 c
-0.795609 3 -1.55874 2.683901 -2.12132 2.12132 c
-2.683901 1.55874 -3 0.795609 -3 0 c
-3 -0.795609 -2.683901 -1.55874 -2.12132 -2.12132 c
-1.55874 -2.683901 -0.795609 -3 0 -3 c
cl

gsave
0.000 setgray
fill
grestore
stroke
grestore
} bind def
347.105 50.3004 o
365.025 46.7301 o
382.945 71.7582 o
400.865 97.0057 o
418.785 120.857 o
grestore
0.800 setlinewidth
0 setlinejoin
2 setlinecap
gsave
343.520924 43.02375 m
343.520924 124.56375 l
stroke
grestore
gsave
422.36875 43.02375 m
422.36875 124.56375 l
stroke
grestore
gsave
343.520924 43.02375 m
422.36875 43.02375 l
stroke
grestore
gsave
343.520924 124.56375 m
422.36875 124.56375 l
stroke
grestore
1.000 setlinewidth
1 setlinejoin
0 setlinecap
gsave
78.848 81.54 343.521 43.024 clipbox
/o {
gsave
newpath
translate
1.0 setlinewidth
1 setlinejoin

0 setlinecap

0 7.071068 m
-2.078135 2.860307 l
-6.724985 2.18508 l
-3.362493 -1.09254 l
-4.156269 -5.720614 l
-0 -3.535534 l
4.156269 -5.720614 l
3.362493 -1.09254 l
6.724985 2.18508 l
2.078135 2.860307 l
cl

gsave
1.000 1.000 0.000 setrgbcolor
fill
grestore
stroke
grestore
} bind def
365.025 46.7301 o
grestore

end
showpage
