%!PS-Adobe-3.0 EPSF-3.0
%%Title: ../Figures/ClassHistograms.eps
%%Creator: matplotlib version 3.1.1, http://matplotlib.org/
%%CreationDate: Wed Nov 17 16:21:51 2021
%%Orientation: portrait
%%BoundingBox: 124.8265625 335.17618749999997 487.1734375 456.8238125
%%EndComments
%%BeginProlog
/mpldict 8 dict def
mpldict begin
/m { moveto } bind def
/l { lineto } bind def
/r { rlineto } bind def
/c { curveto } bind def
/cl { closepath } bind def
/box {
m
1 index 0 r
0 exch r
neg 0 r
cl
} bind def
/clipbox {
box
clip
newpath
} bind def
%!PS-Adobe-3.0 Resource-Font
%%Title: DejaVu Sans
%%Copyright: Copyright (c) 2003 by Bitstream, Inc. All Rights Reserved. Copyright (c) 2006 by Tavmjong Bah. All Rights Reserved. DejaVu changes are in public domain 
%%Creator: Converted from TrueType to type 3 by PPR
25 dict begin
/_d{bind def}bind def
/_m{moveto}_d
/_l{lineto}_d
/_cl{closepath eofill}_d
/_c{curveto}_d
/_sc{7 -1 roll{setcachedevice}{pop pop pop pop pop pop}ifelse}_d
/_e{exec}_d
/FontName /DejaVuSans def
/PaintType 0 def
/FontMatrix[.001 0 0 .001 0 0]def
/FontBBox[-1021 -463 1793 1232]def
/FontType 3 def
/Encoding [ /space /zero /one /two /five /C /I /P /a /c /e /i /l /n /o /r /s /t /u ] def
/FontInfo 10 dict dup begin
/FamilyName (DejaVu Sans) def
/FullName (DejaVu Sans) def
/Notice (Copyright (c) 2003 by Bitstream, Inc. All Rights Reserved. Copyright (c) 2006 by Tavmjong Bah. All Rights Reserved. DejaVu changes are in public domain ) def
/Weight (Book) def
/Version (Version 2.35) def
/ItalicAngle 0.0 def
/isFixedPitch false def
/UnderlinePosition -130 def
/UnderlineThickness 90 def
end readonly def
/CharStrings 20 dict dup begin
/.notdef 0 def
/space{318 0 0 0 0 0 _sc
}_d
/zero{636 0 66 -13 570 742 _sc
318 664 _m
267 664 229 639 203 589 _c
177 539 165 464 165 364 _c
165 264 177 189 203 139 _c
229 89 267 64 318 64 _c
369 64 407 89 433 139 _c
458 189 471 264 471 364 _c
471 464 458 539 433 589 _c
407 639 369 664 318 664 _c
318 742 _m
399 742 461 709 505 645 _c
548 580 570 486 570 364 _c
570 241 548 147 505 83 _c
461 19 399 -13 318 -13 _c
236 -13 173 19 130 83 _c
87 147 66 241 66 364 _c
66 486 87 580 130 645 _c
173 709 236 742 318 742 _c
_cl}_d
/one{636 0 110 0 544 729 _sc
124 83 _m
285 83 _l
285 639 _l
110 604 _l
110 694 _l
284 729 _l
383 729 _l
383 83 _l
544 83 _l
544 0 _l
124 0 _l
124 83 _l
_cl}_d
/two{{636 0 73 0 536 742 _sc
192 83 _m
536 83 _l
536 0 _l
73 0 _l
73 83 _l
110 121 161 173 226 239 _c
290 304 331 346 348 365 _c
380 400 402 430 414 455 _c
426 479 433 504 433 528 _c
433 566 419 598 392 622 _c
365 646 330 659 286 659 _c
255 659 222 653 188 643 _c
154 632 117 616 78 594 _c
78 694 _l
118 710 155 722 189 730 _c
223 738 255 742 284 742 _c
}_e{359 742 419 723 464 685 _c
509 647 532 597 532 534 _c
532 504 526 475 515 449 _c
504 422 484 390 454 354 _c
446 344 420 317 376 272 _c
332 227 271 164 192 83 _c
_cl}_e}_d
/five{{636 0 77 -13 549 729 _sc
108 729 _m
495 729 _l
495 646 _l
198 646 _l
198 467 _l
212 472 227 476 241 478 _c
255 480 270 482 284 482 _c
365 482 429 459 477 415 _c
525 370 549 310 549 234 _c
549 155 524 94 475 51 _c
426 8 357 -13 269 -13 _c
238 -13 207 -10 175 -6 _c
143 -1 111 6 77 17 _c
77 116 _l
106 100 136 88 168 80 _c
199 72 232 69 267 69 _c
}_e{323 69 368 83 401 113 _c
433 143 450 183 450 234 _c
450 284 433 324 401 354 _c
368 384 323 399 267 399 _c
241 399 214 396 188 390 _c
162 384 135 375 108 363 _c
108 729 _l
_cl}_e}_d
/C{{698 0 56 -13 644 742 _sc
644 673 _m
644 569 _l
610 599 575 622 537 638 _c
499 653 460 661 418 661 _c
334 661 270 635 226 584 _c
182 533 160 460 160 364 _c
160 268 182 194 226 143 _c
270 92 334 67 418 67 _c
460 67 499 74 537 90 _c
575 105 610 128 644 159 _c
644 56 _l
609 32 572 15 534 4 _c
496 -7 455 -13 412 -13 _c
302 -13 215 20 151 87 _c
}_e{87 154 56 246 56 364 _c
56 481 87 573 151 641 _c
215 708 302 742 412 742 _c
456 742 497 736 535 725 _c
573 713 610 696 644 673 _c
_cl}_e}_d
/I{295 0 98 0 197 729 _sc
98 729 _m
197 729 _l
197 0 _l
98 0 _l
98 729 _l
_cl}_d
/P{603 0 98 0 569 729 _sc
197 648 _m
197 374 _l
321 374 _l
367 374 402 385 427 409 _c
452 433 465 467 465 511 _c
465 555 452 588 427 612 _c
402 636 367 648 321 648 _c
197 648 _l
98 729 _m
321 729 _l
402 729 464 710 506 673 _c
548 636 569 582 569 511 _c
569 439 548 384 506 348 _c
464 311 402 293 321 293 _c
197 293 _l
197 0 _l
98 0 _l
98 729 _l
_cl}_d
/a{{613 0 60 -13 522 560 _sc
343 275 _m
270 275 220 266 192 250 _c
164 233 150 205 150 165 _c
150 133 160 107 181 89 _c
202 70 231 61 267 61 _c
317 61 357 78 387 114 _c
417 149 432 196 432 255 _c
432 275 _l
343 275 _l
522 312 _m
522 0 _l
432 0 _l
432 83 _l
411 49 385 25 355 10 _c
325 -5 287 -13 243 -13 _c
187 -13 142 2 109 33 _c
76 64 60 106 60 159 _c
}_e{60 220 80 266 122 298 _c
163 329 224 345 306 345 _c
432 345 _l
432 354 _l
432 395 418 427 391 450 _c
364 472 326 484 277 484 _c
245 484 215 480 185 472 _c
155 464 127 453 100 439 _c
100 522 _l
132 534 164 544 195 550 _c
226 556 256 560 286 560 _c
365 560 424 539 463 498 _c
502 457 522 395 522 312 _c
_cl}_e}_d
/c{{550 0 55 -13 488 560 _sc
488 526 _m
488 442 _l
462 456 437 466 411 473 _c
385 480 360 484 334 484 _c
276 484 230 465 198 428 _c
166 391 150 339 150 273 _c
150 206 166 154 198 117 _c
230 80 276 62 334 62 _c
360 62 385 65 411 72 _c
437 79 462 90 488 104 _c
488 21 _l
462 9 436 0 410 -5 _c
383 -10 354 -13 324 -13 _c
242 -13 176 12 128 64 _c
}_e{79 115 55 185 55 273 _c
55 362 79 432 128 483 _c
177 534 244 560 330 560 _c
358 560 385 557 411 551 _c
437 545 463 537 488 526 _c
_cl}_e}_d
/e{{615 0 55 -13 562 560 _sc
562 296 _m
562 252 _l
149 252 _l
153 190 171 142 205 110 _c
238 78 284 62 344 62 _c
378 62 412 66 444 74 _c
476 82 509 95 541 113 _c
541 28 _l
509 14 476 3 442 -3 _c
408 -9 373 -13 339 -13 _c
251 -13 182 12 131 62 _c
80 112 55 181 55 268 _c
55 357 79 428 127 481 _c
175 533 241 560 323 560 _c
397 560 455 536 498 489 _c
}_e{540 441 562 377 562 296 _c
472 322 _m
471 371 457 410 431 440 _c
404 469 368 484 324 484 _c
274 484 234 469 204 441 _c
174 413 156 373 152 322 _c
472 322 _l
_cl}_e}_d
/i{278 0 94 0 184 760 _sc
94 547 _m
184 547 _l
184 0 _l
94 0 _l
94 547 _l
94 760 _m
184 760 _l
184 646 _l
94 646 _l
94 760 _l
_cl}_d
/l{278 0 94 0 184 760 _sc
94 760 _m
184 760 _l
184 0 _l
94 0 _l
94 760 _l
_cl}_d
/n{634 0 91 0 549 560 _sc
549 330 _m
549 0 _l
459 0 _l
459 327 _l
459 379 448 417 428 443 _c
408 469 378 482 338 482 _c
289 482 251 466 223 435 _c
195 404 181 362 181 309 _c
181 0 _l
91 0 _l
91 547 _l
181 547 _l
181 462 _l
202 494 227 519 257 535 _c
286 551 320 560 358 560 _c
420 560 468 540 500 501 _c
532 462 549 405 549 330 _c
_cl}_d
/o{612 0 55 -13 557 560 _sc
306 484 _m
258 484 220 465 192 427 _c
164 389 150 338 150 273 _c
150 207 163 156 191 118 _c
219 80 257 62 306 62 _c
354 62 392 80 420 118 _c
448 156 462 207 462 273 _c
462 337 448 389 420 427 _c
392 465 354 484 306 484 _c
306 560 _m
384 560 445 534 490 484 _c
534 433 557 363 557 273 _c
557 183 534 113 490 63 _c
445 12 384 -13 306 -13 _c
227 -13 165 12 121 63 _c
77 113 55 183 55 273 _c
55 363 77 433 121 484 _c
165 534 227 560 306 560 _c
_cl}_d
/r{411 0 91 0 411 560 _sc
411 463 _m
401 469 390 473 378 476 _c
366 478 353 480 339 480 _c
288 480 249 463 222 430 _c
194 397 181 350 181 288 _c
181 0 _l
91 0 _l
91 547 _l
181 547 _l
181 462 _l
199 495 224 520 254 536 _c
284 552 321 560 365 560 _c
371 560 378 559 386 559 _c
393 558 401 557 411 555 _c
411 463 _l
_cl}_d
/s{{521 0 54 -13 472 560 _sc
443 531 _m
443 446 _l
417 458 391 468 364 475 _c
336 481 308 485 279 485 _c
234 485 200 478 178 464 _c
156 450 145 430 145 403 _c
145 382 153 366 169 354 _c
185 342 217 330 265 320 _c
296 313 _l
360 299 405 279 432 255 _c
458 230 472 195 472 151 _c
472 100 452 60 412 31 _c
372 1 316 -13 246 -13 _c
216 -13 186 -10 154 -5 _c
}_e{122 0 89 8 54 20 _c
54 113 _l
87 95 120 82 152 74 _c
184 65 216 61 248 61 _c
290 61 323 68 346 82 _c
368 96 380 117 380 144 _c
380 168 371 187 355 200 _c
339 213 303 226 247 238 _c
216 245 _l
160 257 119 275 95 299 _c
70 323 58 356 58 399 _c
58 450 76 490 112 518 _c
148 546 200 560 268 560 _c
301 560 332 557 362 552 _c
391 547 418 540 443 531 _c
}_e{_cl}_e}_d
/t{392 0 27 0 368 702 _sc
183 702 _m
183 547 _l
368 547 _l
368 477 _l
183 477 _l
183 180 _l
183 135 189 106 201 94 _c
213 81 238 75 276 75 _c
368 75 _l
368 0 _l
276 0 _l
206 0 158 13 132 39 _c
106 65 93 112 93 180 _c
93 477 _l
27 477 _l
27 547 _l
93 547 _l
93 702 _l
183 702 _l
_cl}_d
/u{634 0 85 -13 543 560 _sc
85 216 _m
85 547 _l
175 547 _l
175 219 _l
175 167 185 129 205 103 _c
225 77 255 64 296 64 _c
344 64 383 79 411 110 _c
439 141 453 183 453 237 _c
453 547 _l
543 547 _l
543 0 _l
453 0 _l
453 84 _l
431 50 405 26 377 10 _c
348 -5 315 -13 277 -13 _c
214 -13 166 6 134 45 _c
101 83 85 140 85 216 _c
311 560 _m
311 560 _l
_cl}_d
end readonly def

/BuildGlyph
 {exch begin
 CharStrings exch
 2 copy known not{pop /.notdef}if
 true 3 1 roll get exec
 end}_d

/BuildChar {
 1 index /Encoding get exch get
 1 index /BuildGlyph get exec
}_d

FontName currentdict end definefont pop
end
%%EndProlog
mpldict begin
124.827 335.176 translate
362.347 121.648 0 0 clipbox
gsave
-0 0 m
362.346875 0 l
362.346875 121.647625 l
-0 121.647625 l
cl
grestore
gsave
43.153125 35.621875 m
133.417831 35.621875 l
133.417831 100.853875 l
43.153125 100.853875 l
cl
grestore
gsave
90.26 65.23 43.15 35.62 clipbox
43.153125 35.621875 m
52.179596 35.621875 l
52.179596 86.763763 l
43.153125 86.763763 l
cl
0.122 0.467 0.706 setrgbcolor
fill
grestore
gsave
90.26 65.23 43.15 35.62 clipbox
52.179596 35.621875 m
61.206066 35.621875 l
61.206066 50.233843 l
52.179596 50.233843 l
cl
0.122 0.467 0.706 setrgbcolor
fill
grestore
gsave
90.26 65.23 43.15 35.62 clipbox
61.206066 35.621875 m
70.232537 35.621875 l
70.232537 48.407347 l
61.206066 48.407347 l
cl
0.122 0.467 0.706 setrgbcolor
fill
grestore
gsave
90.26 65.23 43.15 35.62 clipbox
70.232537 35.621875 m
79.259007 35.621875 l
79.259007 39.274867 l
70.232537 39.274867 l
cl
0.122 0.467 0.706 setrgbcolor
fill
grestore
gsave
90.26 65.23 43.15 35.62 clipbox
79.259007 35.621875 m
88.285478 35.621875 l
88.285478 37.709299 l
79.259007 37.709299 l
cl
0.122 0.467 0.706 setrgbcolor
fill
grestore
gsave
90.26 65.23 43.15 35.62 clipbox
88.285478 35.621875 m
97.311949 35.621875 l
97.311949 36.665587 l
88.285478 36.665587 l
cl
0.122 0.467 0.706 setrgbcolor
fill
grestore
gsave
90.26 65.23 43.15 35.62 clipbox
97.311949 35.621875 m
106.338419 35.621875 l
106.338419 35.621875 l
97.311949 35.621875 l
cl
0.122 0.467 0.706 setrgbcolor
fill
grestore
gsave
90.26 65.23 43.15 35.62 clipbox
106.338419 35.621875 m
115.36489 35.621875 l
115.36489 35.621875 l
106.338419 35.621875 l
cl
0.122 0.467 0.706 setrgbcolor
fill
grestore
gsave
90.26 65.23 43.15 35.62 clipbox
115.36489 35.621875 m
124.39136 35.621875 l
124.39136 35.621875 l
115.36489 35.621875 l
cl
0.122 0.467 0.706 setrgbcolor
fill
grestore
gsave
90.26 65.23 43.15 35.62 clipbox
124.39136 35.621875 m
133.417831 35.621875 l
133.417831 35.621875 l
124.39136 35.621875 l
cl
0.122 0.467 0.706 setrgbcolor
fill
grestore
0.800 setlinewidth
1 setlinejoin
0 setlinecap
[] 0 setdash
0.000 setgray
gsave
/o {
gsave
newpath
translate
0.8 setlinewidth
1 setlinejoin
0 setlinecap
0 0 m
0 -3.5 l

gsave
0.000 setgray
fill
grestore
stroke
grestore
} bind def
43.1531 35.6219 o
grestore
/DejaVuSans findfont
8.000 scalefont
setfont
gsave
40.606250 22.543750 translate
0.000000 rotate
0.000000 0.000000 m /zero glyphshow
grestore
gsave
/o {
gsave
newpath
translate
0.8 setlinewidth
1 setlinejoin
0 setlinecap
0 0 m
0 -3.5 l

gsave
0.000 setgray
fill
grestore
stroke
grestore
} bind def
88.2855 35.6219 o
grestore
gsave
85.738603 22.543750 translate
0.000000 rotate
0.000000 0.000000 m /five glyphshow
grestore
gsave
/o {
gsave
newpath
translate
0.8 setlinewidth
1 setlinejoin
0 setlinecap
0 0 m
0 -3.5 l

gsave
0.000 setgray
fill
grestore
stroke
grestore
} bind def
133.418 35.6219 o
grestore
gsave
128.324081 22.543750 translate
0.000000 rotate
0.000000 0.000000 m /one glyphshow
5.089844 0.000000 m /zero glyphshow
grestore
gsave
/o {
gsave
newpath
translate
0.8 setlinewidth
1 setlinejoin
0 setlinecap
0 0 m
-3.5 0 l

gsave
0.000 setgray
fill
grestore
stroke
grestore
} bind def
43.1531 35.6219 o
grestore
gsave
31.059375 32.582813 translate
0.000000 rotate
0.000000 0.000000 m /zero glyphshow
grestore
gsave
/o {
gsave
newpath
translate
0.8 setlinewidth
1 setlinejoin
0 setlinecap
0 0 m
-3.5 0 l

gsave
0.000 setgray
fill
grestore
stroke
grestore
} bind def
43.1531 61.7147 o
grestore
gsave
20.871875 58.675612 translate
0.000000 rotate
0.000000 0.000000 m /one glyphshow
5.089844 0.000000 m /zero glyphshow
10.179688 0.000000 m /zero glyphshow
grestore
gsave
/o {
gsave
newpath
translate
0.8 setlinewidth
1 setlinejoin
0 setlinecap
0 0 m
-3.5 0 l

gsave
0.000 setgray
fill
grestore
stroke
grestore
} bind def
43.1531 87.8075 o
grestore
gsave
20.871875 84.768413 translate
0.000000 rotate
0.000000 0.000000 m /two glyphshow
5.089844 0.000000 m /zero glyphshow
10.179688 0.000000 m /zero glyphshow
grestore
/DejaVuSans findfont
10.000 scalefont
setfont
gsave
14.793750 53.378500 translate
90.000000 rotate
0.000000 0.000000 m /C glyphshow
6.982422 0.000000 m /o glyphshow
13.100586 0.000000 m /u glyphshow
19.438477 0.000000 m /n glyphshow
25.776367 0.000000 m /t glyphshow
grestore
0 setlinejoin
2 setlinecap
[] 0 setdash
gsave
43.153125 35.621875 m
43.153125 100.853875 l
stroke
grestore
gsave
133.417831 35.621875 m
133.417831 100.853875 l
stroke
grestore
gsave
43.153125 35.621875 m
133.417831 35.621875 l
stroke
grestore
gsave
43.153125 100.853875 m
133.417831 100.853875 l
stroke
grestore
gsave
72.051103 106.853875 translate
0.000000 rotate
0.000000 0.000000 m /C glyphshow
6.982422 0.000000 m /l glyphshow
9.760742 0.000000 m /a glyphshow
15.888672 0.000000 m /s glyphshow
21.098633 0.000000 m /s glyphshow
26.308594 0.000000 m /space glyphshow
29.487305 0.000000 m /I glyphshow
grestore
gsave
151.470772 35.621875 m
241.735478 35.621875 l
241.735478 100.853875 l
151.470772 100.853875 l
cl
grestore
gsave
90.26 65.23 151.5 35.62 clipbox
151.470772 35.621875 m
160.497243 35.621875 l
160.497243 69.542515 l
151.470772 69.542515 l
cl
1.000 0.498 0.055 setrgbcolor
fill
grestore
gsave
90.26 65.23 151.5 35.62 clipbox
160.497243 35.621875 m
169.523713 35.621875 l
169.523713 51.538483 l
160.497243 51.538483 l
cl
1.000 0.498 0.055 setrgbcolor
fill
grestore
gsave
90.26 65.23 151.5 35.62 clipbox
169.523713 35.621875 m
178.550184 35.621875 l
178.550184 83.371699 l
169.523713 83.371699 l
cl
1.000 0.498 0.055 setrgbcolor
fill
grestore
gsave
90.26 65.23 151.5 35.62 clipbox
178.550184 35.621875 m
187.576654 35.621875 l
187.576654 101.114803 l
178.550184 101.114803 l
cl
1.000 0.498 0.055 setrgbcolor
fill
grestore
gsave
90.26 65.23 151.5 35.62 clipbox
187.576654 35.621875 m
196.603125 35.621875 l
196.603125 101.114803 l
187.576654 101.114803 l
cl
1.000 0.498 0.055 setrgbcolor
fill
grestore
gsave
90.26 65.23 151.5 35.62 clipbox
196.603125 35.621875 m
205.629596 35.621875 l
205.629596 80.501491 l
196.603125 80.501491 l
cl
1.000 0.498 0.055 setrgbcolor
fill
grestore
gsave
90.26 65.23 151.5 35.62 clipbox
205.629596 35.621875 m
214.656066 35.621875 l
214.656066 71.629939 l
205.629596 71.629939 l
cl
1.000 0.498 0.055 setrgbcolor
fill
grestore
gsave
90.26 65.23 151.5 35.62 clipbox
214.656066 35.621875 m
223.682537 35.621875 l
223.682537 63.802099 l
214.656066 63.802099 l
cl
1.000 0.498 0.055 setrgbcolor
fill
grestore
gsave
90.26 65.23 151.5 35.62 clipbox
223.682537 35.621875 m
232.709007 35.621875 l
232.709007 49.190131 l
223.682537 49.190131 l
cl
1.000 0.498 0.055 setrgbcolor
fill
grestore
gsave
90.26 65.23 151.5 35.62 clipbox
232.709007 35.621875 m
241.735478 35.621875 l
241.735478 39.013939 l
232.709007 39.013939 l
cl
1.000 0.498 0.055 setrgbcolor
fill
grestore
1 setlinejoin
0 setlinecap
[] 0 setdash
gsave
/o {
gsave
newpath
translate
0.8 setlinewidth
1 setlinejoin
0 setlinecap
0 0 m
0 -3.5 l

gsave
0.000 setgray
fill
grestore
stroke
grestore
} bind def
151.471 35.6219 o
grestore
/DejaVuSans findfont
8.000 scalefont
setfont
gsave
148.923897 22.543750 translate
0.000000 rotate
0.000000 0.000000 m /zero glyphshow
grestore
gsave
/o {
gsave
newpath
translate
0.8 setlinewidth
1 setlinejoin
0 setlinecap
0 0 m
0 -3.5 l

gsave
0.000 setgray
fill
grestore
stroke
grestore
} bind def
196.603 35.6219 o
grestore
gsave
194.056250 22.543750 translate
0.000000 rotate
0.000000 0.000000 m /five glyphshow
grestore
gsave
/o {
gsave
newpath
translate
0.8 setlinewidth
1 setlinejoin
0 setlinecap
0 0 m
0 -3.5 l

gsave
0.000 setgray
fill
grestore
stroke
grestore
} bind def
241.735 35.6219 o
grestore
gsave
236.641728 22.543750 translate
0.000000 rotate
0.000000 0.000000 m /one glyphshow
5.089844 0.000000 m /zero glyphshow
grestore
/DejaVuSans findfont
10.000 scalefont
setfont
gsave
170.814063 9.278125 translate
0.000000 rotate
0.000000 0.000000 m /P glyphshow
6.030273 0.000000 m /a glyphshow
12.158203 0.000000 m /i glyphshow
14.936523 0.000000 m /n glyphshow
21.274414 0.000000 m /space glyphshow
24.453125 0.000000 m /s glyphshow
29.663086 0.000000 m /c glyphshow
35.161133 0.000000 m /o glyphshow
41.279297 0.000000 m /r glyphshow
45.390625 0.000000 m /e glyphshow
grestore
gsave
/o {
gsave
newpath
translate
0.8 setlinewidth
1 setlinejoin
0 setlinecap
0 0 m
-3.5 0 l

gsave
0.000 setgray
fill
grestore
stroke
grestore
} bind def
151.471 35.6219 o
grestore
gsave
/o {
gsave
newpath
translate
0.8 setlinewidth
1 setlinejoin
0 setlinecap
0 0 m
-3.5 0 l

gsave
0.000 setgray
fill
grestore
stroke
grestore
} bind def
151.471 61.7147 o
grestore
gsave
/o {
gsave
newpath
translate
0.8 setlinewidth
1 setlinejoin
0 setlinecap
0 0 m
-3.5 0 l

gsave
0.000 setgray
fill
grestore
stroke
grestore
} bind def
151.471 87.8075 o
grestore
0 setlinejoin
2 setlinecap
[] 0 setdash
gsave
151.470772 35.621875 m
151.470772 100.853875 l
stroke
grestore
gsave
241.735478 35.621875 m
241.735478 100.853875 l
stroke
grestore
gsave
151.470772 35.621875 m
241.735478 35.621875 l
stroke
grestore
gsave
151.470772 100.853875 m
241.735478 100.853875 l
stroke
grestore
gsave
178.892188 106.853875 translate
0.000000 rotate
0.000000 0.000000 m /C glyphshow
6.982422 0.000000 m /l glyphshow
9.760742 0.000000 m /a glyphshow
15.888672 0.000000 m /s glyphshow
21.098633 0.000000 m /s glyphshow
26.308594 0.000000 m /space glyphshow
29.487305 0.000000 m /I glyphshow
32.436523 0.000000 m /I glyphshow
grestore
gsave
259.788419 35.621875 m
350.053125 35.621875 l
350.053125 100.853875 l
259.788419 100.853875 l
cl
grestore
gsave
90.26 65.23 259.8 35.62 clipbox
259.788419 35.621875 m
268.81489 35.621875 l
268.81489 35.882803 l
259.788419 35.882803 l
cl
0.173 0.627 0.173 setrgbcolor
fill
grestore
gsave
90.26 65.23 259.8 35.62 clipbox
268.81489 35.621875 m
277.84136 35.621875 l
277.84136 35.882803 l
268.81489 35.882803 l
cl
0.173 0.627 0.173 setrgbcolor
fill
grestore
gsave
90.26 65.23 259.8 35.62 clipbox
277.84136 35.621875 m
286.867831 35.621875 l
286.867831 35.621875 l
277.84136 35.621875 l
cl
0.173 0.627 0.173 setrgbcolor
fill
grestore
gsave
90.26 65.23 259.8 35.62 clipbox
286.867831 35.621875 m
295.894301 35.621875 l
295.894301 35.621875 l
286.867831 35.621875 l
cl
0.173 0.627 0.173 setrgbcolor
fill
grestore
gsave
90.26 65.23 259.8 35.62 clipbox
295.894301 35.621875 m
304.920772 35.621875 l
304.920772 35.621875 l
295.894301 35.621875 l
cl
0.173 0.627 0.173 setrgbcolor
fill
grestore
gsave
90.26 65.23 259.8 35.62 clipbox
304.920772 35.621875 m
313.947243 35.621875 l
313.947243 37.448371 l
304.920772 37.448371 l
cl
0.173 0.627 0.173 setrgbcolor
fill
grestore
gsave
90.26 65.23 259.8 35.62 clipbox
313.947243 35.621875 m
322.973713 35.621875 l
322.973713 41.101363 l
313.947243 41.101363 l
cl
0.173 0.627 0.173 setrgbcolor
fill
grestore
gsave
90.26 65.23 259.8 35.62 clipbox
322.973713 35.621875 m
332.000184 35.621875 l
332.000184 50.755699 l
322.973713 50.755699 l
cl
0.173 0.627 0.173 setrgbcolor
fill
grestore
gsave
90.26 65.23 259.8 35.62 clipbox
332.000184 35.621875 m
341.026654 35.621875 l
341.026654 97.461811 l
332.000184 97.461811 l
cl
0.173 0.627 0.173 setrgbcolor
fill
grestore
gsave
90.26 65.23 259.8 35.62 clipbox
341.026654 35.621875 m
350.053125 35.621875 l
350.053125 87.285619 l
341.026654 87.285619 l
cl
0.173 0.627 0.173 setrgbcolor
fill
grestore
1 setlinejoin
0 setlinecap
[] 0 setdash
gsave
/o {
gsave
newpath
translate
0.8 setlinewidth
1 setlinejoin
0 setlinecap
0 0 m
0 -3.5 l

gsave
0.000 setgray
fill
grestore
stroke
grestore
} bind def
259.788 35.6219 o
grestore
/DejaVuSans findfont
8.000 scalefont
setfont
gsave
257.241544 22.543750 translate
0.000000 rotate
0.000000 0.000000 m /zero glyphshow
grestore
gsave
/o {
gsave
newpath
translate
0.8 setlinewidth
1 setlinejoin
0 setlinecap
0 0 m
0 -3.5 l

gsave
0.000 setgray
fill
grestore
stroke
grestore
} bind def
304.921 35.6219 o
grestore
gsave
302.373897 22.543750 translate
0.000000 rotate
0.000000 0.000000 m /five glyphshow
grestore
gsave
/o {
gsave
newpath
translate
0.8 setlinewidth
1 setlinejoin
0 setlinecap
0 0 m
0 -3.5 l

gsave
0.000 setgray
fill
grestore
stroke
grestore
} bind def
350.053 35.6219 o
grestore
gsave
344.959375 22.543750 translate
0.000000 rotate
0.000000 0.000000 m /one glyphshow
5.089844 0.000000 m /zero glyphshow
grestore
gsave
/o {
gsave
newpath
translate
0.8 setlinewidth
1 setlinejoin
0 setlinecap
0 0 m
-3.5 0 l

gsave
0.000 setgray
fill
grestore
stroke
grestore
} bind def
259.788 35.6219 o
grestore
gsave
/o {
gsave
newpath
translate
0.8 setlinewidth
1 setlinejoin
0 setlinecap
0 0 m
-3.5 0 l

gsave
0.000 setgray
fill
grestore
stroke
grestore
} bind def
259.788 61.7147 o
grestore
gsave
/o {
gsave
newpath
translate
0.8 setlinewidth
1 setlinejoin
0 setlinecap
0 0 m
-3.5 0 l

gsave
0.000 setgray
fill
grestore
stroke
grestore
} bind def
259.788 87.8075 o
grestore
0 setlinejoin
2 setlinecap
[] 0 setdash
gsave
259.788419 35.621875 m
259.788419 100.853875 l
stroke
grestore
gsave
350.053125 35.621875 m
350.053125 100.853875 l
stroke
grestore
gsave
259.788419 35.621875 m
350.053125 35.621875 l
stroke
grestore
gsave
259.788419 100.853875 m
350.053125 100.853875 l
stroke
grestore
/DejaVuSans findfont
10.000 scalefont
setfont
gsave
285.733272 106.853875 translate
0.000000 rotate
0.000000 0.000000 m /C glyphshow
6.982422 0.000000 m /l glyphshow
9.760742 0.000000 m /a glyphshow
15.888672 0.000000 m /s glyphshow
21.098633 0.000000 m /s glyphshow
26.308594 0.000000 m /space glyphshow
29.487305 0.000000 m /I glyphshow
32.436523 0.000000 m /I glyphshow
35.385742 0.000000 m /I glyphshow
grestore

end
showpage
