%!PS-Adobe-3.0 EPSF-3.0
%%Title: ../Figures/ClassTimeSeries_2clusterfinal.eps
%%Creator: matplotlib version 3.1.1, http://matplotlib.org/
%%CreationDate: Thu Jul 14 00:16:42 2022
%%Orientation: portrait
%%BoundingBox: 127.37343750000002 340.45353124999997 484.6265625 451.54646875
%%EndComments
%%BeginProlog
/mpldict 8 dict def
mpldict begin
/m { moveto } bind def
/l { lineto } bind def
/r { rlineto } bind def
/c { curveto } bind def
/cl { closepath } bind def
/box {
m
1 index 0 r
0 exch r
neg 0 r
cl
} bind def
/clipbox {
box
clip
newpath
} bind def
%!PS-Adobe-3.0 Resource-Font
%%Title: DejaVu Sans
%%Copyright: Copyright (c) 2003 by Bitstream, Inc. All Rights Reserved. Copyright (c) 2006 by Tavmjong Bah. All Rights Reserved. DejaVu changes are in public domain 
%%Creator: Converted from TrueType to type 3 by PPR
25 dict begin
/_d{bind def}bind def
/_m{moveto}_d
/_l{lineto}_d
/_cl{closepath eofill}_d
/_c{curveto}_d
/_sc{7 -1 roll{setcachedevice}{pop pop pop pop pop pop}ifelse}_d
/_e{exec}_d
/FontName /DejaVuSans def
/PaintType 0 def
/FontMatrix[.001 0 0 .001 0 0]def
/FontBBox[-1021 -463 1793 1232]def
/FontType 3 def
/Encoding [ /space /comma /zero /one /four /five /seven /P /T /a /c /d /e /i /m /n /o /r /s /y ] def
/FontInfo 10 dict dup begin
/FamilyName (DejaVu Sans) def
/FullName (DejaVu Sans) def
/Notice (Copyright (c) 2003 by Bitstream, Inc. All Rights Reserved. Copyright (c) 2006 by Tavmjong Bah. All Rights Reserved. DejaVu changes are in public domain ) def
/Weight (Book) def
/Version (Version 2.35) def
/ItalicAngle 0.0 def
/isFixedPitch false def
/UnderlinePosition -130 def
/UnderlineThickness 90 def
end readonly def
/CharStrings 21 dict dup begin
/.notdef 0 def
/space{318 0 0 0 0 0 _sc
}_d
/comma{318 0 77 -115 220 124 _sc
117 124 _m
220 124 _l
220 40 _l
140 -115 _l
77 -115 _l
117 40 _l
117 124 _l
_cl}_d
/zero{636 0 66 -13 570 742 _sc
318 664 _m
267 664 229 639 203 589 _c
177 539 165 464 165 364 _c
165 264 177 189 203 139 _c
229 89 267 64 318 64 _c
369 64 407 89 433 139 _c
458 189 471 264 471 364 _c
471 464 458 539 433 589 _c
407 639 369 664 318 664 _c
318 742 _m
399 742 461 709 505 645 _c
548 580 570 486 570 364 _c
570 241 548 147 505 83 _c
461 19 399 -13 318 -13 _c
236 -13 173 19 130 83 _c
87 147 66 241 66 364 _c
66 486 87 580 130 645 _c
173 709 236 742 318 742 _c
_cl}_d
/one{636 0 110 0 544 729 _sc
124 83 _m
285 83 _l
285 639 _l
110 604 _l
110 694 _l
284 729 _l
383 729 _l
383 83 _l
544 83 _l
544 0 _l
124 0 _l
124 83 _l
_cl}_d
/four{636 0 49 0 580 729 _sc
378 643 _m
129 254 _l
378 254 _l
378 643 _l
352 729 _m
476 729 _l
476 254 _l
580 254 _l
580 172 _l
476 172 _l
476 0 _l
378 0 _l
378 172 _l
49 172 _l
49 267 _l
352 729 _l
_cl}_d
/five{{636 0 77 -13 549 729 _sc
108 729 _m
495 729 _l
495 646 _l
198 646 _l
198 467 _l
212 472 227 476 241 478 _c
255 480 270 482 284 482 _c
365 482 429 459 477 415 _c
525 370 549 310 549 234 _c
549 155 524 94 475 51 _c
426 8 357 -13 269 -13 _c
238 -13 207 -10 175 -6 _c
143 -1 111 6 77 17 _c
77 116 _l
106 100 136 88 168 80 _c
199 72 232 69 267 69 _c
}_e{323 69 368 83 401 113 _c
433 143 450 183 450 234 _c
450 284 433 324 401 354 _c
368 384 323 399 267 399 _c
241 399 214 396 188 390 _c
162 384 135 375 108 363 _c
108 729 _l
_cl}_e}_d
/seven{636 0 82 0 551 729 _sc
82 729 _m
551 729 _l
551 687 _l
286 0 _l
183 0 _l
432 646 _l
82 646 _l
82 729 _l
_cl}_d
/P{603 0 98 0 569 729 _sc
197 648 _m
197 374 _l
321 374 _l
367 374 402 385 427 409 _c
452 433 465 467 465 511 _c
465 555 452 588 427 612 _c
402 636 367 648 321 648 _c
197 648 _l
98 729 _m
321 729 _l
402 729 464 710 506 673 _c
548 636 569 582 569 511 _c
569 439 548 384 506 348 _c
464 311 402 293 321 293 _c
197 293 _l
197 0 _l
98 0 _l
98 729 _l
_cl}_d
/T{611 0 -2 0 614 729 _sc
-2 729 _m
614 729 _l
614 646 _l
355 646 _l
355 0 _l
256 0 _l
256 646 _l
-2 646 _l
-2 729 _l
_cl}_d
/a{{613 0 60 -13 522 560 _sc
343 275 _m
270 275 220 266 192 250 _c
164 233 150 205 150 165 _c
150 133 160 107 181 89 _c
202 70 231 61 267 61 _c
317 61 357 78 387 114 _c
417 149 432 196 432 255 _c
432 275 _l
343 275 _l
522 312 _m
522 0 _l
432 0 _l
432 83 _l
411 49 385 25 355 10 _c
325 -5 287 -13 243 -13 _c
187 -13 142 2 109 33 _c
76 64 60 106 60 159 _c
}_e{60 220 80 266 122 298 _c
163 329 224 345 306 345 _c
432 345 _l
432 354 _l
432 395 418 427 391 450 _c
364 472 326 484 277 484 _c
245 484 215 480 185 472 _c
155 464 127 453 100 439 _c
100 522 _l
132 534 164 544 195 550 _c
226 556 256 560 286 560 _c
365 560 424 539 463 498 _c
502 457 522 395 522 312 _c
_cl}_e}_d
/c{{550 0 55 -13 488 560 _sc
488 526 _m
488 442 _l
462 456 437 466 411 473 _c
385 480 360 484 334 484 _c
276 484 230 465 198 428 _c
166 391 150 339 150 273 _c
150 206 166 154 198 117 _c
230 80 276 62 334 62 _c
360 62 385 65 411 72 _c
437 79 462 90 488 104 _c
488 21 _l
462 9 436 0 410 -5 _c
383 -10 354 -13 324 -13 _c
242 -13 176 12 128 64 _c
}_e{79 115 55 185 55 273 _c
55 362 79 432 128 483 _c
177 534 244 560 330 560 _c
358 560 385 557 411 551 _c
437 545 463 537 488 526 _c
_cl}_e}_d
/d{{635 0 55 -13 544 760 _sc
454 464 _m
454 760 _l
544 760 _l
544 0 _l
454 0 _l
454 82 _l
435 49 411 25 382 10 _c
353 -5 319 -13 279 -13 _c
213 -13 159 13 117 65 _c
75 117 55 187 55 273 _c
55 359 75 428 117 481 _c
159 533 213 560 279 560 _c
319 560 353 552 382 536 _c
411 520 435 496 454 464 _c
148 273 _m
148 207 161 155 188 117 _c
215 79 253 61 301 61 _c
}_e{348 61 385 79 413 117 _c
440 155 454 207 454 273 _c
454 339 440 390 413 428 _c
385 466 348 485 301 485 _c
253 485 215 466 188 428 _c
161 390 148 339 148 273 _c
_cl}_e}_d
/e{{615 0 55 -13 562 560 _sc
562 296 _m
562 252 _l
149 252 _l
153 190 171 142 205 110 _c
238 78 284 62 344 62 _c
378 62 412 66 444 74 _c
476 82 509 95 541 113 _c
541 28 _l
509 14 476 3 442 -3 _c
408 -9 373 -13 339 -13 _c
251 -13 182 12 131 62 _c
80 112 55 181 55 268 _c
55 357 79 428 127 481 _c
175 533 241 560 323 560 _c
397 560 455 536 498 489 _c
}_e{540 441 562 377 562 296 _c
472 322 _m
471 371 457 410 431 440 _c
404 469 368 484 324 484 _c
274 484 234 469 204 441 _c
174 413 156 373 152 322 _c
472 322 _l
_cl}_e}_d
/i{278 0 94 0 184 760 _sc
94 547 _m
184 547 _l
184 0 _l
94 0 _l
94 547 _l
94 760 _m
184 760 _l
184 646 _l
94 646 _l
94 760 _l
_cl}_d
/m{{974 0 91 0 889 560 _sc
520 442 _m
542 482 569 511 600 531 _c
631 550 668 560 711 560 _c
767 560 811 540 842 500 _c
873 460 889 403 889 330 _c
889 0 _l
799 0 _l
799 327 _l
799 379 789 418 771 444 _c
752 469 724 482 686 482 _c
639 482 602 466 575 435 _c
548 404 535 362 535 309 _c
535 0 _l
445 0 _l
445 327 _l
445 379 435 418 417 444 _c
398 469 369 482 331 482 _c
}_e{285 482 248 466 221 435 _c
194 404 181 362 181 309 _c
181 0 _l
91 0 _l
91 547 _l
181 547 _l
181 462 _l
201 495 226 520 255 536 _c
283 552 317 560 357 560 _c
397 560 430 550 458 530 _c
486 510 506 480 520 442 _c
_cl}_e}_d
/n{634 0 91 0 549 560 _sc
549 330 _m
549 0 _l
459 0 _l
459 327 _l
459 379 448 417 428 443 _c
408 469 378 482 338 482 _c
289 482 251 466 223 435 _c
195 404 181 362 181 309 _c
181 0 _l
91 0 _l
91 547 _l
181 547 _l
181 462 _l
202 494 227 519 257 535 _c
286 551 320 560 358 560 _c
420 560 468 540 500 501 _c
532 462 549 405 549 330 _c
_cl}_d
/o{612 0 55 -13 557 560 _sc
306 484 _m
258 484 220 465 192 427 _c
164 389 150 338 150 273 _c
150 207 163 156 191 118 _c
219 80 257 62 306 62 _c
354 62 392 80 420 118 _c
448 156 462 207 462 273 _c
462 337 448 389 420 427 _c
392 465 354 484 306 484 _c
306 560 _m
384 560 445 534 490 484 _c
534 433 557 363 557 273 _c
557 183 534 113 490 63 _c
445 12 384 -13 306 -13 _c
227 -13 165 12 121 63 _c
77 113 55 183 55 273 _c
55 363 77 433 121 484 _c
165 534 227 560 306 560 _c
_cl}_d
/r{411 0 91 0 411 560 _sc
411 463 _m
401 469 390 473 378 476 _c
366 478 353 480 339 480 _c
288 480 249 463 222 430 _c
194 397 181 350 181 288 _c
181 0 _l
91 0 _l
91 547 _l
181 547 _l
181 462 _l
199 495 224 520 254 536 _c
284 552 321 560 365 560 _c
371 560 378 559 386 559 _c
393 558 401 557 411 555 _c
411 463 _l
_cl}_d
/s{{521 0 54 -13 472 560 _sc
443 531 _m
443 446 _l
417 458 391 468 364 475 _c
336 481 308 485 279 485 _c
234 485 200 478 178 464 _c
156 450 145 430 145 403 _c
145 382 153 366 169 354 _c
185 342 217 330 265 320 _c
296 313 _l
360 299 405 279 432 255 _c
458 230 472 195 472 151 _c
472 100 452 60 412 31 _c
372 1 316 -13 246 -13 _c
216 -13 186 -10 154 -5 _c
}_e{122 0 89 8 54 20 _c
54 113 _l
87 95 120 82 152 74 _c
184 65 216 61 248 61 _c
290 61 323 68 346 82 _c
368 96 380 117 380 144 _c
380 168 371 187 355 200 _c
339 213 303 226 247 238 _c
216 245 _l
160 257 119 275 95 299 _c
70 323 58 356 58 399 _c
58 450 76 490 112 518 _c
148 546 200 560 268 560 _c
301 560 332 557 362 552 _c
391 547 418 540 443 531 _c
}_e{_cl}_e}_d
/y{592 0 30 -207 562 547 _sc
322 -50 _m
296 -114 271 -157 247 -177 _c
223 -197 191 -207 151 -207 _c
79 -207 _l
79 -132 _l
132 -132 _l
156 -132 175 -126 189 -114 _c
203 -102 218 -75 235 -31 _c
251 9 _l
30 547 _l
125 547 _l
296 119 _l
467 547 _l
562 547 _l
322 -50 _l
_cl}_d
end readonly def

/BuildGlyph
 {exch begin
 CharStrings exch
 2 copy known not{pop /.notdef}if
 true 3 1 roll get exec
 end}_d

/BuildChar {
 1 index /Encoding get exch get
 1 index /BuildGlyph get exec
}_d

FontName currentdict end definefont pop
end
%%EndProlog
mpldict begin
127.373 340.454 translate
357.253 111.093 0 0 clipbox
gsave
0 0 m
357.253125 0 l
357.253125 111.092938 l
0 111.092938 l
cl
grestore
gsave
38.059375 35.621875 m
177.559375 35.621875 l
177.559375 100.853875 l
38.059375 100.853875 l
cl
grestore
1.000 setlinewidth
1 setlinejoin
0 setlinecap
[] 0 setdash
0.122 0.467 0.706 setrgbcolor
gsave
139.5 65.23 38.06 35.62 clipbox
/o {
gsave
newpath
translate
1.0 setlinewidth
1 setlinejoin
0 setlinecap
38.059375 67.585555 m
38.059375 35.621875 l
38.267274 35.621875 l
38.475172 35.621875 l
38.683071 35.621875 l
38.89097 35.621875 l
39.098868 35.621875 l
39.306767 35.621875 l
39.514666 35.621875 l
39.722564 35.621875 l
39.930463 35.621875 l
40.138362 35.621875 l
40.34626 35.621875 l
40.554159 35.621875 l
40.762058 35.621875 l
40.969956 35.621875 l
41.177855 35.621875 l
41.385754 35.621875 l
41.593652 35.621875 l
41.801551 35.621875 l
42.00945 35.621875 l
42.217348 35.621875 l
42.425247 35.621875 l
42.633145 35.621875 l
42.841044 35.621875 l
43.048943 35.621875 l
43.256841 35.621875 l
43.46474 35.621875 l
43.672639 35.621875 l
43.880537 35.621875 l
44.088436 35.621875 l
44.296335 35.621875 l
44.504233 35.621875 l
44.712132 35.621875 l
44.920031 35.621875 l
45.127929 35.621875 l
45.335828 35.621875 l
45.543727 35.621875 l
45.751625 35.621875 l
45.959524 35.621875 l
46.167423 35.621875 l
46.375321 35.621875 l
46.58322 35.621875 l
46.791119 35.621875 l
46.999017 35.621875 l
47.206916 35.621875 l
47.414815 35.621875 l
47.622713 35.621875 l
47.830612 35.621875 l
48.038511 35.621875 l
48.246409 35.621875 l
48.454308 35.621875 l
48.662207 35.621875 l
48.870105 35.621875 l
49.078004 35.621875 l
49.285903 35.621875 l
49.493801 35.621875 l
49.7017 35.621875 l
49.909599 35.621875 l
50.117497 35.621875 l
50.325396 35.621875 l
50.533295 35.621875 l
50.741193 35.621875 l
50.949092 35.621875 l
51.15699 35.621875 l
51.364889 35.671445 l
51.572788 35.675295 l
51.780686 35.679145 l
51.988585 35.669001 l
52.196484 35.655517 l
52.404382 35.642033 l
52.612281 35.628549 l
52.82018 35.621875 l
53.028078 35.621875 l
53.235977 35.621875 l
53.443876 35.621875 l
53.651774 35.621875 l
53.859673 35.621875 l
54.067572 35.621875 l
54.27547 35.621875 l
54.483369 35.621875 l
54.691268 35.621875 l
54.899166 35.621875 l
55.107065 35.621875 l
55.314964 35.621875 l
55.522862 35.621875 l
55.730761 35.621875 l
55.93866 35.621875 l
56.146558 35.621875 l
56.354457 35.621875 l
56.562356 35.621875 l
56.770254 35.621875 l
56.978153 35.621875 l
57.186052 35.621875 l
57.39395 35.621875 l
57.601849 35.621875 l
57.809748 35.621875 l
58.017646 35.621875 l
58.225545 35.621875 l
58.433444 35.621875 l
58.641342 35.621875 l
58.849241 35.621875 l
59.05714 35.621875 l
59.265038 35.621875 l
59.472937 35.621875 l
59.680836 35.621875 l
59.888734 35.621875 l
60.096633 35.621875 l
60.304531 35.621875 l
60.51243 35.621875 l
60.720329 35.621875 l
60.928227 35.621875 l
61.136126 35.621875 l
61.344025 35.621875 l
61.551923 35.621875 l
61.759822 35.621875 l
61.967721 35.628647 l
62.175619 35.63643 l
62.383518 35.644213 l
62.591417 35.651996 l
62.799315 36.368177 l
63.007214 36.496826 l
63.215113 36.625475 l
63.423011 36.754124 l
63.63091 36.882773 l
63.838809 36.895839 l
64.046707 36.816418 l
64.254606 36.736996 l
64.462505 36.657575 l
64.670403 36.578154 l
64.878302 36.498732 l
65.086201 36.419311 l
65.294099 36.33989 l
65.501998 36.237686 l
65.709897 36.130296 l
65.917795 36.022906 l
66.125694 35.915515 l
66.333593 35.837069 l
66.541491 35.920409 l
66.74939 35.68036 l
66.957289 35.677681 l
67.165187 35.654645 l
67.373086 35.631609 l
67.580985 36.115721 l
67.788883 36.755948 l
67.996782 36.666737 l
68.204681 36.244462 l
68.412579 35.778548 l
68.620478 36.283505 l
68.828376 36.838524 l
69.036275 37.382114 l
69.244174 37.056231 l
69.452072 36.543577 l
69.659971 36.030922 l
69.86787 36.54725 l
70.075768 37.299967 l
70.283667 37.674088 l
70.491566 37.142353 l
70.699464 37.044643 l
70.907363 36.946932 l
71.115262 36.849222 l
71.32316 36.751511 l
71.531059 36.653801 l
71.738958 36.55609 l
71.946856 36.45838 l
72.154755 36.360669 l
72.362654 36.262959 l
72.570552 36.165248 l
72.778451 36.067538 l
72.98635 36.019056 l
73.194248 36.212032 l
73.402147 36.059894 l
73.610046 36.555972 l
73.817944 36.788672 l
74.025843 36.70982 l
74.233742 36.640064 l
74.44164 36.562926 l
74.649539 36.491781 l
74.857438 36.417559 l
75.065336 36.343336 l
75.273235 36.269113 l
75.481134 36.19489 l
75.689032 36.119865 l
75.896931 36.034917 l
76.10483 35.949968 l
76.312728 35.86502 l
76.520627 35.841093 l
76.728526 36.185376 l
76.936424 36.48598 l
77.144323 36.688308 l
77.352221 35.966784 l
77.56012 36.901828 l
77.768019 36.435062 l
77.975917 35.951282 l
78.183816 35.621875 l
78.391715 35.621875 l
78.599613 35.621875 l
78.807512 35.621875 l
79.015411 35.621875 l
79.223309 35.621875 l
79.431208 35.621875 l
79.639107 35.621875 l
79.847005 35.621875 l
80.054904 35.621875 l
80.262803 35.651006 l
80.470701 35.68333 l
80.6786 35.715655 l
80.886499 35.747751 l
81.094397 35.733839 l
81.302296 35.719928 l
81.510195 35.706017 l
81.718093 35.692105 l
81.925992 35.678194 l
82.133891 35.664282 l
82.341789 35.650371 l
82.549688 35.740841 l
82.757587 35.655297 l
82.965485 36.307783 l
83.173384 36.620204 l
83.381283 36.891102 l
83.589181 36.737551 l
83.79708 36.377526 l
84.004979 35.997968 l
84.212877 35.665911 l
84.420776 35.726904 l
84.628675 35.993304 l
84.836573 36.259704 l
85.044472 36.526103 l
85.252371 36.792503 l
85.460269 37.031794 l
85.668168 36.482159 l
85.876067 36.687455 l
86.083965 35.825791 l
86.291864 35.7797 l
86.499762 35.83649 l
86.707661 36.046506 l
86.91556 36.278591 l
87.123458 35.965949 l
87.331357 36.016992 l
87.539256 36.068034 l
87.747154 36.119077 l
87.955053 36.149619 l
88.162952 35.776494 l
88.37085 36.183341 l
88.578749 36.247058 l
88.786648 36.310776 l
88.994546 36.360094 l
89.202445 36.395779 l
89.410344 36.420134 l
89.618242 36.444488 l
89.826141 36.098838 l
90.03404 35.655441 l
90.241938 35.641201 l
90.449837 35.953309 l
90.657736 36.101669 l
90.865634 36.017485 l
91.073533 35.737357 l
91.281432 35.834462 l
91.48933 36.154559 l
91.697229 36.47325 l
91.905128 36.783519 l
92.113026 36.927093 l
92.320925 36.645601 l
92.528824 36.998811 l
92.736722 37.08986 l
92.944621 37.140529 l
93.15252 37.191197 l
93.360418 37.241866 l
93.568317 37.275682 l
93.776216 37.305875 l
93.984114 37.336068 l
94.192013 37.434812 l
94.399912 37.553074 l
94.60781 37.671335 l
94.815709 37.623906 l
95.023607 37.513047 l
95.231506 37.559013 l
95.439405 37.604979 l
95.647303 37.650944 l
95.855202 37.69691 l
96.063101 37.76295 l
96.270999 37.893894 l
96.478898 38.019621 l
96.686797 38.138906 l
96.894695 38.20937 l
97.102594 38.045186 l
97.310493 37.956769 l
97.518391 37.988973 l
97.72629 38.066752 l
97.934189 38.073881 l
98.142087 38.108004 l
98.349986 37.937719 l
98.557885 38.000679 l
98.765783 37.993779 l
98.973682 37.024073 l
99.181581 37.119942 l
99.389479 37.602853 l
99.597378 37.997761 l
99.805277 37.962619 l
100.013175 37.927476 l
100.221074 37.892334 l
100.428973 37.856208 l
100.636871 37.812114 l
100.84477 37.749645 l
101.052669 36.28195 l
101.260567 36.614463 l
101.468466 36.734565 l
101.676365 36.468128 l
101.884263 36.281226 l
102.092162 35.891515 l
102.300061 36.392983 l
102.507959 37.076981 l
102.715858 37.38636 l
102.923757 38.437056 l
103.131655 39.083062 l
103.339554 39.041329 l
103.547452 38.910392 l
103.755351 38.779455 l
103.96325 38.648518 l
104.171148 38.513574 l
104.379047 38.690798 l
104.586946 38.619681 l
104.794844 38.188036 l
105.002743 37.976118 l
105.210642 37.784839 l
105.41854 37.65688 l
105.626439 37.528921 l
105.834338 37.393002 l
106.042236 37.247982 l
106.250135 37.102962 l
106.458034 36.957941 l
106.665932 36.812921 l
106.873831 36.667901 l
107.08173 36.714942 l
107.289628 36.711778 l
107.497527 36.515944 l
107.705426 36.423582 l
107.913324 36.642493 l
108.121223 36.9444 l
108.329122 36.793329 l
108.53702 36.422377 l
108.744919 36.633731 l
108.952818 36.177728 l
109.160716 36.90645 l
109.368615 36.729458 l
109.576514 36.354196 l
109.784412 36.417198 l
109.992311 36.685266 l
110.20021 36.880969 l
110.408108 37.074845 l
110.616007 37.268721 l
110.823906 37.462596 l
111.031804 37.656472 l
111.239703 37.847837 l
111.447602 38.036115 l
111.6555 38.224394 l
111.863399 38.412672 l
112.071298 38.600951 l
112.279196 38.789229 l
112.487095 39.01645 l
112.694993 39.342601 l
112.902892 39.668753 l
113.110791 39.994904 l
113.318689 40.321055 l
113.526588 40.647207 l
113.734487 40.972915 l
113.942385 40.854115 l
114.150284 40.514763 l
114.358183 40.64934 l
114.566081 40.824362 l
114.77398 40.523151 l
114.981879 40.06315 l
115.189777 39.59821 l
115.397676 38.971025 l
115.605575 39.030283 l
115.813473 39.092933 l
116.021372 39.155582 l
116.229271 39.833638 l
116.437169 40.023293 l
116.645068 40.212948 l
116.852967 40.402603 l
117.060865 40.592258 l
117.268764 40.781913 l
117.476663 40.970015 l
117.684561 40.864892 l
117.89246 40.71042 l
118.100359 40.863675 l
118.308257 40.631363 l
118.516156 40.327868 l
118.724055 40.067411 l
118.931953 39.94605 l
119.139852 40.979825 l
119.347751 41.148784 l
119.555649 41.161366 l
119.763548 40.17161 l
119.971447 40.185626 l
120.179345 40.146138 l
120.387244 40.32773 l
120.595143 40.379482 l
120.803041 40.577653 l
121.01094 40.826071 l
121.218838 41.074489 l
121.426737 41.182226 l
121.634636 41.193382 l
121.842534 41.195674 l
122.050433 41.406843 l
122.258332 41.500421 l
122.46623 41.497444 l
122.674129 41.365524 l
122.882028 41.207135 l
123.089926 41.209427 l
123.297825 41.211719 l
123.505724 41.214011 l
123.713622 41.311344 l
123.921521 41.473433 l
124.12942 41.402463 l
124.337318 41.326711 l
124.545217 41.233892 l
124.753116 41.224109 l
124.961014 41.229405 l
125.168913 41.232349 l
125.376812 41.234641 l
125.58471 41.236933 l
125.792609 41.239225 l
126.000508 41.240846 l
126.208406 41.23335 l
126.416305 41.130511 l
126.624204 41.211245 l
126.832102 41.247457 l
127.040001 41.252978 l
127.2479 41.255271 l
127.455798 41.257563 l
127.663697 41.259855 l
127.871596 41.262147 l
128.079494 41.264439 l
128.287393 41.266732 l
128.495292 41.269024 l
128.70319 41.271316 l
128.911089 41.273608 l
129.118988 41.2759 l
129.326886 41.278192 l
129.534785 41.280485 l
129.742683 41.282777 l
129.950582 41.285069 l
130.158481 41.287361 l
130.366379 41.289653 l
130.574278 41.291946 l
130.782177 41.294238 l
130.990075 39.866792 l
131.197974 40.020324 l
131.405873 40.173856 l
131.613771 40.314963 l
131.82167 40.454768 l
132.029569 40.573499 l
132.237467 40.348873 l
132.445366 40.263329 l
132.653265 40.816146 l
132.861163 41.248578 l
133.069062 41.314763 l
133.276961 41.237552 l
133.484859 40.691461 l
133.692758 40.551743 l
133.900657 40.925277 l
134.108555 41.298812 l
134.316454 41.333205 l
134.524353 41.335497 l
134.732251 41.337789 l
134.94015 41.340081 l
135.148049 41.342374 l
135.355947 41.344666 l
135.563846 41.346958 l
135.771745 41.34925 l
135.979643 41.351542 l
136.187542 41.462337 l
136.395441 41.356127 l
136.603339 41.307546 l
136.811238 41.087788 l
137.019137 40.851627 l
137.227035 40.607339 l
137.434934 39.586893 l
137.642833 38.857714 l
137.850731 38.766304 l
138.05863 39.118449 l
138.266529 39.445103 l
138.474427 39.246452 l
138.682326 40.275308 l
138.890224 39.833497 l
139.098123 41.036853 l
139.306022 41.383285 l
139.51392 41.390509 l
139.721819 41.392802 l
139.929718 41.395094 l
140.137616 41.397386 l
140.345515 41.36474 l
140.553414 41.40197 l
140.761312 41.404262 l
140.969211 41.406555 l
141.17711 41.499156 l
141.385008 41.497037 l
141.592907 41.492859 l
141.800806 41.501996 l
142.008704 41.508119 l
142.216603 41.507826 l
142.424502 41.507532 l
142.6324 41.507238 l
142.840299 41.506944 l
143.048198 41.506651 l
143.256096 41.506357 l
143.463995 41.502569 l
143.671894 41.436353 l
143.879792 41.438645 l
144.087691 41.440937 l
144.29559 41.44323 l
144.503488 41.501801 l
144.711387 41.504301 l
144.919286 41.504007 l
145.127184 41.503714 l
145.335083 41.455192 l
145.542982 41.456983 l
145.75088 41.459275 l
145.958779 41.461567 l
146.166678 41.463421 l
146.374576 41.302698 l
146.582475 41.121846 l
146.790374 40.940994 l
146.998272 40.760142 l
147.206171 40.728592 l
147.414069 40.907973 l
147.621968 41.083205 l
147.829867 40.778429 l
148.037765 40.123962 l
148.245664 39.651066 l
148.453563 39.464592 l
148.661461 39.278117 l
148.86936 39.083537 l
149.077259 38.950674 l
149.285157 39.434543 l
149.493056 39.157427 l
149.700955 38.964249 l
149.908853 38.952487 l
150.116752 38.915713 l
150.324651 38.804049 l
150.532549 37.49972 l
150.740448 37.281961 l
150.948347 36.810825 l
151.156245 36.440739 l
151.364144 36.232193 l
151.572043 36.511045 l
151.779941 36.373692 l
151.98784 36.236339 l
152.195739 36.093146 l
152.403637 35.912161 l
152.611536 35.801263 l
152.819435 35.788531 l
153.027333 35.77092 l
153.235232 35.753309 l
153.443131 35.735698 l
153.651029 35.718087 l
153.858928 35.700477 l
154.066827 35.682866 l
154.274725 35.665255 l
154.482624 35.647644 l
154.690523 35.630033 l
154.898421 35.628162 l
155.10632 35.639875 l
155.314219 35.651588 l
155.522117 35.663301 l
155.730016 35.675014 l
155.937914 35.686727 l
156.145813 35.698439 l
156.353712 35.706385 l
156.56161 35.700895 l
156.769509 35.695406 l
156.977408 35.688481 l
157.185306 35.675929 l
157.393205 35.663377 l
157.601104 35.650824 l
157.809002 35.638272 l
158.016901 35.62572 l
158.2248 35.621875 l
158.432698 35.621875 l
158.640597 35.646004 l
158.848496 35.640515 l
159.056394 35.635026 l
159.264293 35.626135 l
159.472192 35.621875 l
159.68009 35.621875 l
159.887989 35.621875 l
160.095888 35.621875 l
160.303786 35.621875 l
160.511685 35.621875 l
160.719584 35.621875 l
160.927482 35.621875 l
161.135381 35.621875 l
161.34328 35.621875 l
161.551178 35.621875 l
161.759077 35.621875 l
161.966976 35.621875 l
162.174874 35.621875 l
162.382773 35.621875 l
162.590672 35.621875 l
162.79857 35.621875 l
163.006469 35.621875 l
163.214368 35.621875 l
163.422266 35.621875 l
163.630165 35.621875 l
163.838064 35.621875 l
164.045962 35.621875 l
164.253861 35.621875 l
164.46176 35.621875 l
164.669658 35.621875 l
164.877557 35.621875 l
165.085455 35.621875 l
165.293354 35.621875 l
165.501253 35.621875 l
165.709151 35.621875 l
165.91705 35.621875 l
166.124949 35.621875 l
166.332847 35.621875 l
166.540746 35.621875 l
166.748645 35.621875 l
166.956543 35.621875 l
167.164442 35.621875 l
167.372341 35.621875 l
167.580239 35.621875 l
167.788138 35.621875 l
167.996037 35.621875 l
168.203935 35.621875 l
168.411834 35.621875 l
168.619733 35.621875 l
168.827631 35.621875 l
169.03553 35.621875 l
169.243429 35.621875 l
169.451327 35.621875 l
169.659226 35.621875 l
169.867125 35.621875 l
170.075023 35.621875 l
170.282922 35.621875 l
170.490821 35.621875 l
170.698719 35.621875 l
170.906618 35.621875 l
171.114517 35.621875 l
171.322415 35.621875 l
171.530314 35.621875 l
171.738213 35.621875 l
171.946111 35.621875 l
172.15401 35.621875 l
172.361909 35.621875 l
172.569807 35.621875 l
172.777706 35.621875 l
172.985605 35.621875 l
173.193503 35.621875 l
173.401402 35.621875 l
173.6093 35.621875 l
173.817199 35.621875 l
174.025098 35.621875 l
174.232996 35.621875 l
174.440895 35.621875 l
174.648794 35.621875 l
174.856692 35.621875 l
175.064591 35.621875 l
175.27249 35.621875 l
175.480388 35.621875 l
175.688287 35.621875 l
175.896186 35.621875 l
176.104084 35.621875 l
176.311983 35.621875 l
176.519882 35.621875 l
176.72778 35.621875 l
176.935679 35.621875 l
177.143578 35.621875 l
177.351476 35.621875 l
177.559375 35.621875 l
177.559375 67.585555 l
177.559375 67.585555 l
177.351476 67.585555 l
177.143578 67.585555 l
176.935679 67.585555 l
176.72778 67.585555 l
176.519882 67.585555 l
176.311983 67.587221 l
176.104084 67.626683 l
175.896186 67.666145 l
175.688287 67.705607 l
175.480388 67.680415 l
175.27249 67.585555 l
175.064591 67.585555 l
174.856692 67.585555 l
174.648794 67.585555 l
174.440895 67.585555 l
174.232996 67.585555 l
174.025098 67.585555 l
173.817199 67.585555 l
173.6093 67.585555 l
173.401402 67.585555 l
173.193503 67.585555 l
172.985605 67.585555 l
172.777706 67.585555 l
172.569807 67.585555 l
172.361909 67.585555 l
172.15401 67.585555 l
171.946111 67.585555 l
171.738213 67.585555 l
171.530314 67.549677 l
171.322415 67.549677 l
171.114517 67.549677 l
170.906618 67.544075 l
170.698719 67.482035 l
170.490821 67.421931 l
170.282922 67.530674 l
170.075023 67.601735 l
169.867125 67.903758 l
169.659226 68.099041 l
169.451327 67.575236 l
169.243429 67.578777 l
169.03553 67.552732 l
168.827631 67.549677 l
168.619733 67.549677 l
168.411834 67.549677 l
168.203935 67.549677 l
167.996037 67.549677 l
167.788138 67.549677 l
167.580239 67.549677 l
167.372341 67.502588 l
167.164442 66.933235 l
166.956543 66.928639 l
166.748645 66.903288 l
166.540746 66.497565 l
166.332847 66.605904 l
166.124949 66.71745 l
165.91705 66.828996 l
165.709151 66.720899 l
165.501253 66.39773 l
165.293354 66.280915 l
165.085455 66.35155 l
164.877557 66.674602 l
164.669658 66.927814 l
164.46176 66.924848 l
164.253861 66.921882 l
164.045962 66.930361 l
163.838064 66.933235 l
163.630165 66.933235 l
163.422266 66.933235 l
163.214368 66.92868 l
163.006469 66.933235 l
162.79857 66.940786 l
162.590672 67.051482 l
162.382773 67.162178 l
162.174874 67.272874 l
161.966976 67.38357 l
161.759077 67.494266 l
161.551178 67.549677 l
161.34328 67.492689 l
161.135381 67.409592 l
160.927482 67.326495 l
160.719584 67.243398 l
160.511685 67.160301 l
160.303786 67.077204 l
160.095888 66.996158 l
159.887989 67.009561 l
159.68009 67.033191 l
159.472192 66.754446 l
159.264293 66.636684 l
159.056394 66.547503 l
158.848496 66.464689 l
158.640597 66.42475 l
158.432698 66.507526 l
158.2248 66.590544 l
158.016901 66.673562 l
157.809002 66.75658 l
157.601104 66.635724 l
157.393205 66.471659 l
157.185306 66.407562 l
156.977408 66.272477 l
156.769509 66.262912 l
156.56161 66.253347 l
156.353712 66.251913 l
156.145813 66.25659 l
155.937914 66.261267 l
155.730016 66.265944 l
155.522117 66.270621 l
155.314219 66.275298 l
155.10632 66.257334 l
154.898421 66.128766 l
154.690523 65.950345 l
154.482624 65.807296 l
154.274725 65.976321 l
154.066827 66.145346 l
153.858928 66.18994 l
153.651029 66.045596 l
153.443131 65.894547 l
153.235232 65.808181 l
153.027333 65.983396 l
152.819435 66.003648 l
152.611536 65.945353 l
152.403637 65.926502 l
152.195739 66.154968 l
151.98784 65.811116 l
151.779941 65.743291 l
151.572043 65.750377 l
151.364144 65.65858 l
151.156245 65.593494 l
150.948347 65.548779 l
150.740448 65.396477 l
150.532549 64.976275 l
150.324651 65.3539 l
150.116752 65.357105 l
149.908853 65.60876 l
149.700955 65.280491 l
149.493056 65.062328 l
149.285157 64.976275 l
149.077259 64.976275 l
148.86936 64.976275 l
148.661461 64.976275 l
148.453563 64.976275 l
148.245664 64.975764 l
148.037765 65.101151 l
147.829867 65.41762 l
147.621968 65.73409 l
147.414069 65.898969 l
147.206171 65.862167 l
146.998272 65.763256 l
146.790374 65.398479 l
146.582475 65.631214 l
146.374576 65.687194 l
146.166678 65.614525 l
145.958779 65.608149 l
145.75088 65.612692 l
145.542982 65.612767 l
145.335083 65.605596 l
145.127184 65.598425 l
144.919286 65.591255 l
144.711387 65.58418 l
144.503488 65.820507 l
144.29559 65.821529 l
144.087691 65.874605 l
143.879792 66.36498 l
143.671894 66.663292 l
143.463995 66.689578 l
143.256096 66.732619 l
143.048198 66.767806 l
142.840299 66.787427 l
142.6324 66.807047 l
142.424502 67.33755 l
142.216603 67.281122 l
142.008704 67.224694 l
141.800806 67.168265 l
141.592907 67.111837 l
141.385008 67.056629 l
141.17711 67.018399 l
140.969211 67.106442 l
140.761312 67.195881 l
140.553414 67.143 l
140.345515 67.386211 l
140.137616 67.482135 l
139.929718 67.540882 l
139.721819 67.584619 l
139.51392 67.756171 l
139.306022 67.851822 l
139.098123 67.950555 l
138.890224 67.84421 l
138.682326 67.777514 l
138.474427 67.719118 l
138.266529 67.660721 l
138.05863 67.602324 l
137.850731 67.636096 l
137.642833 67.910019 l
137.434934 68.183943 l
137.227035 68.21466 l
137.019137 68.024885 l
136.811238 67.577911 l
136.603339 67.579142 l
136.395441 67.580374 l
136.187542 67.581605 l
135.979643 67.582837 l
135.771745 67.584069 l
135.563846 67.5853 l
135.355947 67.610816 l
135.148049 67.71768 l
134.94015 67.646389 l
134.732251 67.665818 l
134.524353 67.608127 l
134.316454 67.708139 l
134.108555 67.729299 l
133.900657 67.75046 l
133.692758 67.572709 l
133.484859 67.572338 l
133.276961 67.574073 l
133.069062 67.575807 l
132.861163 67.577542 l
132.653265 67.579277 l
132.445366 67.49416 l
132.237467 67.303824 l
132.029569 67.078489 l
131.82167 67.410852 l
131.613771 67.533075 l
131.405873 67.569311 l
131.197974 67.686315 l
130.990075 67.71612 l
130.782177 67.694853 l
130.574278 67.670213 l
130.366379 67.645574 l
130.158481 67.60056 l
129.950582 67.568371 l
129.742683 67.584746 l
129.534785 67.654432 l
129.326886 67.639291 l
129.118988 67.62415 l
128.911089 67.57901 l
128.70319 67.577576 l
128.495292 67.489877 l
128.287393 67.574708 l
128.079494 67.533789 l
127.871596 67.33608 l
127.663697 67.390267 l
127.455798 67.26132 l
127.2479 67.248041 l
127.040001 67.23062 l
126.832102 67.202296 l
126.624204 67.173972 l
126.416305 67.148623 l
126.208406 67.226464 l
126.000508 67.199778 l
125.792609 67.083871 l
125.58471 67.044633 l
125.376812 67.015114 l
125.168913 67.33237 l
124.961014 67.551763 l
124.753116 67.550329 l
124.545217 67.542192 l
124.337318 67.565336 l
124.12942 67.560585 l
123.921521 67.564869 l
123.713622 67.569153 l
123.505724 67.573438 l
123.297825 67.577722 l
123.089926 67.517907 l
122.882028 67.184011 l
122.674129 67.506838 l
122.46623 67.547726 l
122.258332 67.555169 l
122.050433 67.562612 l
121.842534 67.570055 l
121.634636 67.577498 l
121.426737 67.584941 l
121.218838 67.70288 l
121.01094 67.830762 l
120.803041 67.958644 l
120.595143 68.086526 l
120.387244 68.214408 l
120.179345 68.34229 l
119.971447 68.470172 l
119.763548 68.598054 l
119.555649 68.842361 l
119.347751 68.917721 l
119.139852 68.982624 l
118.931953 68.624982 l
118.724055 68.343834 l
118.516156 68.173447 l
118.308257 68.004493 l
118.100359 67.858511 l
117.89246 67.709965 l
117.684561 67.629413 l
117.476663 67.640845 l
117.268764 67.788186 l
117.060865 67.860802 l
116.852967 67.805873 l
116.645068 67.934133 l
116.437169 68.067555 l
116.229271 68.200977 l
116.021372 68.147698 l
115.813473 68.05836 l
115.605575 67.969022 l
115.397676 67.879684 l
115.189777 67.871378 l
114.981879 67.977406 l
114.77398 68.01439 l
114.566081 67.933741 l
114.358183 67.947006 l
114.150284 68.421973 l
113.942385 68.315645 l
113.734487 68.228134 l
113.526588 68.245806 l
113.318689 68.053391 l
113.110791 68.065394 l
112.902892 68.090417 l
112.694993 68.115613 l
112.487095 68.207161 l
112.279196 68.152627 l
112.071298 68.165579 l
111.863399 68.178531 l
111.6555 68.016093 l
111.447602 67.972115 l
111.239703 68.009593 l
111.031804 68.136346 l
110.823906 68.024494 l
110.616007 68.064093 l
110.408108 68.125731 l
110.20021 68.187369 l
109.992311 68.249007 l
109.784412 68.298572 l
109.576514 68.337079 l
109.368615 68.375586 l
109.160716 68.416111 l
108.952818 68.494793 l
108.744919 68.655944 l
108.53702 68.606915 l
108.329122 68.62337 l
108.121223 68.635567 l
107.913324 68.52715 l
107.705426 67.952804 l
107.497527 67.383078 l
107.289628 66.813352 l
107.08173 66.799482 l
106.873831 66.865456 l
106.665932 67.046475 l
106.458034 67.355213 l
106.250135 67.663951 l
106.042236 67.97269 l
105.834338 68.268074 l
105.626439 68.477431 l
105.41854 68.690611 l
105.210642 68.959239 l
105.002743 68.976097 l
104.794844 68.987792 l
104.586946 69.117094 l
104.379047 68.712168 l
104.171148 68.270066 l
103.96325 67.874894 l
103.755351 67.492968 l
103.547452 67.392324 l
103.339554 67.303249 l
103.131655 67.214173 l
102.923757 67.125098 l
102.715858 67.036022 l
102.507959 66.946946 l
102.300061 66.857871 l
102.092162 66.768795 l
101.884263 67.448578 l
101.676365 67.269525 l
101.468466 67.110872 l
101.260567 67.34338 l
101.052669 67.215456 l
100.84477 67.184176 l
100.636871 67.430575 l
100.428973 67.395652 l
100.221074 66.922375 l
100.013175 66.835346 l
99.805277 66.931699 l
99.597378 67.03921 l
99.389479 67.146721 l
99.181581 67.258685 l
98.973682 67.37333 l
98.765783 67.05923 l
98.557885 66.841242 l
98.349986 67.070322 l
98.142087 66.905923 l
97.934189 66.937326 l
97.72629 67.00439 l
97.518391 66.602188 l
97.310493 66.615866 l
97.102594 66.634767 l
96.894695 66.638502 l
96.686797 66.672261 l
96.478898 66.860178 l
96.270999 66.683674 l
96.063101 66.698362 l
95.855202 66.79576 l
95.647303 67.218605 l
95.439405 67.306948 l
95.231506 67.85424 l
95.023607 67.934801 l
94.815709 67.992485 l
94.60781 68.039027 l
94.399912 68.085569 l
94.192013 68.144478 l
93.984114 68.211542 l
93.776216 68.278606 l
93.568317 68.368682 l
93.360418 68.380841 l
93.15252 68.555418 l
92.944621 69.022795 l
92.736722 69.058744 l
92.528824 69.046021 l
92.320925 68.775028 l
92.113026 67.339564 l
91.905128 66.897973 l
91.697229 66.928468 l
91.48933 66.994228 l
91.281432 67.059988 l
91.073533 66.926306 l
90.865634 66.903095 l
90.657736 66.879885 l
90.449837 66.885845 l
90.241938 66.89509 l
90.03404 66.904336 l
89.826141 66.913581 l
89.618242 66.573512 l
89.410344 66.219517 l
89.202445 66.244899 l
88.994546 66.570114 l
88.786648 66.91445 l
88.578749 66.854538 l
88.37085 66.392096 l
88.162952 66.746365 l
87.955053 67.035609 l
87.747154 67.049123 l
87.539256 67.079948 l
87.331357 67.110773 l
87.123458 67.323225 l
86.91556 67.220757 l
86.707661 67.139919 l
86.499762 67.143038 l
86.291864 67.148042 l
86.083965 67.157155 l
85.876067 67.166269 l
85.668168 67.175383 l
85.460269 67.199287 l
85.252371 67.514408 l
85.044472 67.331112 l
84.836573 67.217845 l
84.628675 67.220951 l
84.420776 67.230065 l
84.212877 67.23986 l
84.004979 67.25589 l
83.79708 67.27192 l
83.589181 67.320926 l
83.381283 67.441937 l
83.173384 67.672934 l
82.965485 67.763406 l
82.757587 67.750873 l
82.549688 67.731169 l
82.341789 67.711464 l
82.133891 67.69176 l
81.925992 67.672055 l
81.718093 67.657149 l
81.510195 67.642971 l
81.302296 67.628794 l
81.094397 67.392709 l
80.886499 67.404452 l
80.6786 67.416194 l
80.470701 67.427936 l
80.262803 67.439679 l
80.054904 67.476565 l
79.847005 67.52226 l
79.639107 67.515373 l
79.431208 67.453759 l
79.223309 67.375217 l
79.015411 67.172715 l
78.807512 66.970213 l
78.599613 66.923601 l
78.391715 66.941284 l
78.183816 66.980545 l
77.975917 67.019807 l
77.768019 67.059068 l
77.56012 67.361256 l
77.352221 67.298664 l
77.144323 67.299204 l
76.936424 67.311158 l
76.728526 67.263916 l
76.520627 66.92611 l
76.312728 66.966638 l
76.10483 67.04206 l
75.896931 67.221155 l
75.689032 67.206447 l
75.481134 67.193786 l
75.273235 67.181601 l
75.065336 67.169415 l
74.857438 67.15723 l
74.649539 67.153412 l
74.44164 67.139998 l
74.233742 67.112919 l
74.025843 67.175976 l
73.817944 67.246814 l
73.610046 67.317651 l
73.402147 67.388489 l
73.194248 67.406435 l
72.98635 67.339711 l
72.778451 67.214089 l
72.570552 67.088467 l
72.362654 66.972714 l
72.154755 67.167896 l
71.946856 67.306626 l
71.738958 67.155597 l
71.531059 67.26805 l
71.32316 67.251455 l
71.115262 67.234861 l
70.907363 67.218266 l
70.699464 67.201672 l
70.491566 67.185077 l
70.283667 67.168482 l
70.075768 67.151888 l
69.86787 67.135293 l
69.659971 67.122142 l
69.452072 67.111899 l
69.244174 67.189274 l
69.036275 67.121664 l
68.828376 67.048002 l
68.620478 66.988928 l
68.412579 67.021272 l
68.204681 67.10212 l
67.996782 67.157108 l
67.788883 67.212096 l
67.580985 67.267085 l
67.373086 67.322073 l
67.165187 67.380398 l
66.957289 67.439105 l
66.74939 67.500044 l
66.541491 67.568637 l
66.333593 67.570731 l
66.125694 67.750753 l
65.917795 67.740648 l
65.709897 67.616154 l
65.501998 67.491659 l
65.294099 67.426226 l
65.086201 67.466116 l
64.878302 67.712638 l
64.670403 67.683177 l
64.462505 67.629573 l
64.254606 67.673122 l
64.046707 67.481595 l
63.838809 67.760219 l
63.63091 67.803768 l
63.423011 67.847317 l
63.215113 67.884946 l
63.007214 67.631981 l
62.799315 67.394381 l
62.591417 67.313464 l
62.383518 67.418706 l
62.175619 67.431126 l
61.967721 67.502169 l
61.759822 67.661248 l
61.551923 67.820328 l
61.344025 67.93673 l
61.136126 68.036649 l
60.928227 68.022188 l
60.720329 67.822844 l
60.51243 67.770369 l
60.304531 68.171451 l
60.096633 68.100604 l
59.888734 68.200876 l
59.680836 67.922917 l
59.472937 68.062162 l
59.265038 68.622081 l
59.05714 68.438142 l
58.849241 67.778533 l
58.641342 67.835736 l
58.433444 67.892938 l
58.225545 67.383143 l
58.017646 67.326604 l
57.809748 67.356228 l
57.601849 67.385852 l
57.39395 67.415476 l
57.186052 67.119055 l
56.978153 66.933235 l
56.770254 66.933235 l
56.562356 66.933235 l
56.354457 66.933235 l
56.146558 66.933235 l
55.93866 66.933235 l
55.730761 66.933235 l
55.522862 66.933235 l
55.314964 66.933235 l
55.107065 66.933235 l
54.899166 66.933235 l
54.691268 66.925324 l
54.483369 66.906728 l
54.27547 66.900178 l
54.067572 66.914583 l
53.859673 66.928987 l
53.651774 66.933235 l
53.443876 66.933235 l
53.235977 66.933235 l
53.028078 66.933235 l
52.82018 66.933235 l
52.612281 66.933235 l
52.404382 66.933235 l
52.196484 66.933235 l
51.988585 66.933235 l
51.780686 67.1961 l
51.572788 67.446072 l
51.364889 67.384744 l
51.15699 67.400684 l
50.949092 67.568817 l
50.741193 67.565248 l
50.533295 68.111031 l
50.325396 68.246022 l
50.117497 68.201393 l
49.909599 67.919618 l
49.7017 67.791369 l
49.493801 68.002371 l
49.285903 68.083037 l
49.078004 68.202559 l
48.870105 67.94128 l
48.662207 67.888993 l
48.454308 67.844365 l
48.246409 67.803758 l
48.038511 67.905683 l
47.830612 68.041523 l
47.622713 68.014683 l
47.414815 67.987844 l
47.206916 67.961526 l
46.999017 67.937284 l
46.791119 67.913042 l
46.58322 67.8888 l
46.375321 67.585555 l
46.167423 67.585555 l
45.959524 67.585555 l
45.751625 67.585555 l
45.543727 67.608165 l
45.335828 67.722413 l
45.127929 67.719107 l
44.920031 67.694865 l
44.712132 67.585555 l
44.504233 67.585555 l
44.296335 67.585555 l
44.088436 67.597897 l
43.880537 67.585555 l
43.672639 67.585555 l
43.46474 67.585555 l
43.256841 67.585555 l
43.048943 67.585555 l
42.841044 67.585555 l
42.633145 67.576397 l
42.425247 67.574986 l
42.217348 67.573575 l
42.00945 67.336917 l
41.801551 67.570753 l
41.593652 67.569342 l
41.385754 67.567932 l
41.177855 67.566521 l
40.969956 67.585555 l
40.762058 67.585555 l
40.554159 67.585555 l
40.34626 67.585555 l
40.138362 67.585555 l
39.930463 67.585555 l
39.722564 67.585555 l
39.514666 67.585555 l
39.306767 67.585555 l
39.098868 67.585555 l
38.89097 67.585555 l
38.683071 67.585555 l
38.475172 67.585555 l
38.267274 67.585555 l
38.059375 67.585555 l
cl

gsave
0.122 0.467 0.706 setrgbcolor
fill
grestore
stroke
grestore
} bind def
0 0 o
grestore
0.800 setlinewidth
0.000 setgray
gsave
/o {
gsave
newpath
translate
0.8 setlinewidth
1 setlinejoin
0 setlinecap
0 0 m
0 -3.5 l

gsave
0.000 setgray
fill
grestore
stroke
grestore
} bind def
38.0594 35.6219 o
grestore
/DejaVuSans findfont
8.000 scalefont
setfont
gsave
35.512500 22.543750 translate
0.000000 rotate
0.000000 0.000000 m /zero glyphshow
grestore
gsave
/o {
gsave
newpath
translate
0.8 setlinewidth
1 setlinejoin
0 setlinecap
0 0 m
0 -3.5 l

gsave
0.000 setgray
fill
grestore
stroke
grestore
} bind def
107.809 35.6219 o
grestore
gsave
105.262500 22.543750 translate
0.000000 rotate
0.000000 0.000000 m /seven glyphshow
grestore
gsave
/o {
gsave
newpath
translate
0.8 setlinewidth
1 setlinejoin
0 setlinecap
0 0 m
0 -3.5 l

gsave
0.000 setgray
fill
grestore
stroke
grestore
} bind def
177.559 35.6219 o
grestore
gsave
172.465625 22.543750 translate
0.000000 rotate
0.000000 0.000000 m /one glyphshow
5.089844 0.000000 m /four glyphshow
grestore
gsave
/o {
gsave
newpath
translate
0.8 setlinewidth
1 setlinejoin
0 setlinecap
0 0 m
-3.5 0 l

gsave
0.000 setgray
fill
grestore
stroke
grestore
} bind def
38.0594 35.6219 o
grestore
gsave
25.965625 32.582813 translate
0.000000 rotate
0.000000 0.000000 m /zero glyphshow
grestore
gsave
/o {
gsave
newpath
translate
0.8 setlinewidth
1 setlinejoin
0 setlinecap
0 0 m
-3.5 0 l

gsave
0.000 setgray
fill
grestore
stroke
grestore
} bind def
38.0594 68.2379 o
grestore
gsave
25.965625 65.198813 translate
0.000000 rotate
0.000000 0.000000 m /five glyphshow
grestore
gsave
/o {
gsave
newpath
translate
0.8 setlinewidth
1 setlinejoin
0 setlinecap
0 0 m
-3.5 0 l

gsave
0.000 setgray
fill
grestore
stroke
grestore
} bind def
38.0594 100.854 o
grestore
gsave
20.871875 97.814813 translate
0.000000 rotate
0.000000 0.000000 m /one glyphshow
5.089844 0.000000 m /zero glyphshow
grestore
/DejaVuSans findfont
10.000 scalefont
setfont
gsave
14.793750 42.448813 translate
90.000000 rotate
0.000000 0.000000 m /P glyphshow
6.030273 0.000000 m /a glyphshow
12.158203 0.000000 m /i glyphshow
14.936523 0.000000 m /n glyphshow
21.274414 0.000000 m /space glyphshow
24.453125 0.000000 m /s glyphshow
29.663086 0.000000 m /c glyphshow
35.161133 0.000000 m /o glyphshow
41.279297 0.000000 m /r glyphshow
45.390625 0.000000 m /e glyphshow
grestore
1.500 setlinewidth
2 setlinecap
gsave
139.5 65.23 38.06 35.62 clipbox
38.059375 55.517635 m
38.267274 55.202848 l
39.514666 55.55643 l
39.722564 55.306232 l
39.930463 55.648593 l
40.554159 55.697194 l
40.762058 55.387235 l
41.593652 55.452036 l
41.801551 54.865315 l
43.048943 54.865315 l
43.256841 55.191475 l
44.504233 55.266919 l
44.712132 55.352825 l
44.920031 55.711381 l
45.127929 55.843795 l
45.543727 55.940179 l
45.959524 56.118406 l
46.375321 56.061232 l
46.791119 55.843795 l
49.285903 55.932717 l
49.7017 56.033166 l
50.325396 56.510001 l
50.949092 56.420884 l
51.364889 56.371805 l
51.572788 56.454688 l
51.780686 56.169955 l
52.404382 56.169955 l
53.235977 57.09729 l
53.443876 56.936002 l
54.27547 57.343884 l
54.483369 57.168395 l
54.691268 57.148435 l
55.314964 57.399374 l
55.522862 57.16053 l
56.770254 57.153911 l
56.978153 57.213163 l
57.601849 57.094151 l
57.809748 57.148435 l
58.225545 56.94135 l
58.433444 57.148435 l
59.680836 57.148435 l
60.096633 57.030035 l
60.51243 57.148435 l
62.591417 57.148435 l
63.007214 57.301477 l
64.046707 57.117755 l
64.462505 56.822275 l
65.086201 56.785198 l
65.709897 56.601982 l
65.917795 56.723224 l
66.125694 56.496115 l
67.373086 56.496115 l
67.580985 56.822275 l
67.788883 56.869107 l
67.996782 57.148435 l
68.204681 57.148435 l
69.659971 56.313071 l
70.283667 56.224339 l
70.907363 56.076045 l
71.115262 56.24203 l
71.32316 56.041392 l
71.531059 56.049569 l
71.738958 55.869539 l
71.946856 56.065924 l
72.154755 56.078357 l
72.362654 56.225378 l
72.778451 56.034857 l
73.194248 55.953604 l
73.402147 56.045949 l
73.610046 56.316916 l
73.817944 56.374999 l
74.025843 56.106839 l
74.649539 56.169955 l
74.857438 56.457415 l
75.689032 56.395222 l
75.896931 56.458344 l
76.10483 56.366631 l
76.520627 56.338653 l
76.936424 56.087579 l
77.975917 56.204454 l
78.391715 55.945512 l
78.807512 55.313976 l
79.431208 55.109587 l
79.639107 55.055785 l
79.847005 55.638981 l
80.054904 55.739451 l
80.470701 55.583457 l
80.886499 55.064 l
81.510195 54.834686 l
81.718093 54.652852 l
81.925992 54.661595 l
82.133891 54.308888 l
82.549688 54.408842 l
82.757587 54.611948 l
83.589181 54.522921 l
83.79708 54.7582 l
84.420776 54.704809 l
84.628675 54.878193 l
86.499762 54.305887 l
86.91556 54.349412 l
87.123458 54.26088 l
87.331357 54.306583 l
87.539256 54.130395 l
87.747154 54.263753 l
88.162952 54.116433 l
88.37085 53.908251 l
88.786648 54.379943 l
88.994546 54.311581 l
89.202445 54.389946 l
89.410344 54.628206 l
90.03404 54.814023 l
90.865634 55.105506 l
91.073533 54.943802 l
91.905128 54.951762 l
92.320925 55.051157 l
93.776216 54.758626 l
95.855202 54.871442 l
96.063101 54.800605 l
96.686797 55.103488 l
98.349986 55.141027 l
98.973682 55.125619 l
99.389479 54.485428 l
99.805277 54.517332 l
100.013175 54.798942 l
100.221074 54.541454 l
100.84477 54.577637 l
101.052669 54.124185 l
101.468466 54.059348 l
101.676365 54.601293 l
102.507959 55.09217 l
103.96325 55.060241 l
104.794844 55.199042 l
105.210642 55.427515 l
107.08173 55.755625 l
107.497527 55.7054 l
107.913324 55.747026 l
109.784412 55.57283 l
109.992311 55.321515 l
110.20021 55.493571 l
110.408108 55.453941 l
110.823906 55.071715 l
111.239703 55.05482 l
111.447602 55.142545 l
111.863399 55.441524 l
112.071298 55.383537 l
112.487095 55.552848 l
113.526588 55.598557 l
113.734487 55.624236 l
113.942385 55.476764 l
114.358183 55.683884 l
114.566081 55.533997 l
114.77398 55.553075 l
114.981879 55.393957 l
116.021372 55.594909 l
116.229271 55.782521 l
116.437169 55.762665 l
116.852967 56.011325 l
117.060865 56.032214 l
117.268764 55.699129 l
119.139852 55.224658 l
119.555649 55.480449 l
119.763548 55.156312 l
120.387244 55.8534 l
120.595143 55.578638 l
120.803041 55.650435 l
121.218838 55.419535 l
121.426737 55.210042 l
121.634636 55.254174 l
122.050433 55.604708 l
122.46623 55.764705 l
122.882028 55.980341 l
123.089926 56.103929 l
123.505724 55.984653 l
123.713622 56.004733 l
124.337318 55.706608 l
127.2479 55.208057 l
127.455798 55.386073 l
128.287393 55.195429 l
128.495292 55.063248 l
128.70319 55.305302 l
129.742683 55.256915 l
129.950582 55.111569 l
130.366379 55.379623 l
130.574278 55.110549 l
131.197974 55.187888 l
131.82167 55.413655 l
132.237467 55.452751 l
132.445366 55.50479 l
132.653265 55.4422 l
132.861163 55.529959 l
133.276961 55.314784 l
133.900657 55.480043 l
135.979643 55.190116 l
136.187542 55.089601 l
136.811238 55.062575 l
137.434934 54.762223 l
137.850731 55.15016 l
138.890224 55.513494 l
139.098123 55.464763 l
139.306022 55.243376 l
139.51392 55.40309 l
140.345515 55.236677 l
140.761312 55.272363 l
141.385008 55.475114 l
141.592907 55.83016 l
142.008704 55.931096 l
142.6324 55.673922 l
144.919286 55.777955 l
145.335083 55.385071 l
147.414069 55.785636 l
147.829867 55.578684 l
148.037765 55.802783 l
148.453563 55.651259 l
148.661461 55.432512 l
148.86936 55.686696 l
149.077259 55.657674 l
149.285157 54.858873 l
150.116752 55.379951 l
150.532549 54.827801 l
150.740448 54.900567 l
151.156245 54.542189 l
151.364144 54.579892 l
151.572043 54.744281 l
152.819435 54.672791 l
153.443131 54.676752 l
153.858928 54.722837 l
154.066827 54.537148 l
154.274725 54.079054 l
154.482624 54.227596 l
154.690523 54.539155 l
155.730016 54.440241 l
156.145813 54.204871 l
156.56161 54.524179 l
157.601104 54.693264 l
157.809002 55.001409 l
158.016901 54.875458 l
158.432698 54.913549 l
158.640597 54.573769 l
159.056394 54.660682 l
159.887989 55.409611 l
160.095888 55.865926 l
161.551178 56.139578 l
162.174874 55.898994 l
163.422266 55.681886 l
163.630165 55.621025 l
164.253861 56.251692 l
165.293354 56.480905 l
165.91705 56.473314 l
166.124949 56.408047 l
166.748645 56.647866 l
167.580239 57.391545 l
167.996037 57.184167 l
168.203935 57.594224 l
169.03553 57.627468 l
169.659226 57.899416 l
170.282922 57.800755 l
171.530314 57.730603 l
172.777706 57.148435 l
174.232996 57.051998 l
174.856692 56.958468 l
175.064591 56.635862 l
175.480388 56.720797 l
175.688287 56.531363 l
176.72778 56.401451 l
177.143578 56.169955 l
177.559375 56.169955 l
177.559375 56.169955 l
stroke
grestore
0.800 setlinewidth
0 setlinejoin
[] 0 setdash
gsave
38.059375 35.621875 m
38.059375 100.853875 l
stroke
grestore
gsave
177.559375 35.621875 m
177.559375 100.853875 l
stroke
grestore
gsave
38.059375 35.621875 m
177.559375 35.621875 l
stroke
grestore
gsave
38.059375 100.853875 m
177.559375 100.853875 l
stroke
grestore
gsave
205.459375 35.621875 m
344.959375 35.621875 l
344.959375 100.853875 l
205.459375 100.853875 l
cl
grestore
1.000 setlinewidth
1 setlinejoin
0 setlinecap
[] 0 setdash
1.000 0.498 0.055 setrgbcolor
gsave
139.5 65.23 205.5 35.62 clipbox
/o {
gsave
newpath
translate
1.0 setlinewidth
1 setlinejoin
0 setlinecap
205.459375 93.830998 m
205.459375 70.042192 l
205.667274 70.042192 l
205.875172 70.042192 l
206.083071 70.042192 l
206.29097 70.042192 l
206.498868 70.042192 l
206.706767 70.042192 l
206.914666 70.042192 l
207.122564 70.042192 l
207.330463 70.042192 l
207.538362 70.042192 l
207.74626 70.042192 l
207.954159 70.042192 l
208.162058 70.042192 l
208.369956 70.042192 l
208.577855 70.042192 l
208.785754 70.042192 l
208.993652 69.389872 l
209.201551 69.484532 l
209.40945 70.042192 l
209.617348 70.042192 l
209.825247 70.042192 l
210.033145 70.197025 l
210.241044 70.717265 l
210.448943 71.194189 l
210.656841 71.499475 l
210.86474 71.384651 l
211.072639 71.238116 l
211.280537 71.194189 l
211.488436 71.194189 l
211.696335 71.194189 l
211.904233 71.194189 l
212.112132 71.194189 l
212.320031 71.194174 l
212.527929 71.191199 l
212.735828 71.188224 l
212.943727 71.185249 l
213.151625 71.182275 l
213.359524 71.1793 l
213.567423 71.176325 l
213.775321 71.17335 l
213.98322 71.170376 l
214.191119 71.167401 l
214.399017 71.164426 l
214.606916 71.18721 l
214.814815 71.235888 l
215.022713 71.284567 l
215.230612 71.333245 l
215.438511 71.381923 l
215.646409 71.430602 l
215.854308 71.47928 l
216.062207 71.491626 l
216.270105 71.478211 l
216.478004 71.464797 l
216.685903 71.223893 l
216.893801 71.437968 l
217.1017 71.424553 l
217.309599 71.411139 l
217.517497 71.397724 l
217.725396 71.38431 l
217.933295 71.430312 l
218.141193 71.499475 l
218.349092 71.499475 l
218.55699 71.499475 l
218.764889 71.499475 l
218.972788 71.499475 l
219.180686 71.499475 l
219.388585 71.499475 l
219.596484 71.883945 l
219.804382 71.999152 l
220.012281 71.999152 l
220.22018 71.999152 l
220.428078 71.999152 l
220.635977 71.999152 l
220.843876 71.999152 l
221.051774 71.999152 l
221.259673 71.999152 l
221.467572 71.999152 l
221.67547 71.999152 l
221.883369 71.999152 l
222.091268 71.999152 l
222.299166 71.999152 l
222.507065 71.999152 l
222.714964 71.999152 l
222.922862 71.999152 l
223.130761 71.999152 l
223.33866 71.984121 l
223.546558 71.866074 l
223.754457 71.748027 l
223.962356 71.62998 l
224.170254 71.511934 l
224.378153 71.515746 l
224.586052 71.74217 l
224.79395 71.968595 l
225.001849 71.999152 l
225.209748 71.979221 l
225.417646 71.951037 l
225.625545 71.922853 l
225.833444 71.894669 l
226.041342 71.866485 l
226.249241 71.838301 l
226.45714 71.810117 l
226.665038 71.781933 l
226.872937 71.753749 l
227.080836 71.725565 l
227.288734 71.712233 l
227.496633 71.70717 l
227.704531 71.742704 l
227.91243 71.809781 l
228.120329 71.876857 l
228.328227 71.932069 l
228.536126 71.903614 l
228.744025 71.87516 l
228.951923 71.855126 l
229.159822 71.835281 l
229.367721 71.815436 l
229.575619 71.795591 l
229.783518 71.775747 l
229.991417 71.755902 l
230.199315 71.736057 l
230.407214 71.716212 l
230.615113 71.696367 l
230.823011 71.676522 l
231.03091 71.656677 l
231.238809 71.636832 l
231.446707 71.616988 l
231.654606 71.597143 l
231.862505 71.577298 l
232.070403 71.557453 l
232.278302 71.537608 l
232.486201 71.517763 l
232.694099 71.498999 l
232.901998 71.492937 l
233.109897 71.486875 l
233.317795 71.480813 l
233.525694 71.47475 l
233.733593 71.468688 l
233.941491 71.462626 l
234.14939 71.477923 l
234.357289 71.595996 l
234.565187 71.763069 l
234.773086 71.930141 l
234.980985 71.929131 l
235.188883 71.62112 l
235.396782 71.442544 l
235.604681 71.414128 l
235.812579 71.408065 l
236.020478 71.402003 l
236.228376 71.395941 l
236.436275 71.389878 l
236.644174 71.455477 l
236.852072 71.694891 l
237.059971 72.034334 l
237.26787 72.387293 l
237.475768 72.879235 l
237.683667 73.371177 l
237.891566 73.863119 l
238.099464 74.151108 l
238.307363 74.640351 l
238.515262 74.852256 l
238.72316 74.965251 l
238.931059 74.821652 l
239.138958 74.678053 l
239.346856 74.534454 l
239.554755 74.390855 l
239.762654 74.247256 l
239.970552 74.107198 l
240.178451 74.063331 l
240.38635 74.019463 l
240.594248 73.975596 l
240.802147 73.931729 l
241.010046 73.887862 l
241.217944 73.843995 l
241.425843 73.800128 l
241.633742 73.756261 l
241.84164 73.712394 l
242.049539 73.668527 l
242.257438 73.62466 l
242.465336 73.580793 l
242.673235 73.536926 l
242.881134 73.498183 l
243.089032 73.498183 l
243.296931 73.498183 l
243.50483 73.411971 l
243.712728 73.288755 l
243.920627 73.165539 l
244.128526 73.042323 l
244.336424 72.919107 l
244.544323 72.79589 l
244.752221 72.846349 l
244.96012 73.273604 l
245.168019 73.850314 l
245.375917 74.023045 l
245.583816 74.393614 l
245.791715 74.589311 l
245.999613 74.624286 l
246.207512 75.334983 l
246.415411 75.741954 l
246.623309 75.737743 l
246.831208 75.771464 l
247.039107 75.858567 l
247.247005 75.94567 l
247.454904 76.032773 l
247.662803 76.243013 l
247.870701 76.526789 l
248.0786 76.466132 l
248.286499 76.405475 l
248.494397 76.344818 l
248.702296 76.284161 l
248.910195 75.987205 l
249.118093 75.984056 l
249.325992 76.045477 l
249.533891 76.058327 l
249.741789 76.039798 l
249.949688 76.021268 l
250.157587 76.002738 l
250.365485 75.984208 l
250.573384 75.965679 l
250.781283 75.947149 l
250.989181 75.928619 l
251.19708 75.91009 l
251.404979 75.89156 l
251.612877 75.87303 l
251.820776 75.8545 l
252.028675 75.835971 l
252.236573 75.817441 l
252.444472 75.798911 l
252.652371 75.780381 l
252.860269 75.761852 l
253.068168 75.743322 l
253.276067 75.724792 l
253.483965 75.760522 l
253.691864 76.015779 l
253.899762 75.987649 l
254.107661 75.959519 l
254.31556 75.931388 l
254.523458 75.903258 l
254.731357 75.863137 l
254.939256 75.395489 l
255.147154 74.934896 l
255.355053 74.481567 l
255.562952 75.795288 l
255.77085 75.784487 l
255.978749 75.770676 l
256.186648 75.756864 l
256.394546 75.743052 l
256.602445 75.72924 l
256.810344 75.403178 l
257.018242 74.877341 l
257.226141 74.351504 l
257.43404 74.152086 l
257.641938 74.503666 l
257.849837 74.855246 l
258.057736 75.206826 l
258.265634 75.558406 l
258.473533 75.604935 l
258.681432 75.635609 l
258.88933 75.699363 l
259.097229 75.763117 l
259.305128 75.826871 l
259.513026 75.890625 l
259.720925 75.954379 l
259.928824 76.018132 l
260.136722 76.081886 l
260.344621 76.095302 l
260.55252 76.05561 l
260.760418 76.017577 l
260.968317 75.979544 l
261.176216 75.941512 l
261.384114 75.903479 l
261.592013 75.865447 l
261.799912 75.827414 l
262.00781 75.789381 l
262.215709 75.751349 l
262.423607 75.713316 l
262.631506 75.675284 l
262.839405 75.637251 l
263.047303 75.599218 l
263.255202 75.561186 l
263.463101 75.523153 l
263.670999 75.485121 l
263.878898 75.475221 l
264.086797 75.480841 l
264.294695 75.486461 l
264.502594 75.492081 l
264.710493 75.497701 l
264.918391 75.50332 l
265.12629 75.50894 l
265.334189 75.51456 l
265.542087 75.52018 l
265.749986 75.5258 l
265.957885 75.531419 l
266.165783 75.537039 l
266.373682 75.542659 l
266.581581 75.548279 l
266.789479 75.553899 l
266.997378 75.559519 l
267.205277 75.565138 l
267.413175 75.570758 l
267.621074 75.576378 l
267.828973 75.581998 l
268.036871 75.587618 l
268.24477 75.593237 l
268.452669 75.598857 l
268.660567 75.633788 l
268.868466 75.680679 l
269.076365 75.72757 l
269.284263 75.774461 l
269.492162 75.821351 l
269.700061 75.868242 l
269.907959 75.84946 l
270.115858 75.771858 l
270.323757 75.694255 l
270.531655 75.616653 l
270.739554 75.53905 l
270.947452 75.461448 l
271.155351 75.42367 l
271.36325 75.391259 l
271.571148 75.358848 l
271.779047 75.326437 l
271.986946 75.294027 l
272.194844 75.261616 l
272.402743 75.229205 l
272.610642 75.196794 l
272.81854 75.164384 l
273.026439 75.131973 l
273.234338 75.099562 l
273.442236 75.067151 l
273.650135 74.986769 l
273.858034 74.88103 l
274.065932 74.629766 l
274.273831 74.378502 l
274.48173 74.127238 l
274.689628 73.875975 l
274.897527 74.113159 l
275.105426 74.277183 l
275.313324 74.672005 l
275.521223 74.973744 l
275.729122 74.940145 l
275.93702 74.906546 l
276.144919 74.872947 l
276.352818 74.839348 l
276.560716 74.805749 l
276.768615 74.824859 l
276.976514 74.85695 l
277.184412 74.889042 l
277.392311 74.921133 l
277.60021 74.953225 l
277.808108 74.985316 l
278.016007 75.017408 l
278.223906 75.127801 l
278.431804 75.261347 l
278.639703 75.394893 l
278.847602 75.528438 l
279.0555 75.603241 l
279.263399 75.588733 l
279.471298 75.574225 l
279.679196 75.559718 l
279.887095 75.54521 l
280.094993 75.530702 l
280.302892 75.516195 l
280.510791 75.501687 l
280.718689 75.487179 l
280.926588 75.472672 l
281.134487 75.458164 l
281.342385 75.443656 l
281.550284 75.429149 l
281.758183 75.414641 l
281.966081 75.400133 l
282.17398 75.385626 l
282.381879 75.371118 l
282.589777 75.35661 l
282.797676 75.342103 l
283.005575 75.327595 l
283.213473 75.313087 l
283.421372 75.29858 l
283.629271 75.284072 l
283.837169 75.269564 l
284.045068 75.255056 l
284.252967 75.258931 l
284.460865 75.241387 l
284.668764 75.223844 l
284.876663 75.2063 l
285.084561 75.188757 l
285.29246 75.171213 l
285.500359 75.175476 l
285.708257 75.038972 l
285.916156 74.935161 l
286.124055 74.89712 l
286.331953 74.85908 l
286.539852 74.82104 l
286.747751 74.782999 l
286.955649 74.744959 l
287.163548 74.675853 l
287.371447 74.372039 l
287.579345 74.206935 l
287.787244 74.108062 l
287.995143 74.11362 l
288.203041 74.119177 l
288.41094 74.124735 l
288.618838 74.130292 l
288.826737 74.13585 l
289.034636 74.141407 l
289.242534 74.122681 l
289.450433 73.916613 l
289.658332 73.608049 l
289.86623 73.557932 l
290.074129 73.518785 l
290.282028 73.583574 l
290.489926 73.648362 l
290.697825 73.713151 l
290.905724 73.743093 l
291.113622 73.723154 l
291.321521 73.688627 l
291.52942 73.642727 l
291.737318 73.596828 l
291.945217 73.550929 l
292.153116 73.505029 l
292.361014 73.495553 l
292.568913 73.526553 l
292.776812 73.479977 l
292.98471 73.426214 l
293.192609 73.372451 l
293.400508 73.318688 l
293.608406 73.264926 l
293.816305 73.211163 l
294.024204 73.1574 l
294.232102 73.103637 l
294.440001 73.049874 l
294.6479 72.996111 l
294.855798 72.942348 l
295.063697 72.888585 l
295.271596 72.834822 l
295.479494 72.781059 l
295.687393 72.727296 l
295.895292 72.673534 l
296.10319 72.619771 l
296.311089 72.672602 l
296.518988 72.900967 l
296.726886 73.329848 l
296.934785 73.59135 l
297.142683 73.571024 l
297.350582 73.550699 l
297.558481 73.530374 l
297.766379 73.510049 l
297.974278 73.489724 l
298.182177 73.469399 l
298.390075 73.449073 l
298.597974 73.428748 l
298.805873 73.29802 l
299.013771 73.133912 l
299.22167 72.969804 l
299.429569 73.571178 l
299.637467 73.514721 l
299.845366 73.583009 l
300.053265 73.803454 l
300.261163 74.123458 l
300.469062 74.10895 l
300.676961 74.094443 l
300.884859 74.079935 l
301.092758 74.065427 l
301.300657 74.05092 l
301.508555 74.036412 l
301.716454 74.021904 l
301.924353 74.007397 l
302.132251 73.992889 l
302.34015 73.987095 l
302.548049 74.017455 l
302.755947 74.047815 l
302.963846 74.078176 l
303.171745 74.108536 l
303.379643 74.138897 l
303.587542 74.169257 l
303.795441 73.985533 l
304.003339 73.813961 l
304.211238 73.743647 l
304.419137 73.798535 l
304.627035 73.889048 l
304.834934 73.979561 l
305.042833 74.070073 l
305.250731 74.160586 l
305.45863 74.251099 l
305.666529 74.341611 l
305.874427 74.14343 l
306.082326 73.895057 l
306.290224 73.646683 l
306.498123 73.39831 l
306.706022 73.214385 l
306.91392 73.213842 l
307.121819 73.41901 l
307.329718 73.732576 l
307.537616 74.046143 l
307.745515 74.359709 l
307.953414 74.673276 l
308.161312 74.986842 l
308.369211 75.178199 l
308.57711 74.773156 l
308.785008 74.895829 l
308.992907 75.259273 l
309.200806 75.501706 l
309.408704 75.581036 l
309.616603 75.71025 l
309.824502 75.857475 l
310.0324 75.882437 l
310.240299 75.907398 l
310.448198 75.932359 l
310.656096 75.95732 l
310.863995 75.982282 l
311.071894 76.007243 l
311.279792 76.032204 l
311.487691 76.057166 l
311.69559 76.071341 l
311.903488 76.104634 l
312.111387 76.178875 l
312.319286 76.252397 l
312.527184 76.362763 l
312.735083 76.442962 l
312.942982 76.32056 l
313.15088 76.307359 l
313.358779 76.307045 l
313.566678 76.322489 l
313.774576 76.34129 l
313.982475 76.377243 l
314.190374 76.413195 l
314.398272 76.449147 l
314.606171 76.4851 l
314.814069 76.521052 l
315.021968 76.557004 l
315.229867 76.565392 l
315.437765 76.781552 l
315.645664 76.817504 l
315.853563 76.853456 l
316.061461 76.889409 l
316.26936 76.925361 l
316.477259 76.961313 l
316.685157 76.997266 l
316.893056 77.033218 l
317.100955 77.06917 l
317.308853 77.105122 l
317.516752 77.141075 l
317.724651 77.177027 l
317.932549 77.212979 l
318.140448 77.248932 l
318.348347 77.284884 l
318.556245 77.320836 l
318.764144 77.355952 l
318.972043 77.389245 l
319.179941 77.422538 l
319.38784 77.455831 l
319.595739 77.489124 l
319.803637 77.522417 l
320.011536 77.441595 l
320.219435 76.977145 l
320.427333 76.739365 l
320.635232 76.816115 l
320.843131 76.892865 l
321.051029 76.969616 l
321.258928 77.046366 l
321.466827 77.146876 l
321.674725 77.294082 l
321.882624 77.441287 l
322.090523 77.681808 l
322.298421 77.934918 l
322.50632 77.867235 l
322.714219 77.804483 l
322.922117 78.005255 l
323.130016 78.014355 l
323.337914 77.981982 l
323.545813 77.949609 l
323.753712 77.917237 l
323.96161 77.884864 l
324.169509 77.852492 l
324.377408 77.820119 l
324.585306 77.787747 l
324.793205 77.755374 l
325.001104 77.723002 l
325.209002 77.726205 l
325.416901 77.736869 l
325.6248 77.747533 l
325.832698 77.628213 l
326.040597 77.333189 l
326.248496 77.724982 l
326.456394 77.514478 l
326.664293 77.320651 l
326.872192 77.126824 l
327.08009 77.094729 l
327.287989 77.095983 l
327.495888 77.130892 l
327.703786 77.165801 l
327.911685 76.791336 l
328.119584 76.622757 l
328.327482 76.586434 l
328.535381 76.600993 l
328.74328 76.615552 l
328.951178 76.630111 l
329.159077 76.55724 l
329.366976 76.436919 l
329.574874 76.422671 l
329.782773 76.468211 l
329.990672 76.51587 l
330.19857 76.563529 l
330.406469 76.565392 l
330.614368 76.565392 l
330.822266 76.565392 l
331.030165 76.565392 l
331.238064 76.568049 l
331.445962 76.582721 l
331.653861 76.597394 l
331.86176 76.612066 l
332.069658 76.626739 l
332.277557 76.641411 l
332.485455 76.656084 l
332.693354 76.670756 l
332.901253 76.685429 l
333.109151 76.700101 l
333.31705 76.714774 l
333.524949 76.75539 l
333.732847 76.803421 l
333.940746 76.851451 l
334.148645 76.899482 l
334.356543 76.947512 l
334.564442 76.995543 l
334.772341 77.043573 l
334.980239 77.091604 l
335.188138 77.139634 l
335.396037 77.187665 l
335.603935 77.235695 l
335.811834 77.283725 l
336.019733 77.331756 l
336.227631 77.379786 l
336.43553 77.934216 l
336.643429 77.948888 l
336.851327 77.963561 l
337.059226 77.978233 l
337.267125 78.012297 l
337.475023 78.294832 l
337.682922 78.522352 l
337.890821 78.5366 l
338.098719 78.551273 l
338.306618 78.674995 l
338.514517 78.669287 l
338.722415 78.616345 l
338.930314 78.609963 l
339.138213 78.624635 l
339.346111 78.674995 l
339.55401 78.674995 l
339.761909 78.674995 l
339.969807 78.674995 l
340.177706 78.674995 l
340.385605 78.674995 l
340.593503 78.674995 l
340.801402 78.674995 l
341.0093 78.674995 l
341.217199 78.674995 l
341.425098 78.674995 l
341.632996 78.674995 l
341.840895 78.674995 l
342.048794 78.674995 l
342.256692 78.674995 l
342.464591 78.674995 l
342.67249 78.674995 l
342.880388 78.674995 l
343.088287 78.674995 l
343.296186 78.674995 l
343.504084 78.674995 l
343.711983 78.674995 l
343.919882 78.674995 l
344.12778 78.674995 l
344.335679 78.674995 l
344.543578 78.674995 l
344.751476 78.674995 l
344.959375 78.674995 l
344.959375 95.635315 l
344.959375 95.635315 l
344.751476 95.635315 l
344.543578 95.635315 l
344.335679 95.635315 l
344.12778 95.635315 l
343.919882 95.635315 l
343.711983 95.634505 l
343.504084 95.62377 l
343.296186 95.613035 l
343.088287 95.6023 l
342.880388 95.591565 l
342.67249 95.58083 l
342.464591 95.570096 l
342.256692 95.559361 l
342.048794 95.548626 l
341.840895 95.537891 l
341.632996 95.64197 l
341.425098 95.619654 l
341.217199 95.582207 l
341.0093 95.638117 l
340.801402 95.713707 l
340.593503 95.789298 l
340.385605 95.864888 l
340.177706 95.940479 l
339.969807 96.005344 l
339.761909 95.883651 l
339.55401 95.758005 l
339.346111 95.625634 l
339.138213 95.398338 l
338.930314 95.291134 l
338.722415 95.0539 l
338.514517 95.013175 l
338.306618 94.972449 l
338.098719 94.931723 l
337.890821 94.890998 l
337.682922 94.850272 l
337.475023 94.809547 l
337.267125 94.818989 l
337.059226 94.843219 l
336.851327 94.86745 l
336.643429 94.565356 l
336.43553 94.825614 l
336.227631 94.940142 l
336.019733 94.801199 l
335.811834 94.641259 l
335.603935 94.860909 l
335.396037 94.750824 l
335.188138 94.953277 l
334.980239 95.135846 l
334.772341 95.172907 l
334.564442 95.162172 l
334.356543 95.151437 l
334.148645 95.140703 l
333.940746 95.129968 l
333.732847 95.119233 l
333.524949 95.108498 l
333.31705 95.097763 l
333.109151 95.087028 l
332.901253 95.076294 l
332.693354 95.065559 l
332.485455 95.054824 l
332.277557 95.044089 l
332.069658 95.033354 l
331.86176 95.052389 l
331.653861 95.092355 l
331.445962 95.13232 l
331.238064 95.17774 l
331.030165 95.223653 l
330.822266 95.269567 l
330.614368 95.31548 l
330.406469 95.361394 l
330.19857 95.407307 l
329.990672 95.52012 l
329.782773 95.645176 l
329.574874 95.647916 l
329.366976 95.663364 l
329.159077 95.68037 l
328.951178 95.741731 l
328.74328 95.803092 l
328.535381 95.864453 l
328.327482 95.925814 l
328.119584 95.987175 l
327.911685 96.048536 l
327.703786 96.109897 l
327.495888 96.171258 l
327.287989 96.232619 l
327.08009 96.273129 l
326.872192 96.304315 l
326.664293 96.320298 l
326.456394 96.429976 l
326.248496 96.514428 l
326.040597 96.59888 l
325.832698 96.662146 l
325.6248 96.723507 l
325.416901 96.784868 l
325.209002 96.846229 l
325.001104 96.90759 l
324.793205 96.968951 l
324.585306 96.959872 l
324.377408 96.758269 l
324.169509 96.556666 l
323.96161 96.591398 l
323.753712 96.629228 l
323.545813 96.664405 l
323.337914 96.686787 l
323.130016 96.709169 l
322.922117 96.731552 l
322.714219 96.753934 l
322.50632 96.776317 l
322.298421 96.86284 l
322.090523 97.067807 l
321.882624 97.272774 l
321.674725 97.477742 l
321.466827 97.619901 l
321.258928 97.640852 l
321.051029 97.60512 l
320.843131 97.517356 l
320.635232 97.400388 l
320.427333 97.28342 l
320.219435 97.273185 l
320.011536 97.325953 l
319.803637 97.378722 l
319.595739 97.431491 l
319.38784 97.484259 l
319.179941 97.630197 l
318.972043 97.617019 l
318.764144 97.613716 l
318.556245 97.598457 l
318.348347 97.543854 l
318.140448 97.500714 l
317.932549 97.457574 l
317.724651 97.236786 l
317.516752 97.24599 l
317.308853 97.24983 l
317.100955 97.17909 l
316.893056 96.73616 l
316.685157 96.29323 l
316.477259 95.8503 l
316.26936 95.40737 l
316.061461 95.30495 l
315.853563 95.20705 l
315.645664 95.109149 l
315.437765 95.011248 l
315.229867 94.757648 l
315.021968 94.60419 l
314.814069 94.623521 l
314.606171 94.642853 l
314.398272 94.662185 l
314.190374 94.681517 l
313.982475 94.66146 l
313.774576 94.627626 l
313.566678 94.593792 l
313.358779 94.566649 l
313.15088 94.781136 l
312.942982 94.951268 l
312.735083 95.046458 l
312.527184 95.141648 l
312.319286 95.236837 l
312.111387 95.275058 l
311.903488 95.2946 l
311.69559 95.314143 l
311.487691 95.333686 l
311.279792 95.348786 l
311.071894 95.356457 l
310.863995 95.364128 l
310.656096 95.303945 l
310.448198 95.231939 l
310.240299 95.159933 l
310.0324 95.087926 l
309.824502 95.01592 l
309.616603 94.943914 l
309.408704 94.871908 l
309.200806 94.799902 l
308.992907 94.727896 l
308.785008 94.671244 l
308.57711 94.68124 l
308.369211 94.691235 l
308.161312 94.701231 l
307.953414 94.711227 l
307.745515 94.721223 l
307.537616 94.731218 l
307.329718 94.741214 l
307.121819 94.75121 l
306.91392 94.733957 l
306.706022 94.576406 l
306.498123 94.418855 l
306.290224 94.264149 l
306.082326 94.323487 l
305.874427 94.346606 l
305.666529 94.364733 l
305.45863 94.38286 l
305.250731 94.400987 l
305.042833 94.419114 l
304.834934 94.437241 l
304.627035 94.310739 l
304.419137 93.830998 l
304.211238 93.798547 l
304.003339 93.632198 l
303.795441 93.434349 l
303.587542 93.265731 l
303.379643 93.386398 l
303.171745 93.609466 l
302.963846 93.882294 l
302.755947 94.133491 l
302.548049 94.327543 l
302.34015 94.438316 l
302.132251 94.690763 l
301.924353 94.736408 l
301.716454 94.685119 l
301.508555 94.615153 l
301.300657 94.513507 l
301.092758 94.376205 l
300.884859 94.368279 l
300.676961 94.360352 l
300.469062 94.352426 l
300.261163 94.334041 l
300.053265 94.172283 l
299.845366 94.00087 l
299.637467 94.019147 l
299.429569 94.080011 l
299.22167 94.140875 l
299.013771 94.192472 l
298.805873 94.187846 l
298.597974 94.170472 l
298.390075 94.144864 l
298.182177 94.119255 l
297.974278 94.093646 l
297.766379 94.068038 l
297.558481 94.042429 l
297.350582 94.01682 l
297.142683 93.991212 l
296.934785 94.014283 l
296.726886 94.075561 l
296.518988 94.136839 l
296.311089 94.133963 l
296.10319 94.109828 l
295.895292 94.063849 l
295.687393 94.059567 l
295.479494 94.104438 l
295.271596 94.149309 l
295.063697 94.19418 l
294.855798 94.239051 l
294.6479 94.109524 l
294.440001 93.910369 l
294.232102 93.932011 l
294.024204 93.83469 l
293.816305 93.773839 l
293.608406 93.792659 l
293.400508 94.266782 l
293.192609 94.294127 l
292.98471 94.276516 l
292.776812 94.226486 l
292.568913 93.965784 l
292.361014 93.77553 l
292.153116 93.764401 l
291.945217 93.753273 l
291.737318 93.742144 l
291.52942 93.731015 l
291.321521 93.749532 l
291.113622 93.800155 l
290.905724 93.788229 l
290.697825 93.770663 l
290.489926 93.762868 l
290.282028 93.781733 l
290.074129 93.800597 l
289.86623 93.799843 l
289.658332 93.79197 l
289.450433 93.784097 l
289.242534 93.776223 l
289.034636 93.76835 l
288.826737 93.760477 l
288.618838 93.752604 l
288.41094 93.853975 l
288.203041 93.943278 l
287.995143 94.043692 l
287.787244 94.284163 l
287.579345 94.511293 l
287.371447 94.574043 l
287.163548 94.551517 l
286.955649 94.528991 l
286.747751 94.574132 l
286.539852 94.625805 l
286.331953 94.677479 l
286.124055 94.728533 l
285.916156 94.624094 l
285.708257 94.519656 l
285.500359 94.415218 l
285.29246 94.157269 l
285.084561 93.966158 l
284.876663 93.845214 l
284.668764 93.832319 l
284.460865 93.835504 l
284.252967 93.838688 l
284.045068 93.841873 l
283.837169 93.845057 l
283.629271 93.85804 l
283.421372 93.87139 l
283.213473 93.884741 l
283.005575 93.898091 l
282.797676 93.911442 l
282.589777 93.924793 l
282.381879 93.938143 l
282.17398 93.951494 l
281.966081 93.964844 l
281.758183 93.978195 l
281.550284 93.991546 l
281.342385 94.004896 l
281.134487 94.018247 l
280.926588 94.031597 l
280.718689 94.242262 l
280.510791 94.473551 l
280.302892 94.647388 l
280.094993 94.71418 l
279.887095 94.691013 l
279.679196 94.583533 l
279.471298 94.406891 l
279.263399 94.378095 l
279.0555 94.349298 l
278.847602 94.320501 l
278.639703 94.291704 l
278.431804 94.372042 l
278.223906 94.490604 l
278.016007 94.528294 l
277.808108 94.447355 l
277.60021 94.366415 l
277.392311 94.285476 l
277.184412 94.204537 l
276.976514 94.200392 l
276.768615 94.202854 l
276.560716 94.205317 l
276.352818 94.207779 l
276.144919 94.351632 l
275.93702 94.451891 l
275.729122 94.429859 l
275.521223 94.407826 l
275.313324 94.392063 l
275.105426 94.405414 l
274.897527 94.418764 l
274.689628 94.434334 l
274.48173 94.452279 l
274.273831 94.470224 l
274.065932 94.488169 l
273.858034 94.506114 l
273.650135 94.524059 l
273.442236 95.023212 l
273.234338 95.017627 l
273.026439 95.012042 l
272.81854 95.006457 l
272.610642 95.000872 l
272.402743 94.995287 l
272.194844 94.982543 l
271.986946 94.96198 l
271.779047 94.941416 l
271.571148 94.91707 l
271.36325 94.857871 l
271.155351 94.798672 l
270.947452 94.69211 l
270.739554 94.757481 l
270.531655 94.793286 l
270.323757 94.797473 l
270.115858 94.77691 l
269.907959 94.756346 l
269.700061 94.735783 l
269.492162 94.714433 l
269.284263 94.692317 l
269.076365 94.761673 l
268.868466 94.883783 l
268.660567 94.917302 l
268.452669 94.901194 l
268.24477 94.869733 l
268.036871 94.968591 l
267.828973 94.991704 l
267.621074 94.815671 l
267.413175 94.739325 l
267.205277 94.691964 l
266.997378 94.676278 l
266.789479 94.699827 l
266.581581 94.679007 l
266.373682 94.689518 l
266.165783 94.565174 l
265.957885 94.418063 l
265.749986 94.423038 l
265.542087 94.490049 l
265.334189 94.59522 l
265.12629 94.710155 l
264.918391 94.690057 l
264.710493 94.665611 l
264.502594 94.641164 l
264.294695 94.596021 l
264.086797 94.542577 l
263.878898 94.489134 l
263.670999 94.455715 l
263.463101 94.484527 l
263.255202 94.468146 l
263.047303 94.438189 l
262.839405 94.408232 l
262.631506 94.378276 l
262.423607 94.348319 l
262.215709 94.318362 l
262.00781 94.288405 l
261.799912 94.284447 l
261.592013 94.322953 l
261.384114 94.361459 l
261.176216 94.399964 l
260.968317 94.43847 l
260.760418 94.476976 l
260.55252 94.515482 l
260.344621 94.553988 l
260.136722 94.592494 l
259.928824 94.631 l
259.720925 94.669506 l
259.513026 94.708012 l
259.305128 94.746518 l
259.097229 94.728735 l
258.88933 94.553191 l
258.681432 94.658751 l
258.473533 94.759349 l
258.265634 94.78628 l
258.057736 94.789701 l
257.849837 94.793121 l
257.641938 94.796542 l
257.43404 94.782722 l
257.226141 94.765286 l
257.018242 94.747849 l
256.810344 94.730412 l
256.602445 94.646389 l
256.394546 94.330808 l
256.186648 94.365826 l
255.978749 94.442764 l
255.77085 94.519702 l
255.562952 94.57323 l
255.355053 94.731012 l
255.147154 94.933792 l
254.939256 95.150091 l
254.731357 95.197559 l
254.523458 95.199372 l
254.31556 95.132037 l
254.107661 94.901274 l
253.899762 94.758219 l
253.691864 94.755621 l
253.483965 94.688844 l
253.276067 94.601654 l
253.068168 94.521796 l
252.860269 94.452365 l
252.652371 94.356026 l
252.444472 94.32215 l
252.236573 94.29238 l
252.028675 94.26261 l
251.820776 94.120101 l
251.612877 94.153298 l
251.404979 94.145633 l
251.19708 94.264661 l
250.989181 94.368211 l
250.781283 94.428917 l
250.573384 94.489623 l
250.365485 94.495554 l
250.157587 94.282329 l
249.949688 94.17451 l
249.741789 94.196294 l
249.533891 94.218077 l
249.325992 94.23986 l
249.118093 94.30918 l
248.910195 94.420018 l
248.702296 94.516112 l
248.494397 94.612206 l
248.286499 94.7083 l
248.0786 94.715339 l
247.870701 94.718818 l
247.662803 94.678292 l
247.454904 94.633342 l
247.247005 94.905295 l
247.039107 94.864233 l
246.831208 94.843322 l
246.623309 94.983009 l
246.415411 95.122696 l
246.207512 95.262383 l
245.999613 95.402071 l
245.791715 95.399904 l
245.583816 95.122585 l
245.375917 95.212803 l
245.168019 95.375886 l
244.96012 95.412361 l
244.752221 95.360842 l
244.544323 95.309323 l
244.336424 95.257804 l
244.128526 95.206285 l
243.920627 95.154766 l
243.712728 95.103248 l
243.50483 95.051729 l
243.296931 95.00021 l
243.089032 94.980957 l
242.881134 95.018628 l
242.673235 95.056299 l
242.465336 95.09397 l
242.257438 95.131641 l
242.049539 95.169312 l
241.84164 95.206983 l
241.633742 95.239284 l
241.425843 95.227809 l
241.217944 95.176068 l
241.010046 95.095626 l
240.802147 95.015184 l
240.594248 94.934741 l
240.38635 94.854299 l
240.178451 94.859392 l
239.970552 95.038439 l
239.762654 94.976558 l
239.554755 94.914013 l
239.346856 94.851469 l
239.138958 94.788924 l
238.931059 94.726379 l
238.72316 94.663834 l
238.515262 94.601289 l
238.307363 94.538744 l
238.099464 94.476199 l
237.891566 94.413655 l
237.683667 94.410576 l
237.475768 94.409301 l
237.26787 94.408026 l
237.059971 94.406752 l
236.852072 94.405477 l
236.644174 94.404203 l
236.436275 94.402928 l
236.228376 94.401653 l
236.020478 94.424533 l
235.812579 94.540192 l
235.604681 94.6216 l
235.396782 94.641835 l
235.188883 94.607249 l
234.980985 94.560961 l
234.773086 94.503503 l
234.565187 94.401398 l
234.357289 94.531273 l
234.14939 94.571792 l
233.941491 94.571171 l
233.733593 94.682103 l
233.525694 94.787469 l
233.317795 94.781736 l
233.109897 94.776003 l
232.901998 94.77027 l
232.694099 94.78858 l
232.486201 94.757578 l
232.278302 94.524585 l
232.070403 94.628359 l
231.862505 94.732133 l
231.654606 94.835907 l
231.446707 94.93968 l
231.238809 95.043454 l
231.03091 95.147228 l
230.823011 95.225448 l
230.615113 95.093759 l
230.407214 94.929257 l
230.199315 94.796116 l
229.991417 94.896183 l
229.783518 94.99625 l
229.575619 95.013806 l
229.367721 95.024809 l
229.159822 94.969562 l
228.951923 94.76115 l
228.744025 94.552737 l
228.536126 94.372486 l
228.328227 94.409917 l
228.120329 94.447347 l
227.91243 94.322482 l
227.704531 93.829477 l
227.496633 94.130231 l
227.288734 94.286072 l
227.080836 94.281321 l
226.872937 94.27657 l
226.665038 94.271818 l
226.45714 94.267067 l
226.249241 94.262316 l
226.041342 94.257564 l
225.833444 94.252813 l
225.625545 94.488346 l
225.417646 94.866853 l
225.209748 95.063143 l
225.001849 94.233808 l
224.79395 93.742484 l
224.586052 93.73064 l
224.378153 93.718796 l
224.170254 93.706952 l
223.962356 93.832358 l
223.754457 94.034027 l
223.546558 94.221583 l
223.33866 94.254918 l
223.130761 94.244569 l
222.922862 94.23422 l
222.714964 94.207645 l
222.507065 93.966383 l
222.299166 93.847999 l
222.091268 93.844598 l
221.883369 93.883894 l
221.67547 93.911043 l
221.467572 93.918739 l
221.259673 93.926436 l
221.051774 93.934132 l
220.843876 93.910914 l
220.635977 93.856013 l
220.428078 93.477269 l
220.22018 93.442167 l
220.012281 93.407066 l
219.804382 93.371964 l
219.596484 93.336863 l
219.388585 93.279735 l
219.180686 93.195675 l
218.972788 93.111616 l
218.764889 93.083298 l
218.55699 92.832955 l
218.349092 92.853201 l
218.141193 92.873448 l
217.933295 92.893695 l
217.725396 92.913942 l
217.517497 92.934189 l
217.309599 92.954435 l
217.1017 92.974682 l
216.893801 93.054725 l
216.685903 93.05155 l
216.478004 93.057763 l
216.270105 93.074835 l
216.062207 93.091907 l
215.854308 93.089411 l
215.646409 93.085204 l
215.438511 93.080996 l
215.230612 93.076788 l
215.022713 93.072581 l
214.814815 93.21308 l
214.606916 93.301512 l
214.399017 93.36448 l
214.191119 93.411727 l
213.98322 93.431027 l
213.775321 93.451274 l
213.567423 93.47152 l
213.359524 93.491767 l
213.151625 93.594461 l
212.943727 93.741174 l
212.735828 93.829621 l
212.527929 93.830998 l
212.320031 93.830998 l
212.112132 93.830998 l
211.904233 93.830998 l
211.696335 93.830998 l
211.488436 93.830998 l
211.280537 93.846878 l
211.072639 93.867125 l
210.86474 93.887371 l
210.656841 93.907618 l
210.448943 93.927865 l
210.241044 93.948112 l
210.033145 93.968359 l
209.825247 93.988605 l
209.617348 94.008852 l
209.40945 94.029099 l
209.201551 94.049346 l
208.993652 94.069593 l
208.785754 94.089839 l
208.577855 94.110086 l
208.369956 93.769797 l
208.162058 93.775982 l
207.954159 93.782167 l
207.74626 93.788352 l
207.538362 93.794537 l
207.330463 93.800722 l
207.122564 93.806907 l
206.914666 93.813092 l
206.706767 93.819277 l
206.498868 93.825462 l
206.29097 93.830998 l
206.083071 93.830998 l
205.875172 93.830998 l
205.667274 93.830998 l
205.459375 93.830998 l
cl

gsave
1.000 0.498 0.055 setrgbcolor
fill
grestore
stroke
grestore
} bind def
0 0 o
grestore
0.800 setlinewidth
0.000 setgray
gsave
/o {
gsave
newpath
translate
0.8 setlinewidth
1 setlinejoin
0 setlinecap
0 0 m
0 -3.5 l

gsave
0.000 setgray
fill
grestore
stroke
grestore
} bind def
205.459 35.6219 o
grestore
/DejaVuSans findfont
8.000 scalefont
setfont
gsave
202.912500 22.543750 translate
0.000000 rotate
0.000000 0.000000 m /zero glyphshow
grestore
gsave
/o {
gsave
newpath
translate
0.8 setlinewidth
1 setlinejoin
0 setlinecap
0 0 m
0 -3.5 l

gsave
0.000 setgray
fill
grestore
stroke
grestore
} bind def
275.209 35.6219 o
grestore
gsave
272.662500 22.543750 translate
0.000000 rotate
0.000000 0.000000 m /seven glyphshow
grestore
gsave
/o {
gsave
newpath
translate
0.8 setlinewidth
1 setlinejoin
0 setlinecap
0 0 m
0 -3.5 l

gsave
0.000 setgray
fill
grestore
stroke
grestore
} bind def
344.959 35.6219 o
grestore
gsave
339.865625 22.543750 translate
0.000000 rotate
0.000000 0.000000 m /one glyphshow
5.089844 0.000000 m /four glyphshow
grestore
/DejaVuSans findfont
10.000 scalefont
setfont
gsave
247.818750 9.278125 translate
0.000000 rotate
0.000000 0.000000 m /T glyphshow
6.108398 0.000000 m /i glyphshow
8.886719 0.000000 m /m glyphshow
18.627930 0.000000 m /e glyphshow
24.780273 0.000000 m /comma glyphshow
27.958984 0.000000 m /space glyphshow
31.137695 0.000000 m /d glyphshow
37.485352 0.000000 m /a glyphshow
43.613281 0.000000 m /y glyphshow
49.531250 0.000000 m /s glyphshow
grestore
gsave
/o {
gsave
newpath
translate
0.8 setlinewidth
1 setlinejoin
0 setlinecap
0 0 m
-3.5 0 l

gsave
0.000 setgray
fill
grestore
stroke
grestore
} bind def
205.459 35.6219 o
grestore
gsave
/o {
gsave
newpath
translate
0.8 setlinewidth
1 setlinejoin
0 setlinecap
0 0 m
-3.5 0 l

gsave
0.000 setgray
fill
grestore
stroke
grestore
} bind def
205.459 68.2379 o
grestore
gsave
/o {
gsave
newpath
translate
0.8 setlinewidth
1 setlinejoin
0 setlinecap
0 0 m
-3.5 0 l

gsave
0.000 setgray
fill
grestore
stroke
grestore
} bind def
205.459 100.854 o
grestore
1.500 setlinewidth
2 setlinecap
gsave
139.5 65.23 205.5 35.62 clipbox
205.459375 86.502835 m
205.667274 87.155155 l
208.162058 87.155155 l
208.577855 86.750159 l
208.785754 86.50353 l
211.072639 86.569402 l
211.696335 87.155155 l
212.320031 87.155155 l
212.527929 87.682148 l
212.943727 87.807475 l
214.399017 87.778623 l
214.606916 87.625806 l
214.814815 87.155155 l
215.230612 87.155155 l
216.270105 86.502835 l
221.259673 86.502835 l
221.467572 87.148799 l
222.922862 87.279179 l
223.962356 87.807475 l
226.872937 87.742373 l
227.080836 87.340271 l
227.496633 87.393838 l
228.744025 87.743713 l
229.159822 86.593444 l
230.823011 86.737967 l
231.03091 86.637393 l
231.238809 86.88209 l
239.554755 87.935224 l
240.594248 87.807475 l
241.633742 87.898771 l
241.84164 88.272236 l
242.257438 88.411916 l
242.465336 88.440781 l
242.673235 88.345206 l
243.089032 87.807475 l
244.752221 87.73516 l
245.375917 87.262268 l
245.791715 87.258898 l
247.247005 86.698195 l
247.662803 87.117837 l
248.286499 86.865425 l
248.494397 86.532016 l
249.118093 86.528875 l
249.741789 86.465468 l
250.365485 86.457189 l
250.573384 86.843492 l
250.989181 86.797139 l
251.19708 86.44615 l
253.483965 86.415792 l
253.899762 85.686665 l
255.978749 86.035889 l
256.186648 86.379916 l
258.88933 86.27864 l
259.097229 86.198916 l
259.928824 86.29804 l
260.344621 86.260656 l
261.592013 86.291584 l
262.631506 86.156521 l
262.839405 86.291604 l
265.542087 86.292236 l
266.165783 86.781268 l
275.729122 87.133466 l
278.016007 86.511811 l
279.471298 86.750827 l
279.887095 86.12652 l
280.302892 86.059785 l
282.381879 85.924229 l
282.797676 85.929849 l
283.421372 86.018389 l
283.629271 85.996622 l
283.837169 85.168525 l
288.826737 86.171951 l
289.034636 86.462613 l
293.400508 87.195561 l
293.816305 87.175376 l
294.440001 87.274261 l
294.855798 87.163923 l
295.271596 87.352246 l
295.479494 87.155155 l
298.597974 87.204415 l
299.845366 88.071483 l
300.053265 88.074975 l
300.261163 87.401729 l
300.884859 88.088945 l
301.924353 88.106406 l
302.34015 88.870231 l
305.666529 89.432105 l
305.874427 89.373395 l
306.498123 88.57216 l
307.953414 87.992108 l
308.161312 87.464578 l
309.200806 87.507584 l
310.240299 87.155155 l
311.903488 87.213078 l
312.111387 87.680333 l
313.566678 87.778641 l
313.774576 88.198872 l
314.190374 88.312451 l
314.606171 88.319436 l
315.229867 89.178193 l
315.853563 89.43778 l
316.477259 89.40511 l
316.685157 90.192996 l
317.100955 89.675935 l
317.516752 89.698558 l
318.140448 89.828294 l
318.556245 89.764435 l
322.50632 89.764435 l
322.922117 89.531384 l
323.337914 89.430065 l
323.545813 89.764435 l
324.169509 89.691789 l
326.040597 89.011188 l
326.248496 89.764435 l
333.732847 89.685265 l
333.940746 89.251433 l
334.148645 89.112115 l
334.772341 89.047986 l
335.603935 88.639768 l
336.019733 88.897905 l
336.43553 88.568514 l
336.643429 88.642295 l
336.851327 89.112115 l
338.722415 89.165788 l
339.55401 89.764435 l
341.840895 89.724768 l
342.048794 89.275645 l
342.256692 89.112115 l
342.880388 89.112115 l
343.296186 89.764435 l
343.919882 89.764435 l
344.12778 89.328592 l
344.335679 89.426799 l
344.543578 89.764435 l
344.959375 89.764435 l
344.959375 89.764435 l
stroke
grestore
0.800 setlinewidth
0 setlinejoin
[] 0 setdash
gsave
205.459375 35.621875 m
205.459375 100.853875 l
stroke
grestore
gsave
344.959375 35.621875 m
344.959375 100.853875 l
stroke
grestore
gsave
205.459375 35.621875 m
344.959375 35.621875 l
stroke
grestore
gsave
205.459375 100.853875 m
344.959375 100.853875 l
stroke
grestore

end
showpage
