%!PS-Adobe-3.0 EPSF-3.0
%%Title: ../Figures/ClassPCA_2clusterfinal.eps
%%Creator: matplotlib version 3.1.1, http://matplotlib.org/
%%CreationDate: Thu Jul 14 00:16:41 2022
%%Orientation: portrait
%%BoundingBox: 151.06210869243415 291.9240625 460.93789130756585 500.0759375
%%EndComments
%%BeginProlog
/mpldict 9 dict def
mpldict begin
/m { moveto } bind def
/l { lineto } bind def
/r { rlineto } bind def
/c { curveto } bind def
/cl { closepath } bind def
/box {
m
1 index 0 r
0 exch r
neg 0 r
cl
} bind def
/clipbox {
box
clip
newpath
} bind def
%!PS-Adobe-3.0 Resource-Font
%%Title: DejaVu Sans
%%Copyright: Copyright (c) 2003 by Bitstream, Inc. All Rights Reserved. Copyright (c) 2006 by Tavmjong Bah. All Rights Reserved. DejaVu changes are in public domain 
%%Creator: Converted from TrueType to type 3 by PPR
25 dict begin
/_d{bind def}bind def
/_m{moveto}_d
/_l{lineto}_d
/_cl{closepath eofill}_d
/_c{curveto}_d
/_sc{7 -1 roll{setcachedevice}{pop pop pop pop pop pop}ifelse}_d
/_e{exec}_d
/FontName /DejaVuSans def
/PaintType 0 def
/FontMatrix[.001 0 0 .001 0 0]def
/FontBBox[-1021 -463 1793 1232]def
/FontType 3 def
/Encoding [ /zero /one /two /five /seven /minus ] def
/FontInfo 10 dict dup begin
/FamilyName (DejaVu Sans) def
/FullName (DejaVu Sans) def
/Notice (Copyright (c) 2003 by Bitstream, Inc. All Rights Reserved. Copyright (c) 2006 by Tavmjong Bah. All Rights Reserved. DejaVu changes are in public domain ) def
/Weight (Book) def
/Version (Version 2.35) def
/ItalicAngle 0.0 def
/isFixedPitch false def
/UnderlinePosition -130 def
/UnderlineThickness 90 def
end readonly def
/CharStrings 7 dict dup begin
/.notdef 0 def
/zero{636 0 66 -13 570 742 _sc
318 664 _m
267 664 229 639 203 589 _c
177 539 165 464 165 364 _c
165 264 177 189 203 139 _c
229 89 267 64 318 64 _c
369 64 407 89 433 139 _c
458 189 471 264 471 364 _c
471 464 458 539 433 589 _c
407 639 369 664 318 664 _c
318 742 _m
399 742 461 709 505 645 _c
548 580 570 486 570 364 _c
570 241 548 147 505 83 _c
461 19 399 -13 318 -13 _c
236 -13 173 19 130 83 _c
87 147 66 241 66 364 _c
66 486 87 580 130 645 _c
173 709 236 742 318 742 _c
_cl}_d
/one{636 0 110 0 544 729 _sc
124 83 _m
285 83 _l
285 639 _l
110 604 _l
110 694 _l
284 729 _l
383 729 _l
383 83 _l
544 83 _l
544 0 _l
124 0 _l
124 83 _l
_cl}_d
/two{{636 0 73 0 536 742 _sc
192 83 _m
536 83 _l
536 0 _l
73 0 _l
73 83 _l
110 121 161 173 226 239 _c
290 304 331 346 348 365 _c
380 400 402 430 414 455 _c
426 479 433 504 433 528 _c
433 566 419 598 392 622 _c
365 646 330 659 286 659 _c
255 659 222 653 188 643 _c
154 632 117 616 78 594 _c
78 694 _l
118 710 155 722 189 730 _c
223 738 255 742 284 742 _c
}_e{359 742 419 723 464 685 _c
509 647 532 597 532 534 _c
532 504 526 475 515 449 _c
504 422 484 390 454 354 _c
446 344 420 317 376 272 _c
332 227 271 164 192 83 _c
_cl}_e}_d
/five{{636 0 77 -13 549 729 _sc
108 729 _m
495 729 _l
495 646 _l
198 646 _l
198 467 _l
212 472 227 476 241 478 _c
255 480 270 482 284 482 _c
365 482 429 459 477 415 _c
525 370 549 310 549 234 _c
549 155 524 94 475 51 _c
426 8 357 -13 269 -13 _c
238 -13 207 -10 175 -6 _c
143 -1 111 6 77 17 _c
77 116 _l
106 100 136 88 168 80 _c
199 72 232 69 267 69 _c
}_e{323 69 368 83 401 113 _c
433 143 450 183 450 234 _c
450 284 433 324 401 354 _c
368 384 323 399 267 399 _c
241 399 214 396 188 390 _c
162 384 135 375 108 363 _c
108 729 _l
_cl}_e}_d
/seven{636 0 82 0 551 729 _sc
82 729 _m
551 729 _l
551 687 _l
286 0 _l
183 0 _l
432 646 _l
82 646 _l
82 729 _l
_cl}_d
/minus{838 0 106 272 732 355 _sc
106 355 _m
732 355 _l
732 272 _l
106 272 _l
106 355 _l
_cl}_d
end readonly def

/BuildGlyph
 {exch begin
 CharStrings exch
 2 copy known not{pop /.notdef}if
 true 3 1 roll get exec
 end}_d

/BuildChar {
 1 index /Encoding get exch get
 1 index /BuildGlyph get exec
}_d

FontName currentdict end definefont pop
%!PS-Adobe-3.0 Resource-Font
%%Title: DejaVu Sans Oblique
%%Copyright: Copyright (c) 2003 by Bitstream, Inc. All Rights Reserved. Copyright (c) 2006 by Tavmjong Bah. All Rights Reserved. DejaVu changes are in public domain 
%%Creator: Converted from TrueType to type 3 by PPR
25 dict begin
/_d{bind def}bind def
/_m{moveto}_d
/_l{lineto}_d
/_cl{closepath eofill}_d
/_c{curveto}_d
/_sc{7 -1 roll{setcachedevice}{pop pop pop pop pop pop}ifelse}_d
/_e{exec}_d
/FontName /DejaVuSans-Oblique def
/PaintType 0 def
/FontMatrix[.001 0 0 .001 0 0]def
/FontBBox[-1016 -350 1659 1068]def
/FontType 3 def
/Encoding [ /A /C /P ] def
/FontInfo 10 dict dup begin
/FamilyName (DejaVu Sans) def
/FullName (DejaVu Sans Oblique) def
/Notice (Copyright (c) 2003 by Bitstream, Inc. All Rights Reserved. Copyright (c) 2006 by Tavmjong Bah. All Rights Reserved. DejaVu changes are in public domain ) def
/Weight (Oblique) def
/Version (Version 2.35) def
/ItalicAngle -11.0 def
/isFixedPitch false def
/UnderlinePosition -130 def
/UnderlineThickness 90 def
end readonly def
/CharStrings 4 dict dup begin
/.notdef 0 def
/A{684 0 -52 0 615 729 _sc
368 729 _m
480 729 _l
615 0 _l
512 0 _l
482 187 _l
154 187 _l
51 0 _l
-52 0 _l
368 729 _l
404 632 _m
199 269 _l
467 269 _l
404 632 _l
_cl}_d
/C{{698 0 42 -13 695 742 _sc
695 673 _m
675 569 _l
643 600 610 623 575 639 _c
540 654 502 662 462 662 _c
406 662 357 648 315 622 _c
273 595 236 554 206 500 _c
186 464 171 427 161 388 _c
151 349 146 310 146 270 _c
146 203 163 152 197 118 _c
231 83 281 66 347 66 _c
392 66 435 73 477 87 _c
519 101 559 123 599 153 _c
576 36 _l
537 19 498 7 458 -1 _c
}_e{418 -9 379 -13 340 -13 _c
246 -13 173 12 121 62 _c
68 112 42 183 42 274 _c
42 332 52 389 72 445 _c
92 501 120 552 158 598 _c
198 647 243 683 294 707 _c
345 730 404 742 472 742 _c
514 742 553 736 590 725 _c
627 713 662 696 695 673 _c
_cl}_e}_d
/P{603 0 27 0 601 729 _sc
169 729 _m
397 729 _l
463 729 514 713 549 682 _c
583 651 601 606 601 547 _c
601 467 575 404 524 360 _c
472 315 400 293 307 293 _c
183 293 _l
126 0 _l
27 0 _l
169 729 _l
252 648 _m
199 374 _l
323 374 _l
379 374 422 388 452 417 _c
482 445 497 486 497 540 _c
497 574 486 600 466 619 _c
446 638 417 648 381 648 _c
252 648 _l
_cl}_d
end readonly def

/BuildGlyph
 {exch begin
 CharStrings exch
 2 copy known not{pop /.notdef}if
 true 3 1 roll get exec
 end}_d

/BuildChar {
 1 index /Encoding get exch get
 1 index /BuildGlyph get exec
}_d

FontName currentdict end definefont pop
end
%%EndProlog
mpldict begin
151.062 291.924 translate
309.876 208.152 0 0 clipbox
gsave
0 0 m
309.875783 0 l
309.875783 208.151875 l
0 208.151875 l
cl
grestore
gsave
49.29375 37.871875 m
300.39375 37.871875 l
300.39375 200.951875 l
49.29375 200.951875 l
cl
grestore
1.000 setlinewidth
1 setlinejoin
0 setlinecap
[] 0 setdash
0.122 0.467 0.706 setrgbcolor
gsave
251.1 163.1 49.29 37.87 clipbox
/o {
gsave
newpath
translate
1.0 setlinewidth
1 setlinejoin
0 setlinecap
0 -3 m
0.795609 -3 1.55874 -2.683901 2.12132 -2.12132 c
2.683901 -1.55874 3 -0.795609 3 0 c
3 0.795609 2.683901 1.55874 2.12132 2.12132 c
1.55874 2.683901 0.795609 3 0 3 c
-0.795609 3 -1.55874 2.683901 -2.12132 2.12132 c
-2.683901 1.55874 -3 0.795609 -3 0 c
-3 -0.795609 -2.683901 -1.55874 -2.12132 -2.12132 c
-1.55874 -2.683901 -0.795609 -3 0 -3 c
cl

gsave
1.000 setgray
fill
grestore
stroke
grestore
} bind def
119.587 123.58 o
156.973 116.937 o
140.765 140.859 o
101.77 105.469 o
118.871 113.541 o
130.971 117.689 o
109.944 135.081 o
75.2014 116.484 o
78.9655 115.41 o
78.9319 115.587 o
148.137 152.982 o
107.512 64.9167 o
60.7178 117.726 o
60.7178 117.726 o
65.1425 117.384 o
142.098 114.773 o
69.3714 112.574 o
96.9282 160.875 o
60.7178 117.726 o
72.458 126.928 o
115.666 90.1928 o
76.1457 122.099 o
60.7178 117.726 o
140.398 110.606 o
132.765 115.741 o
116.535 85.4362 o
111.592 131.3 o
169.871 115.961 o
64.0751 118.247 o
65.2107 118.854 o
60.7178 117.726 o
65.9683 115.704 o
64.1934 112.534 o
72.9483 115.517 o
67.9512 105.468 o
76.8424 133.217 o
143.526 111.411 o
128.647 154.96 o
145.149 127.802 o
143.802 110.748 o
141.551 101.729 o
138.764 124.199 o
122.673 104.817 o
110.548 59.839 o
77.2169 139.129 o
grestore
gsave
251.1 163.1 49.29 37.87 clipbox
/o {
gsave
newpath
translate
1.0 setlinewidth
1 setlinejoin
0 setlinecap
0 -3 m
0.795609 -3 1.55874 -2.683901 2.12132 -2.12132 c
2.683901 -1.55874 3 -0.795609 3 0 c
3 0.795609 2.683901 1.55874 2.12132 2.12132 c
1.55874 2.683901 0.795609 3 0 3 c
-0.795609 3 -1.55874 2.683901 -2.12132 2.12132 c
-2.683901 1.55874 -3 0.795609 -3 0 c
-3 -0.795609 -2.683901 -1.55874 -2.12132 -2.12132 c
-1.55874 -2.683901 -0.795609 -3 0 -3 c
cl

gsave
0.122 0.467 0.706 setrgbcolor
fill
grestore
stroke
grestore
} bind def
161.858 145.9 o
123.171 100.19 o
145.112 108.322 o
94.984 125.684 o
134.621 99.4674 o
166.821 120.341 o
146.104 111.553 o
179.846 134.493 o
148.72 131.566 o
177.608 150.741 o
154.767 99.8682 o
118.022 113.857 o
112.32 103.82 o
156.785 120.358 o
96.111 120.37 o
104.076 115.149 o
105.406 113.523 o
107.448 120.493 o
155.488 109.402 o
153.445 108.998 o
144.509 145.717 o
156.091 92.9981 o
138.643 117.353 o
128.695 115.218 o
129.742 111.333 o
165.799 108.089 o
159.502 140.025 o
171.323 130.085 o
144.599 112.356 o
152.739 98.1485 o
140.464 114.344 o
132.317 142.864 o
155.72 108.942 o
160.28 131.321 o
151.324 127.199 o
156.749 118.686 o
103.045 122.948 o
150.39 152.306 o
163.026 123.228 o
99.1005 127.55 o
127.396 157.741 o
149.494 94.4571 o
126.335 118.786 o
163.659 128.017 o
144.72 102.347 o
118.17 130.634 o
111.518 113.292 o
104.252 136.527 o
73.7301 122.135 o
94.3837 117.201 o
160.167 127.079 o
155.948 120.533 o
140.016 125.571 o
135.204 102.006 o
176.144 134.559 o
162.174 118.468 o
154.576 128.066 o
183.733 106.132 o
146.981 117.317 o
134.347 127.448 o
164.903 117.104 o
166.128 116.742 o
159.083 131.927 o
152.457 132.146 o
150.079 109.507 o
146.092 133.467 o
130.462 116.1 o
120.225 109.774 o
119.785 114.929 o
121.56 118.695 o
126.696 107.144 o
90.5354 124.093 o
130.657 124.078 o
90.9034 140.414 o
115.923 102.781 o
135.662 114.694 o
112.543 147.557 o
166.74 112.835 o
131.713 164.461 o
177.632 138.903 o
148.133 133.798 o
165.101 109.017 o
143.861 95.1642 o
176.114 120.716 o
167.033 120.925 o
173.75 123.895 o
76.0264 137.089 o
179.975 178.393 o
181.033 191.494 o
124.935 132.749 o
102.482 116.513 o
102.764 121.565 o
158.376 47.3298 o
185.078 83.5426 o
134.54 52.8268 o
104.833 63.3408 o
103.198 105.023 o
137.169 161.961 o
71.7041 124.86 o
105.996 53.7291 o
90.349 123.288 o
grestore
1.000 0.498 0.055 setrgbcolor
gsave
251.1 163.1 49.29 37.87 clipbox
/o {
gsave
newpath
translate
1.0 setlinewidth
1 setlinejoin
0 setlinecap
0 -3 m
0.795609 -3 1.55874 -2.683901 2.12132 -2.12132 c
2.683901 -1.55874 3 -0.795609 3 0 c
3 0.795609 2.683901 1.55874 2.12132 2.12132 c
1.55874 2.683901 0.795609 3 0 3 c
-0.795609 3 -1.55874 2.683901 -2.12132 2.12132 c
-2.683901 1.55874 -3 0.795609 -3 0 c
-3 -0.795609 -2.683901 -1.55874 -2.12132 -2.12132 c
-1.55874 -2.683901 -0.795609 -3 0 -3 c
cl

gsave
1.000 setgray
fill
grestore
stroke
grestore
} bind def
218.818 111.447 o
206.471 137.592 o
246.336 102.571 o
246.234 129.385 o
256.856 114.322 o
258.463 118.413 o
228.288 125.299 o
234.706 109.177 o
grestore
gsave
251.1 163.1 49.29 37.87 clipbox
/o {
gsave
newpath
translate
1.0 setlinewidth
1 setlinejoin
0 setlinecap
0 -3 m
0.795609 -3 1.55874 -2.683901 2.12132 -2.12132 c
2.683901 -1.55874 3 -0.795609 3 0 c
3 0.795609 2.683901 1.55874 2.12132 2.12132 c
1.55874 2.683901 0.795609 3 0 3 c
-0.795609 3 -1.55874 2.683901 -2.12132 2.12132 c
-2.683901 1.55874 -3 0.795609 -3 0 c
-3 -0.795609 -2.683901 -1.55874 -2.12132 -2.12132 c
-1.55874 -2.683901 -0.795609 -3 0 -3 c
cl

gsave
1.000 0.498 0.055 setrgbcolor
fill
grestore
stroke
grestore
} bind def
272.161 111.018 o
272.88 118.1 o
267.398 127.549 o
254.059 109.006 o
258.355 115.346 o
266.141 119.526 o
257.318 121.353 o
244.361 116.485 o
261.193 120.606 o
246.959 115.504 o
256.447 113.35 o
240.992 143.199 o
203.722 110.83 o
246.412 114.616 o
246.492 120.978 o
251.837 121.621 o
208.098 118.88 o
231.26 108.839 o
242.958 113.632 o
246.737 113.178 o
252.39 111.599 o
263.51 119.647 o
258.539 121.799 o
259.676 121.392 o
258.411 121.85 o
256.535 117.603 o
253.763 118.893 o
186.903 81.0377 o
214.765 76.3461 o
185.906 107.188 o
194.208 140.765 o
186.729 88.862 o
217.285 106.987 o
201.949 119.796 o
195.908 116.112 o
193.257 98.0861 o
196.359 123.686 o
189.53 148.441 o
231.717 135.15 o
235.532 114.996 o
195.056 107.603 o
195.018 126.737 o
198.17 119.371 o
217.087 124.371 o
214.46 118.262 o
208.969 123.587 o
226.326 119.119 o
222.543 121.143 o
218.066 120.151 o
186.685 124.531 o
275.158 119.647 o
273.739 109.318 o
276.09 118.467 o
275.737 119.006 o
262.195 105.437 o
229.323 133.553 o
286.359 119.712 o
264.378 137.608 o
218.947 144.825 o
194.677 75.1577 o
238.559 140.876 o
197.641 96.0281 o
205.9 77.2532 o
204.662 81.89 o
196.126 66.1061 o
186.139 69.9882 o
188.64 113.457 o
grestore
0.800 setlinewidth
0.000 setgray
gsave
/o {
gsave
newpath
translate
0.8 setlinewidth
1 setlinejoin
0 setlinecap
0 0 m
0 -3.5 l

gsave
0.000 setgray
fill
grestore
stroke
grestore
} bind def
75.4856 37.8719 o
grestore
/DejaVuSans findfont
10.000 scalefont
setfont
gsave
61.759060 23.278125 translate
0.000000 rotate
0.000000 0.000000 m /minus glyphshow
8.378906 0.000000 m /one glyphshow
14.741211 0.000000 m /zero glyphshow
21.103516 0.000000 m /zero glyphshow
grestore
gsave
/o {
gsave
newpath
translate
0.8 setlinewidth
1 setlinejoin
0 setlinecap
0 0 m
0 -3.5 l

gsave
0.000 setgray
fill
grestore
stroke
grestore
} bind def
119.016 37.8719 o
grestore
gsave
108.468967 23.278125 translate
0.000000 rotate
0.000000 0.000000 m /minus glyphshow
8.378906 0.000000 m /five glyphshow
14.741211 0.000000 m /zero glyphshow
grestore
gsave
/o {
gsave
newpath
translate
0.8 setlinewidth
1 setlinejoin
0 setlinecap
0 0 m
0 -3.5 l

gsave
0.000 setgray
fill
grestore
stroke
grestore
} bind def
162.546 37.8719 o
grestore
gsave
159.366374 23.278125 translate
0.000000 rotate
0.000000 0.000000 m /zero glyphshow
grestore
gsave
/o {
gsave
newpath
translate
0.8 setlinewidth
1 setlinejoin
0 setlinecap
0 0 m
0 -3.5 l

gsave
0.000 setgray
fill
grestore
stroke
grestore
} bind def
206.076 37.8719 o
grestore
gsave
199.716906 23.278125 translate
0.000000 rotate
0.000000 0.000000 m /five glyphshow
6.362305 0.000000 m /zero glyphshow
grestore
gsave
/o {
gsave
newpath
translate
0.8 setlinewidth
1 setlinejoin
0 setlinecap
0 0 m
0 -3.5 l

gsave
0.000 setgray
fill
grestore
stroke
grestore
} bind def
249.607 37.8719 o
grestore
gsave
240.067438 23.278125 translate
0.000000 rotate
0.000000 0.000000 m /one glyphshow
6.362305 0.000000 m /zero glyphshow
12.724609 0.000000 m /zero glyphshow
grestore
gsave
/o {
gsave
newpath
translate
0.8 setlinewidth
1 setlinejoin
0 setlinecap
0 0 m
0 -3.5 l

gsave
0.000 setgray
fill
grestore
stroke
grestore
} bind def
293.137 37.8719 o
grestore
gsave
283.597658 23.278125 translate
0.000000 rotate
0.000000 0.000000 m /one glyphshow
6.362305 0.000000 m /five glyphshow
12.724609 0.000000 m /zero glyphshow
grestore
gsave
162.343750 9.278125 translate
0.000000 rotate
/DejaVuSans-Oblique findfont
10.0 scalefont
setfont
0.000000 0.578125 moveto
/P glyphshow

6.030273 0.578125 moveto
/C glyphshow

13.012695 0.578125 moveto
/A glyphshow

/DejaVuSans findfont
7.0 scalefont
setfont
19.853516 -1.062500 moveto
/one glyphshow


grestore
gsave
/o {
gsave
newpath
translate
0.8 setlinewidth
1 setlinejoin
0 setlinecap
0 0 m
-3.5 0 l

gsave
0.000 setgray
fill
grestore
stroke
grestore
} bind def
49.2938 43.6767 o
grestore
gsave
21.200000 39.879867 translate
0.000000 rotate
0.000000 0.000000 m /minus glyphshow
8.378906 0.000000 m /seven glyphshow
14.741211 0.000000 m /five glyphshow
grestore
gsave
/o {
gsave
newpath
translate
0.8 setlinewidth
1 setlinejoin
0 setlinecap
0 0 m
-3.5 0 l

gsave
0.000 setgray
fill
grestore
stroke
grestore
} bind def
49.2938 68.3157 o
grestore
gsave
21.200000 64.518784 translate
0.000000 rotate
0.000000 0.000000 m /minus glyphshow
8.378906 0.000000 m /five glyphshow
14.741211 0.000000 m /zero glyphshow
grestore
gsave
/o {
gsave
newpath
translate
0.8 setlinewidth
1 setlinejoin
0 setlinecap
0 0 m
-3.5 0 l

gsave
0.000 setgray
fill
grestore
stroke
grestore
} bind def
49.2938 92.9546 o
grestore
gsave
21.200000 89.157701 translate
0.000000 rotate
0.000000 0.000000 m /minus glyphshow
8.378906 0.000000 m /two glyphshow
14.741211 0.000000 m /five glyphshow
grestore
gsave
/o {
gsave
newpath
translate
0.8 setlinewidth
1 setlinejoin
0 setlinecap
0 0 m
-3.5 0 l

gsave
0.000 setgray
fill
grestore
stroke
grestore
} bind def
49.2938 117.593 o
grestore
gsave
35.934375 113.796619 translate
0.000000 rotate
0.000000 0.000000 m /zero glyphshow
grestore
gsave
/o {
gsave
newpath
translate
0.8 setlinewidth
1 setlinejoin
0 setlinecap
0 0 m
-3.5 0 l

gsave
0.000 setgray
fill
grestore
stroke
grestore
} bind def
49.2938 142.232 o
grestore
gsave
29.575000 138.435536 translate
0.000000 rotate
0.000000 0.000000 m /two glyphshow
6.362305 0.000000 m /five glyphshow
grestore
gsave
/o {
gsave
newpath
translate
0.8 setlinewidth
1 setlinejoin
0 setlinecap
0 0 m
-3.5 0 l

gsave
0.000 setgray
fill
grestore
stroke
grestore
} bind def
49.2938 166.871 o
grestore
gsave
29.575000 163.074453 translate
0.000000 rotate
0.000000 0.000000 m /five glyphshow
6.362305 0.000000 m /zero glyphshow
grestore
gsave
/o {
gsave
newpath
translate
0.8 setlinewidth
1 setlinejoin
0 setlinecap
0 0 m
-3.5 0 l

gsave
0.000 setgray
fill
grestore
stroke
grestore
} bind def
49.2938 191.51 o
grestore
gsave
29.575000 187.713371 translate
0.000000 rotate
0.000000 0.000000 m /seven glyphshow
6.362305 0.000000 m /five glyphshow
grestore
gsave
15.121875 106.911875 translate
90.000000 rotate
/DejaVuSans-Oblique findfont
10.0 scalefont
setfont
0.000000 0.578125 moveto
/P glyphshow

6.030273 0.578125 moveto
/C glyphshow

13.012695 0.578125 moveto
/A glyphshow

/DejaVuSans findfont
7.0 scalefont
setfont
19.853516 -1.062500 moveto
/two glyphshow


grestore
0 setlinejoin
2 setlinecap
[] 0 setdash
gsave
49.29375 37.871875 m
49.29375 200.951875 l
stroke
grestore
gsave
300.39375 37.871875 m
300.39375 200.951875 l
stroke
grestore
gsave
49.29375 37.871875 m
300.39375 37.871875 l
stroke
grestore
gsave
49.29375 200.951875 m
300.39375 200.951875 l
stroke
grestore

end
showpage
