%!PS-Adobe-3.0 EPSF-3.0
%%Title: ../Figures/ClassPCA_3clusterfinal.eps
%%Creator: matplotlib version 3.1.1, http://matplotlib.org/
%%CreationDate: Thu Jul 14 00:17:05 2022
%%Orientation: portrait
%%BoundingBox: 151.06514401662758 291.9240625 460.9348559833724 500.0759375
%%EndComments
%%BeginProlog
/mpldict 9 dict def
mpldict begin
/m { moveto } bind def
/l { lineto } bind def
/r { rlineto } bind def
/c { curveto } bind def
/cl { closepath } bind def
/box {
m
1 index 0 r
0 exch r
neg 0 r
cl
} bind def
/clipbox {
box
clip
newpath
} bind def
%!PS-Adobe-3.0 Resource-Font
%%Title: DejaVu Sans
%%Copyright: Copyright (c) 2003 by Bitstream, Inc. All Rights Reserved. Copyright (c) 2006 by Tavmjong Bah. All Rights Reserved. DejaVu changes are in public domain 
%%Creator: Converted from TrueType to type 3 by PPR
25 dict begin
/_d{bind def}bind def
/_m{moveto}_d
/_l{lineto}_d
/_cl{closepath eofill}_d
/_c{curveto}_d
/_sc{7 -1 roll{setcachedevice}{pop pop pop pop pop pop}ifelse}_d
/_e{exec}_d
/FontName /DejaVuSans def
/PaintType 0 def
/FontMatrix[.001 0 0 .001 0 0]def
/FontBBox[-1021 -463 1793 1232]def
/FontType 3 def
/Encoding [ /zero /one /two /five /seven /minus ] def
/FontInfo 10 dict dup begin
/FamilyName (DejaVu Sans) def
/FullName (DejaVu Sans) def
/Notice (Copyright (c) 2003 by Bitstream, Inc. All Rights Reserved. Copyright (c) 2006 by Tavmjong Bah. All Rights Reserved. DejaVu changes are in public domain ) def
/Weight (Book) def
/Version (Version 2.35) def
/ItalicAngle 0.0 def
/isFixedPitch false def
/UnderlinePosition -130 def
/UnderlineThickness 90 def
end readonly def
/CharStrings 7 dict dup begin
/.notdef 0 def
/zero{636 0 66 -13 570 742 _sc
318 664 _m
267 664 229 639 203 589 _c
177 539 165 464 165 364 _c
165 264 177 189 203 139 _c
229 89 267 64 318 64 _c
369 64 407 89 433 139 _c
458 189 471 264 471 364 _c
471 464 458 539 433 589 _c
407 639 369 664 318 664 _c
318 742 _m
399 742 461 709 505 645 _c
548 580 570 486 570 364 _c
570 241 548 147 505 83 _c
461 19 399 -13 318 -13 _c
236 -13 173 19 130 83 _c
87 147 66 241 66 364 _c
66 486 87 580 130 645 _c
173 709 236 742 318 742 _c
_cl}_d
/one{636 0 110 0 544 729 _sc
124 83 _m
285 83 _l
285 639 _l
110 604 _l
110 694 _l
284 729 _l
383 729 _l
383 83 _l
544 83 _l
544 0 _l
124 0 _l
124 83 _l
_cl}_d
/two{{636 0 73 0 536 742 _sc
192 83 _m
536 83 _l
536 0 _l
73 0 _l
73 83 _l
110 121 161 173 226 239 _c
290 304 331 346 348 365 _c
380 400 402 430 414 455 _c
426 479 433 504 433 528 _c
433 566 419 598 392 622 _c
365 646 330 659 286 659 _c
255 659 222 653 188 643 _c
154 632 117 616 78 594 _c
78 694 _l
118 710 155 722 189 730 _c
223 738 255 742 284 742 _c
}_e{359 742 419 723 464 685 _c
509 647 532 597 532 534 _c
532 504 526 475 515 449 _c
504 422 484 390 454 354 _c
446 344 420 317 376 272 _c
332 227 271 164 192 83 _c
_cl}_e}_d
/five{{636 0 77 -13 549 729 _sc
108 729 _m
495 729 _l
495 646 _l
198 646 _l
198 467 _l
212 472 227 476 241 478 _c
255 480 270 482 284 482 _c
365 482 429 459 477 415 _c
525 370 549 310 549 234 _c
549 155 524 94 475 51 _c
426 8 357 -13 269 -13 _c
238 -13 207 -10 175 -6 _c
143 -1 111 6 77 17 _c
77 116 _l
106 100 136 88 168 80 _c
199 72 232 69 267 69 _c
}_e{323 69 368 83 401 113 _c
433 143 450 183 450 234 _c
450 284 433 324 401 354 _c
368 384 323 399 267 399 _c
241 399 214 396 188 390 _c
162 384 135 375 108 363 _c
108 729 _l
_cl}_e}_d
/seven{636 0 82 0 551 729 _sc
82 729 _m
551 729 _l
551 687 _l
286 0 _l
183 0 _l
432 646 _l
82 646 _l
82 729 _l
_cl}_d
/minus{838 0 106 272 732 355 _sc
106 355 _m
732 355 _l
732 272 _l
106 272 _l
106 355 _l
_cl}_d
end readonly def

/BuildGlyph
 {exch begin
 CharStrings exch
 2 copy known not{pop /.notdef}if
 true 3 1 roll get exec
 end}_d

/BuildChar {
 1 index /Encoding get exch get
 1 index /BuildGlyph get exec
}_d

FontName currentdict end definefont pop
%!PS-Adobe-3.0 Resource-Font
%%Title: DejaVu Sans Oblique
%%Copyright: Copyright (c) 2003 by Bitstream, Inc. All Rights Reserved. Copyright (c) 2006 by Tavmjong Bah. All Rights Reserved. DejaVu changes are in public domain 
%%Creator: Converted from TrueType to type 3 by PPR
25 dict begin
/_d{bind def}bind def
/_m{moveto}_d
/_l{lineto}_d
/_cl{closepath eofill}_d
/_c{curveto}_d
/_sc{7 -1 roll{setcachedevice}{pop pop pop pop pop pop}ifelse}_d
/_e{exec}_d
/FontName /DejaVuSans-Oblique def
/PaintType 0 def
/FontMatrix[.001 0 0 .001 0 0]def
/FontBBox[-1016 -350 1659 1068]def
/FontType 3 def
/Encoding [ /A /C /P ] def
/FontInfo 10 dict dup begin
/FamilyName (DejaVu Sans) def
/FullName (DejaVu Sans Oblique) def
/Notice (Copyright (c) 2003 by Bitstream, Inc. All Rights Reserved. Copyright (c) 2006 by Tavmjong Bah. All Rights Reserved. DejaVu changes are in public domain ) def
/Weight (Oblique) def
/Version (Version 2.35) def
/ItalicAngle -11.0 def
/isFixedPitch false def
/UnderlinePosition -130 def
/UnderlineThickness 90 def
end readonly def
/CharStrings 4 dict dup begin
/.notdef 0 def
/A{684 0 -52 0 615 729 _sc
368 729 _m
480 729 _l
615 0 _l
512 0 _l
482 187 _l
154 187 _l
51 0 _l
-52 0 _l
368 729 _l
404 632 _m
199 269 _l
467 269 _l
404 632 _l
_cl}_d
/C{{698 0 42 -13 695 742 _sc
695 673 _m
675 569 _l
643 600 610 623 575 639 _c
540 654 502 662 462 662 _c
406 662 357 648 315 622 _c
273 595 236 554 206 500 _c
186 464 171 427 161 388 _c
151 349 146 310 146 270 _c
146 203 163 152 197 118 _c
231 83 281 66 347 66 _c
392 66 435 73 477 87 _c
519 101 559 123 599 153 _c
576 36 _l
537 19 498 7 458 -1 _c
}_e{418 -9 379 -13 340 -13 _c
246 -13 173 12 121 62 _c
68 112 42 183 42 274 _c
42 332 52 389 72 445 _c
92 501 120 552 158 598 _c
198 647 243 683 294 707 _c
345 730 404 742 472 742 _c
514 742 553 736 590 725 _c
627 713 662 696 695 673 _c
_cl}_e}_d
/P{603 0 27 0 601 729 _sc
169 729 _m
397 729 _l
463 729 514 713 549 682 _c
583 651 601 606 601 547 _c
601 467 575 404 524 360 _c
472 315 400 293 307 293 _c
183 293 _l
126 0 _l
27 0 _l
169 729 _l
252 648 _m
199 374 _l
323 374 _l
379 374 422 388 452 417 _c
482 445 497 486 497 540 _c
497 574 486 600 466 619 _c
446 638 417 648 381 648 _c
252 648 _l
_cl}_d
end readonly def

/BuildGlyph
 {exch begin
 CharStrings exch
 2 copy known not{pop /.notdef}if
 true 3 1 roll get exec
 end}_d

/BuildChar {
 1 index /Encoding get exch get
 1 index /BuildGlyph get exec
}_d

FontName currentdict end definefont pop
end
%%EndProlog
mpldict begin
151.065 291.924 translate
309.87 208.152 0 0 clipbox
gsave
0 0 m
309.869712 0 l
309.869712 208.151875 l
0 208.151875 l
cl
grestore
gsave
49.29375 37.871875 m
300.39375 37.871875 l
300.39375 200.951875 l
49.29375 200.951875 l
cl
grestore
1.000 setlinewidth
1 setlinejoin
0 setlinecap
[] 0 setdash
0.122 0.467 0.706 setrgbcolor
gsave
251.1 163.1 49.29 37.87 clipbox
/o {
gsave
newpath
translate
1.0 setlinewidth
1 setlinejoin
0 setlinecap
0 -3 m
0.795609 -3 1.55874 -2.683901 2.12132 -2.12132 c
2.683901 -1.55874 3 -0.795609 3 0 c
3 0.795609 2.683901 1.55874 2.12132 2.12132 c
1.55874 2.683901 0.795609 3 0 3 c
-0.795609 3 -1.55874 2.683901 -2.12132 2.12132 c
-2.683901 1.55874 -3 0.795609 -3 0 c
-3 -0.795609 -2.683901 -1.55874 -2.12132 -2.12132 c
-1.55874 -2.683901 -0.795609 -3 0 -3 c
cl

gsave
1.000 setgray
fill
grestore
stroke
grestore
} bind def
101.769 105.473 o
75.201 116.485 o
78.965 115.411 o
78.9315 115.588 o
60.7178 117.727 o
60.7178 117.727 o
65.1423 117.384 o
69.3712 112.577 o
96.9273 160.862 o
60.7178 117.727 o
72.4577 126.925 o
76.1453 122.099 o
60.7178 117.727 o
64.075 118.247 o
65.2105 118.855 o
60.7178 117.727 o
65.9682 115.705 o
64.1933 112.536 o
72.948 115.519 o
67.951 105.472 o
76.842 133.213 o
77.2165 139.123 o
grestore
gsave
251.1 163.1 49.29 37.87 clipbox
/o {
gsave
newpath
translate
1.0 setlinewidth
1 setlinejoin
0 setlinecap
0 -3 m
0.795609 -3 1.55874 -2.683901 2.12132 -2.12132 c
2.683901 -1.55874 3 -0.795609 3 0 c
3 0.795609 2.683901 1.55874 2.12132 2.12132 c
1.55874 2.683901 0.795609 3 0 3 c
-0.795609 3 -1.55874 2.683901 -2.12132 2.12132 c
-2.683901 1.55874 -3 0.795609 -3 0 c
-3 -0.795609 -2.683901 -1.55874 -2.12132 -2.12132 c
-1.55874 -2.683901 -0.795609 -3 0 -3 c
cl

gsave
0.122 0.467 0.706 setrgbcolor
fill
grestore
stroke
grestore
} bind def
94.9831 125.682 o
96.1101 120.37 o
104.075 115.15 o
105.405 113.525 o
107.446 120.492 o
103.044 122.947 o
99.0995 127.548 o
104.251 136.522 o
73.7298 122.134 o
94.3828 117.202 o
90.5346 124.091 o
90.9026 140.407 o
76.026 137.084 o
102.481 116.514 o
102.763 121.564 o
103.197 105.027 o
71.7038 124.858 o
90.3482 123.286 o
grestore
1.000 0.498 0.055 setrgbcolor
gsave
251.1 163.1 49.29 37.87 clipbox
/o {
gsave
newpath
translate
1.0 setlinewidth
1 setlinejoin
0 setlinecap
0 -3 m
0.795609 -3 1.55874 -2.683901 2.12132 -2.12132 c
2.683901 -1.55874 3 -0.795609 3 0 c
3 0.795609 2.683901 1.55874 2.12132 2.12132 c
1.55874 2.683901 0.795609 3 0 3 c
-0.795609 3 -1.55874 2.683901 -2.12132 2.12132 c
-2.683901 1.55874 -3 0.795609 -3 0 c
-3 -0.795609 -2.683901 -1.55874 -2.12132 -2.12132 c
-1.55874 -2.683901 -0.795609 -3 0 -3 c
cl

gsave
1.000 setgray
fill
grestore
stroke
grestore
} bind def
119.586 123.578 o
156.971 116.938 o
140.763 140.852 o
118.869 113.543 o
130.969 117.69 o
109.943 135.076 o
148.134 152.972 o
107.511 64.9335 o
142.096 114.775 o
115.665 90.2019 o
140.396 110.609 o
132.763 115.742 o
116.533 85.4468 o
218.813 111.45 o
206.467 137.586 o
111.591 131.296 o
169.868 115.962 o
143.524 111.414 o
128.645 154.949 o
145.147 127.799 o
143.8 110.751 o
141.549 101.735 o
138.762 124.198 o
122.671 104.821 o
110.547 59.8575 o
grestore
gsave
251.1 163.1 49.29 37.87 clipbox
/o {
gsave
newpath
translate
1.0 setlinewidth
1 setlinejoin
0 setlinecap
0 -3 m
0.795609 -3 1.55874 -2.683901 2.12132 -2.12132 c
2.683901 -1.55874 3 -0.795609 3 0 c
3 0.795609 2.683901 1.55874 2.12132 2.12132 c
1.55874 2.683901 0.795609 3 0 3 c
-0.795609 3 -1.55874 2.683901 -2.12132 2.12132 c
-2.683901 1.55874 -3 0.795609 -3 0 c
-3 -0.795609 -2.683901 -1.55874 -2.12132 -2.12132 c
-1.55874 -2.683901 -0.795609 -3 0 -3 c
cl

gsave
1.000 0.498 0.055 setrgbcolor
fill
grestore
stroke
grestore
} bind def
161.855 145.891 o
123.169 100.196 o
145.11 108.325 o
203.719 110.832 o
208.095 118.88 o
134.62 99.4736 o
166.818 120.341 o
146.101 111.556 o
179.843 134.488 o
186.9 81.0496 o
148.718 131.562 o
177.605 150.731 o
154.764 99.8742 o
118.021 113.859 o
112.319 103.825 o
156.783 120.358 o
155.486 109.405 o
153.442 109.002 o
214.761 76.3594 o
144.507 145.708 o
156.089 93.0063 o
138.641 117.354 o
128.693 115.22 o
129.74 111.336 o
165.796 108.092 o
159.5 140.019 o
171.32 130.082 o
185.903 107.192 o
194.204 140.758 o
144.597 112.358 o
152.737 98.1551 o
140.462 114.346 o
132.315 142.857 o
155.717 108.946 o
160.278 131.317 o
151.322 127.197 o
156.746 118.686 o
150.388 152.295 o
186.726 88.8714 o
163.024 123.227 o
127.394 157.729 o
149.492 94.4648 o
126.333 118.786 o
163.656 128.014 o
144.718 102.352 o
118.169 130.63 o
111.517 113.294 o
217.28 106.991 o
201.946 119.796 o
195.904 116.113 o
160.164 127.076 o
155.946 120.533 o
193.254 98.0928 o
140.014 125.569 o
135.202 102.011 o
176.141 134.554 o
162.171 118.468 o
154.573 128.063 o
183.73 106.136 o
146.978 117.318 o
134.345 127.445 o
196.356 123.685 o
164.9 117.104 o
166.126 116.742 o
159.081 131.923 o
152.455 132.142 o
150.077 109.51 o
146.09 133.463 o
189.527 148.432 o
130.461 116.101 o
120.223 109.777 o
119.783 114.931 o
121.558 118.695 o
126.694 107.148 o
130.655 124.077 o
115.921 102.787 o
135.66 114.696 o
112.542 147.548 o
166.738 112.837 o
131.711 164.447 o
177.629 138.897 o
195.052 107.607 o
148.131 133.793 o
165.099 109.02 o
195.015 126.735 o
198.166 119.371 o
217.083 124.369 o
214.456 118.263 o
208.965 123.586 o
218.062 120.15 o
186.682 124.529 o
218.943 144.818 o
194.673 75.1714 o
143.859 95.1718 o
176.111 120.715 o
167.03 120.925 o
197.638 96.0354 o
205.896 77.2662 o
173.747 123.894 o
204.658 81.9016 o
196.122 66.1226 o
179.972 178.375 o
181.03 191.472 o
186.136 70.0035 o
124.933 132.745 o
188.636 113.459 o
158.374 47.3522 o
185.074 83.5537 o
134.538 52.8474 o
104.832 63.3581 o
137.167 161.947 o
105.995 53.7494 o
grestore
0.173 0.627 0.173 setrgbcolor
gsave
251.1 163.1 49.29 37.87 clipbox
/o {
gsave
newpath
translate
1.0 setlinewidth
1 setlinejoin
0 setlinecap
0 -3 m
0.795609 -3 1.55874 -2.683901 2.12132 -2.12132 c
2.683901 -1.55874 3 -0.795609 3 0 c
3 0.795609 2.683901 1.55874 2.12132 2.12132 c
1.55874 2.683901 0.795609 3 0 3 c
-0.795609 3 -1.55874 2.683901 -2.12132 2.12132 c
-2.683901 1.55874 -3 0.795609 -3 0 c
-3 -0.795609 -2.683901 -1.55874 -2.12132 -2.12132 c
-1.55874 -2.683901 -0.795609 -3 0 -3 c
cl

gsave
1.000 setgray
fill
grestore
stroke
grestore
} bind def
246.331 102.577 o
246.229 129.382 o
256.85 114.323 o
258.458 118.413 o
228.284 125.297 o
234.701 109.181 o
grestore
gsave
251.1 163.1 49.29 37.87 clipbox
/o {
gsave
newpath
translate
1.0 setlinewidth
1 setlinejoin
0 setlinecap
0 -3 m
0.795609 -3 1.55874 -2.683901 2.12132 -2.12132 c
2.683901 -1.55874 3 -0.795609 3 0 c
3 0.795609 2.683901 1.55874 2.12132 2.12132 c
1.55874 2.683901 0.795609 3 0 3 c
-0.795609 3 -1.55874 2.683901 -2.12132 2.12132 c
-2.683901 1.55874 -3 0.795609 -3 0 c
-3 -0.795609 -2.683901 -1.55874 -2.12132 -2.12132 c
-1.55874 -2.683901 -0.795609 -3 0 -3 c
cl

gsave
0.173 0.627 0.173 setrgbcolor
fill
grestore
stroke
grestore
} bind def
272.156 111.021 o
272.875 118.101 o
267.393 127.546 o
254.054 109.009 o
258.35 115.348 o
266.136 119.526 o
257.313 121.352 o
244.357 116.486 o
261.187 120.606 o
246.954 115.505 o
256.441 113.352 o
240.987 143.192 o
246.407 114.618 o
246.488 120.977 o
251.832 121.62 o
231.255 108.842 o
242.953 113.633 o
246.732 113.179 o
252.385 111.602 o
263.505 119.647 o
258.534 121.799 o
259.671 121.391 o
258.406 121.849 o
256.53 117.603 o
253.758 118.894 o
231.712 135.145 o
235.527 114.997 o
226.321 119.119 o
222.539 121.143 o
275.153 119.646 o
273.734 109.322 o
276.085 118.468 o
275.731 119.006 o
262.19 105.441 o
229.319 133.549 o
286.354 119.711 o
264.373 137.602 o
238.555 140.869 o
grestore
0.800 setlinewidth
0.000 setgray
gsave
/o {
gsave
newpath
translate
0.8 setlinewidth
1 setlinejoin
0 setlinecap
0 0 m
0 -3.5 l

gsave
0.000 setgray
fill
grestore
stroke
grestore
} bind def
75.4852 37.8719 o
grestore
/DejaVuSans findfont
10.000 scalefont
setfont
gsave
61.758674 23.278125 translate
0.000000 rotate
0.000000 0.000000 m /minus glyphshow
8.378906 0.000000 m /one glyphshow
14.741211 0.000000 m /zero glyphshow
21.103516 0.000000 m /zero glyphshow
grestore
gsave
/o {
gsave
newpath
translate
0.8 setlinewidth
1 setlinejoin
0 setlinecap
0 0 m
0 -3.5 l

gsave
0.000 setgray
fill
grestore
stroke
grestore
} bind def
119.014 37.8719 o
grestore
gsave
108.467444 23.278125 translate
0.000000 rotate
0.000000 0.000000 m /minus glyphshow
8.378906 0.000000 m /five glyphshow
14.741211 0.000000 m /zero glyphshow
grestore
gsave
/o {
gsave
newpath
translate
0.8 setlinewidth
1 setlinejoin
0 setlinecap
0 0 m
0 -3.5 l

gsave
0.000 setgray
fill
grestore
stroke
grestore
} bind def
162.543 37.8719 o
grestore
gsave
159.363714 23.278125 translate
0.000000 rotate
0.000000 0.000000 m /zero glyphshow
grestore
gsave
/o {
gsave
newpath
translate
0.8 setlinewidth
1 setlinejoin
0 setlinecap
0 0 m
0 -3.5 l

gsave
0.000 setgray
fill
grestore
stroke
grestore
} bind def
206.072 37.8719 o
grestore
gsave
199.713109 23.278125 translate
0.000000 rotate
0.000000 0.000000 m /five glyphshow
6.362305 0.000000 m /zero glyphshow
grestore
gsave
/o {
gsave
newpath
translate
0.8 setlinewidth
1 setlinejoin
0 setlinecap
0 0 m
0 -3.5 l

gsave
0.000 setgray
fill
grestore
stroke
grestore
} bind def
249.602 37.8719 o
grestore
gsave
240.062504 23.278125 translate
0.000000 rotate
0.000000 0.000000 m /one glyphshow
6.362305 0.000000 m /zero glyphshow
12.724609 0.000000 m /zero glyphshow
grestore
gsave
/o {
gsave
newpath
translate
0.8 setlinewidth
1 setlinejoin
0 setlinecap
0 0 m
0 -3.5 l

gsave
0.000 setgray
fill
grestore
stroke
grestore
} bind def
293.131 37.8719 o
grestore
gsave
283.591587 23.278125 translate
0.000000 rotate
0.000000 0.000000 m /one glyphshow
6.362305 0.000000 m /five glyphshow
12.724609 0.000000 m /zero glyphshow
grestore
gsave
162.343750 9.278125 translate
0.000000 rotate
/DejaVuSans-Oblique findfont
10.0 scalefont
setfont
0.000000 0.578125 moveto
/P glyphshow

6.030273 0.578125 moveto
/C glyphshow

13.012695 0.578125 moveto
/A glyphshow

/DejaVuSans findfont
7.0 scalefont
setfont
19.853516 -1.062500 moveto
/one glyphshow


grestore
gsave
/o {
gsave
newpath
translate
0.8 setlinewidth
1 setlinejoin
0 setlinecap
0 0 m
-3.5 0 l

gsave
0.000 setgray
fill
grestore
stroke
grestore
} bind def
49.2938 43.7002 o
grestore
gsave
21.200000 39.903327 translate
0.000000 rotate
0.000000 0.000000 m /minus glyphshow
8.378906 0.000000 m /seven glyphshow
14.741211 0.000000 m /five glyphshow
grestore
gsave
/o {
gsave
newpath
translate
0.8 setlinewidth
1 setlinejoin
0 setlinecap
0 0 m
-3.5 0 l

gsave
0.000 setgray
fill
grestore
stroke
grestore
} bind def
49.2938 68.3315 o
grestore
gsave
21.200000 64.534612 translate
0.000000 rotate
0.000000 0.000000 m /minus glyphshow
8.378906 0.000000 m /five glyphshow
14.741211 0.000000 m /zero glyphshow
grestore
gsave
/o {
gsave
newpath
translate
0.8 setlinewidth
1 setlinejoin
0 setlinecap
0 0 m
-3.5 0 l

gsave
0.000 setgray
fill
grestore
stroke
grestore
} bind def
49.2938 92.9628 o
grestore
gsave
21.200000 89.165897 translate
0.000000 rotate
0.000000 0.000000 m /minus glyphshow
8.378906 0.000000 m /two glyphshow
14.741211 0.000000 m /five glyphshow
grestore
gsave
/o {
gsave
newpath
translate
0.8 setlinewidth
1 setlinejoin
0 setlinecap
0 0 m
-3.5 0 l

gsave
0.000 setgray
fill
grestore
stroke
grestore
} bind def
49.2938 117.594 o
grestore
gsave
35.934375 113.797182 translate
0.000000 rotate
0.000000 0.000000 m /zero glyphshow
grestore
gsave
/o {
gsave
newpath
translate
0.8 setlinewidth
1 setlinejoin
0 setlinecap
0 0 m
-3.5 0 l

gsave
0.000 setgray
fill
grestore
stroke
grestore
} bind def
49.2938 142.225 o
grestore
gsave
29.575000 138.428467 translate
0.000000 rotate
0.000000 0.000000 m /two glyphshow
6.362305 0.000000 m /five glyphshow
grestore
gsave
/o {
gsave
newpath
translate
0.8 setlinewidth
1 setlinejoin
0 setlinecap
0 0 m
-3.5 0 l

gsave
0.000 setgray
fill
grestore
stroke
grestore
} bind def
49.2938 166.857 o
grestore
gsave
29.575000 163.059752 translate
0.000000 rotate
0.000000 0.000000 m /five glyphshow
6.362305 0.000000 m /zero glyphshow
grestore
gsave
/o {
gsave
newpath
translate
0.8 setlinewidth
1 setlinejoin
0 setlinecap
0 0 m
-3.5 0 l

gsave
0.000 setgray
fill
grestore
stroke
grestore
} bind def
49.2938 191.488 o
grestore
gsave
29.575000 187.691036 translate
0.000000 rotate
0.000000 0.000000 m /seven glyphshow
6.362305 0.000000 m /five glyphshow
grestore
gsave
15.121875 106.911875 translate
90.000000 rotate
/DejaVuSans-Oblique findfont
10.0 scalefont
setfont
0.000000 0.578125 moveto
/P glyphshow

6.030273 0.578125 moveto
/C glyphshow

13.012695 0.578125 moveto
/A glyphshow

/DejaVuSans findfont
7.0 scalefont
setfont
19.853516 -1.062500 moveto
/two glyphshow


grestore
0 setlinejoin
2 setlinecap
[] 0 setdash
gsave
49.29375 37.871875 m
49.29375 200.951875 l
stroke
grestore
gsave
300.39375 37.871875 m
300.39375 200.951875 l
stroke
grestore
gsave
49.29375 37.871875 m
300.39375 37.871875 l
stroke
grestore
gsave
49.29375 200.951875 m
300.39375 200.951875 l
stroke
grestore

end
showpage
