%!PS-Adobe-3.0 EPSF-3.0
%%Title: ExampleTrajectories.eps
%%Creator: Matplotlib v3.4.2, https://matplotlib.org/
%%CreationDate: Fri Aug 27 09:49:14 2021
%%Orientation: portrait
%%BoundingBox: 198 319 414 473
%%HiResBoundingBox: 198.404687 319.268125 413.595312 472.731875
%%EndComments
%%BeginProlog
/mpldict 11 dict def
mpldict begin
/_d { bind def } bind def
/m { moveto } _d
/l { lineto } _d
/r { rlineto } _d
/c { curveto } _d
/cl { closepath } _d
/ce { closepath eofill } _d
/box {
      m
      1 index 0 r
      0 exch r
      neg 0 r
      cl
    } _d
/clipbox {
      box
      clip
      newpath
    } _d
/sc { setcachedevice } _d
%!PS-Adobe-3.0 Resource-Font
%%Creator: Converted from TrueType to Type 3 by Matplotlib.
10 dict begin
/FontName /DejaVuSans def
/PaintType 0 def
/FontMatrix [0.00048828125 0 0 0.00048828125 0 0] def
/FontBBox [-2090 -948 3673 2524] def
/FontType 3 def
/Encoding [/space /a /d /e /parenleft /i /parenright /m /n /zero /one /P /s /four /T /five /seven /y] def
/CharStrings 19 dict dup begin
/.notdef 0 def
/space{651 0 0 0 0 0 sc
ce} _d
/a{1255 0 123 -29 1069 1147 sc
702 563 m
553 563 450 546 393 512 c
336 478 307 420 307 338 c
307 273 328 221 371 182 c
414 144 473 125 547 125 c
649 125 731 161 792 233 c
854 306 885 402 885 522 c
885 563 l
702 563 l

1069 639 m
1069 0 l
885 0 l
885 170 l
843 102 791 52 728 19 c
665 -13 589 -29 498 -29 c
383 -29 292 3 224 67 c
157 132 123 218 123 326 c
123 452 165 547 249 611 c
334 675 460 707 627 707 c
885 707 l
885 725 l
885 810 857 875 801 921 c
746 968 668 991 567 991 c
503 991 441 983 380 968 c
319 953 261 930 205 899 c
205 1069 l
272 1095 338 1114 401 1127 c
464 1140 526 1147 586 1147 c
748 1147 869 1105 949 1021 c
1029 937 1069 810 1069 639 c

ce} _d
/d{1300 0 113 -29 1114 1556 sc
930 950 m
930 1556 l
1114 1556 l
1114 0 l
930 0 l
930 168 l
891 101 842 52 783 19 c
724 -13 654 -29 571 -29 c
436 -29 325 25 240 133 c
155 241 113 383 113 559 c
113 735 155 877 240 985 c
325 1093 436 1147 571 1147 c
654 1147 724 1131 783 1098 c
842 1066 891 1017 930 950 c

303 559 m
303 424 331 317 386 240 c
442 163 519 125 616 125 c
713 125 790 163 846 240 c
902 317 930 424 930 559 c
930 694 902 800 846 877 c
790 954 713 993 616 993 c
519 993 442 954 386 877 c
331 800 303 694 303 559 c

ce} _d
/e{1260 0 113 -29 1151 1147 sc
1151 606 m
1151 516 l
305 516 l
313 389 351 293 419 226 c
488 160 583 127 705 127 c
776 127 844 136 910 153 c
977 170 1043 196 1108 231 c
1108 57 l
1042 29 974 8 905 -7 c
836 -22 765 -29 694 -29 c
515 -29 374 23 269 127 c
165 231 113 372 113 549 c
113 732 162 878 261 985 c
360 1093 494 1147 662 1147 c
813 1147 932 1098 1019 1001 c
1107 904 1151 773 1151 606 c

967 660 m
966 761 937 841 882 901 c
827 961 755 991 664 991 c
561 991 479 962 417 904 c
356 846 320 764 311 659 c
967 660 l

ce} _d
/parenleft{799 0 176 -270 635 1554 sc
635 1554 m
546 1401 479 1249 436 1099 c
393 949 371 797 371 643 c
371 489 393 336 436 185 c
480 34 546 -117 635 -270 c
475 -270 l
375 -113 300 41 250 192 c
201 343 176 494 176 643 c
176 792 201 941 250 1092 c
299 1243 374 1397 475 1554 c
635 1554 l

ce} _d
/i{569 0 193 0 377 1556 sc
193 1120 m
377 1120 l
377 0 l
193 0 l
193 1120 l

193 1556 m
377 1556 l
377 1323 l
193 1323 l
193 1556 l

ce} _d
/parenright{799 0 164 -270 623 1554 sc
164 1554 m
324 1554 l
424 1397 499 1243 548 1092 c
598 941 623 792 623 643 c
623 494 598 343 548 192 c
499 41 424 -113 324 -270 c
164 -270 l
253 -117 319 34 362 185 c
406 336 428 489 428 643 c
428 797 406 949 362 1099 c
319 1249 253 1401 164 1554 c

ce} _d
/m{1995 0 186 0 1821 1147 sc
1065 905 m
1111 988 1166 1049 1230 1088 c
1294 1127 1369 1147 1456 1147 c
1573 1147 1663 1106 1726 1024 c
1789 943 1821 827 1821 676 c
1821 0 l
1636 0 l
1636 670 l
1636 777 1617 857 1579 909 c
1541 961 1483 987 1405 987 c
1310 987 1234 955 1179 892 c
1124 829 1096 742 1096 633 c
1096 0 l
911 0 l
911 670 l
911 778 892 858 854 909 c
816 961 757 987 678 987 c
584 987 509 955 454 891 c
399 828 371 742 371 633 c
371 0 l
186 0 l
186 1120 l
371 1120 l
371 946 l
413 1015 463 1065 522 1098 c
581 1131 650 1147 731 1147 c
812 1147 881 1126 938 1085 c
995 1044 1038 984 1065 905 c

ce} _d
/n{1298 0 186 0 1124 1147 sc
1124 676 m
1124 0 l
940 0 l
940 670 l
940 776 919 855 878 908 c
837 961 775 987 692 987 c
593 987 514 955 457 892 c
400 829 371 742 371 633 c
371 0 l
186 0 l
186 1120 l
371 1120 l
371 946 l
415 1013 467 1064 526 1097 c
586 1130 655 1147 733 1147 c
862 1147 959 1107 1025 1027 c
1091 948 1124 831 1124 676 c

ce} _d
/zero{1303 0 135 -29 1167 1520 sc
651 1360 m
547 1360 469 1309 416 1206 c
364 1104 338 950 338 745 c
338 540 364 387 416 284 c
469 182 547 131 651 131 c
756 131 834 182 886 284 c
939 387 965 540 965 745 c
965 950 939 1104 886 1206 c
834 1309 756 1360 651 1360 c

651 1520 m
818 1520 946 1454 1034 1321 c
1123 1189 1167 997 1167 745 c
1167 494 1123 302 1034 169 c
946 37 818 -29 651 -29 c
484 -29 356 37 267 169 c
179 302 135 494 135 745 c
135 997 179 1189 267 1321 c
356 1454 484 1520 651 1520 c

ce} _d
/one{1303 0 225 0 1114 1493 sc
254 170 m
584 170 l
584 1309 l
225 1237 l
225 1421 l
582 1493 l
784 1493 l
784 170 l
1114 170 l
1114 0 l
254 0 l
254 170 l

ce} _d
/P{1235 0 201 0 1165 1493 sc
403 1327 m
403 766 l
657 766 l
751 766 824 790 875 839 c
926 888 952 957 952 1047 c
952 1136 926 1205 875 1254 c
824 1303 751 1327 657 1327 c
403 1327 l

201 1493 m
657 1493 l
824 1493 951 1455 1036 1379 c
1122 1304 1165 1193 1165 1047 c
1165 900 1122 788 1036 713 c
951 638 824 600 657 600 c
403 600 l
403 0 l
201 0 l
201 1493 l

ce} _d
/s{1067 0 111 -29 967 1147 sc
907 1087 m
907 913 l
855 940 801 960 745 973 c
689 986 631 993 571 993 c
480 993 411 979 365 951 c
320 923 297 881 297 825 c
297 782 313 749 346 724 c
379 700 444 677 543 655 c
606 641 l
737 613 829 573 884 522 c
939 471 967 400 967 309 c
967 205 926 123 843 62 c
761 1 648 -29 504 -29 c
444 -29 381 -23 316 -11 c
251 0 183 18 111 41 c
111 231 l
179 196 246 169 312 151 c
378 134 443 125 508 125 c
595 125 661 140 708 169 c
755 199 778 241 778 295 c
778 345 761 383 727 410 c
694 437 620 462 506 487 c
442 502 l
328 526 246 563 195 612 c
144 662 119 730 119 817 c
119 922 156 1004 231 1061 c
306 1118 412 1147 549 1147 c
617 1147 681 1142 741 1132 c
801 1122 856 1107 907 1087 c

ce} _d
/four{1303 0 100 0 1188 1493 sc
774 1317 m
264 520 l
774 520 l
774 1317 l

721 1493 m
975 1493 l
975 520 l
1188 520 l
1188 352 l
975 352 l
975 0 l
774 0 l
774 352 l
100 352 l
100 547 l
721 1493 l

ce} _d
/T{1251 0 -6 0 1257 1493 sc
-6 1493 m
1257 1493 l
1257 1323 l
727 1323 l
727 0 l
524 0 l
524 1323 l
-6 1323 l
-6 1493 l

ce} _d
/five{1303 0 158 -29 1124 1493 sc
221 1493 m
1014 1493 l
1014 1323 l
406 1323 l
406 957 l
435 967 465 974 494 979 c
523 984 553 987 582 987 c
749 987 881 941 978 850 c
1075 759 1124 635 1124 479 c
1124 318 1074 193 974 104 c
874 15 733 -29 551 -29 c
488 -29 424 -24 359 -13 c
294 -2 227 14 158 35 c
158 238 l
218 205 280 181 344 165 c
408 149 476 141 547 141 c
662 141 754 171 821 232 c
888 293 922 375 922 479 c
922 583 888 665 821 726 c
754 787 662 817 547 817 c
493 817 439 811 385 799 c
332 787 277 768 221 743 c
221 1493 l

ce} _d
/seven{1303 0 168 0 1128 1493 sc
168 1493 m
1128 1493 l
1128 1407 l
586 0 l
375 0 l
885 1323 l
168 1323 l
168 1493 l

ce} _d
/y{1212 0 61 -426 1151 1120 sc
659 -104 m
607 -237 556 -324 507 -365 c
458 -406 392 -426 309 -426 c
162 -426 l
162 -272 l
270 -272 l
321 -272 360 -260 388 -236 c
416 -212 447 -155 481 -66 c
514 18 l
61 1120 l
256 1120 l
606 244 l
956 1120 l
1151 1120 l
659 -104 l

ce} _d
end readonly def

/BuildGlyph {
 exch begin
 CharStrings exch
 2 copy known not {pop /.notdef} if
 true 3 1 roll get exec
 end
} _d

/BuildChar {
 1 index /Encoding get exch get
 1 index /BuildGlyph get exec
} _d

FontName currentdict end definefont pop
end
%%EndProlog
mpldict begin
198.405 319.268 translate
215.191 153.464 0 0 clipbox
gsave
0 0 m
215.190625 0 l
215.190625 153.46375 l
0 153.46375 l
cl
grestore
gsave
40.590625 37.54375 m
207.990625 37.54375 l
207.990625 146.26375 l
40.590625 146.26375 l
cl
grestore
1.500 setlinewidth
1 setlinejoin
2 setlinecap
[] 0 setdash
0.990 0.797 0.148 setrgbcolor
gsave
167.4 108.72 40.591 37.544 clipbox
48.808109 123.531386 m
56.09706 124.51975 l
63.338705 123.531386 l
78.856897 121.554659 l
82.549753 126.496477 l
94.029532 122.543023 l
103.105969 124.51975 l
111.529617 114.636114 l
122.296526 119.577932 l
122.304115 122.543023 l
133.944024 129.461568 l
135.897711 131.438295 l
144.170842 133.415023 l
146.961986 135.39175 l
167.901704 136.380114 l
178.082229 134.403386 l
179.628129 133.415023 l
187.877101 128.473205 l
190.534424 124.51975 l
199.202821 129.461568 l
stroke
grestore
1.000 setlinewidth
0 setlinecap
gsave
167.4 108.72 40.591 37.544 clipbox
/o {
gsave
newpath
translate
1.0 setlinewidth
1 setlinejoin

0 setlinecap

0 -2.5 m
0.663008 -2.5 1.29895 -2.236584 1.767767 -1.767767 c
2.236584 -1.29895 2.5 -0.663008 2.5 0 c
2.5 0.663008 2.236584 1.29895 1.767767 1.767767 c
1.29895 2.236584 0.663008 2.5 0 2.5 c
-0.663008 2.5 -1.29895 2.236584 -1.767767 1.767767 c
-2.236584 1.29895 -2.5 0.663008 -2.5 0 c
-2.5 -0.663008 -2.236584 -1.29895 -1.767767 -1.767767 c
-1.29895 -2.236584 -0.663008 -2.5 0 -2.5 c
cl

gsave
0.990 0.797 0.148 setrgbcolor
fill
grestore
stroke
grestore
} bind def
48.8081 123.531 o
56.0971 124.52 o
63.3387 123.531 o
78.8569 121.555 o
82.5498 126.496 o
94.0295 122.543 o
103.106 124.52 o
111.53 114.636 o
122.297 119.578 o
122.304 122.543 o
133.944 129.462 o
135.898 131.438 o
144.171 133.415 o
146.962 135.392 o
167.902 136.38 o
178.082 134.403 o
179.628 133.415 o
187.877 128.473 o
190.534 124.52 o
199.203 129.462 o
grestore
1.500 setlinewidth
2 setlinecap
0.980 0.855 0.142 setrgbcolor
gsave
167.4 108.72 40.591 37.544 clipbox
49.556015 129.461568 m
58.042652 122.543023 l
59.387061 122.543023 l
60.394008 126.496477 l
67.837777 121.554659 l
78.77114 141.321932 l
79.094815 141.321932 l
81.254041 141.321932 l
100.501896 141.321932 l
103.097874 130.449932 l
112.507725 129.461568 l
122.614003 141.321932 l
126.191379 133.415023 l
133.467049 124.51975 l
136.051896 129.461568 l
144.424824 128.473205 l
146.813619 133.415023 l
155.107241 128.473205 l
155.710574 130.449932 l
168.691603 130.449932 l
179.406147 141.321932 l
187.938699 127.484841 l
190.622964 132.426659 l
198.90596 130.449932 l
stroke
grestore
1.000 setlinewidth
0 setlinecap
gsave
167.4 108.72 40.591 37.544 clipbox
/o {
gsave
newpath
translate
1.0 setlinewidth
1 setlinejoin

0 setlinecap

0 -2.5 m
0.663008 -2.5 1.29895 -2.236584 1.767767 -1.767767 c
2.236584 -1.29895 2.5 -0.663008 2.5 0 c
2.5 0.663008 2.236584 1.29895 1.767767 1.767767 c
1.29895 2.236584 0.663008 2.5 0 2.5 c
-0.663008 2.5 -1.29895 2.236584 -1.767767 1.767767 c
-2.236584 1.29895 -2.5 0.663008 -2.5 0 c
-2.5 -0.663008 -2.236584 -1.29895 -1.767767 -1.767767 c
-1.29895 -2.236584 -0.663008 -2.5 0 -2.5 c
cl

gsave
0.980 0.855 0.142 setrgbcolor
fill
grestore
stroke
grestore
} bind def
49.556 129.462 o
58.0427 122.543 o
59.3871 122.543 o
60.394 126.496 o
67.8378 121.555 o
78.7711 141.322 o
79.0948 141.322 o
81.254 141.322 o
100.502 141.322 o
103.098 130.45 o
112.508 129.462 o
122.614 141.322 o
126.191 133.415 o
133.467 124.52 o
136.052 129.462 o
144.425 128.473 o
146.814 133.415 o
155.107 128.473 o
155.711 130.45 o
168.692 130.45 o
179.406 141.322 o
187.939 127.485 o
190.623 132.427 o
198.906 130.45 o
grestore
1.500 setlinewidth
2 setlinecap
0.994 0.753 0.161 setrgbcolor
gsave
167.4 108.72 40.591 37.544 clipbox
67.594546 119.577932 m
80.793762 141.321932 l
91.826163 121.554659 l
92.637311 121.554659 l
122.30285 116.612841 l
132.9902 117.601205 l
136.463731 110.682659 l
144.277595 133.415023 l
144.378783 127.484841 l
stroke
grestore
1.000 setlinewidth
0 setlinecap
gsave
167.4 108.72 40.591 37.544 clipbox
/o {
gsave
newpath
translate
1.0 setlinewidth
1 setlinejoin

0 setlinecap

0 -2.5 m
0.663008 -2.5 1.29895 -2.236584 1.767767 -1.767767 c
2.236584 -1.29895 2.5 -0.663008 2.5 0 c
2.5 0.663008 2.236584 1.29895 1.767767 1.767767 c
1.29895 2.236584 0.663008 2.5 0 2.5 c
-0.663008 2.5 -1.29895 2.236584 -1.767767 1.767767 c
-2.236584 1.29895 -2.5 0.663008 -2.5 0 c
-2.5 -0.663008 -2.236584 -1.29895 -1.767767 -1.767767 c
-1.29895 -2.236584 -0.663008 -2.5 0 -2.5 c
cl

gsave
0.994 0.753 0.161 setrgbcolor
fill
grestore
stroke
grestore
} bind def
67.5945 119.578 o
80.7938 141.322 o
91.8262 121.555 o
92.6373 121.555 o
122.303 116.613 o
132.99 117.601 o
136.464 110.683 o
144.278 133.415 o
144.379 127.485 o
grestore
1.500 setlinewidth
2 setlinecap
0.820 0.307 0.448 setrgbcolor
gsave
167.4 108.72 40.591 37.544 clipbox
55.159806 80.043386 m
58.769435 76.089932 l
67.250128 79.055023 l
69.721265 72.136477 l
87.909681 74.113205 l
93.767961 80.043386 l
98.532145 77.078295 l
110.439949 77.078295 l
116.872849 76.089932 l
127.391848 76.089932 l
130.752301 79.055023 l
143.045252 79.055023 l
146.19789 81.03175 l
154.275855 80.043386 l
164.111202 78.066659 l
200.360158 93.880477 l
stroke
grestore
1.000 setlinewidth
0 setlinecap
gsave
167.4 108.72 40.591 37.544 clipbox
/o {
gsave
newpath
translate
1.0 setlinewidth
1 setlinejoin

0 setlinecap

0 -2.5 m
0.663008 -2.5 1.29895 -2.236584 1.767767 -1.767767 c
2.236584 -1.29895 2.5 -0.663008 2.5 0 c
2.5 0.663008 2.236584 1.29895 1.767767 1.767767 c
1.29895 2.236584 0.663008 2.5 0 2.5 c
-0.663008 2.5 -1.29895 2.236584 -1.767767 1.767767 c
-2.236584 1.29895 -2.5 0.663008 -2.5 0 c
-2.5 -0.663008 -2.236584 -1.29895 -1.767767 -1.767767 c
-1.29895 -2.236584 -0.663008 -2.5 0 -2.5 c
cl

gsave
0.820 0.307 0.448 setrgbcolor
fill
grestore
stroke
grestore
} bind def
55.1598 80.0434 o
58.7694 76.0899 o
67.2501 79.055 o
69.7213 72.1365 o
87.9097 74.1132 o
93.768 80.0434 o
98.5321 77.0783 o
110.44 77.0783 o
116.873 76.0899 o
127.392 76.0899 o
130.752 79.055 o
143.045 79.055 o
146.198 81.0318 o
154.276 80.0434 o
164.111 78.0667 o
200.36 93.8805 o
grestore
1.500 setlinewidth
2 setlinecap
0.990 0.803 0.147 setrgbcolor
gsave
167.4 108.72 40.591 37.544 clipbox
48.779017 131.438295 m
65.660591 128.473205 l
76.526663 123.531386 l
90.291774 123.531386 l
91.098115 122.543023 l
102.085488 131.438295 l
121.09884 127.484841 l
132.476924 129.461568 l
145.739002 132.426659 l
156.272042 125.508114 l
167.529711 127.484841 l
178.528216 129.461568 l
stroke
grestore
1.000 setlinewidth
0 setlinecap
gsave
167.4 108.72 40.591 37.544 clipbox
/o {
gsave
newpath
translate
1.0 setlinewidth
1 setlinejoin

0 setlinecap

0 -2.5 m
0.663008 -2.5 1.29895 -2.236584 1.767767 -1.767767 c
2.236584 -1.29895 2.5 -0.663008 2.5 0 c
2.5 0.663008 2.236584 1.29895 1.767767 1.767767 c
1.29895 2.236584 0.663008 2.5 0 2.5 c
-0.663008 2.5 -1.29895 2.236584 -1.767767 1.767767 c
-2.236584 1.29895 -2.5 0.663008 -2.5 0 c
-2.5 -0.663008 -2.236584 -1.29895 -1.767767 -1.767767 c
-1.29895 -2.236584 -0.663008 -2.5 0 -2.5 c
cl

gsave
0.990 0.803 0.147 setrgbcolor
fill
grestore
stroke
grestore
} bind def
48.779 131.438 o
65.6606 128.473 o
76.5267 123.531 o
90.2918 123.531 o
91.0981 122.543 o
102.085 131.438 o
121.099 127.485 o
132.477 129.462 o
145.739 132.427 o
156.272 125.508 o
167.53 127.485 o
178.528 129.462 o
grestore
1.500 setlinewidth
2 setlinecap
0.887 0.402 0.376 setrgbcolor
gsave
167.4 108.72 40.591 37.544 clipbox
75.321262 88.938659 m
103.990731 91.90375 l
106.538519 96.845568 l
113.487858 90.915386 l
115.360215 87.950295 l
124.364935 92.892114 l
139.6786 95.857205 l
155.40486 78.066659 l
158.087227 55.334295 l
171.503744 83.008477 l
177.343936 105.740841 l
179.936752 88.938659 l
183.002116 101.787386 l
189.935771 92.892114 l
stroke
grestore
1.000 setlinewidth
0 setlinecap
gsave
167.4 108.72 40.591 37.544 clipbox
/o {
gsave
newpath
translate
1.0 setlinewidth
1 setlinejoin

0 setlinecap

0 -2.5 m
0.663008 -2.5 1.29895 -2.236584 1.767767 -1.767767 c
2.236584 -1.29895 2.5 -0.663008 2.5 0 c
2.5 0.663008 2.236584 1.29895 1.767767 1.767767 c
1.29895 2.236584 0.663008 2.5 0 2.5 c
-0.663008 2.5 -1.29895 2.236584 -1.767767 1.767767 c
-2.236584 1.29895 -2.5 0.663008 -2.5 0 c
-2.5 -0.663008 -2.236584 -1.29895 -1.767767 -1.767767 c
-1.29895 -2.236584 -0.663008 -2.5 0 -2.5 c
cl

gsave
0.887 0.402 0.376 setrgbcolor
fill
grestore
stroke
grestore
} bind def
75.3213 88.9387 o
103.991 91.9038 o
106.539 96.8456 o
113.488 90.9154 o
115.36 87.9503 o
124.365 92.8921 o
139.679 95.8572 o
155.405 78.0667 o
158.087 55.3343 o
171.504 83.0085 o
177.344 105.741 o
179.937 88.9387 o
183.002 101.787 o
189.936 92.8921 o
grestore
1.500 setlinewidth
2 setlinecap
0.953 0.528 0.289 setrgbcolor
gsave
167.4 108.72 40.591 37.544 clipbox
85.1814 106.729205 m
91.563833 119.577932 l
91.594189 112.659386 l
91.601779 115.624477 l
91.609368 108.705932 l
96.117293 111.671023 l
96.739599 121.554659 l
104.305932 111.671023 l
104.419768 119.577932 l
104.457714 109.694295 l
104.480481 123.531386 l
107.053186 116.612841 l
107.098721 122.543023 l
113.465976 104.752477 l
117.966312 93.880477 l
117.98149 87.950295 l
124.576418 88.938659 l
135.383296 78.066659 l
148.459316 77.078295 l
148.459316 70.15975 l
161.178647 83.996841 l
182.951775 79.055023 l
stroke
grestore
1.000 setlinewidth
0 setlinecap
gsave
167.4 108.72 40.591 37.544 clipbox
/o {
gsave
newpath
translate
1.0 setlinewidth
1 setlinejoin

0 setlinecap

0 -2.5 m
0.663008 -2.5 1.29895 -2.236584 1.767767 -1.767767 c
2.236584 -1.29895 2.5 -0.663008 2.5 0 c
2.5 0.663008 2.236584 1.29895 1.767767 1.767767 c
1.29895 2.236584 0.663008 2.5 0 2.5 c
-0.663008 2.5 -1.29895 2.236584 -1.767767 1.767767 c
-2.236584 1.29895 -2.5 0.663008 -2.5 0 c
-2.5 -0.663008 -2.236584 -1.29895 -1.767767 -1.767767 c
-1.29895 -2.236584 -0.663008 -2.5 0 -2.5 c
cl

gsave
0.953 0.528 0.289 setrgbcolor
fill
grestore
stroke
grestore
} bind def
85.1814 106.729 o
91.5638 119.578 o
91.5942 112.659 o
91.6018 115.624 o
91.6094 108.706 o
96.1173 111.671 o
96.7396 121.555 o
104.306 111.671 o
104.42 119.578 o
104.458 109.694 o
104.48 123.531 o
107.053 116.613 o
107.099 122.543 o
113.466 104.752 o
117.966 93.8805 o
117.981 87.9503 o
124.576 88.9387 o
135.383 78.0667 o
148.459 77.0783 o
148.459 70.1598 o
161.179 83.9968 o
182.952 79.055 o
grestore
1.500 setlinewidth
2 setlinecap
0.833 0.325 0.434 setrgbcolor
gsave
167.4 108.72 40.591 37.544 clipbox
60.612954 73.124841 m
67.288832 85.973568 l
84.070862 73.124841 l
84.080854 74.113205 l
91.023995 78.066659 l
100.456614 73.124841 l
112.389968 78.066659 l
148.225571 102.77575 l
158.805662 83.008477 l
183.212587 84.985205 l
stroke
grestore
1.000 setlinewidth
0 setlinecap
gsave
167.4 108.72 40.591 37.544 clipbox
/o {
gsave
newpath
translate
1.0 setlinewidth
1 setlinejoin

0 setlinecap

0 -2.5 m
0.663008 -2.5 1.29895 -2.236584 1.767767 -1.767767 c
2.236584 -1.29895 2.5 -0.663008 2.5 0 c
2.5 0.663008 2.236584 1.29895 1.767767 1.767767 c
1.29895 2.236584 0.663008 2.5 0 2.5 c
-0.663008 2.5 -1.29895 2.236584 -1.767767 1.767767 c
-2.236584 1.29895 -2.5 0.663008 -2.5 0 c
-2.5 -0.663008 -2.236584 -1.29895 -1.767767 -1.767767 c
-1.29895 -2.236584 -0.663008 -2.5 0 -2.5 c
cl

gsave
0.833 0.325 0.434 setrgbcolor
fill
grestore
stroke
grestore
} bind def
60.613 73.1248 o
67.2888 85.9736 o
84.0709 73.1248 o
84.0809 74.1132 o
91.024 78.0667 o
100.457 73.1248 o
112.39 78.0667 o
148.226 102.776 o
158.806 83.0085 o
183.213 84.9852 o
grestore
1.500 setlinewidth
2 setlinecap
0.857 0.356 0.410 setrgbcolor
gsave
167.4 108.72 40.591 37.544 clipbox
69.205333 78.066659 m
90.276848 91.90375 l
124.510013 81.03175 l
146.714582 90.915386 l
167.578662 93.880477 l
172.03321 84.985205 l
183.015397 80.043386 l
199.076462 74.113205 l
stroke
grestore
1.000 setlinewidth
0 setlinecap
gsave
167.4 108.72 40.591 37.544 clipbox
/o {
gsave
newpath
translate
1.0 setlinewidth
1 setlinejoin

0 setlinecap

0 -2.5 m
0.663008 -2.5 1.29895 -2.236584 1.767767 -1.767767 c
2.236584 -1.29895 2.5 -0.663008 2.5 0 c
2.5 0.663008 2.236584 1.29895 1.767767 1.767767 c
1.29895 2.236584 0.663008 2.5 0 2.5 c
-0.663008 2.5 -1.29895 2.236584 -1.767767 1.767767 c
-2.236584 1.29895 -2.5 0.663008 -2.5 0 c
-2.5 -0.663008 -2.236584 -1.29895 -1.767767 -1.767767 c
-1.29895 -2.236584 -0.663008 -2.5 0 -2.5 c
cl

gsave
0.857 0.356 0.410 setrgbcolor
fill
grestore
stroke
grestore
} bind def
69.2053 78.0667 o
90.2768 91.9038 o
124.51 81.0318 o
146.715 90.9154 o
167.579 93.8805 o
172.033 84.9852 o
183.015 80.0434 o
199.076 74.1132 o
grestore
1.500 setlinewidth
2 setlinecap
0.840 0.334 0.427 setrgbcolor
gsave
167.4 108.72 40.591 37.544 clipbox
48.330248 42.485568 m
48.696676 42.485568 l
50.974797 105.740841 l
59.628647 69.171386 l
62.314936 118.589568 l
62.317845 96.845568 l
63.997566 93.880477 l
75.418529 97.833932 l
81.645765 75.101568 l
91.09255 83.996841 l
92.407362 58.299386 l
97.13575 112.659386 l
105.597723 78.066659 l
107.891149 96.845568 l
114.894371 42.485568 l
116.850967 114.636114 l
116.858303 42.485568 l
118.487557 42.485568 l
125.226551 103.764114 l
137.407183 105.740841 l
137.41161 42.485568 l
141.6376 100.799023 l
147.146022 70.15975 l
148.055575 111.671023 l
149.909593 42.485568 l
169.483526 93.880477 l
173.665879 76.089932 l
181.644047 97.833932 l
193.307481 96.845568 l
195.775836 92.892114 l
stroke
grestore
1.000 setlinewidth
0 setlinecap
gsave
167.4 108.72 40.591 37.544 clipbox
/o {
gsave
newpath
translate
1.0 setlinewidth
1 setlinejoin

0 setlinecap

0 -2.5 m
0.663008 -2.5 1.29895 -2.236584 1.767767 -1.767767 c
2.236584 -1.29895 2.5 -0.663008 2.5 0 c
2.5 0.663008 2.236584 1.29895 1.767767 1.767767 c
1.29895 2.236584 0.663008 2.5 0 2.5 c
-0.663008 2.5 -1.29895 2.236584 -1.767767 1.767767 c
-2.236584 1.29895 -2.5 0.663008 -2.5 0 c
-2.5 -0.663008 -2.236584 -1.29895 -1.767767 -1.767767 c
-1.29895 -2.236584 -0.663008 -2.5 0 -2.5 c
cl

gsave
0.840 0.334 0.427 setrgbcolor
fill
grestore
stroke
grestore
} bind def
48.3302 42.4856 o
48.6967 42.4856 o
50.9748 105.741 o
59.6286 69.1714 o
62.3149 118.59 o
62.3178 96.8456 o
63.9976 93.8805 o
75.4185 97.8339 o
81.6458 75.1016 o
91.0925 83.9968 o
92.4074 58.2994 o
97.1358 112.659 o
105.598 78.0667 o
107.891 96.8456 o
114.894 42.4856 o
116.851 114.636 o
116.858 42.4856 o
118.488 42.4856 o
125.227 103.764 o
137.407 105.741 o
137.412 42.4856 o
141.638 100.799 o
147.146 70.1598 o
148.056 111.671 o
149.91 42.4856 o
169.484 93.8805 o
173.666 76.0899 o
181.644 97.8339 o
193.307 96.8456 o
195.776 92.8921 o
grestore
1.500 setlinewidth
2 setlinecap
0.768 0.245 0.498 setrgbcolor
gsave
167.4 108.72 40.591 37.544 clipbox
49.664412 42.485568 m
70.17016 78.066659 l
81.143999 42.485568 l
96.694065 103.764114 l
110.635241 67.194659 l
116.091804 61.264477 l
124.864804 122.543023 l
124.993818 118.589568 l
128.515161 124.51975 l
130.624931 125.508114 l
132.787824 42.485568 l
148.231643 42.485568 l
160.267955 53.357568 l
163.948669 51.380841 l
172.501584 57.311023 l
190.487751 61.264477 l
192.453328 52.369205 l
195.595216 42.485568 l
stroke
grestore
1.000 setlinewidth
0 setlinecap
gsave
167.4 108.72 40.591 37.544 clipbox
/o {
gsave
newpath
translate
1.0 setlinewidth
1 setlinejoin

0 setlinecap

0 -2.5 m
0.663008 -2.5 1.29895 -2.236584 1.767767 -1.767767 c
2.236584 -1.29895 2.5 -0.663008 2.5 0 c
2.5 0.663008 2.236584 1.29895 1.767767 1.767767 c
1.29895 2.236584 0.663008 2.5 0 2.5 c
-0.663008 2.5 -1.29895 2.236584 -1.767767 1.767767 c
-2.236584 1.29895 -2.5 0.663008 -2.5 0 c
-2.5 -0.663008 -2.236584 -1.29895 -1.767767 -1.767767 c
-1.29895 -2.236584 -0.663008 -2.5 0 -2.5 c
cl

gsave
0.768 0.245 0.498 setrgbcolor
fill
grestore
stroke
grestore
} bind def
49.6644 42.4856 o
70.1702 78.0667 o
81.144 42.4856 o
96.6941 103.764 o
110.635 67.1947 o
116.092 61.2645 o
124.865 122.543 o
124.994 118.59 o
128.515 124.52 o
130.625 125.508 o
132.788 42.4856 o
148.232 42.4856 o
160.268 53.3576 o
163.949 51.3808 o
172.502 57.311 o
190.488 61.2645 o
192.453 52.3692 o
195.595 42.4856 o
grestore
1.500 setlinewidth
2 setlinecap
0.557 0.047 0.643 setrgbcolor
gsave
167.4 108.72 40.591 37.544 clipbox
49.09523 54.345932 m
59.499886 42.485568 l
70.124626 47.427386 l
82.327899 46.439023 l
92.60354 47.427386 l
103.213102 47.427386 l
107.963878 50.392477 l
169.283806 51.380841 l
175.248838 47.427386 l
stroke
grestore
1.000 setlinewidth
0 setlinecap
gsave
167.4 108.72 40.591 37.544 clipbox
/o {
gsave
newpath
translate
1.0 setlinewidth
1 setlinejoin

0 setlinecap

0 -2.5 m
0.663008 -2.5 1.29895 -2.236584 1.767767 -1.767767 c
2.236584 -1.29895 2.5 -0.663008 2.5 0 c
2.5 0.663008 2.236584 1.29895 1.767767 1.767767 c
1.29895 2.236584 0.663008 2.5 0 2.5 c
-0.663008 2.5 -1.29895 2.236584 -1.767767 1.767767 c
-2.236584 1.29895 -2.5 0.663008 -2.5 0 c
-2.5 -0.663008 -2.236584 -1.29895 -1.767767 -1.767767 c
-1.29895 -2.236584 -0.663008 -2.5 0 -2.5 c
cl

gsave
0.557 0.047 0.643 setrgbcolor
fill
grestore
stroke
grestore
} bind def
49.0952 54.3459 o
59.4999 42.4856 o
70.1246 47.4274 o
82.3279 46.439 o
92.6035 47.4274 o
103.213 47.4274 o
107.964 50.3925 o
169.284 51.3808 o
175.249 47.4274 o
grestore
1.500 setlinewidth
2 setlinecap
0.646 0.121 0.599 setrgbcolor
gsave
167.4 108.72 40.591 37.544 clipbox
77.493642 81.03175 m
83.693936 42.485568 l
99.312304 42.485568 l
116.494027 71.148114 l
121.745684 42.485568 l
143.435331 62.252841 l
155.471644 42.485568 l
164.715168 66.206295 l
175.863556 42.485568 l
199.609849 76.089932 l
stroke
grestore
1.000 setlinewidth
0 setlinecap
gsave
167.4 108.72 40.591 37.544 clipbox
/o {
gsave
newpath
translate
1.0 setlinewidth
1 setlinejoin

0 setlinecap

0 -2.5 m
0.663008 -2.5 1.29895 -2.236584 1.767767 -1.767767 c
2.236584 -1.29895 2.5 -0.663008 2.5 0 c
2.5 0.663008 2.236584 1.29895 1.767767 1.767767 c
1.29895 2.236584 0.663008 2.5 0 2.5 c
-0.663008 2.5 -1.29895 2.236584 -1.767767 1.767767 c
-2.236584 1.29895 -2.5 0.663008 -2.5 0 c
-2.5 -0.663008 -2.236584 -1.29895 -1.767767 -1.767767 c
-1.29895 -2.236584 -0.663008 -2.5 0 -2.5 c
cl

gsave
0.646 0.121 0.599 setrgbcolor
fill
grestore
stroke
grestore
} bind def
77.4936 81.0318 o
83.6939 42.4856 o
99.3123 42.4856 o
116.494 71.1481 o
121.746 42.4856 o
143.435 62.2528 o
155.472 42.4856 o
164.715 66.2063 o
175.864 42.4856 o
199.61 76.0899 o
grestore
1.500 setlinewidth
2 setlinecap
0.945 0.508 0.302 setrgbcolor
gsave
167.4 108.72 40.591 37.544 clipbox
62.231962 66.206295 m
72.378588 64.229568 l
75.133432 78.066659 l
85.272469 90.915386 l
89.795573 92.892114 l
99.995323 110.682659 l
104.738511 117.601205 l
123.946523 130.449932 l
128.720067 120.566295 l
135.390885 106.729205 l
145.514745 124.51975 l
151.214159 100.799023 l
156.427871 102.77575 l
164.130807 103.764114 l
stroke
grestore
1.000 setlinewidth
0 setlinecap
gsave
167.4 108.72 40.591 37.544 clipbox
/o {
gsave
newpath
translate
1.0 setlinewidth
1 setlinejoin

0 setlinecap

0 -2.5 m
0.663008 -2.5 1.29895 -2.236584 1.767767 -1.767767 c
2.236584 -1.29895 2.5 -0.663008 2.5 0 c
2.5 0.663008 2.236584 1.29895 1.767767 1.767767 c
1.29895 2.236584 0.663008 2.5 0 2.5 c
-0.663008 2.5 -1.29895 2.236584 -1.767767 1.767767 c
-2.236584 1.29895 -2.5 0.663008 -2.5 0 c
-2.5 -0.663008 -2.236584 -1.29895 -1.767767 -1.767767 c
-1.29895 -2.236584 -0.663008 -2.5 0 -2.5 c
cl

gsave
0.945 0.508 0.302 setrgbcolor
fill
grestore
stroke
grestore
} bind def
62.232 66.2063 o
72.3786 64.2296 o
75.1334 78.0667 o
85.2725 90.9154 o
89.7956 92.8921 o
99.9953 110.683 o
104.739 117.601 o
123.947 130.45 o
128.72 120.566 o
135.391 106.729 o
145.515 124.52 o
151.214 100.799 o
156.428 102.776 o
164.131 103.764 o
grestore
1.500 setlinewidth
2 setlinecap
0.827 0.316 0.441 setrgbcolor
gsave
167.4 108.72 40.591 37.544 clipbox
53.944664 82.020114 m
74.822279 90.915386 l
86.190751 65.217932 l
96.678887 67.194659 l
107.250503 103.764114 l
118.763167 86.961932 l
123.931344 85.973568 l
129.653526 64.229568 l
152.155207 69.171386 l
164.646865 76.089932 l
176.986742 87.950295 l
stroke
grestore
1.000 setlinewidth
0 setlinecap
gsave
167.4 108.72 40.591 37.544 clipbox
/o {
gsave
newpath
translate
1.0 setlinewidth
1 setlinejoin

0 setlinecap

0 -2.5 m
0.663008 -2.5 1.29895 -2.236584 1.767767 -1.767767 c
2.236584 -1.29895 2.5 -0.663008 2.5 0 c
2.5 0.663008 2.236584 1.29895 1.767767 1.767767 c
1.29895 2.236584 0.663008 2.5 0 2.5 c
-0.663008 2.5 -1.29895 2.236584 -1.767767 1.767767 c
-2.236584 1.29895 -2.5 0.663008 -2.5 0 c
-2.5 -0.663008 -2.236584 -1.29895 -1.767767 -1.767767 c
-1.29895 -2.236584 -0.663008 -2.5 0 -2.5 c
cl

gsave
0.827 0.316 0.441 setrgbcolor
fill
grestore
stroke
grestore
} bind def
53.9447 82.0201 o
74.8223 90.9154 o
86.1908 65.2179 o
96.6789 67.1947 o
107.251 103.764 o
118.763 86.9619 o
123.931 85.9736 o
129.654 64.2296 o
152.155 69.1714 o
164.647 76.0899 o
176.987 87.9503 o
grestore
1.500 setlinewidth
2 setlinecap
0.881 0.393 0.383 setrgbcolor
gsave
167.4 108.72 40.591 37.544 clipbox
52.259885 97.833932 m
57.898586 102.77575 l
91.867397 78.066659 l
102.378301 69.171386 l
113.223125 84.985205 l
122.686732 96.845568 l
142.964808 82.020114 l
188.795382 93.880477 l
199.480834 90.915386 l
stroke
grestore
1.000 setlinewidth
0 setlinecap
gsave
167.4 108.72 40.591 37.544 clipbox
/o {
gsave
newpath
translate
1.0 setlinewidth
1 setlinejoin

0 setlinecap

0 -2.5 m
0.663008 -2.5 1.29895 -2.236584 1.767767 -1.767767 c
2.236584 -1.29895 2.5 -0.663008 2.5 0 c
2.5 0.663008 2.236584 1.29895 1.767767 1.767767 c
1.29895 2.236584 0.663008 2.5 0 2.5 c
-0.663008 2.5 -1.29895 2.236584 -1.767767 1.767767 c
-2.236584 1.29895 -2.5 0.663008 -2.5 0 c
-2.5 -0.663008 -2.236584 -1.29895 -1.767767 -1.767767 c
-1.29895 -2.236584 -0.663008 -2.5 0 -2.5 c
cl

gsave
0.881 0.393 0.383 setrgbcolor
fill
grestore
stroke
grestore
} bind def
52.2599 97.8339 o
57.8986 102.776 o
91.8674 78.0667 o
102.378 69.1714 o
113.223 84.9852 o
122.687 96.8456 o
142.965 82.0201 o
188.795 93.8805 o
199.481 90.9154 o
grestore
1.500 setlinewidth
2 setlinecap
0.626 0.103 0.611 setrgbcolor
gsave
167.4 108.72 40.591 37.544 clipbox
50.415733 66.206295 m
86.797878 42.485568 l
93.893687 62.252841 l
105.383584 42.485568 l
127.741073 75.101568 l
135.573024 66.206295 l
169.048544 58.299386 l
179.475967 42.485568 l
189.205193 42.485568 l
stroke
grestore
1.000 setlinewidth
0 setlinecap
gsave
167.4 108.72 40.591 37.544 clipbox
/o {
gsave
newpath
translate
1.0 setlinewidth
1 setlinejoin

0 setlinecap

0 -2.5 m
0.663008 -2.5 1.29895 -2.236584 1.767767 -1.767767 c
2.236584 -1.29895 2.5 -0.663008 2.5 0 c
2.5 0.663008 2.236584 1.29895 1.767767 1.767767 c
1.29895 2.236584 0.663008 2.5 0 2.5 c
-0.663008 2.5 -1.29895 2.236584 -1.767767 1.767767 c
-2.236584 1.29895 -2.5 0.663008 -2.5 0 c
-2.5 -0.663008 -2.236584 -1.29895 -1.767767 -1.767767 c
-1.29895 -2.236584 -0.663008 -2.5 0 -2.5 c
cl

gsave
0.626 0.103 0.611 setrgbcolor
fill
grestore
stroke
grestore
} bind def
50.4157 66.2063 o
86.7979 42.4856 o
93.8937 62.2528 o
105.384 42.4856 o
127.741 75.1016 o
135.573 66.2063 o
169.049 58.2994 o
179.476 42.4856 o
189.205 42.4856 o
grestore
1.500 setlinewidth
2 setlinecap
0.783 0.263 0.484 setrgbcolor
gsave
167.4 108.72 40.591 37.544 clipbox
80.134648 42.485568 m
80.157415 78.066659 l
90.729033 74.113205 l
100.799767 42.485568 l
115.257003 64.229568 l
126.640654 76.089932 l
126.655832 71.148114 l
157.224726 80.043386 l
167.424476 81.03175 l
167.447243 82.020114 l
177.707707 70.15975 l
179.316597 84.985205 l
179.331774 83.996841 l
200.065196 86.961932 l
200.080374 84.985205 l
stroke
grestore
1.000 setlinewidth
0 setlinecap
gsave
167.4 108.72 40.591 37.544 clipbox
/o {
gsave
newpath
translate
1.0 setlinewidth
1 setlinejoin

0 setlinecap

0 -2.5 m
0.663008 -2.5 1.29895 -2.236584 1.767767 -1.767767 c
2.236584 -1.29895 2.5 -0.663008 2.5 0 c
2.5 0.663008 2.236584 1.29895 1.767767 1.767767 c
1.29895 2.236584 0.663008 2.5 0 2.5 c
-0.663008 2.5 -1.29895 2.236584 -1.767767 1.767767 c
-2.236584 1.29895 -2.5 0.663008 -2.5 0 c
-2.5 -0.663008 -2.236584 -1.29895 -1.767767 -1.767767 c
-1.29895 -2.236584 -0.663008 -2.5 0 -2.5 c
cl

gsave
0.783 0.263 0.484 setrgbcolor
fill
grestore
stroke
grestore
} bind def
80.1346 42.4856 o
80.1574 78.0667 o
90.729 74.1132 o
100.8 42.4856 o
115.257 64.2296 o
126.641 76.0899 o
126.656 71.1481 o
157.225 80.0434 o
167.424 81.0318 o
167.447 82.0201 o
177.708 70.1598 o
179.317 84.9852 o
179.332 83.9968 o
200.065 86.9619 o
200.08 84.9852 o
grestore
1.500 setlinewidth
2 setlinecap
0.884 0.397 0.380 setrgbcolor
gsave
167.4 108.72 40.591 37.544 clipbox
48.199716 78.066659 m
105.155911 110.682659 l
139.375163 109.694295 l
171.181081 80.043386 l
196.82465 66.206295 l
stroke
grestore
1.000 setlinewidth
0 setlinecap
gsave
167.4 108.72 40.591 37.544 clipbox
/o {
gsave
newpath
translate
1.0 setlinewidth
1 setlinejoin

0 setlinecap

0 -2.5 m
0.663008 -2.5 1.29895 -2.236584 1.767767 -1.767767 c
2.236584 -1.29895 2.5 -0.663008 2.5 0 c
2.5 0.663008 2.236584 1.29895 1.767767 1.767767 c
1.29895 2.236584 0.663008 2.5 0 2.5 c
-0.663008 2.5 -1.29895 2.236584 -1.767767 1.767767 c
-2.236584 1.29895 -2.5 0.663008 -2.5 0 c
-2.5 -0.663008 -2.236584 -1.29895 -1.767767 -1.767767 c
-1.29895 -2.236584 -0.663008 -2.5 0 -2.5 c
cl

gsave
0.884 0.397 0.380 setrgbcolor
fill
grestore
stroke
grestore
} bind def
48.1997 78.0667 o
105.156 110.683 o
139.375 109.694 o
171.181 80.0434 o
196.825 66.2063 o
grestore
1.500 setlinewidth
2 setlinecap
0.943 0.503 0.306 setrgbcolor
gsave
167.4 108.72 40.591 37.544 clipbox
60.236029 97.833932 m
69.342948 97.833932 l
81.47033 94.868841 l
88.854525 116.612841 l
157.004642 95.857205 l
stroke
grestore
1.000 setlinewidth
0 setlinecap
gsave
167.4 108.72 40.591 37.544 clipbox
/o {
gsave
newpath
translate
1.0 setlinewidth
1 setlinejoin

0 setlinecap

0 -2.5 m
0.663008 -2.5 1.29895 -2.236584 1.767767 -1.767767 c
2.236584 -1.29895 2.5 -0.663008 2.5 0 c
2.5 0.663008 2.236584 1.29895 1.767767 1.767767 c
1.29895 2.236584 0.663008 2.5 0 2.5 c
-0.663008 2.5 -1.29895 2.236584 -1.767767 1.767767 c
-2.236584 1.29895 -2.5 0.663008 -2.5 0 c
-2.5 -0.663008 -2.236584 -1.29895 -1.767767 -1.767767 c
-1.29895 -2.236584 -0.663008 -2.5 0 -2.5 c
cl

gsave
0.943 0.503 0.306 setrgbcolor
fill
grestore
stroke
grestore
} bind def
60.236 97.8339 o
69.3429 97.8339 o
81.4703 94.8688 o
88.8545 116.613 o
157.005 95.8572 o
grestore
1.500 setlinewidth
2 setlinecap
0.982 0.619 0.231 setrgbcolor
gsave
167.4 108.72 40.591 37.544 clipbox
63.673891 115.624477 m
86.53226 110.682659 l
107.60719 112.659386 l
134.518139 105.740841 l
193.94838 114.636114 l
stroke
grestore
1.000 setlinewidth
0 setlinecap
gsave
167.4 108.72 40.591 37.544 clipbox
/o {
gsave
newpath
translate
1.0 setlinewidth
1 setlinejoin

0 setlinecap

0 -2.5 m
0.663008 -2.5 1.29895 -2.236584 1.767767 -1.767767 c
2.236584 -1.29895 2.5 -0.663008 2.5 0 c
2.5 0.663008 2.236584 1.29895 1.767767 1.767767 c
1.29895 2.236584 0.663008 2.5 0 2.5 c
-0.663008 2.5 -1.29895 2.236584 -1.767767 1.767767 c
-2.236584 1.29895 -2.5 0.663008 -2.5 0 c
-2.5 -0.663008 -2.236584 -1.29895 -1.767767 -1.767767 c
-1.29895 -2.236584 -0.663008 -2.5 0 -2.5 c
cl

gsave
0.982 0.619 0.231 setrgbcolor
fill
grestore
stroke
grestore
} bind def
63.6739 115.624 o
86.5323 110.683 o
107.607 112.659 o
134.518 105.741 o
193.948 114.636 o
grestore
1.500 setlinewidth
2 setlinecap
0.962 0.915 0.151 setrgbcolor
gsave
167.4 108.72 40.591 37.544 clipbox
56.297286 137.368477 m
67.119342 136.380114 l
78.115948 141.321932 l
89.112554 141.321932 l
106.256331 129.461568 l
118.186396 132.426659 l
132.689166 135.39175 l
171.962758 137.368477 l
stroke
grestore
1.000 setlinewidth
0 setlinecap
gsave
167.4 108.72 40.591 37.544 clipbox
/o {
gsave
newpath
translate
1.0 setlinewidth
1 setlinejoin

0 setlinecap

0 -2.5 m
0.663008 -2.5 1.29895 -2.236584 1.767767 -1.767767 c
2.236584 -1.29895 2.5 -0.663008 2.5 0 c
2.5 0.663008 2.236584 1.29895 1.767767 1.767767 c
1.29895 2.236584 0.663008 2.5 0 2.5 c
-0.663008 2.5 -1.29895 2.236584 -1.767767 1.767767 c
-2.236584 1.29895 -2.5 0.663008 -2.5 0 c
-2.5 -0.663008 -2.236584 -1.29895 -1.767767 -1.767767 c
-1.29895 -2.236584 -0.663008 -2.5 0 -2.5 c
cl

gsave
0.962 0.915 0.151 setrgbcolor
fill
grestore
stroke
grestore
} bind def
56.2973 137.368 o
67.1193 136.38 o
78.1159 141.322 o
89.1126 141.322 o
106.256 129.462 o
118.186 132.427 o
132.689 135.392 o
171.963 137.368 o
grestore
1.500 setlinewidth
2 setlinecap
0.827 0.316 0.441 setrgbcolor
gsave
167.4 108.72 40.591 37.544 clipbox
61.048062 74.113205 m
73.099553 91.90375 l
81.743538 82.020114 l
112.851259 100.799023 l
124.971051 72.136477 l
148.292355 68.183023 l
169.966825 61.264477 l
184.712446 86.961932 l
stroke
grestore
1.000 setlinewidth
0 setlinecap
gsave
167.4 108.72 40.591 37.544 clipbox
/o {
gsave
newpath
translate
1.0 setlinewidth
1 setlinejoin

0 setlinecap

0 -2.5 m
0.663008 -2.5 1.29895 -2.236584 1.767767 -1.767767 c
2.236584 -1.29895 2.5 -0.663008 2.5 0 c
2.5 0.663008 2.236584 1.29895 1.767767 1.767767 c
1.29895 2.236584 0.663008 2.5 0 2.5 c
-0.663008 2.5 -1.29895 2.236584 -1.767767 1.767767 c
-2.236584 1.29895 -2.5 0.663008 -2.5 0 c
-2.5 -0.663008 -2.236584 -1.29895 -1.767767 -1.767767 c
-1.29895 -2.236584 -0.663008 -2.5 0 -2.5 c
cl

gsave
0.827 0.316 0.441 setrgbcolor
fill
grestore
stroke
grestore
} bind def
61.0481 74.1132 o
73.0996 91.9038 o
81.7435 82.0201 o
112.851 100.799 o
124.971 72.1365 o
148.292 68.183 o
169.967 61.2645 o
184.712 86.9619 o
grestore
1.500 setlinewidth
2 setlinecap
0.820 0.307 0.448 setrgbcolor
gsave
167.4 108.72 40.591 37.544 clipbox
74.116492 83.996841 m
106.08937 42.485568 l
123.88581 81.03175 l
135.155623 82.020114 l
151.062377 84.985205 l
173.328796 84.985205 l
192.635467 91.90375 l
stroke
grestore
1.000 setlinewidth
0 setlinecap
gsave
167.4 108.72 40.591 37.544 clipbox
/o {
gsave
newpath
translate
1.0 setlinewidth
1 setlinejoin

0 setlinecap

0 -2.5 m
0.663008 -2.5 1.29895 -2.236584 1.767767 -1.767767 c
2.236584 -1.29895 2.5 -0.663008 2.5 0 c
2.5 0.663008 2.236584 1.29895 1.767767 1.767767 c
1.29895 2.236584 0.663008 2.5 0 2.5 c
-0.663008 2.5 -1.29895 2.236584 -1.767767 1.767767 c
-2.236584 1.29895 -2.5 0.663008 -2.5 0 c
-2.5 -0.663008 -2.236584 -1.29895 -1.767767 -1.767767 c
-1.29895 -2.236584 -0.663008 -2.5 0 -2.5 c
cl

gsave
0.820 0.307 0.448 setrgbcolor
fill
grestore
stroke
grestore
} bind def
74.1165 83.9968 o
106.089 42.4856 o
123.886 81.0318 o
135.156 82.0201 o
151.062 84.9852 o
173.329 84.9852 o
192.635 91.9038 o
grestore
1.500 setlinewidth
2 setlinecap
0.697 0.170 0.561 setrgbcolor
gsave
167.4 108.72 40.591 37.544 clipbox
49.163531 42.485568 m
81.227479 42.485568 l
123.734027 42.485568 l
147.131223 90.915386 l
193.546159 95.857205 l
stroke
grestore
1.000 setlinewidth
0 setlinecap
gsave
167.4 108.72 40.591 37.544 clipbox
/o {
gsave
newpath
translate
1.0 setlinewidth
1 setlinejoin

0 setlinecap

0 -2.5 m
0.663008 -2.5 1.29895 -2.236584 1.767767 -1.767767 c
2.236584 -1.29895 2.5 -0.663008 2.5 0 c
2.5 0.663008 2.236584 1.29895 1.767767 1.767767 c
1.29895 2.236584 0.663008 2.5 0 2.5 c
-0.663008 2.5 -1.29895 2.236584 -1.767767 1.767767 c
-2.236584 1.29895 -2.5 0.663008 -2.5 0 c
-2.5 -0.663008 -2.236584 -1.29895 -1.767767 -1.767767 c
-1.29895 -2.236584 -0.663008 -2.5 0 -2.5 c
cl

gsave
0.697 0.170 0.561 setrgbcolor
fill
grestore
stroke
grestore
} bind def
49.1635 42.4856 o
81.2275 42.4856 o
123.734 42.4856 o
147.131 90.9154 o
193.546 95.8572 o
grestore
1.500 setlinewidth
2 setlinecap
0.931 0.478 0.323 setrgbcolor
gsave
167.4 108.72 40.591 37.544 clipbox
74.905759 42.485568 m
74.920937 108.705932 l
82.73771 109.694295 l
95.730249 118.589568 l
104.609496 127.484841 l
116.175284 120.566295 l
126.959395 102.77575 l
138.092605 118.589568 l
151.586025 122.543023 l
173.328796 60.276114 l
184.188798 42.485568 l
193.136347 99.810659 l
stroke
grestore
1.000 setlinewidth
0 setlinecap
gsave
167.4 108.72 40.591 37.544 clipbox
/o {
gsave
newpath
translate
1.0 setlinewidth
1 setlinejoin

0 setlinecap

0 -2.5 m
0.663008 -2.5 1.29895 -2.236584 1.767767 -1.767767 c
2.236584 -1.29895 2.5 -0.663008 2.5 0 c
2.5 0.663008 2.236584 1.29895 1.767767 1.767767 c
1.29895 2.236584 0.663008 2.5 0 2.5 c
-0.663008 2.5 -1.29895 2.236584 -1.767767 1.767767 c
-2.236584 1.29895 -2.5 0.663008 -2.5 0 c
-2.5 -0.663008 -2.236584 -1.29895 -1.767767 -1.767767 c
-1.29895 -2.236584 -0.663008 -2.5 0 -2.5 c
cl

gsave
0.931 0.478 0.323 setrgbcolor
fill
grestore
stroke
grestore
} bind def
74.9058 42.4856 o
74.9209 108.706 o
82.7377 109.694 o
95.7302 118.59 o
104.609 127.485 o
116.175 120.566 o
126.959 102.776 o
138.093 118.59 o
151.586 122.543 o
173.329 60.2761 o
184.189 42.4856 o
193.136 99.8107 o
grestore
1.500 setlinewidth
2 setlinecap
0.693 0.165 0.565 setrgbcolor
gsave
167.4 108.72 40.591 37.544 clipbox
51.000094 70.15975 m
61.753848 60.276114 l
95.646769 60.276114 l
130.169585 63.241205 l
171.841333 58.299386 l
stroke
grestore
1.000 setlinewidth
0 setlinecap
gsave
167.4 108.72 40.591 37.544 clipbox
/o {
gsave
newpath
translate
1.0 setlinewidth
1 setlinejoin

0 setlinecap

0 -2.5 m
0.663008 -2.5 1.29895 -2.236584 1.767767 -1.767767 c
2.236584 -1.29895 2.5 -0.663008 2.5 0 c
2.5 0.663008 2.236584 1.29895 1.767767 1.767767 c
1.29895 2.236584 0.663008 2.5 0 2.5 c
-0.663008 2.5 -1.29895 2.236584 -1.767767 1.767767 c
-2.236584 1.29895 -2.5 0.663008 -2.5 0 c
-2.5 -0.663008 -2.236584 -1.29895 -1.767767 -1.767767 c
-1.29895 -2.236584 -0.663008 -2.5 0 -2.5 c
cl

gsave
0.693 0.165 0.565 setrgbcolor
fill
grestore
stroke
grestore
} bind def
51.0001 70.1598 o
61.7538 60.2761 o
95.6468 60.2761 o
130.17 63.2412 o
171.841 58.2994 o
grestore
1.500 setlinewidth
2 setlinecap
0.752 0.227 0.513 setrgbcolor
gsave
167.4 108.72 40.591 37.544 clipbox
58.262862 67.194659 m
58.293219 55.334295 l
79.246724 42.485568 l
90.455825 42.485568 l
103.273814 42.485568 l
127.900444 42.485568 l
149.415542 48.41575 l
166.824938 67.194659 l
181.213871 122.543023 l
188.044061 116.612841 l
199.754042 115.624477 l
stroke
grestore
1.000 setlinewidth
0 setlinecap
gsave
167.4 108.72 40.591 37.544 clipbox
/o {
gsave
newpath
translate
1.0 setlinewidth
1 setlinejoin

0 setlinecap

0 -2.5 m
0.663008 -2.5 1.29895 -2.236584 1.767767 -1.767767 c
2.236584 -1.29895 2.5 -0.663008 2.5 0 c
2.5 0.663008 2.236584 1.29895 1.767767 1.767767 c
1.29895 2.236584 0.663008 2.5 0 2.5 c
-0.663008 2.5 -1.29895 2.236584 -1.767767 1.767767 c
-2.236584 1.29895 -2.5 0.663008 -2.5 0 c
-2.5 -0.663008 -2.236584 -1.29895 -1.767767 -1.767767 c
-1.29895 -2.236584 -0.663008 -2.5 0 -2.5 c
cl

gsave
0.752 0.227 0.513 setrgbcolor
fill
grestore
stroke
grestore
} bind def
58.2629 67.1947 o
58.2932 55.3343 o
79.2467 42.4856 o
90.4558 42.4856 o
103.274 42.4856 o
127.9 42.4856 o
149.416 48.4158 o
166.825 67.1947 o
181.214 122.543 o
188.044 116.613 o
199.754 115.624 o
grestore
1.500 setlinewidth
2 setlinecap
0.679 0.152 0.575 setrgbcolor
gsave
167.4 108.72 40.591 37.544 clipbox
59.363282 42.485568 m
82.608695 59.28775 l
117.419897 69.171386 l
124.682665 68.183023 l
137.531012 58.299386 l
179.498734 68.183023 l
stroke
grestore
1.000 setlinewidth
0 setlinecap
gsave
167.4 108.72 40.591 37.544 clipbox
/o {
gsave
newpath
translate
1.0 setlinewidth
1 setlinejoin

0 setlinecap

0 -2.5 m
0.663008 -2.5 1.29895 -2.236584 1.767767 -1.767767 c
2.236584 -1.29895 2.5 -0.663008 2.5 0 c
2.5 0.663008 2.236584 1.29895 1.767767 1.767767 c
1.29895 2.236584 0.663008 2.5 0 2.5 c
-0.663008 2.5 -1.29895 2.236584 -1.767767 1.767767 c
-2.236584 1.29895 -2.5 0.663008 -2.5 0 c
-2.5 -0.663008 -2.236584 -1.29895 -1.767767 -1.767767 c
-1.29895 -2.236584 -0.663008 -2.5 0 -2.5 c
cl

gsave
0.679 0.152 0.575 setrgbcolor
fill
grestore
stroke
grestore
} bind def
59.3633 42.4856 o
82.6087 59.2878 o
117.42 69.1714 o
124.683 68.183 o
137.531 58.2994 o
179.499 68.183 o
grestore
1.500 setlinewidth
2 setlinecap
0.641 0.116 0.602 setrgbcolor
gsave
167.4 108.72 40.591 37.544 clipbox
55.826761 42.485568 m
81.273014 42.485568 l
90.387523 42.485568 l
106.385345 42.485568 l
126.359856 60.276114 l
157.61177 42.485568 l
181.805821 124.51975 l
stroke
grestore
1.000 setlinewidth
0 setlinecap
gsave
167.4 108.72 40.591 37.544 clipbox
/o {
gsave
newpath
translate
1.0 setlinewidth
1 setlinejoin

0 setlinecap

0 -2.5 m
0.663008 -2.5 1.29895 -2.236584 1.767767 -1.767767 c
2.236584 -1.29895 2.5 -0.663008 2.5 0 c
2.5 0.663008 2.236584 1.29895 1.767767 1.767767 c
1.29895 2.236584 0.663008 2.5 0 2.5 c
-0.663008 2.5 -1.29895 2.236584 -1.767767 1.767767 c
-2.236584 1.29895 -2.5 0.663008 -2.5 0 c
-2.5 -0.663008 -2.236584 -1.29895 -1.767767 -1.767767 c
-1.29895 -2.236584 -0.663008 -2.5 0 -2.5 c
cl

gsave
0.641 0.116 0.602 setrgbcolor
fill
grestore
stroke
grestore
} bind def
55.8268 42.4856 o
81.273 42.4856 o
90.3875 42.4856 o
106.385 42.4856 o
126.36 60.2761 o
157.612 42.4856 o
181.806 124.52 o
grestore
0.800 setlinewidth
0.000 setgray
gsave
/o {
gsave
newpath
translate
0.8 setlinewidth
1 setlinejoin

0 setlinecap

0 0 m
0 -3.5 l

gsave
0.000 setgray
fill
grestore
stroke
grestore
} bind def
47.843 37.5437 o
grestore
/DejaVuSans 10.000 selectfont
gsave

44.663341 22.950000 translate
0.000000 rotate
0.000000 0 m /zero glyphshow
grestore
gsave
/o {
gsave
newpath
translate
0.8 setlinewidth
1 setlinejoin

0 setlinecap

0 0 m
0 -3.5 l

gsave
0.000 setgray
fill
grestore
stroke
grestore
} bind def
124.341 37.5437 o
grestore
gsave

121.161468 22.950000 translate
0.000000 rotate
0.000000 0 m /seven glyphshow
grestore
gsave
/o {
gsave
newpath
translate
0.8 setlinewidth
1 setlinejoin

0 setlinecap

0 0 m
0 -3.5 l

gsave
0.000 setgray
fill
grestore
stroke
grestore
} bind def
200.839 37.5437 o
grestore
gsave

194.479909 22.950000 translate
0.000000 rotate
0.000000 0 m /one glyphshow
6.362305 0 m /four glyphshow
grestore
gsave

94.712500 9.278125 translate
0.000000 rotate
0.000000 0 m /T glyphshow
5.858398 0 m /i glyphshow
8.636719 0 m /m glyphshow
18.377930 0 m /e glyphshow
24.530273 0 m /space glyphshow
27.708984 0 m /parenleft glyphshow
31.610352 0 m /d glyphshow
37.958008 0 m /a glyphshow
44.085938 0 m /y glyphshow
50.003906 0 m /s glyphshow
55.213867 0 m /parenright glyphshow
grestore
gsave
/o {
gsave
newpath
translate
0.8 setlinewidth
1 setlinejoin

0 setlinecap

-0 0 m
-3.5 0 l

gsave
0.000 setgray
fill
grestore
stroke
grestore
} bind def
40.5906 42.4856 o
grestore
gsave

27.231250 38.688693 translate
0.000000 rotate
0.000000 0 m /zero glyphshow
grestore
gsave
/o {
gsave
newpath
translate
0.8 setlinewidth
1 setlinejoin

0 setlinecap

-0 0 m
-3.5 0 l

gsave
0.000 setgray
fill
grestore
stroke
grestore
} bind def
40.5906 91.9038 o
grestore
gsave

27.231250 88.106875 translate
0.000000 rotate
0.000000 0 m /five glyphshow
grestore
gsave
/o {
gsave
newpath
translate
0.8 setlinewidth
1 setlinejoin

0 setlinecap

-0 0 m
-3.5 0 l

gsave
0.000 setgray
fill
grestore
stroke
grestore
} bind def
40.5906 141.322 o
grestore
gsave

20.871875 137.525057 translate
0.000000 rotate
0.000000 0 m /one glyphshow
6.362305 0 m /zero glyphshow
grestore
gsave

14.793750 81.513125 translate
90.000000 rotate
0.000000 0 m /P glyphshow
5.530273 0 m /a glyphshow
11.658203 0 m /i glyphshow
14.436523 0 m /n glyphshow
grestore
3.000 setlinewidth
2 setlinecap
gsave
167.4 108.72 40.591 37.544 clipbox
54.669676 128.473205 m
65.804783 128.473205 l
70.171425 127.484841 l
78.011219 131.438295 l
98.538469 134.403386 l
114.932822 134.403386 l
123.881257 132.426659 l
134.810319 131.438295 l
142.883604 132.426659 l
153.040096 128.473205 l
164.082489 131.438295 l
174.880767 128.473205 l
178.555156 135.39175 l
185.999557 132.426659 l
200.253278 127.484841 l
200.381534 129.461568 l
stroke
grestore
1.000 setlinewidth
0 setlinecap
gsave
167.4 108.72 40.591 37.544 clipbox
/o {
gsave
newpath
translate
1.0 setlinewidth
1 setlinejoin

0 setlinecap

0 -4 m
1.060812 -4 2.078319 -3.578535 2.828427 -2.828427 c
3.578535 -2.078319 4 -1.060812 4 0 c
4 1.060812 3.578535 2.078319 2.828427 2.828427 c
2.078319 3.578535 1.060812 4 0 4 c
-1.060812 4 -2.078319 3.578535 -2.828427 2.828427 c
-3.578535 2.078319 -4 1.060812 -4 0 c
-4 -1.060812 -3.578535 -2.078319 -2.828427 -2.828427 c
-2.078319 -3.578535 -1.060812 -4 0 -4 c
cl

gsave
0.000 setgray
fill
grestore
stroke
grestore
} bind def
54.6697 128.473 o
65.8048 128.473 o
70.1714 127.485 o
78.0112 131.438 o
98.5385 134.403 o
114.933 134.403 o
123.881 132.427 o
134.81 131.438 o
142.884 132.427 o
153.04 128.473 o
164.082 131.438 o
174.881 128.473 o
178.555 135.392 o
186 132.427 o
200.253 127.485 o
200.382 129.462 o
grestore
3.000 setlinewidth
2 setlinecap
gsave
167.4 108.72 40.591 37.544 clipbox
67.126678 62.252841 m
68.285534 63.241205 l
84.94715 66.206295 l
84.964099 91.90375 l
92.124162 89.927023 l
95.53445 83.008477 l
99.565274 90.915386 l
106.713953 75.101568 l
114.739806 97.833932 l
117.80049 110.682659 l
148.399741 97.833932 l
172.301864 83.008477 l
176.781963 76.089932 l
187.4788 78.066659 l
stroke
grestore
1.000 setlinewidth
0 setlinecap
gsave
167.4 108.72 40.591 37.544 clipbox
/o {
gsave
newpath
translate
1.0 setlinewidth
1 setlinejoin

0 setlinecap

0 -4 m
1.060812 -4 2.078319 -3.578535 2.828427 -2.828427 c
3.578535 -2.078319 4 -1.060812 4 0 c
4 1.060812 3.578535 2.078319 2.828427 2.828427 c
2.078319 3.578535 1.060812 4 0 4 c
-1.060812 4 -2.078319 3.578535 -2.828427 2.828427 c
-3.578535 2.078319 -4 1.060812 -4 0 c
-4 -1.060812 -3.578535 -2.078319 -2.828427 -2.828427 c
-2.078319 -3.578535 -1.060812 -4 0 -4 c
cl

gsave
0.000 setgray
fill
grestore
stroke
grestore
} bind def
67.1267 62.2528 o
68.2855 63.2412 o
84.9471 66.2063 o
84.9641 91.9038 o
92.1242 89.927 o
95.5345 83.0085 o
99.5653 90.9154 o
106.714 75.1016 o
114.74 97.8339 o
117.8 110.683 o
148.4 97.8339 o
172.302 83.0085 o
176.782 76.0899 o
187.479 78.0667 o
grestore
3.000 setlinewidth
2 setlinecap
gsave
167.4 108.72 40.591 37.544 clipbox
52.062568 42.485568 m
106.620607 75.101568 l
117.966312 42.485568 l
150.675333 42.485568 l
173.708251 42.485568 l
stroke
grestore
1.000 setlinewidth
0 setlinecap
gsave
167.4 108.72 40.591 37.544 clipbox
/o {
gsave
newpath
translate
1.0 setlinewidth
1 setlinejoin

0 setlinecap

0 -4 m
1.060812 -4 2.078319 -3.578535 2.828427 -2.828427 c
3.578535 -2.078319 4 -1.060812 4 0 c
4 1.060812 3.578535 2.078319 2.828427 2.828427 c
2.078319 3.578535 1.060812 4 0 4 c
-1.060812 4 -2.078319 3.578535 -2.828427 2.828427 c
-3.578535 2.078319 -4 1.060812 -4 0 c
-4 -1.060812 -3.578535 -2.078319 -2.828427 -2.828427 c
-2.078319 -3.578535 -1.060812 -4 0 -4 c
cl

gsave
0.000 setgray
fill
grestore
stroke
grestore
} bind def
52.0626 42.4856 o
106.621 75.1016 o
117.966 42.4856 o
150.675 42.4856 o
173.708 42.4856 o
grestore
0.800 setlinewidth
0 setlinejoin
2 setlinecap
gsave
40.590625 37.54375 m
40.590625 146.26375 l
stroke
grestore
gsave
207.990625 37.54375 m
207.990625 146.26375 l
stroke
grestore
gsave
40.590625 37.54375 m
207.990625 37.54375 l
stroke
grestore
gsave
40.590625 146.26375 m
207.990625 146.26375 l
stroke
grestore

end
showpage
