%!PS-Adobe-3.0 EPSF-3.0
%%Title: ExampleTrajectories_synth.eps
%%Creator: Matplotlib v3.4.2, https://matplotlib.org/
%%CreationDate: Fri Aug 27 09:49:23 2021
%%Orientation: portrait
%%BoundingBox: 198 319 414 473
%%HiResBoundingBox: 198.404687 319.268125 413.595312 472.731875
%%EndComments
%%BeginProlog
/mpldict 11 dict def
mpldict begin
/_d { bind def } bind def
/m { moveto } _d
/l { lineto } _d
/r { rlineto } _d
/c { curveto } _d
/cl { closepath } _d
/ce { closepath eofill } _d
/box {
      m
      1 index 0 r
      0 exch r
      neg 0 r
      cl
    } _d
/clipbox {
      box
      clip
      newpath
    } _d
/sc { setcachedevice } _d
%!PS-Adobe-3.0 Resource-Font
%%Creator: Converted from TrueType to Type 3 by Matplotlib.
10 dict begin
/FontName /DejaVuSans def
/PaintType 0 def
/FontMatrix [0.00048828125 0 0 0.00048828125 0 0] def
/FontBBox [-2090 -948 3673 2524] def
/FontType 3 def
/Encoding [/space /a /d /e /parenleft /i /parenright /m /n /zero /one /P /s /four /T /five /seven /y] def
/CharStrings 19 dict dup begin
/.notdef 0 def
/space{651 0 0 0 0 0 sc
ce} _d
/a{1255 0 123 -29 1069 1147 sc
702 563 m
553 563 450 546 393 512 c
336 478 307 420 307 338 c
307 273 328 221 371 182 c
414 144 473 125 547 125 c
649 125 731 161 792 233 c
854 306 885 402 885 522 c
885 563 l
702 563 l

1069 639 m
1069 0 l
885 0 l
885 170 l
843 102 791 52 728 19 c
665 -13 589 -29 498 -29 c
383 -29 292 3 224 67 c
157 132 123 218 123 326 c
123 452 165 547 249 611 c
334 675 460 707 627 707 c
885 707 l
885 725 l
885 810 857 875 801 921 c
746 968 668 991 567 991 c
503 991 441 983 380 968 c
319 953 261 930 205 899 c
205 1069 l
272 1095 338 1114 401 1127 c
464 1140 526 1147 586 1147 c
748 1147 869 1105 949 1021 c
1029 937 1069 810 1069 639 c

ce} _d
/d{1300 0 113 -29 1114 1556 sc
930 950 m
930 1556 l
1114 1556 l
1114 0 l
930 0 l
930 168 l
891 101 842 52 783 19 c
724 -13 654 -29 571 -29 c
436 -29 325 25 240 133 c
155 241 113 383 113 559 c
113 735 155 877 240 985 c
325 1093 436 1147 571 1147 c
654 1147 724 1131 783 1098 c
842 1066 891 1017 930 950 c

303 559 m
303 424 331 317 386 240 c
442 163 519 125 616 125 c
713 125 790 163 846 240 c
902 317 930 424 930 559 c
930 694 902 800 846 877 c
790 954 713 993 616 993 c
519 993 442 954 386 877 c
331 800 303 694 303 559 c

ce} _d
/e{1260 0 113 -29 1151 1147 sc
1151 606 m
1151 516 l
305 516 l
313 389 351 293 419 226 c
488 160 583 127 705 127 c
776 127 844 136 910 153 c
977 170 1043 196 1108 231 c
1108 57 l
1042 29 974 8 905 -7 c
836 -22 765 -29 694 -29 c
515 -29 374 23 269 127 c
165 231 113 372 113 549 c
113 732 162 878 261 985 c
360 1093 494 1147 662 1147 c
813 1147 932 1098 1019 1001 c
1107 904 1151 773 1151 606 c

967 660 m
966 761 937 841 882 901 c
827 961 755 991 664 991 c
561 991 479 962 417 904 c
356 846 320 764 311 659 c
967 660 l

ce} _d
/parenleft{799 0 176 -270 635 1554 sc
635 1554 m
546 1401 479 1249 436 1099 c
393 949 371 797 371 643 c
371 489 393 336 436 185 c
480 34 546 -117 635 -270 c
475 -270 l
375 -113 300 41 250 192 c
201 343 176 494 176 643 c
176 792 201 941 250 1092 c
299 1243 374 1397 475 1554 c
635 1554 l

ce} _d
/i{569 0 193 0 377 1556 sc
193 1120 m
377 1120 l
377 0 l
193 0 l
193 1120 l

193 1556 m
377 1556 l
377 1323 l
193 1323 l
193 1556 l

ce} _d
/parenright{799 0 164 -270 623 1554 sc
164 1554 m
324 1554 l
424 1397 499 1243 548 1092 c
598 941 623 792 623 643 c
623 494 598 343 548 192 c
499 41 424 -113 324 -270 c
164 -270 l
253 -117 319 34 362 185 c
406 336 428 489 428 643 c
428 797 406 949 362 1099 c
319 1249 253 1401 164 1554 c

ce} _d
/m{1995 0 186 0 1821 1147 sc
1065 905 m
1111 988 1166 1049 1230 1088 c
1294 1127 1369 1147 1456 1147 c
1573 1147 1663 1106 1726 1024 c
1789 943 1821 827 1821 676 c
1821 0 l
1636 0 l
1636 670 l
1636 777 1617 857 1579 909 c
1541 961 1483 987 1405 987 c
1310 987 1234 955 1179 892 c
1124 829 1096 742 1096 633 c
1096 0 l
911 0 l
911 670 l
911 778 892 858 854 909 c
816 961 757 987 678 987 c
584 987 509 955 454 891 c
399 828 371 742 371 633 c
371 0 l
186 0 l
186 1120 l
371 1120 l
371 946 l
413 1015 463 1065 522 1098 c
581 1131 650 1147 731 1147 c
812 1147 881 1126 938 1085 c
995 1044 1038 984 1065 905 c

ce} _d
/n{1298 0 186 0 1124 1147 sc
1124 676 m
1124 0 l
940 0 l
940 670 l
940 776 919 855 878 908 c
837 961 775 987 692 987 c
593 987 514 955 457 892 c
400 829 371 742 371 633 c
371 0 l
186 0 l
186 1120 l
371 1120 l
371 946 l
415 1013 467 1064 526 1097 c
586 1130 655 1147 733 1147 c
862 1147 959 1107 1025 1027 c
1091 948 1124 831 1124 676 c

ce} _d
/zero{1303 0 135 -29 1167 1520 sc
651 1360 m
547 1360 469 1309 416 1206 c
364 1104 338 950 338 745 c
338 540 364 387 416 284 c
469 182 547 131 651 131 c
756 131 834 182 886 284 c
939 387 965 540 965 745 c
965 950 939 1104 886 1206 c
834 1309 756 1360 651 1360 c

651 1520 m
818 1520 946 1454 1034 1321 c
1123 1189 1167 997 1167 745 c
1167 494 1123 302 1034 169 c
946 37 818 -29 651 -29 c
484 -29 356 37 267 169 c
179 302 135 494 135 745 c
135 997 179 1189 267 1321 c
356 1454 484 1520 651 1520 c

ce} _d
/one{1303 0 225 0 1114 1493 sc
254 170 m
584 170 l
584 1309 l
225 1237 l
225 1421 l
582 1493 l
784 1493 l
784 170 l
1114 170 l
1114 0 l
254 0 l
254 170 l

ce} _d
/P{1235 0 201 0 1165 1493 sc
403 1327 m
403 766 l
657 766 l
751 766 824 790 875 839 c
926 888 952 957 952 1047 c
952 1136 926 1205 875 1254 c
824 1303 751 1327 657 1327 c
403 1327 l

201 1493 m
657 1493 l
824 1493 951 1455 1036 1379 c
1122 1304 1165 1193 1165 1047 c
1165 900 1122 788 1036 713 c
951 638 824 600 657 600 c
403 600 l
403 0 l
201 0 l
201 1493 l

ce} _d
/s{1067 0 111 -29 967 1147 sc
907 1087 m
907 913 l
855 940 801 960 745 973 c
689 986 631 993 571 993 c
480 993 411 979 365 951 c
320 923 297 881 297 825 c
297 782 313 749 346 724 c
379 700 444 677 543 655 c
606 641 l
737 613 829 573 884 522 c
939 471 967 400 967 309 c
967 205 926 123 843 62 c
761 1 648 -29 504 -29 c
444 -29 381 -23 316 -11 c
251 0 183 18 111 41 c
111 231 l
179 196 246 169 312 151 c
378 134 443 125 508 125 c
595 125 661 140 708 169 c
755 199 778 241 778 295 c
778 345 761 383 727 410 c
694 437 620 462 506 487 c
442 502 l
328 526 246 563 195 612 c
144 662 119 730 119 817 c
119 922 156 1004 231 1061 c
306 1118 412 1147 549 1147 c
617 1147 681 1142 741 1132 c
801 1122 856 1107 907 1087 c

ce} _d
/four{1303 0 100 0 1188 1493 sc
774 1317 m
264 520 l
774 520 l
774 1317 l

721 1493 m
975 1493 l
975 520 l
1188 520 l
1188 352 l
975 352 l
975 0 l
774 0 l
774 352 l
100 352 l
100 547 l
721 1493 l

ce} _d
/T{1251 0 -6 0 1257 1493 sc
-6 1493 m
1257 1493 l
1257 1323 l
727 1323 l
727 0 l
524 0 l
524 1323 l
-6 1323 l
-6 1493 l

ce} _d
/five{1303 0 158 -29 1124 1493 sc
221 1493 m
1014 1493 l
1014 1323 l
406 1323 l
406 957 l
435 967 465 974 494 979 c
523 984 553 987 582 987 c
749 987 881 941 978 850 c
1075 759 1124 635 1124 479 c
1124 318 1074 193 974 104 c
874 15 733 -29 551 -29 c
488 -29 424 -24 359 -13 c
294 -2 227 14 158 35 c
158 238 l
218 205 280 181 344 165 c
408 149 476 141 547 141 c
662 141 754 171 821 232 c
888 293 922 375 922 479 c
922 583 888 665 821 726 c
754 787 662 817 547 817 c
493 817 439 811 385 799 c
332 787 277 768 221 743 c
221 1493 l

ce} _d
/seven{1303 0 168 0 1128 1493 sc
168 1493 m
1128 1493 l
1128 1407 l
586 0 l
375 0 l
885 1323 l
168 1323 l
168 1493 l

ce} _d
/y{1212 0 61 -426 1151 1120 sc
659 -104 m
607 -237 556 -324 507 -365 c
458 -406 392 -426 309 -426 c
162 -426 l
162 -272 l
270 -272 l
321 -272 360 -260 388 -236 c
416 -212 447 -155 481 -66 c
514 18 l
61 1120 l
256 1120 l
606 244 l
956 1120 l
1151 1120 l
659 -104 l

ce} _d
end readonly def

/BuildGlyph {
 exch begin
 CharStrings exch
 2 copy known not {pop /.notdef} if
 true 3 1 roll get exec
 end
} _d

/BuildChar {
 1 index /Encoding get exch get
 1 index /BuildGlyph get exec
} _d

FontName currentdict end definefont pop
end
%%EndProlog
mpldict begin
198.405 319.268 translate
215.191 153.464 0 0 clipbox
gsave
0 0 m
215.190625 0 l
215.190625 153.46375 l
0 153.46375 l
cl
grestore
gsave
40.590625 37.54375 m
207.990625 37.54375 l
207.990625 146.26375 l
40.590625 146.26375 l
cl
grestore
1.500 setlinewidth
1 setlinejoin
2 setlinecap
[] 0 setdash
0.693 0.165 0.565 setrgbcolor
gsave
167.4 108.72 40.591 37.544 clipbox
58.628908 53.930628 m
65.208909 67.597587 l
68.231562 67.258843 l
86.672125 43.154794 l
94.547303 61.506641 l
111.231624 50.52811 l
114.289982 58.620788 l
123.010122 58.884339 l
123.946872 72.033581 l
184.184345 68.792294 l
190.656832 59.900242 l
191.521218 66.2117 l
194.094854 66.246978 l
195.700321 75.597839 l
stroke
grestore
1.000 setlinewidth
0 setlinecap
gsave
167.4 108.72 40.591 37.544 clipbox
/o {
gsave
newpath
translate
1.0 setlinewidth
1 setlinejoin

0 setlinecap

0 -2.5 m
0.663008 -2.5 1.29895 -2.236584 1.767767 -1.767767 c
2.236584 -1.29895 2.5 -0.663008 2.5 0 c
2.5 0.663008 2.236584 1.29895 1.767767 1.767767 c
1.29895 2.236584 0.663008 2.5 0 2.5 c
-0.663008 2.5 -1.29895 2.236584 -1.767767 1.767767 c
-2.236584 1.29895 -2.5 0.663008 -2.5 0 c
-2.5 -0.663008 -2.236584 -1.29895 -1.767767 -1.767767 c
-1.29895 -2.236584 -0.663008 -2.5 0 -2.5 c
cl

gsave
0.693 0.165 0.565 setrgbcolor
fill
grestore
stroke
grestore
} bind def
58.6289 53.9306 o
65.2089 67.5976 o
68.2316 67.2588 o
86.6721 43.1548 o
94.5473 61.5066 o
111.232 50.5281 o
114.29 58.6208 o
123.01 58.8843 o
123.947 72.0336 o
184.184 68.7923 o
190.657 59.9002 o
191.521 66.2117 o
194.095 66.247 o
195.7 75.5978 o
grestore
1.500 setlinewidth
2 setlinecap
0.697 0.170 0.561 setrgbcolor
gsave
167.4 108.72 40.591 37.544 clipbox
48.620921 52.77862 m
51.848326 75.190026 l
64.452119 63.334643 l
70.997809 49.830695 l
74.578397 51.243445 l
77.651788 63.943063 l
88.975989 69.423807 l
94.299423 73.962821 l
94.812853 60.451488 l
100.197936 71.497794 l
127.391262 64.686165 l
154.597345 48.160906 l
161.699829 67.462159 l
162.876425 81.499086 l
178.085753 50.395383 l
183.614363 51.734514 l
191.592071 48.125493 l
193.395316 66.114227 l
195.869914 79.497562 l
stroke
grestore
1.000 setlinewidth
0 setlinecap
gsave
167.4 108.72 40.591 37.544 clipbox
/o {
gsave
newpath
translate
1.0 setlinewidth
1 setlinejoin

0 setlinecap

0 -2.5 m
0.663008 -2.5 1.29895 -2.236584 1.767767 -1.767767 c
2.236584 -1.29895 2.5 -0.663008 2.5 0 c
2.5 0.663008 2.236584 1.29895 1.767767 1.767767 c
1.29895 2.236584 0.663008 2.5 0 2.5 c
-0.663008 2.5 -1.29895 2.236584 -1.767767 1.767767 c
-2.236584 1.29895 -2.5 0.663008 -2.5 0 c
-2.5 -0.663008 -2.236584 -1.29895 -1.767767 -1.767767 c
-1.29895 -2.236584 -0.663008 -2.5 0 -2.5 c
cl

gsave
0.697 0.170 0.561 setrgbcolor
fill
grestore
stroke
grestore
} bind def
48.6209 52.7786 o
51.8483 75.19 o
64.4521 63.3346 o
70.9978 49.8307 o
74.5784 51.2434 o
77.6518 63.9431 o
88.976 69.4238 o
94.2994 73.9628 o
94.8129 60.4515 o
100.198 71.4978 o
127.391 64.6862 o
154.597 48.1609 o
161.7 67.4622 o
162.876 81.4991 o
178.086 50.3954 o
183.614 51.7345 o
191.592 48.1255 o
193.395 66.1142 o
195.87 79.4976 o
grestore
1.500 setlinewidth
2 setlinecap
0.740 0.214 0.524 setrgbcolor
gsave
167.4 108.72 40.591 37.544 clipbox
49.8707 58.591331 m
56.220419 66.74327 l
65.267461 61.761355 l
73.260954 65.263108 l
74.317538 73.200897 l
101.090408 67.636632 l
108.602604 63.032309 l
111.877317 88.991713 l
120.352106 46.338437 l
139.962178 88.05817 l
143.692938 48.319099 l
145.062724 68.45669 l
145.15926 62.036116 l
158.815863 78.457949 l
159.027905 63.34358 l
175.846388 79.245974 l
178.910054 73.787698 l
185.278023 70.019336 l
stroke
grestore
1.000 setlinewidth
0 setlinecap
gsave
167.4 108.72 40.591 37.544 clipbox
/o {
gsave
newpath
translate
1.0 setlinewidth
1 setlinejoin

0 setlinecap

0 -2.5 m
0.663008 -2.5 1.29895 -2.236584 1.767767 -1.767767 c
2.236584 -1.29895 2.5 -0.663008 2.5 0 c
2.5 0.663008 2.236584 1.29895 1.767767 1.767767 c
1.29895 2.236584 0.663008 2.5 0 2.5 c
-0.663008 2.5 -1.29895 2.236584 -1.767767 1.767767 c
-2.236584 1.29895 -2.5 0.663008 -2.5 0 c
-2.5 -0.663008 -2.236584 -1.29895 -1.767767 -1.767767 c
-1.29895 -2.236584 -0.663008 -2.5 0 -2.5 c
cl

gsave
0.740 0.214 0.524 setrgbcolor
fill
grestore
stroke
grestore
} bind def
49.8707 58.5913 o
56.2204 66.7433 o
65.2675 61.7614 o
73.261 65.2631 o
74.3175 73.2009 o
101.09 67.6366 o
108.603 63.0323 o
111.877 88.9917 o
120.352 46.3384 o
139.962 88.0582 o
143.693 48.3191 o
145.063 68.4567 o
145.159 62.0361 o
158.816 78.4579 o
159.028 63.3436 o
175.846 79.246 o
178.91 73.7877 o
185.278 70.0193 o
grestore
1.500 setlinewidth
2 setlinecap
0.706 0.178 0.554 setrgbcolor
gsave
167.4 108.72 40.591 37.544 clipbox
65.257135 66.837845 m
67.647494 75.059872 l
149.138363 50.369534 l
stroke
grestore
1.000 setlinewidth
0 setlinecap
gsave
167.4 108.72 40.591 37.544 clipbox
/o {
gsave
newpath
translate
1.0 setlinewidth
1 setlinejoin

0 setlinecap

0 -2.5 m
0.663008 -2.5 1.29895 -2.236584 1.767767 -1.767767 c
2.236584 -1.29895 2.5 -0.663008 2.5 0 c
2.5 0.663008 2.236584 1.29895 1.767767 1.767767 c
1.29895 2.236584 0.663008 2.5 0 2.5 c
-0.663008 2.5 -1.29895 2.236584 -1.767767 1.767767 c
-2.236584 1.29895 -2.5 0.663008 -2.5 0 c
-2.5 -0.663008 -2.236584 -1.29895 -1.767767 -1.767767 c
-1.29895 -2.236584 -0.663008 -2.5 0 -2.5 c
cl

gsave
0.706 0.178 0.554 setrgbcolor
fill
grestore
stroke
grestore
} bind def
65.2571 66.8378 o
67.6475 75.0599 o
149.138 50.3695 o
grestore
1.500 setlinewidth
2 setlinecap
0.688 0.161 0.568 setrgbcolor
gsave
167.4 108.72 40.591 37.544 clipbox
50.728581 42.485568 m
51.188801 54.07345 l
59.994872 54.04285 l
70.129977 60.120146 l
74.225811 54.078077 l
74.724278 59.812167 l
84.576036 53.599057 l
84.84372 61.168172 l
86.137346 72.940012 l
104.738263 58.962656 l
111.42914 66.820982 l
113.145372 66.16943 l
123.480398 61.481899 l
128.694291 73.536476 l
138.380119 63.758002 l
145.087684 44.120289 l
154.568608 68.083258 l
163.074161 50.354726 l
167.872708 67.575371 l
170.914684 73.069694 l
172.66549 66.972756 l
172.758742 73.093482 l
176.630941 70.890533 l
176.665087 54.956892 l
180.64595 69.67275 l
185.961346 60.258974 l
stroke
grestore
1.000 setlinewidth
0 setlinecap
gsave
167.4 108.72 40.591 37.544 clipbox
/o {
gsave
newpath
translate
1.0 setlinewidth
1 setlinejoin

0 setlinecap

0 -2.5 m
0.663008 -2.5 1.29895 -2.236584 1.767767 -1.767767 c
2.236584 -1.29895 2.5 -0.663008 2.5 0 c
2.5 0.663008 2.236584 1.29895 1.767767 1.767767 c
1.29895 2.236584 0.663008 2.5 0 2.5 c
-0.663008 2.5 -1.29895 2.236584 -1.767767 1.767767 c
-2.236584 1.29895 -2.5 0.663008 -2.5 0 c
-2.5 -0.663008 -2.236584 -1.29895 -1.767767 -1.767767 c
-1.29895 -2.236584 -0.663008 -2.5 0 -2.5 c
cl

gsave
0.688 0.161 0.568 setrgbcolor
fill
grestore
stroke
grestore
} bind def
50.7286 42.4856 o
51.1888 54.0734 o
59.9949 54.0428 o
70.13 60.1201 o
74.2258 54.0781 o
74.7243 59.8122 o
84.576 53.5991 o
84.8437 61.1682 o
86.1373 72.94 o
104.738 58.9627 o
111.429 66.821 o
113.145 66.1694 o
123.48 61.4819 o
128.694 73.5365 o
138.38 63.758 o
145.088 44.1203 o
154.569 68.0833 o
163.074 50.3547 o
167.873 67.5754 o
170.915 73.0697 o
172.665 66.9728 o
172.759 73.0935 o
176.631 70.8905 o
176.665 54.9569 o
180.646 69.6728 o
185.961 60.259 o
grestore
1.500 setlinewidth
2 setlinecap
0.679 0.152 0.575 setrgbcolor
gsave
167.4 108.72 40.591 37.544 clipbox
79.790743 48.441057 m
120.484304 59.390051 l
152.051594 57.973856 l
160.659098 83.831121 l
169.104961 54.147141 l
stroke
grestore
1.000 setlinewidth
0 setlinecap
gsave
167.4 108.72 40.591 37.544 clipbox
/o {
gsave
newpath
translate
1.0 setlinewidth
1 setlinejoin

0 setlinecap

0 -2.5 m
0.663008 -2.5 1.29895 -2.236584 1.767767 -1.767767 c
2.236584 -1.29895 2.5 -0.663008 2.5 0 c
2.5 0.663008 2.236584 1.29895 1.767767 1.767767 c
1.29895 2.236584 0.663008 2.5 0 2.5 c
-0.663008 2.5 -1.29895 2.236584 -1.767767 1.767767 c
-2.236584 1.29895 -2.5 0.663008 -2.5 0 c
-2.5 -0.663008 -2.236584 -1.29895 -1.767767 -1.767767 c
-1.29895 -2.236584 -0.663008 -2.5 0 -2.5 c
cl

gsave
0.679 0.152 0.575 setrgbcolor
fill
grestore
stroke
grestore
} bind def
79.7907 48.4411 o
120.484 59.3901 o
152.052 57.9739 o
160.659 83.8311 o
169.105 54.1471 o
grestore
1.500 setlinewidth
2 setlinecap
0.665 0.139 0.586 setrgbcolor
gsave
167.4 108.72 40.591 37.544 clipbox
59.01528 73.577847 m
96.569768 55.954711 l
103.305113 55.487342 l
106.637721 42.485568 l
139.350824 63.869328 l
139.511349 60.247345 l
142.394829 76.524277 l
142.763026 57.647699 l
158.997813 52.733987 l
160.037364 67.794886 l
160.137292 42.485568 l
166.570938 70.890015 l
173.313634 55.088026 l
179.195382 69.010022 l
185.489305 46.731965 l
stroke
grestore
1.000 setlinewidth
0 setlinecap
gsave
167.4 108.72 40.591 37.544 clipbox
/o {
gsave
newpath
translate
1.0 setlinewidth
1 setlinejoin

0 setlinecap

0 -2.5 m
0.663008 -2.5 1.29895 -2.236584 1.767767 -1.767767 c
2.236584 -1.29895 2.5 -0.663008 2.5 0 c
2.5 0.663008 2.236584 1.29895 1.767767 1.767767 c
1.29895 2.236584 0.663008 2.5 0 2.5 c
-0.663008 2.5 -1.29895 2.236584 -1.767767 1.767767 c
-2.236584 1.29895 -2.5 0.663008 -2.5 0 c
-2.5 -0.663008 -2.236584 -1.29895 -1.767767 -1.767767 c
-1.29895 -2.236584 -0.663008 -2.5 0 -2.5 c
cl

gsave
0.665 0.139 0.586 setrgbcolor
fill
grestore
stroke
grestore
} bind def
59.0153 73.5778 o
96.5698 55.9547 o
103.305 55.4873 o
106.638 42.4856 o
139.351 63.8693 o
139.511 60.2473 o
142.395 76.5243 o
142.763 57.6477 o
158.998 52.734 o
160.037 67.7949 o
160.137 42.4856 o
166.571 70.89 o
173.314 55.088 o
179.195 69.01 o
185.489 46.732 o
grestore
1.500 setlinewidth
2 setlinecap
0.684 0.156 0.572 setrgbcolor
gsave
167.4 108.72 40.591 37.544 clipbox
61.759991 50.782272 m
71.134371 51.892047 l
75.439 61.884446 l
83.398425 58.601517 l
84.672081 70.077985 l
90.646977 54.356197 l
92.738037 65.717455 l
104.779378 72.93696 l
106.706162 48.460277 l
108.133184 61.435077 l
123.610394 55.144897 l
156.576896 55.268591 l
181.282215 75.505218 l
190.403339 74.717293 l
stroke
grestore
1.000 setlinewidth
0 setlinecap
gsave
167.4 108.72 40.591 37.544 clipbox
/o {
gsave
newpath
translate
1.0 setlinewidth
1 setlinejoin

0 setlinecap

0 -2.5 m
0.663008 -2.5 1.29895 -2.236584 1.767767 -1.767767 c
2.236584 -1.29895 2.5 -0.663008 2.5 0 c
2.5 0.663008 2.236584 1.29895 1.767767 1.767767 c
1.29895 2.236584 0.663008 2.5 0 2.5 c
-0.663008 2.5 -1.29895 2.236584 -1.767767 1.767767 c
-2.236584 1.29895 -2.5 0.663008 -2.5 0 c
-2.5 -0.663008 -2.236584 -1.29895 -1.767767 -1.767767 c
-1.29895 -2.236584 -0.663008 -2.5 0 -2.5 c
cl

gsave
0.684 0.156 0.572 setrgbcolor
fill
grestore
stroke
grestore
} bind def
61.76 50.7823 o
71.1344 51.892 o
75.439 61.8844 o
83.3984 58.6015 o
84.6721 70.078 o
90.647 54.3562 o
92.738 65.7175 o
104.779 72.937 o
106.706 48.4603 o
108.133 61.4351 o
123.61 55.1449 o
156.577 55.2686 o
181.282 75.5052 o
190.403 74.7173 o
grestore
1.500 setlinewidth
2 setlinecap
0.715 0.187 0.546 setrgbcolor
gsave
167.4 108.72 40.591 37.544 clipbox
63.742401 70.02724 m
72.522583 67.478204 l
84.406875 64.397029 l
90.324827 52.862375 l
97.221046 53.75625 l
106.489448 66.146789 l
112.599612 75.807342 l
120.363664 70.090061 l
120.699099 59.635311 l
127.805117 62.567558 l
128.544284 77.473635 l
146.685399 54.696318 l
148.10878 69.946736 l
159.67503 64.334928 l
169.015887 54.862398 l
183.452013 71.75201 l
184.2934 65.934685 l
195.711138 62.221249 l
stroke
grestore
1.000 setlinewidth
0 setlinecap
gsave
167.4 108.72 40.591 37.544 clipbox
/o {
gsave
newpath
translate
1.0 setlinewidth
1 setlinejoin

0 setlinecap

0 -2.5 m
0.663008 -2.5 1.29895 -2.236584 1.767767 -1.767767 c
2.236584 -1.29895 2.5 -0.663008 2.5 0 c
2.5 0.663008 2.236584 1.29895 1.767767 1.767767 c
1.29895 2.236584 0.663008 2.5 0 2.5 c
-0.663008 2.5 -1.29895 2.236584 -1.767767 1.767767 c
-2.236584 1.29895 -2.5 0.663008 -2.5 0 c
-2.5 -0.663008 -2.236584 -1.29895 -1.767767 -1.767767 c
-1.29895 -2.236584 -0.663008 -2.5 0 -2.5 c
cl

gsave
0.715 0.187 0.546 setrgbcolor
fill
grestore
stroke
grestore
} bind def
63.7424 70.0272 o
72.5226 67.4782 o
84.4069 64.397 o
90.3248 52.8624 o
97.221 53.7563 o
106.489 66.1468 o
112.6 75.8073 o
120.364 70.0901 o
120.699 59.6353 o
127.805 62.5676 o
128.544 77.4736 o
146.685 54.6963 o
148.109 69.9467 o
159.675 64.3349 o
169.016 54.8624 o
183.452 71.752 o
184.293 65.9347 o
195.711 62.2212 o
grestore
1.500 setlinewidth
2 setlinecap
0.697 0.170 0.561 setrgbcolor
gsave
167.4 108.72 40.591 37.544 clipbox
59.805421 48.936159 m
74.85738 52.761059 l
82.147864 59.558513 l
83.303937 61.724619 l
85.717917 72.733134 l
87.353499 49.588728 l
98.329211 67.617688 l
114.371533 46.332626 l
119.564874 74.090416 l
120.879626 60.791506 l
123.284511 73.29104 l
163.269269 80.939299 l
173.589437 46.076612 l
175.760046 52.177165 l
180.080422 69.893196 l
189.857131 74.180338 l
190.739325 68.659003 l
197.484639 66.43859 l
199.450633 65.630439 l
stroke
grestore
1.000 setlinewidth
0 setlinecap
gsave
167.4 108.72 40.591 37.544 clipbox
/o {
gsave
newpath
translate
1.0 setlinewidth
1 setlinejoin

0 setlinecap

0 -2.5 m
0.663008 -2.5 1.29895 -2.236584 1.767767 -1.767767 c
2.236584 -1.29895 2.5 -0.663008 2.5 0 c
2.5 0.663008 2.236584 1.29895 1.767767 1.767767 c
1.29895 2.236584 0.663008 2.5 0 2.5 c
-0.663008 2.5 -1.29895 2.236584 -1.767767 1.767767 c
-2.236584 1.29895 -2.5 0.663008 -2.5 0 c
-2.5 -0.663008 -2.236584 -1.29895 -1.767767 -1.767767 c
-1.29895 -2.236584 -0.663008 -2.5 0 -2.5 c
cl

gsave
0.697 0.170 0.561 setrgbcolor
fill
grestore
stroke
grestore
} bind def
59.8054 48.9362 o
74.8574 52.7611 o
82.1479 59.5585 o
83.3039 61.7246 o
85.7179 72.7331 o
87.3535 49.5887 o
98.3292 67.6177 o
114.372 46.3326 o
119.565 74.0904 o
120.88 60.7915 o
123.285 73.291 o
163.269 80.9393 o
173.589 46.0766 o
175.76 52.1772 o
180.08 69.8932 o
189.857 74.1803 o
190.739 68.659 o
197.485 66.4386 o
199.451 65.6304 o
grestore
1.500 setlinewidth
2 setlinecap
0.670 0.143 0.582 setrgbcolor
gsave
167.4 108.72 40.591 37.544 clipbox
56.299847 65.558174 m
79.576136 80.699706 l
91.49498 47.6736 l
104.794148 63.459491 l
136.062963 53.007002 l
144.066331 67.51523 l
148.855415 69.1621 l
153.543442 49.081951 l
162.27394 42.485568 l
stroke
grestore
1.000 setlinewidth
0 setlinecap
gsave
167.4 108.72 40.591 37.544 clipbox
/o {
gsave
newpath
translate
1.0 setlinewidth
1 setlinejoin

0 setlinecap

0 -2.5 m
0.663008 -2.5 1.29895 -2.236584 1.767767 -1.767767 c
2.236584 -1.29895 2.5 -0.663008 2.5 0 c
2.5 0.663008 2.236584 1.29895 1.767767 1.767767 c
1.29895 2.236584 0.663008 2.5 0 2.5 c
-0.663008 2.5 -1.29895 2.236584 -1.767767 1.767767 c
-2.236584 1.29895 -2.5 0.663008 -2.5 0 c
-2.5 -0.663008 -2.236584 -1.29895 -1.767767 -1.767767 c
-1.29895 -2.236584 -0.663008 -2.5 0 -2.5 c
cl

gsave
0.670 0.143 0.582 setrgbcolor
fill
grestore
stroke
grestore
} bind def
56.2998 65.5582 o
79.5761 80.6997 o
91.495 47.6736 o
104.794 63.4595 o
136.063 53.007 o
144.066 67.5152 o
148.855 69.1621 o
153.543 49.082 o
162.274 42.4856 o
grestore
1.500 setlinewidth
2 setlinecap
0.706 0.178 0.554 setrgbcolor
gsave
167.4 108.72 40.591 37.544 clipbox
63.694292 74.650716 m
71.041406 56.491594 l
98.318455 63.367941 l
105.894241 71.97237 l
123.532852 69.06764 l
133.841499 47.694192 l
stroke
grestore
1.000 setlinewidth
0 setlinecap
gsave
167.4 108.72 40.591 37.544 clipbox
/o {
gsave
newpath
translate
1.0 setlinewidth
1 setlinejoin

0 setlinecap

0 -2.5 m
0.663008 -2.5 1.29895 -2.236584 1.767767 -1.767767 c
2.236584 -1.29895 2.5 -0.663008 2.5 0 c
2.5 0.663008 2.236584 1.29895 1.767767 1.767767 c
1.29895 2.236584 0.663008 2.5 0 2.5 c
-0.663008 2.5 -1.29895 2.236584 -1.767767 1.767767 c
-2.236584 1.29895 -2.5 0.663008 -2.5 0 c
-2.5 -0.663008 -2.236584 -1.29895 -1.767767 -1.767767 c
-1.29895 -2.236584 -0.663008 -2.5 0 -2.5 c
cl

gsave
0.706 0.178 0.554 setrgbcolor
fill
grestore
stroke
grestore
} bind def
63.6943 74.6507 o
71.0414 56.4916 o
98.3185 63.3679 o
105.894 71.9724 o
123.533 69.0676 o
133.841 47.6942 o
grestore
1.500 setlinewidth
2 setlinecap
0.915 0.449 0.343 setrgbcolor
gsave
167.4 108.72 40.591 37.544 clipbox
94.44697 90.328314 m
97.515204 109.567781 l
124.26383 97.65374 l
135.945842 96.634534 l
137.95804 101.725325 l
161.402084 72.760695 l
170.073293 94.125305 l
stroke
grestore
1.000 setlinewidth
0 setlinecap
gsave
167.4 108.72 40.591 37.544 clipbox
/o {
gsave
newpath
translate
1.0 setlinewidth
1 setlinejoin

0 setlinecap

0 -2.5 m
0.663008 -2.5 1.29895 -2.236584 1.767767 -1.767767 c
2.236584 -1.29895 2.5 -0.663008 2.5 0 c
2.5 0.663008 2.236584 1.29895 1.767767 1.767767 c
1.29895 2.236584 0.663008 2.5 0 2.5 c
-0.663008 2.5 -1.29895 2.236584 -1.767767 1.767767 c
-2.236584 1.29895 -2.5 0.663008 -2.5 0 c
-2.5 -0.663008 -2.236584 -1.29895 -1.767767 -1.767767 c
-1.29895 -2.236584 -0.663008 -2.5 0 -2.5 c
cl

gsave
0.915 0.449 0.343 setrgbcolor
fill
grestore
stroke
grestore
} bind def
94.447 90.3283 o
97.5152 109.568 o
124.264 97.6537 o
135.946 96.6345 o
137.958 101.725 o
161.402 72.7607 o
170.073 94.1253 o
grestore
1.500 setlinewidth
2 setlinecap
0.931 0.478 0.323 setrgbcolor
gsave
167.4 108.72 40.591 37.544 clipbox
60.773561 104.535202 m
62.047851 89.383927 l
90.314577 99.415994 l
129.494212 80.497218 l
157.05689 89.1305 l
176.310262 106.496676 l
199.363517 114.068408 l
stroke
grestore
1.000 setlinewidth
0 setlinecap
gsave
167.4 108.72 40.591 37.544 clipbox
/o {
gsave
newpath
translate
1.0 setlinewidth
1 setlinejoin

0 setlinecap

0 -2.5 m
0.663008 -2.5 1.29895 -2.236584 1.767767 -1.767767 c
2.236584 -1.29895 2.5 -0.663008 2.5 0 c
2.5 0.663008 2.236584 1.29895 1.767767 1.767767 c
1.29895 2.236584 0.663008 2.5 0 2.5 c
-0.663008 2.5 -1.29895 2.236584 -1.767767 1.767767 c
-2.236584 1.29895 -2.5 0.663008 -2.5 0 c
-2.5 -0.663008 -2.236584 -1.29895 -1.767767 -1.767767 c
-1.29895 -2.236584 -0.663008 -2.5 0 -2.5 c
cl

gsave
0.931 0.478 0.323 setrgbcolor
fill
grestore
stroke
grestore
} bind def
60.7736 104.535 o
62.0479 89.3839 o
90.3146 99.416 o
129.494 80.4972 o
157.057 89.1305 o
176.31 106.497 o
199.364 114.068 o
grestore
1.500 setlinewidth
2 setlinecap
0.910 0.439 0.350 setrgbcolor
gsave
167.4 108.72 40.591 37.544 clipbox
58.186462 86.09515 m
62.389597 95.882508 l
68.019215 107.957993 l
72.332008 85.829295 l
74.927454 94.547923 l
88.353419 102.778962 l
89.384637 79.825988 l
89.450352 87.515078 l
95.543175 88.183209 l
98.505194 102.941958 l
110.434366 99.635256 l
110.883432 105.225023 l
119.903382 81.557618 l
129.258363 85.477894 l
135.007189 92.804028 l
145.311672 88.988419 l
155.395205 89.104979 l
164.232606 77.854987 l
165.430733 102.244002 l
166.748262 109.215417 l
167.233321 102.538619 l
171.213165 101.507381 l
180.488639 91.145137 l
183.574001 82.381985 l
187.314497 107.542471 l
191.156088 92.043924 l
stroke
grestore
1.000 setlinewidth
0 setlinecap
gsave
167.4 108.72 40.591 37.544 clipbox
/o {
gsave
newpath
translate
1.0 setlinewidth
1 setlinejoin

0 setlinecap

0 -2.5 m
0.663008 -2.5 1.29895 -2.236584 1.767767 -1.767767 c
2.236584 -1.29895 2.5 -0.663008 2.5 0 c
2.5 0.663008 2.236584 1.29895 1.767767 1.767767 c
1.29895 2.236584 0.663008 2.5 0 2.5 c
-0.663008 2.5 -1.29895 2.236584 -1.767767 1.767767 c
-2.236584 1.29895 -2.5 0.663008 -2.5 0 c
-2.5 -0.663008 -2.236584 -1.29895 -1.767767 -1.767767 c
-1.29895 -2.236584 -0.663008 -2.5 0 -2.5 c
cl

gsave
0.910 0.439 0.350 setrgbcolor
fill
grestore
stroke
grestore
} bind def
58.1865 86.0951 o
62.3896 95.8825 o
68.0192 107.958 o
72.332 85.8293 o
74.9275 94.5479 o
88.3534 102.779 o
89.3846 79.826 o
89.4504 87.5151 o
95.5432 88.1832 o
98.5052 102.942 o
110.434 99.6353 o
110.883 105.225 o
119.903 81.5576 o
129.258 85.4779 o
135.007 92.804 o
145.312 88.9884 o
155.395 89.105 o
164.233 77.855 o
165.431 102.244 o
166.748 109.215 o
167.233 102.539 o
171.213 101.507 o
180.489 91.1451 o
183.574 82.382 o
187.314 107.542 o
191.156 92.0439 o
grestore
1.500 setlinewidth
2 setlinecap
0.887 0.402 0.376 setrgbcolor
gsave
167.4 108.72 40.591 37.544 clipbox
63.850098 105.122875 m
71.6914 96.346034 l
89.618161 106.90066 l
92.876711 86.709875 l
94.156332 97.132487 l
109.63567 74.627221 l
109.71764 106.334958 l
130.570896 86.159863 l
133.772964 80.248948 l
138.325025 87.776566 l
147.888671 85.15739 l
149.8669 87.863187 l
165.008813 93.564086 l
180.90505 71.373826 l
184.14111 76.794282 l
stroke
grestore
1.000 setlinewidth
0 setlinecap
gsave
167.4 108.72 40.591 37.544 clipbox
/o {
gsave
newpath
translate
1.0 setlinewidth
1 setlinejoin

0 setlinecap

0 -2.5 m
0.663008 -2.5 1.29895 -2.236584 1.767767 -1.767767 c
2.236584 -1.29895 2.5 -0.663008 2.5 0 c
2.5 0.663008 2.236584 1.29895 1.767767 1.767767 c
1.29895 2.236584 0.663008 2.5 0 2.5 c
-0.663008 2.5 -1.29895 2.236584 -1.767767 1.767767 c
-2.236584 1.29895 -2.5 0.663008 -2.5 0 c
-2.5 -0.663008 -2.236584 -1.29895 -1.767767 -1.767767 c
-1.29895 -2.236584 -0.663008 -2.5 0 -2.5 c
cl

gsave
0.887 0.402 0.376 setrgbcolor
fill
grestore
stroke
grestore
} bind def
63.8501 105.123 o
71.6914 96.346 o
89.6182 106.901 o
92.8767 86.7099 o
94.1563 97.1325 o
109.636 74.6272 o
109.718 106.335 o
130.571 86.1599 o
133.773 80.2489 o
138.325 87.7766 o
147.889 85.1574 o
149.867 87.8632 o
165.009 93.5641 o
180.905 71.3738 o
184.141 76.7943 o
grestore
1.500 setlinewidth
2 setlinecap
0.923 0.463 0.333 setrgbcolor
gsave
167.4 108.72 40.591 37.544 clipbox
98.255177 95.488819 m
108.703622 99.46987 l
122.97492 85.724139 l
146.57567 119.466235 l
153.482196 93.410388 l
176.182296 98.136556 l
191.211432 80.503249 l
stroke
grestore
1.000 setlinewidth
0 setlinecap
gsave
167.4 108.72 40.591 37.544 clipbox
/o {
gsave
newpath
translate
1.0 setlinewidth
1 setlinejoin

0 setlinecap

0 -2.5 m
0.663008 -2.5 1.29895 -2.236584 1.767767 -1.767767 c
2.236584 -1.29895 2.5 -0.663008 2.5 0 c
2.5 0.663008 2.236584 1.29895 1.767767 1.767767 c
1.29895 2.236584 0.663008 2.5 0 2.5 c
-0.663008 2.5 -1.29895 2.236584 -1.767767 1.767767 c
-2.236584 1.29895 -2.5 0.663008 -2.5 0 c
-2.5 -0.663008 -2.236584 -1.29895 -1.767767 -1.767767 c
-1.29895 -2.236584 -0.663008 -2.5 0 -2.5 c
cl

gsave
0.923 0.463 0.333 setrgbcolor
fill
grestore
stroke
grestore
} bind def
98.2552 95.4888 o
108.704 99.4699 o
122.975 85.7241 o
146.576 119.466 o
153.482 93.4104 o
176.182 98.1366 o
191.211 80.5032 o
grestore
1.500 setlinewidth
2 setlinecap
0.913 0.444 0.346 setrgbcolor
gsave
167.4 108.72 40.591 37.544 clipbox
62.150787 83.799874 m
65.050754 93.97699 l
97.682304 89.209666 l
100.372777 83.529972 l
102.149072 87.837533 l
116.49945 109.523295 l
117.622598 103.660377 l
124.702834 110.004473 l
132.21249 77.04082 l
132.72909 91.371104 l
149.984193 93.340299 l
165.941854 98.709523 l
186.715304 87.597733 l
187.185197 106.74081 l
stroke
grestore
1.000 setlinewidth
0 setlinecap
gsave
167.4 108.72 40.591 37.544 clipbox
/o {
gsave
newpath
translate
1.0 setlinewidth
1 setlinejoin

0 setlinecap

0 -2.5 m
0.663008 -2.5 1.29895 -2.236584 1.767767 -1.767767 c
2.236584 -1.29895 2.5 -0.663008 2.5 0 c
2.5 0.663008 2.236584 1.29895 1.767767 1.767767 c
1.29895 2.236584 0.663008 2.5 0 2.5 c
-0.663008 2.5 -1.29895 2.236584 -1.767767 1.767767 c
-2.236584 1.29895 -2.5 0.663008 -2.5 0 c
-2.5 -0.663008 -2.236584 -1.29895 -1.767767 -1.767767 c
-1.29895 -2.236584 -0.663008 -2.5 0 -2.5 c
cl

gsave
0.913 0.444 0.346 setrgbcolor
fill
grestore
stroke
grestore
} bind def
62.1508 83.7999 o
65.0508 93.977 o
97.6823 89.2097 o
100.373 83.53 o
102.149 87.8375 o
116.499 109.523 o
117.623 103.66 o
124.703 110.004 o
132.212 77.0408 o
132.729 91.3711 o
149.984 93.3403 o
165.942 98.7095 o
186.715 87.5977 o
187.185 106.741 o
grestore
1.500 setlinewidth
2 setlinecap
0.899 0.420 0.363 setrgbcolor
gsave
167.4 108.72 40.591 37.544 clipbox
63.829414 91.156221 m
69.822941 88.256109 l
85.602077 106.284998 l
101.430217 96.008133 l
104.28555 80.420916 l
113.419081 88.482613 l
122.966309 90.862279 l
123.452833 101.553638 l
127.016092 87.823954 l
129.820713 104.457609 l
130.260217 78.357756 l
132.476023 88.356315 l
134.86407 94.03669 l
137.772206 92.100255 l
138.536273 110.644463 l
142.815034 85.91492 l
147.847299 87.705384 l
158.565473 83.029762 l
161.858334 95.365417 l
164.098964 85.115948 l
167.81226 95.912716 l
168.308167 97.418577 l
172.485385 81.139128 l
174.627023 88.795757 l
174.927765 91.236125 l
181.283022 95.451694 l
191.836387 94.62226 l
stroke
grestore
1.000 setlinewidth
0 setlinecap
gsave
167.4 108.72 40.591 37.544 clipbox
/o {
gsave
newpath
translate
1.0 setlinewidth
1 setlinejoin

0 setlinecap

0 -2.5 m
0.663008 -2.5 1.29895 -2.236584 1.767767 -1.767767 c
2.236584 -1.29895 2.5 -0.663008 2.5 0 c
2.5 0.663008 2.236584 1.29895 1.767767 1.767767 c
1.29895 2.236584 0.663008 2.5 0 2.5 c
-0.663008 2.5 -1.29895 2.236584 -1.767767 1.767767 c
-2.236584 1.29895 -2.5 0.663008 -2.5 0 c
-2.5 -0.663008 -2.236584 -1.29895 -1.767767 -1.767767 c
-1.29895 -2.236584 -0.663008 -2.5 0 -2.5 c
cl

gsave
0.899 0.420 0.363 setrgbcolor
fill
grestore
stroke
grestore
} bind def
63.8294 91.1562 o
69.8229 88.2561 o
85.6021 106.285 o
101.43 96.0081 o
104.286 80.4209 o
113.419 88.4826 o
122.966 90.8623 o
123.453 101.554 o
127.016 87.824 o
129.821 104.458 o
130.26 78.3578 o
132.476 88.3563 o
134.864 94.0367 o
137.772 92.1003 o
138.536 110.644 o
142.815 85.9149 o
147.847 87.7054 o
158.565 83.0298 o
161.858 95.3654 o
164.099 85.1159 o
167.812 95.9127 o
168.308 97.4186 o
172.485 81.1391 o
174.627 88.7958 o
174.928 91.2361 o
181.283 95.4517 o
191.836 94.6223 o
grestore
1.500 setlinewidth
2 setlinecap
0.910 0.439 0.350 setrgbcolor
gsave
167.4 108.72 40.591 37.544 clipbox
51.893575 101.00971 m
56.547286 93.098964 l
56.913398 94.351343 l
62.262305 91.751029 l
63.529571 97.237257 l
66.418545 91.490844 l
76.857813 86.475077 l
86.831388 108.744784 l
89.522965 85.016385 l
94.058884 99.872928 l
98.014329 99.282472 l
122.137228 83.942484 l
141.942568 91.896123 l
151.959351 89.38023 l
154.663654 100.152774 l
159.064244 102.27243 l
180.28863 87.006924 l
184.223646 89.954825 l
187.973099 97.012843 l
188.363378 80.393737 l
stroke
grestore
1.000 setlinewidth
0 setlinecap
gsave
167.4 108.72 40.591 37.544 clipbox
/o {
gsave
newpath
translate
1.0 setlinewidth
1 setlinejoin

0 setlinecap

0 -2.5 m
0.663008 -2.5 1.29895 -2.236584 1.767767 -1.767767 c
2.236584 -1.29895 2.5 -0.663008 2.5 0 c
2.5 0.663008 2.236584 1.29895 1.767767 1.767767 c
1.29895 2.236584 0.663008 2.5 0 2.5 c
-0.663008 2.5 -1.29895 2.236584 -1.767767 1.767767 c
-2.236584 1.29895 -2.5 0.663008 -2.5 0 c
-2.5 -0.663008 -2.236584 -1.29895 -1.767767 -1.767767 c
-1.29895 -2.236584 -0.663008 -2.5 0 -2.5 c
cl

gsave
0.910 0.439 0.350 setrgbcolor
fill
grestore
stroke
grestore
} bind def
51.8936 101.01 o
56.5473 93.099 o
56.9134 94.3513 o
62.2623 91.751 o
63.5296 97.2373 o
66.4185 91.4908 o
76.8578 86.4751 o
86.8314 108.745 o
89.523 85.0164 o
94.0589 99.8729 o
98.0143 99.2825 o
122.137 83.9425 o
141.943 91.8961 o
151.959 89.3802 o
154.664 100.153 o
159.064 102.272 o
180.289 87.0069 o
184.224 89.9548 o
187.973 97.0128 o
188.363 80.3937 o
grestore
1.500 setlinewidth
2 setlinecap
0.887 0.402 0.376 setrgbcolor
gsave
167.4 108.72 40.591 37.544 clipbox
48.199716 99.051167 m
48.328075 79.211095 l
50.560843 96.944393 l
62.992457 102.629913 l
65.462093 86.021819 l
83.290738 94.512218 l
84.687493 97.347187 l
84.798866 91.998526 l
87.779633 97.109379 l
88.080318 108.212522 l
88.614633 78.290759 l
100.11852 75.162843 l
105.607974 86.466891 l
110.532184 100.687377 l
120.371045 67.40898 l
122.574117 88.109457 l
131.05238 79.439309 l
149.293265 83.794706 l
157.873498 75.063312 l
159.759197 97.473561 l
169.331096 79.835589 l
170.072834 95.308192 l
195.500429 104.520578 l
199.104264 83.706085 l
stroke
grestore
1.000 setlinewidth
0 setlinecap
gsave
167.4 108.72 40.591 37.544 clipbox
/o {
gsave
newpath
translate
1.0 setlinewidth
1 setlinejoin

0 setlinecap

0 -2.5 m
0.663008 -2.5 1.29895 -2.236584 1.767767 -1.767767 c
2.236584 -1.29895 2.5 -0.663008 2.5 0 c
2.5 0.663008 2.236584 1.29895 1.767767 1.767767 c
1.29895 2.236584 0.663008 2.5 0 2.5 c
-0.663008 2.5 -1.29895 2.236584 -1.767767 1.767767 c
-2.236584 1.29895 -2.5 0.663008 -2.5 0 c
-2.5 -0.663008 -2.236584 -1.29895 -1.767767 -1.767767 c
-1.29895 -2.236584 -0.663008 -2.5 0 -2.5 c
cl

gsave
0.887 0.402 0.376 setrgbcolor
fill
grestore
stroke
grestore
} bind def
48.1997 99.0512 o
48.3281 79.2111 o
50.5608 96.9444 o
62.9925 102.63 o
65.4621 86.0218 o
83.2907 94.5122 o
84.6875 97.3472 o
84.7989 91.9985 o
87.7796 97.1094 o
88.0803 108.213 o
88.6146 78.2908 o
100.119 75.1628 o
105.608 86.4669 o
110.532 100.687 o
120.371 67.409 o
122.574 88.1095 o
131.052 79.4393 o
149.293 83.7947 o
157.873 75.0633 o
159.759 97.4736 o
169.331 79.8356 o
170.073 95.3082 o
195.5 104.521 o
199.104 83.7061 o
grestore
1.500 setlinewidth
2 setlinecap
0.921 0.458 0.336 setrgbcolor
gsave
167.4 108.72 40.591 37.544 clipbox
49.679562 98.127496 m
52.875081 91.049276 l
54.361463 101.460829 l
62.161782 92.684275 l
62.691457 106.329824 l
77.710416 83.907791 l
83.897776 106.100301 l
89.666623 94.251133 l
97.119239 104.252702 l
102.585803 86.562363 l
106.272943 102.659167 l
107.71413 82.411073 l
110.550569 107.197646 l
113.64173 86.385644 l
117.397905 93.861826 l
122.239815 93.386461 l
143.529312 93.832407 l
149.99288 93.236795 l
159.18059 94.160724 l
164.929919 90.353737 l
177.099178 109.549009 l
177.727676 83.14646 l
199.326978 104.628218 l
stroke
grestore
1.000 setlinewidth
0 setlinecap
gsave
167.4 108.72 40.591 37.544 clipbox
/o {
gsave
newpath
translate
1.0 setlinewidth
1 setlinejoin

0 setlinecap

0 -2.5 m
0.663008 -2.5 1.29895 -2.236584 1.767767 -1.767767 c
2.236584 -1.29895 2.5 -0.663008 2.5 0 c
2.5 0.663008 2.236584 1.29895 1.767767 1.767767 c
1.29895 2.236584 0.663008 2.5 0 2.5 c
-0.663008 2.5 -1.29895 2.236584 -1.767767 1.767767 c
-2.236584 1.29895 -2.5 0.663008 -2.5 0 c
-2.5 -0.663008 -2.236584 -1.29895 -1.767767 -1.767767 c
-1.29895 -2.236584 -0.663008 -2.5 0 -2.5 c
cl

gsave
0.921 0.458 0.336 setrgbcolor
fill
grestore
stroke
grestore
} bind def
49.6796 98.1275 o
52.8751 91.0493 o
54.3615 101.461 o
62.1618 92.6843 o
62.6915 106.33 o
77.7104 83.9078 o
83.8978 106.1 o
89.6666 94.2511 o
97.1192 104.253 o
102.586 86.5624 o
106.273 102.659 o
107.714 82.4111 o
110.551 107.198 o
113.642 86.3856 o
117.398 93.8618 o
122.24 93.3865 o
143.529 93.8324 o
149.993 93.2368 o
159.181 94.1607 o
164.93 90.3537 o
177.099 109.549 o
177.728 83.1465 o
199.327 104.628 o
grestore
1.500 setlinewidth
2 setlinecap
0.890 0.406 0.373 setrgbcolor
gsave
167.4 108.72 40.591 37.544 clipbox
62.446953 94.652759 m
65.415572 92.81562 l
67.282183 83.223579 l
78.22038 84.34524 l
80.863113 97.28076 l
87.248323 93.144658 l
98.590021 94.591133 l
99.593065 68.123917 l
125.034289 100.906576 l
131.959985 89.634571 l
139.33317 105.466977 l
143.484787 80.910951 l
145.116358 98.333206 l
145.609761 84.277018 l
147.315902 81.245462 l
168.133617 86.044574 l
169.872977 93.893865 l
172.269212 85.903693 l
197.232881 83.801973 l
199.599165 107.194035 l
stroke
grestore
1.000 setlinewidth
0 setlinecap
gsave
167.4 108.72 40.591 37.544 clipbox
/o {
gsave
newpath
translate
1.0 setlinewidth
1 setlinejoin

0 setlinecap

0 -2.5 m
0.663008 -2.5 1.29895 -2.236584 1.767767 -1.767767 c
2.236584 -1.29895 2.5 -0.663008 2.5 0 c
2.5 0.663008 2.236584 1.29895 1.767767 1.767767 c
1.29895 2.236584 0.663008 2.5 0 2.5 c
-0.663008 2.5 -1.29895 2.236584 -1.767767 1.767767 c
-2.236584 1.29895 -2.5 0.663008 -2.5 0 c
-2.5 -0.663008 -2.236584 -1.29895 -1.767767 -1.767767 c
-1.29895 -2.236584 -0.663008 -2.5 0 -2.5 c
cl

gsave
0.890 0.406 0.373 setrgbcolor
fill
grestore
stroke
grestore
} bind def
62.447 94.6528 o
65.4156 92.8156 o
67.2822 83.2236 o
78.2204 84.3452 o
80.8631 97.2808 o
87.2483 93.1447 o
98.59 94.5911 o
99.5931 68.1239 o
125.034 100.907 o
131.96 89.6346 o
139.333 105.467 o
143.485 80.911 o
145.116 98.3332 o
145.61 84.277 o
147.316 81.2455 o
168.134 86.0446 o
169.873 93.8939 o
172.269 85.9037 o
197.233 83.802 o
199.599 107.194 o
grestore
1.500 setlinewidth
2 setlinecap
0.878 0.388 0.387 setrgbcolor
gsave
167.4 108.72 40.591 37.544 clipbox
50.054539 87.484696 m
51.723094 100.33604 l
59.332854 99.451324 l
75.60599 86.046473 l
81.374638 85.104458 l
90.591877 91.273997 l
93.035396 97.886084 l
108.752417 80.346174 l
109.069934 93.879967 l
118.75563 88.156106 l
129.132804 85.88597 l
139.621138 101.79161 l
140.155423 81.953212 l
166.093692 64.383467 l
181.11886 91.636167 l
182.956509 91.940421 l
189.044299 100.973159 l
189.348127 96.150187 l
190.078469 84.262931 l
191.089387 76.533747 l
194.199837 78.516105 l
198.796372 71.957116 l
200.381534 91.363368 l
stroke
grestore
1.000 setlinewidth
0 setlinecap
gsave
167.4 108.72 40.591 37.544 clipbox
/o {
gsave
newpath
translate
1.0 setlinewidth
1 setlinejoin

0 setlinecap

0 -2.5 m
0.663008 -2.5 1.29895 -2.236584 1.767767 -1.767767 c
2.236584 -1.29895 2.5 -0.663008 2.5 0 c
2.5 0.663008 2.236584 1.29895 1.767767 1.767767 c
1.29895 2.236584 0.663008 2.5 0 2.5 c
-0.663008 2.5 -1.29895 2.236584 -1.767767 1.767767 c
-2.236584 1.29895 -2.5 0.663008 -2.5 0 c
-2.5 -0.663008 -2.236584 -1.29895 -1.767767 -1.767767 c
-1.29895 -2.236584 -0.663008 -2.5 0 -2.5 c
cl

gsave
0.878 0.388 0.387 setrgbcolor
fill
grestore
stroke
grestore
} bind def
50.0545 87.4847 o
51.7231 100.336 o
59.3329 99.4513 o
75.606 86.0465 o
81.3746 85.1045 o
90.5919 91.274 o
93.0354 97.8861 o
108.752 80.3462 o
109.07 93.88 o
118.756 88.1561 o
129.133 85.886 o
139.621 101.792 o
140.155 81.9532 o
166.094 64.3835 o
181.119 91.6362 o
182.957 91.9404 o
189.044 100.973 o
189.348 96.1502 o
190.078 84.2629 o
191.089 76.5337 o
194.2 78.5161 o
198.796 71.9571 o
200.382 91.3634 o
grestore
1.500 setlinewidth
2 setlinecap
0.994 0.723 0.174 setrgbcolor
gsave
167.4 108.72 40.591 37.544 clipbox
64.890195 119.415464 m
65.357997 141.321932 l
65.562429 120.105032 l
89.372701 106.856967 l
99.178834 111.680194 l
99.785721 114.884849 l
102.393472 136.885819 l
102.967523 109.598226 l
103.953079 117.393987 l
106.456755 116.871682 l
117.403682 116.163329 l
122.082163 119.82838 l
144.156159 120.617356 l
156.578689 125.92819 l
162.096041 119.990415 l
163.093477 135.500772 l
177.879797 118.18223 l
182.513231 116.125693 l
199.218565 122.369676 l
199.514071 128.622459 l
stroke
grestore
1.000 setlinewidth
0 setlinecap
gsave
167.4 108.72 40.591 37.544 clipbox
/o {
gsave
newpath
translate
1.0 setlinewidth
1 setlinejoin

0 setlinecap

0 -2.5 m
0.663008 -2.5 1.29895 -2.236584 1.767767 -1.767767 c
2.236584 -1.29895 2.5 -0.663008 2.5 0 c
2.5 0.663008 2.236584 1.29895 1.767767 1.767767 c
1.29895 2.236584 0.663008 2.5 0 2.5 c
-0.663008 2.5 -1.29895 2.236584 -1.767767 1.767767 c
-2.236584 1.29895 -2.5 0.663008 -2.5 0 c
-2.5 -0.663008 -2.236584 -1.29895 -1.767767 -1.767767 c
-1.29895 -2.236584 -0.663008 -2.5 0 -2.5 c
cl

gsave
0.994 0.723 0.174 setrgbcolor
fill
grestore
stroke
grestore
} bind def
64.8902 119.415 o
65.358 141.322 o
65.5624 120.105 o
89.3727 106.857 o
99.1788 111.68 o
99.7857 114.885 o
102.393 136.886 o
102.968 109.598 o
103.953 117.394 o
106.457 116.872 o
117.404 116.163 o
122.082 119.828 o
144.156 120.617 o
156.579 125.928 o
162.096 119.99 o
163.093 135.501 o
177.88 118.182 o
182.513 116.126 o
199.219 122.37 o
199.514 128.622 o
grestore
1.500 setlinewidth
2 setlinecap
0.993 0.699 0.186 setrgbcolor
gsave
167.4 108.72 40.591 37.544 clipbox
86.702157 110.684165 m
107.094224 124.155338 l
107.461045 121.967825 l
111.97176 130.260909 l
120.667769 130.534952 l
152.99484 108.210097 l
155.510787 120.015384 l
171.225033 118.200702 l
175.912676 129.014911 l
182.74771 104.959225 l
187.96976 122.290293 l
195.519277 113.474576 l
195.885835 121.464048 l
196.137574 109.669935 l
stroke
grestore
1.000 setlinewidth
0 setlinecap
gsave
167.4 108.72 40.591 37.544 clipbox
/o {
gsave
newpath
translate
1.0 setlinewidth
1 setlinejoin

0 setlinecap

0 -2.5 m
0.663008 -2.5 1.29895 -2.236584 1.767767 -1.767767 c
2.236584 -1.29895 2.5 -0.663008 2.5 0 c
2.5 0.663008 2.236584 1.29895 1.767767 1.767767 c
1.29895 2.236584 0.663008 2.5 0 2.5 c
-0.663008 2.5 -1.29895 2.236584 -1.767767 1.767767 c
-2.236584 1.29895 -2.5 0.663008 -2.5 0 c
-2.5 -0.663008 -2.236584 -1.29895 -1.767767 -1.767767 c
-1.29895 -2.236584 -0.663008 -2.5 0 -2.5 c
cl

gsave
0.993 0.699 0.186 setrgbcolor
fill
grestore
stroke
grestore
} bind def
86.7022 110.684 o
107.094 124.155 o
107.461 121.968 o
111.972 130.261 o
120.668 130.535 o
152.995 108.21 o
155.511 120.015 o
171.225 118.201 o
175.913 129.015 o
182.748 104.959 o
187.97 122.29 o
195.519 113.475 o
195.886 121.464 o
196.138 109.67 o
grestore
1.500 setlinewidth
2 setlinecap
0.994 0.759 0.159 setrgbcolor
gsave
167.4 108.72 40.591 37.544 clipbox
54.500262 132.815145 m
72.514783 122.100422 l
81.469316 106.003129 l
90.419029 128.275748 l
90.968147 119.579074 l
99.02162 114.059792 l
105.231208 121.768759 l
112.367251 135.286912 l
120.103499 118.250929 l
121.211849 123.646 l
122.254164 124.492187 l
144.116669 132.083105 l
156.843451 121.677492 l
157.413155 133.140359 l
159.386083 114.951294 l
159.821523 128.99445 l
163.16231 120.500984 l
171.208534 131.623786 l
176.065179 123.195081 l
176.584667 119.484924 l
180.846603 124.776519 l
187.617163 132.410246 l
197.257276 122.953381 l
197.755 118.818808 l
198.10066 126.778582 l
stroke
grestore
1.000 setlinewidth
0 setlinecap
gsave
167.4 108.72 40.591 37.544 clipbox
/o {
gsave
newpath
translate
1.0 setlinewidth
1 setlinejoin

0 setlinecap

0 -2.5 m
0.663008 -2.5 1.29895 -2.236584 1.767767 -1.767767 c
2.236584 -1.29895 2.5 -0.663008 2.5 0 c
2.5 0.663008 2.236584 1.29895 1.767767 1.767767 c
1.29895 2.236584 0.663008 2.5 0 2.5 c
-0.663008 2.5 -1.29895 2.236584 -1.767767 1.767767 c
-2.236584 1.29895 -2.5 0.663008 -2.5 0 c
-2.5 -0.663008 -2.236584 -1.29895 -1.767767 -1.767767 c
-1.29895 -2.236584 -0.663008 -2.5 0 -2.5 c
cl

gsave
0.994 0.759 0.159 setrgbcolor
fill
grestore
stroke
grestore
} bind def
54.5003 132.815 o
72.5148 122.1 o
81.4693 106.003 o
90.419 128.276 o
90.9681 119.579 o
99.0216 114.06 o
105.231 121.769 o
112.367 135.287 o
120.103 118.251 o
121.212 123.646 o
122.254 124.492 o
144.117 132.083 o
156.843 121.677 o
157.413 133.14 o
159.386 114.951 o
159.822 128.994 o
163.162 120.501 o
171.209 131.624 o
176.065 123.195 o
176.585 119.485 o
180.847 124.777 o
187.617 132.41 o
197.257 122.953 o
197.755 118.819 o
198.101 126.779 o
grestore
1.500 setlinewidth
2 setlinecap
0.994 0.723 0.174 setrgbcolor
gsave
167.4 108.72 40.591 37.544 clipbox
53.78248 117.302862 m
57.056022 139.410578 l
68.122858 111.909496 l
68.938301 140.163897 l
94.845063 112.839458 l
97.651265 113.678011 l
110.571871 129.800881 l
124.353427 117.298211 l
129.404022 118.570702 l
147.673477 120.733502 l
158.691518 135.461369 l
164.350998 106.422032 l
168.556875 124.462009 l
171.004704 134.288715 l
177.082888 112.403522 l
187.591784 104.557298 l
stroke
grestore
1.000 setlinewidth
0 setlinecap
gsave
167.4 108.72 40.591 37.544 clipbox
/o {
gsave
newpath
translate
1.0 setlinewidth
1 setlinejoin

0 setlinecap

0 -2.5 m
0.663008 -2.5 1.29895 -2.236584 1.767767 -1.767767 c
2.236584 -1.29895 2.5 -0.663008 2.5 0 c
2.5 0.663008 2.236584 1.29895 1.767767 1.767767 c
1.29895 2.236584 0.663008 2.5 0 2.5 c
-0.663008 2.5 -1.29895 2.236584 -1.767767 1.767767 c
-2.236584 1.29895 -2.5 0.663008 -2.5 0 c
-2.5 -0.663008 -2.236584 -1.29895 -1.767767 -1.767767 c
-1.29895 -2.236584 -0.663008 -2.5 0 -2.5 c
cl

gsave
0.994 0.723 0.174 setrgbcolor
fill
grestore
stroke
grestore
} bind def
53.7825 117.303 o
57.056 139.411 o
68.1229 111.909 o
68.9383 140.164 o
94.8451 112.839 o
97.6513 113.678 o
110.572 129.801 o
124.353 117.298 o
129.404 118.571 o
147.673 120.734 o
158.692 135.461 o
164.351 106.422 o
168.557 124.462 o
171.005 134.289 o
177.083 112.404 o
187.592 104.557 o
grestore
1.500 setlinewidth
2 setlinecap
0.994 0.717 0.177 setrgbcolor
gsave
167.4 108.72 40.591 37.544 clipbox
53.983239 117.582552 m
103.7988 112.019016 l
108.733488 123.165589 l
126.31975 128.583349 l
156.617537 121.828645 l
stroke
grestore
1.000 setlinewidth
0 setlinecap
gsave
167.4 108.72 40.591 37.544 clipbox
/o {
gsave
newpath
translate
1.0 setlinewidth
1 setlinejoin

0 setlinecap

0 -2.5 m
0.663008 -2.5 1.29895 -2.236584 1.767767 -1.767767 c
2.236584 -1.29895 2.5 -0.663008 2.5 0 c
2.5 0.663008 2.236584 1.29895 1.767767 1.767767 c
1.29895 2.236584 0.663008 2.5 0 2.5 c
-0.663008 2.5 -1.29895 2.236584 -1.767767 1.767767 c
-2.236584 1.29895 -2.5 0.663008 -2.5 0 c
-2.5 -0.663008 -2.236584 -1.29895 -1.767767 -1.767767 c
-1.29895 -2.236584 -0.663008 -2.5 0 -2.5 c
cl

gsave
0.994 0.717 0.177 setrgbcolor
fill
grestore
stroke
grestore
} bind def
53.9832 117.583 o
103.799 112.019 o
108.733 123.166 o
126.32 128.583 o
156.618 121.829 o
grestore
1.500 setlinewidth
2 setlinecap
0.994 0.759 0.159 setrgbcolor
gsave
167.4 108.72 40.591 37.544 clipbox
58.481038 133.803222 m
69.127439 129.248922 l
76.550258 119.849398 l
82.89602 122.390701 l
98.672288 121.773555 l
118.141954 121.814652 l
120.63232 117.957642 l
136.234542 112.444973 l
146.105182 122.438838 l
151.037705 118.688519 l
153.014758 124.735126 l
155.223557 135.59376 l
158.665754 126.519259 l
173.389142 121.302197 l
183.181587 122.523025 l
192.875717 132.113047 l
stroke
grestore
1.000 setlinewidth
0 setlinecap
gsave
167.4 108.72 40.591 37.544 clipbox
/o {
gsave
newpath
translate
1.0 setlinewidth
1 setlinejoin

0 setlinecap

0 -2.5 m
0.663008 -2.5 1.29895 -2.236584 1.767767 -1.767767 c
2.236584 -1.29895 2.5 -0.663008 2.5 0 c
2.5 0.663008 2.236584 1.29895 1.767767 1.767767 c
1.29895 2.236584 0.663008 2.5 0 2.5 c
-0.663008 2.5 -1.29895 2.236584 -1.767767 1.767767 c
-2.236584 1.29895 -2.5 0.663008 -2.5 0 c
-2.5 -0.663008 -2.236584 -1.29895 -1.767767 -1.767767 c
-1.29895 -2.236584 -0.663008 -2.5 0 -2.5 c
cl

gsave
0.994 0.759 0.159 setrgbcolor
fill
grestore
stroke
grestore
} bind def
58.481 133.803 o
69.1274 129.249 o
76.5503 119.849 o
82.896 122.391 o
98.6723 121.774 o
118.142 121.815 o
120.632 117.958 o
136.235 112.445 o
146.105 122.439 o
151.038 118.689 o
153.015 124.735 o
155.224 135.594 o
158.666 126.519 o
173.389 121.302 o
183.182 122.523 o
192.876 132.113 o
grestore
0.800 setlinewidth
0.000 setgray
gsave
/o {
gsave
newpath
translate
0.8 setlinewidth
1 setlinejoin

0 setlinecap

0 0 m
0 -3.5 l

gsave
0.000 setgray
fill
grestore
stroke
grestore
} bind def
47.1362 37.5437 o
grestore
/DejaVuSans 10.000 selectfont
gsave

43.956513 22.950000 translate
0.000000 rotate
0.000000 0 m /zero glyphshow
grestore
gsave
/o {
gsave
newpath
translate
0.8 setlinewidth
1 setlinejoin

0 setlinecap

0 0 m
0 -3.5 l

gsave
0.000 setgray
fill
grestore
stroke
grestore
} bind def
123.77 37.5437 o
grestore
gsave

120.590318 22.950000 translate
0.000000 rotate
0.000000 0 m /seven glyphshow
grestore
gsave
/o {
gsave
newpath
translate
0.8 setlinewidth
1 setlinejoin

0 setlinecap

0 0 m
0 -3.5 l

gsave
0.000 setgray
fill
grestore
stroke
grestore
} bind def
200.404 37.5437 o
grestore
gsave

194.044434 22.950000 translate
0.000000 rotate
0.000000 0 m /one glyphshow
6.362305 0 m /four glyphshow
grestore
gsave

94.712500 9.278125 translate
0.000000 rotate
0.000000 0 m /T glyphshow
5.858398 0 m /i glyphshow
8.636719 0 m /m glyphshow
18.377930 0 m /e glyphshow
24.530273 0 m /space glyphshow
27.708984 0 m /parenleft glyphshow
31.610352 0 m /d glyphshow
37.958008 0 m /a glyphshow
44.085938 0 m /y glyphshow
50.003906 0 m /s glyphshow
55.213867 0 m /parenright glyphshow
grestore
gsave
/o {
gsave
newpath
translate
0.8 setlinewidth
1 setlinejoin

0 setlinecap

-0 0 m
-3.5 0 l

gsave
0.000 setgray
fill
grestore
stroke
grestore
} bind def
40.5906 42.4856 o
grestore
gsave

27.231250 38.688693 translate
0.000000 rotate
0.000000 0 m /zero glyphshow
grestore
gsave
/o {
gsave
newpath
translate
0.8 setlinewidth
1 setlinejoin

0 setlinecap

-0 0 m
-3.5 0 l

gsave
0.000 setgray
fill
grestore
stroke
grestore
} bind def
40.5906 91.9038 o
grestore
gsave

27.231250 88.106875 translate
0.000000 rotate
0.000000 0 m /five glyphshow
grestore
gsave
/o {
gsave
newpath
translate
0.8 setlinewidth
1 setlinejoin

0 setlinecap

-0 0 m
-3.5 0 l

gsave
0.000 setgray
fill
grestore
stroke
grestore
} bind def
40.5906 141.322 o
grestore
gsave

20.871875 137.525057 translate
0.000000 rotate
0.000000 0 m /one glyphshow
6.362305 0 m /zero glyphshow
grestore
gsave

14.793750 81.513125 translate
90.000000 rotate
0.000000 0 m /P glyphshow
5.530273 0 m /a glyphshow
11.658203 0 m /i glyphshow
14.436523 0 m /n glyphshow
grestore
3.000 setlinewidth
2 setlinecap
gsave
167.4 108.72 40.591 37.544 clipbox
60.097078 52.737143 m
79.917518 49.823302 l
117.904224 54.2624 l
129.803897 61.26039 l
130.22208 64.978194 l
134.093175 55.994649 l
150.590097 51.628521 l
177.714913 49.075536 l
189.492529 81.889845 l
stroke
grestore
1.000 setlinewidth
0 setlinecap
gsave
167.4 108.72 40.591 37.544 clipbox
/o {
gsave
newpath
translate
1.0 setlinewidth
1 setlinejoin

0 setlinecap

0 -4 m
1.060812 -4 2.078319 -3.578535 2.828427 -2.828427 c
3.578535 -2.078319 4 -1.060812 4 0 c
4 1.060812 3.578535 2.078319 2.828427 2.828427 c
2.078319 3.578535 1.060812 4 0 4 c
-1.060812 4 -2.078319 3.578535 -2.828427 2.828427 c
-3.578535 2.078319 -4 1.060812 -4 0 c
-4 -1.060812 -3.578535 -2.078319 -2.828427 -2.828427 c
-2.078319 -3.578535 -1.060812 -4 0 -4 c
cl

gsave
0.000 setgray
fill
grestore
stroke
grestore
} bind def
60.0971 52.7371 o
79.9175 49.8233 o
117.904 54.2624 o
129.804 61.2604 o
130.222 64.9782 o
134.093 55.9946 o
150.59 51.6285 o
177.715 49.0755 o
189.493 81.8898 o
grestore
3.000 setlinewidth
2 setlinecap
gsave
167.4 108.72 40.591 37.544 clipbox
63.850098 105.122875 m
71.6914 96.346034 l
89.618161 106.90066 l
92.876711 86.709875 l
94.156332 97.132487 l
109.63567 74.627221 l
109.71764 106.334958 l
130.570896 86.159863 l
133.772964 80.248948 l
138.325025 87.776566 l
147.888671 85.15739 l
149.8669 87.863187 l
165.008813 93.564086 l
180.90505 71.373826 l
184.14111 76.794282 l
stroke
grestore
1.000 setlinewidth
0 setlinecap
gsave
167.4 108.72 40.591 37.544 clipbox
/o {
gsave
newpath
translate
1.0 setlinewidth
1 setlinejoin

0 setlinecap

0 -4 m
1.060812 -4 2.078319 -3.578535 2.828427 -2.828427 c
3.578535 -2.078319 4 -1.060812 4 0 c
4 1.060812 3.578535 2.078319 2.828427 2.828427 c
2.078319 3.578535 1.060812 4 0 4 c
-1.060812 4 -2.078319 3.578535 -2.828427 2.828427 c
-3.578535 2.078319 -4 1.060812 -4 0 c
-4 -1.060812 -3.578535 -2.078319 -2.828427 -2.828427 c
-2.078319 -3.578535 -1.060812 -4 0 -4 c
cl

gsave
0.000 setgray
fill
grestore
stroke
grestore
} bind def
63.8501 105.123 o
71.6914 96.346 o
89.6182 106.901 o
92.8767 86.7099 o
94.1563 97.1325 o
109.636 74.6272 o
109.718 106.335 o
130.571 86.1599 o
133.773 80.2489 o
138.325 87.7766 o
147.889 85.1574 o
149.867 87.8632 o
165.009 93.5641 o
180.905 71.3738 o
184.141 76.7943 o
grestore
3.000 setlinewidth
2 setlinecap
gsave
167.4 108.72 40.591 37.544 clipbox
49.050224 129.998161 m
53.741174 110.690862 l
79.394793 136.221415 l
80.107317 120.601136 l
116.066848 121.074484 l
122.312021 140.814247 l
127.858471 123.789697 l
162.799649 116.902798 l
167.20313 104.608147 l
179.05064 137.198357 l
180.785408 115.665872 l
183.331384 111.295514 l
191.34328 110.512447 l
stroke
grestore
1.000 setlinewidth
0 setlinecap
gsave
167.4 108.72 40.591 37.544 clipbox
/o {
gsave
newpath
translate
1.0 setlinewidth
1 setlinejoin

0 setlinecap

0 -4 m
1.060812 -4 2.078319 -3.578535 2.828427 -2.828427 c
3.578535 -2.078319 4 -1.060812 4 0 c
4 1.060812 3.578535 2.078319 2.828427 2.828427 c
2.078319 3.578535 1.060812 4 0 4 c
-1.060812 4 -2.078319 3.578535 -2.828427 2.828427 c
-3.578535 2.078319 -4 1.060812 -4 0 c
-4 -1.060812 -3.578535 -2.078319 -2.828427 -2.828427 c
-2.078319 -3.578535 -1.060812 -4 0 -4 c
cl

gsave
0.000 setgray
fill
grestore
stroke
grestore
} bind def
49.0502 129.998 o
53.7412 110.691 o
79.3948 136.221 o
80.1073 120.601 o
116.067 121.074 o
122.312 140.814 o
127.858 123.79 o
162.8 116.903 o
167.203 104.608 o
179.051 137.198 o
180.785 115.666 o
183.331 111.296 o
191.343 110.512 o
grestore
0.800 setlinewidth
0 setlinejoin
2 setlinecap
gsave
40.590625 37.54375 m
40.590625 146.26375 l
stroke
grestore
gsave
207.990625 37.54375 m
207.990625 146.26375 l
stroke
grestore
gsave
40.590625 37.54375 m
207.990625 37.54375 l
stroke
grestore
gsave
40.590625 146.26375 m
207.990625 146.26375 l
stroke
grestore

end
showpage
