%!PS-Adobe-3.0 EPSF-3.0
%%Title: ExampleTransforms.eps
%%Creator: Matplotlib v3.4.2, https://matplotlib.org/
%%CreationDate: Mon Nov 22 10:21:57 2021
%%Orientation: portrait
%%BoundingBox: 100.69440052700922 313.4284375 511.30559947299076 478.57156249999997
%%EndComments
%%BeginProlog
/mpldict 8 dict def
mpldict begin
/m { moveto } bind def
/l { lineto } bind def
/r { rlineto } bind def
/c { curveto } bind def
/cl { closepath } bind def
/box {
m
1 index 0 r
0 exch r
neg 0 r
cl
} bind def
/clipbox {
box
clip
newpath
} bind def
%!PS-Adobe-3.0 Resource-Font
%%Title: DejaVu Sans
%%Copyright: Copyright (c) 2003 by Bitstream, Inc. All Rights Reserved. Copyright (c) 2006 by Tavmjong Bah. All Rights Reserved. DejaVu changes are in public domain 
%%Creator: Converted from TrueType to type 3 by PPR
25 dict begin
/_d{bind def}bind def
/_m{moveto}_d
/_l{lineto}_d
/_cl{closepath eofill}_d
/_c{curveto}_d
/_sc{7 -1 roll{setcachedevice}{pop pop pop pop pop pop}ifelse}_d
/_e{exec}_d
/FontName /DejaVuSans def
/PaintType 0 def
/FontMatrix[.001 0 0 .001 0 0]def
/FontBBox[-1021 -463 1793 1232]def
/FontType 3 def
/Encoding [ /space /comma /hyphen /period /zero /one /two /four /five /six /seven /B /H /K /L /M /N /P /S /T /a /b /c /d /e /f /g /h /i /k /l /m /n /o /p /r /s /t /u /v /w /y ] def
/FontInfo 10 dict dup begin
/FamilyName (DejaVu Sans) def
/FullName (DejaVu Sans) def
/Notice (Copyright (c) 2003 by Bitstream, Inc. All Rights Reserved. Copyright (c) 2006 by Tavmjong Bah. All Rights Reserved. DejaVu changes are in public domain ) def
/Weight (Book) def
/Version (Version 2.35) def
/ItalicAngle 0.0 def
/isFixedPitch false def
/UnderlinePosition -130 def
/UnderlineThickness 90 def
end readonly def
/CharStrings 43 dict dup begin
/.notdef 0 def
/space{318 0 0 0 0 0 _sc
}_d
/comma{318 0 77 -115 220 124 _sc
117 124 _m
220 124 _l
220 40 _l
140 -115 _l
77 -115 _l
117 40 _l
117 124 _l
_cl}_d
/hyphen{361 0 49 234 312 314 _sc
49 314 _m
312 314 _l
312 234 _l
49 234 _l
49 314 _l
_cl}_d
/period{318 0 107 0 210 124 _sc
107 124 _m
210 124 _l
210 0 _l
107 0 _l
107 124 _l
_cl}_d
/zero{636 0 66 -13 570 742 _sc
318 664 _m
267 664 229 639 203 589 _c
177 539 165 464 165 364 _c
165 264 177 189 203 139 _c
229 89 267 64 318 64 _c
369 64 407 89 433 139 _c
458 189 471 264 471 364 _c
471 464 458 539 433 589 _c
407 639 369 664 318 664 _c
318 742 _m
399 742 461 709 505 645 _c
548 580 570 486 570 364 _c
570 241 548 147 505 83 _c
461 19 399 -13 318 -13 _c
236 -13 173 19 130 83 _c
87 147 66 241 66 364 _c
66 486 87 580 130 645 _c
173 709 236 742 318 742 _c
_cl}_d
/one{636 0 110 0 544 729 _sc
124 83 _m
285 83 _l
285 639 _l
110 604 _l
110 694 _l
284 729 _l
383 729 _l
383 83 _l
544 83 _l
544 0 _l
124 0 _l
124 83 _l
_cl}_d
/two{{636 0 73 0 536 742 _sc
192 83 _m
536 83 _l
536 0 _l
73 0 _l
73 83 _l
110 121 161 173 226 239 _c
290 304 331 346 348 365 _c
380 400 402 430 414 455 _c
426 479 433 504 433 528 _c
433 566 419 598 392 622 _c
365 646 330 659 286 659 _c
255 659 222 653 188 643 _c
154 632 117 616 78 594 _c
78 694 _l
118 710 155 722 189 730 _c
223 738 255 742 284 742 _c
}_e{359 742 419 723 464 685 _c
509 647 532 597 532 534 _c
532 504 526 475 515 449 _c
504 422 484 390 454 354 _c
446 344 420 317 376 272 _c
332 227 271 164 192 83 _c
_cl}_e}_d
/four{636 0 49 0 580 729 _sc
378 643 _m
129 254 _l
378 254 _l
378 643 _l
352 729 _m
476 729 _l
476 254 _l
580 254 _l
580 172 _l
476 172 _l
476 0 _l
378 0 _l
378 172 _l
49 172 _l
49 267 _l
352 729 _l
_cl}_d
/five{{636 0 77 -13 549 729 _sc
108 729 _m
495 729 _l
495 646 _l
198 646 _l
198 467 _l
212 472 227 476 241 478 _c
255 480 270 482 284 482 _c
365 482 429 459 477 415 _c
525 370 549 310 549 234 _c
549 155 524 94 475 51 _c
426 8 357 -13 269 -13 _c
238 -13 207 -10 175 -6 _c
143 -1 111 6 77 17 _c
77 116 _l
106 100 136 88 168 80 _c
199 72 232 69 267 69 _c
}_e{323 69 368 83 401 113 _c
433 143 450 183 450 234 _c
450 284 433 324 401 354 _c
368 384 323 399 267 399 _c
241 399 214 396 188 390 _c
162 384 135 375 108 363 _c
108 729 _l
_cl}_e}_d
/six{{636 0 70 -13 573 742 _sc
330 404 _m
286 404 251 388 225 358 _c
199 328 186 286 186 234 _c
186 181 199 139 225 109 _c
251 79 286 64 330 64 _c
374 64 409 79 435 109 _c
461 139 474 181 474 234 _c
474 286 461 328 435 358 _c
409 388 374 404 330 404 _c
526 713 _m
526 623 _l
501 635 476 644 451 650 _c
425 656 400 659 376 659 _c
310 659 260 637 226 593 _c
}_e{192 549 172 482 168 394 _c
187 422 211 444 240 459 _c
269 474 301 482 336 482 _c
409 482 467 459 509 415 _c
551 371 573 310 573 234 _c
573 159 550 99 506 54 _c
462 9 403 -13 330 -13 _c
246 -13 181 19 137 83 _c
92 147 70 241 70 364 _c
70 479 97 571 152 639 _c
206 707 280 742 372 742 _c
396 742 421 739 447 735 _c
472 730 498 723 526 713 _c
_cl}_e}_d
/seven{636 0 82 0 551 729 _sc
82 729 _m
551 729 _l
551 687 _l
286 0 _l
183 0 _l
432 646 _l
82 646 _l
82 729 _l
_cl}_d
/B{{686 0 98 0 615 729 _sc
197 348 _m
197 81 _l
355 81 _l
408 81 447 92 473 114 _c
498 136 511 169 511 215 _c
511 260 498 293 473 315 _c
447 337 408 348 355 348 _c
197 348 _l
197 648 _m
197 428 _l
343 428 _l
391 428 426 437 450 455 _c
474 473 486 500 486 538 _c
486 574 474 602 450 620 _c
426 638 391 648 343 648 _c
197 648 _l
98 729 _m
350 729 _l
}_e{425 729 483 713 524 682 _c
564 650 585 606 585 549 _c
585 504 574 468 553 442 _c
532 416 502 399 462 393 _c
510 382 548 360 575 327 _c
601 294 615 253 615 204 _c
615 138 592 88 548 53 _c
504 17 441 0 360 0 _c
98 0 _l
98 729 _l
_cl}_e}_d
/H{752 0 98 0 654 729 _sc
98 729 _m
197 729 _l
197 430 _l
555 430 _l
555 729 _l
654 729 _l
654 0 _l
555 0 _l
555 347 _l
197 347 _l
197 0 _l
98 0 _l
98 729 _l
_cl}_d
/K{656 0 98 0 677 729 _sc
98 729 _m
197 729 _l
197 421 _l
524 729 _l
651 729 _l
289 389 _l
677 0 _l
547 0 _l
197 351 _l
197 0 _l
98 0 _l
98 729 _l
_cl}_d
/L{557 0 98 0 552 729 _sc
98 729 _m
197 729 _l
197 83 _l
552 83 _l
552 0 _l
98 0 _l
98 729 _l
_cl}_d
/M{863 0 98 0 765 729 _sc
98 729 _m
245 729 _l
431 233 _l
618 729 _l
765 729 _l
765 0 _l
669 0 _l
669 640 _l
481 140 _l
382 140 _l
194 640 _l
194 0 _l
98 0 _l
98 729 _l
_cl}_d
/N{748 0 98 0 650 729 _sc
98 729 _m
231 729 _l
554 119 _l
554 729 _l
650 729 _l
650 0 _l
517 0 _l
194 610 _l
194 0 _l
98 0 _l
98 729 _l
_cl}_d
/P{603 0 98 0 569 729 _sc
197 648 _m
197 374 _l
321 374 _l
367 374 402 385 427 409 _c
452 433 465 467 465 511 _c
465 555 452 588 427 612 _c
402 636 367 648 321 648 _c
197 648 _l
98 729 _m
321 729 _l
402 729 464 710 506 673 _c
548 636 569 582 569 511 _c
569 439 548 384 506 348 _c
464 311 402 293 321 293 _c
197 293 _l
197 0 _l
98 0 _l
98 729 _l
_cl}_d
/S{{635 0 66 -13 579 742 _sc
535 705 _m
535 609 _l
497 627 462 640 429 649 _c
395 657 363 662 333 662 _c
279 662 237 651 208 631 _c
179 610 165 580 165 542 _c
165 510 174 485 194 469 _c
213 452 250 439 304 429 _c
364 417 _l
437 403 491 378 526 343 _c
561 307 579 260 579 201 _c
579 130 555 77 508 41 _c
460 5 391 -13 300 -13 _c
265 -13 228 -9 189 -2 _c
}_e{150 5 110 16 69 32 _c
69 134 _l
109 111 148 94 186 83 _c
224 71 262 66 300 66 _c
356 66 399 77 430 99 _c
460 121 476 152 476 194 _c
476 230 465 258 443 278 _c
421 298 385 313 335 323 _c
275 335 _l
201 349 148 372 115 404 _c
82 435 66 478 66 534 _c
66 598 88 649 134 686 _c
179 723 242 742 322 742 _c
356 742 390 739 426 733 _c
461 727 497 717 535 705 _c
}_e{_cl}_e}_d
/T{611 0 -2 0 614 729 _sc
-2 729 _m
614 729 _l
614 646 _l
355 646 _l
355 0 _l
256 0 _l
256 646 _l
-2 646 _l
-2 729 _l
_cl}_d
/a{{613 0 60 -13 522 560 _sc
343 275 _m
270 275 220 266 192 250 _c
164 233 150 205 150 165 _c
150 133 160 107 181 89 _c
202 70 231 61 267 61 _c
317 61 357 78 387 114 _c
417 149 432 196 432 255 _c
432 275 _l
343 275 _l
522 312 _m
522 0 _l
432 0 _l
432 83 _l
411 49 385 25 355 10 _c
325 -5 287 -13 243 -13 _c
187 -13 142 2 109 33 _c
76 64 60 106 60 159 _c
}_e{60 220 80 266 122 298 _c
163 329 224 345 306 345 _c
432 345 _l
432 354 _l
432 395 418 427 391 450 _c
364 472 326 484 277 484 _c
245 484 215 480 185 472 _c
155 464 127 453 100 439 _c
100 522 _l
132 534 164 544 195 550 _c
226 556 256 560 286 560 _c
365 560 424 539 463 498 _c
502 457 522 395 522 312 _c
_cl}_e}_d
/b{{635 0 91 -13 580 760 _sc
487 273 _m
487 339 473 390 446 428 _c
418 466 381 485 334 485 _c
286 485 249 466 222 428 _c
194 390 181 339 181 273 _c
181 207 194 155 222 117 _c
249 79 286 61 334 61 _c
381 61 418 79 446 117 _c
473 155 487 207 487 273 _c
181 464 _m
199 496 223 520 252 536 _c
281 552 316 560 356 560 _c
422 560 476 533 518 481 _c
559 428 580 359 580 273 _c
}_e{580 187 559 117 518 65 _c
476 13 422 -13 356 -13 _c
316 -13 281 -5 252 10 _c
223 25 199 49 181 82 _c
181 0 _l
91 0 _l
91 760 _l
181 760 _l
181 464 _l
_cl}_e}_d
/c{{550 0 55 -13 488 560 _sc
488 526 _m
488 442 _l
462 456 437 466 411 473 _c
385 480 360 484 334 484 _c
276 484 230 465 198 428 _c
166 391 150 339 150 273 _c
150 206 166 154 198 117 _c
230 80 276 62 334 62 _c
360 62 385 65 411 72 _c
437 79 462 90 488 104 _c
488 21 _l
462 9 436 0 410 -5 _c
383 -10 354 -13 324 -13 _c
242 -13 176 12 128 64 _c
}_e{79 115 55 185 55 273 _c
55 362 79 432 128 483 _c
177 534 244 560 330 560 _c
358 560 385 557 411 551 _c
437 545 463 537 488 526 _c
_cl}_e}_d
/d{{635 0 55 -13 544 760 _sc
454 464 _m
454 760 _l
544 760 _l
544 0 _l
454 0 _l
454 82 _l
435 49 411 25 382 10 _c
353 -5 319 -13 279 -13 _c
213 -13 159 13 117 65 _c
75 117 55 187 55 273 _c
55 359 75 428 117 481 _c
159 533 213 560 279 560 _c
319 560 353 552 382 536 _c
411 520 435 496 454 464 _c
148 273 _m
148 207 161 155 188 117 _c
215 79 253 61 301 61 _c
}_e{348 61 385 79 413 117 _c
440 155 454 207 454 273 _c
454 339 440 390 413 428 _c
385 466 348 485 301 485 _c
253 485 215 466 188 428 _c
161 390 148 339 148 273 _c
_cl}_e}_d
/e{{615 0 55 -13 562 560 _sc
562 296 _m
562 252 _l
149 252 _l
153 190 171 142 205 110 _c
238 78 284 62 344 62 _c
378 62 412 66 444 74 _c
476 82 509 95 541 113 _c
541 28 _l
509 14 476 3 442 -3 _c
408 -9 373 -13 339 -13 _c
251 -13 182 12 131 62 _c
80 112 55 181 55 268 _c
55 357 79 428 127 481 _c
175 533 241 560 323 560 _c
397 560 455 536 498 489 _c
}_e{540 441 562 377 562 296 _c
472 322 _m
471 371 457 410 431 440 _c
404 469 368 484 324 484 _c
274 484 234 469 204 441 _c
174 413 156 373 152 322 _c
472 322 _l
_cl}_e}_d
/f{352 0 23 0 371 760 _sc
371 760 _m
371 685 _l
285 685 _l
253 685 230 678 218 665 _c
205 652 199 629 199 595 _c
199 547 _l
347 547 _l
347 477 _l
199 477 _l
199 0 _l
109 0 _l
109 477 _l
23 477 _l
23 547 _l
109 547 _l
109 585 _l
109 645 123 690 151 718 _c
179 746 224 760 286 760 _c
371 760 _l
_cl}_d
/g{{635 0 55 -207 544 560 _sc
454 280 _m
454 344 440 395 414 431 _c
387 467 349 485 301 485 _c
253 485 215 467 188 431 _c
161 395 148 344 148 280 _c
148 215 161 165 188 129 _c
215 93 253 75 301 75 _c
349 75 387 93 414 129 _c
440 165 454 215 454 280 _c
544 68 _m
544 -24 523 -93 482 -139 _c
440 -184 377 -207 292 -207 _c
260 -207 231 -204 203 -200 _c
175 -195 147 -188 121 -178 _c
}_e{121 -91 _l
147 -105 173 -115 199 -122 _c
225 -129 251 -133 278 -133 _c
336 -133 380 -117 410 -87 _c
439 -56 454 -10 454 52 _c
454 96 _l
435 64 411 40 382 24 _c
353 8 319 0 279 0 _c
211 0 157 25 116 76 _c
75 127 55 195 55 280 _c
55 364 75 432 116 483 _c
157 534 211 560 279 560 _c
319 560 353 552 382 536 _c
411 520 435 496 454 464 _c
454 547 _l
544 547 _l
}_e{544 68 _l
_cl}_e}_d
/h{634 0 91 0 549 760 _sc
549 330 _m
549 0 _l
459 0 _l
459 327 _l
459 379 448 417 428 443 _c
408 469 378 482 338 482 _c
289 482 251 466 223 435 _c
195 404 181 362 181 309 _c
181 0 _l
91 0 _l
91 760 _l
181 760 _l
181 462 _l
202 494 227 519 257 535 _c
286 551 320 560 358 560 _c
420 560 468 540 500 501 _c
532 462 549 405 549 330 _c
_cl}_d
/i{278 0 94 0 184 760 _sc
94 547 _m
184 547 _l
184 0 _l
94 0 _l
94 547 _l
94 760 _m
184 760 _l
184 646 _l
94 646 _l
94 760 _l
_cl}_d
/k{579 0 91 0 576 760 _sc
91 760 _m
181 760 _l
181 311 _l
449 547 _l
564 547 _l
274 291 _l
576 0 _l
459 0 _l
181 267 _l
181 0 _l
91 0 _l
91 760 _l
_cl}_d
/l{278 0 94 0 184 760 _sc
94 760 _m
184 760 _l
184 0 _l
94 0 _l
94 760 _l
_cl}_d
/m{{974 0 91 0 889 560 _sc
520 442 _m
542 482 569 511 600 531 _c
631 550 668 560 711 560 _c
767 560 811 540 842 500 _c
873 460 889 403 889 330 _c
889 0 _l
799 0 _l
799 327 _l
799 379 789 418 771 444 _c
752 469 724 482 686 482 _c
639 482 602 466 575 435 _c
548 404 535 362 535 309 _c
535 0 _l
445 0 _l
445 327 _l
445 379 435 418 417 444 _c
398 469 369 482 331 482 _c
}_e{285 482 248 466 221 435 _c
194 404 181 362 181 309 _c
181 0 _l
91 0 _l
91 547 _l
181 547 _l
181 462 _l
201 495 226 520 255 536 _c
283 552 317 560 357 560 _c
397 560 430 550 458 530 _c
486 510 506 480 520 442 _c
_cl}_e}_d
/n{634 0 91 0 549 560 _sc
549 330 _m
549 0 _l
459 0 _l
459 327 _l
459 379 448 417 428 443 _c
408 469 378 482 338 482 _c
289 482 251 466 223 435 _c
195 404 181 362 181 309 _c
181 0 _l
91 0 _l
91 547 _l
181 547 _l
181 462 _l
202 494 227 519 257 535 _c
286 551 320 560 358 560 _c
420 560 468 540 500 501 _c
532 462 549 405 549 330 _c
_cl}_d
/o{612 0 55 -13 557 560 _sc
306 484 _m
258 484 220 465 192 427 _c
164 389 150 338 150 273 _c
150 207 163 156 191 118 _c
219 80 257 62 306 62 _c
354 62 392 80 420 118 _c
448 156 462 207 462 273 _c
462 337 448 389 420 427 _c
392 465 354 484 306 484 _c
306 560 _m
384 560 445 534 490 484 _c
534 433 557 363 557 273 _c
557 183 534 113 490 63 _c
445 12 384 -13 306 -13 _c
227 -13 165 12 121 63 _c
77 113 55 183 55 273 _c
55 363 77 433 121 484 _c
165 534 227 560 306 560 _c
_cl}_d
/p{{635 0 91 -207 580 560 _sc
181 82 _m
181 -207 _l
91 -207 _l
91 547 _l
181 547 _l
181 464 _l
199 496 223 520 252 536 _c
281 552 316 560 356 560 _c
422 560 476 533 518 481 _c
559 428 580 359 580 273 _c
580 187 559 117 518 65 _c
476 13 422 -13 356 -13 _c
316 -13 281 -5 252 10 _c
223 25 199 49 181 82 _c
487 273 _m
487 339 473 390 446 428 _c
418 466 381 485 334 485 _c
}_e{286 485 249 466 222 428 _c
194 390 181 339 181 273 _c
181 207 194 155 222 117 _c
249 79 286 61 334 61 _c
381 61 418 79 446 117 _c
473 155 487 207 487 273 _c
_cl}_e}_d
/r{411 0 91 0 411 560 _sc
411 463 _m
401 469 390 473 378 476 _c
366 478 353 480 339 480 _c
288 480 249 463 222 430 _c
194 397 181 350 181 288 _c
181 0 _l
91 0 _l
91 547 _l
181 547 _l
181 462 _l
199 495 224 520 254 536 _c
284 552 321 560 365 560 _c
371 560 378 559 386 559 _c
393 558 401 557 411 555 _c
411 463 _l
_cl}_d
/s{{521 0 54 -13 472 560 _sc
443 531 _m
443 446 _l
417 458 391 468 364 475 _c
336 481 308 485 279 485 _c
234 485 200 478 178 464 _c
156 450 145 430 145 403 _c
145 382 153 366 169 354 _c
185 342 217 330 265 320 _c
296 313 _l
360 299 405 279 432 255 _c
458 230 472 195 472 151 _c
472 100 452 60 412 31 _c
372 1 316 -13 246 -13 _c
216 -13 186 -10 154 -5 _c
}_e{122 0 89 8 54 20 _c
54 113 _l
87 95 120 82 152 74 _c
184 65 216 61 248 61 _c
290 61 323 68 346 82 _c
368 96 380 117 380 144 _c
380 168 371 187 355 200 _c
339 213 303 226 247 238 _c
216 245 _l
160 257 119 275 95 299 _c
70 323 58 356 58 399 _c
58 450 76 490 112 518 _c
148 546 200 560 268 560 _c
301 560 332 557 362 552 _c
391 547 418 540 443 531 _c
}_e{_cl}_e}_d
/t{392 0 27 0 368 702 _sc
183 702 _m
183 547 _l
368 547 _l
368 477 _l
183 477 _l
183 180 _l
183 135 189 106 201 94 _c
213 81 238 75 276 75 _c
368 75 _l
368 0 _l
276 0 _l
206 0 158 13 132 39 _c
106 65 93 112 93 180 _c
93 477 _l
27 477 _l
27 547 _l
93 547 _l
93 702 _l
183 702 _l
_cl}_d
/u{634 0 85 -13 543 560 _sc
85 216 _m
85 547 _l
175 547 _l
175 219 _l
175 167 185 129 205 103 _c
225 77 255 64 296 64 _c
344 64 383 79 411 110 _c
439 141 453 183 453 237 _c
453 547 _l
543 547 _l
543 0 _l
453 0 _l
453 84 _l
431 50 405 26 377 10 _c
348 -5 315 -13 277 -13 _c
214 -13 166 6 134 45 _c
101 83 85 140 85 216 _c
311 560 _m
311 560 _l
_cl}_d
/v{592 0 30 0 562 547 _sc
30 547 _m
125 547 _l
296 88 _l
467 547 _l
562 547 _l
357 0 _l
235 0 _l
30 547 _l
_cl}_d
/w{818 0 42 0 776 547 _sc
42 547 _m
132 547 _l
244 120 _l
356 547 _l
462 547 _l
574 120 _l
686 547 _l
776 547 _l
633 0 _l
527 0 _l
409 448 _l
291 0 _l
185 0 _l
42 547 _l
_cl}_d
/y{592 0 30 -207 562 547 _sc
322 -50 _m
296 -114 271 -157 247 -177 _c
223 -197 191 -207 151 -207 _c
79 -207 _l
79 -132 _l
132 -132 _l
156 -132 175 -126 189 -114 _c
203 -102 218 -75 235 -31 _c
251 9 _l
30 547 _l
125 547 _l
296 119 _l
467 547 _l
562 547 _l
322 -50 _l
_cl}_d
end readonly def

/BuildGlyph
 {exch begin
 CharStrings exch
 2 copy known not{pop /.notdef}if
 true 3 1 roll get exec
 end}_d

/BuildChar {
 1 index /Encoding get exch get
 1 index /BuildGlyph get exec
}_d

FontName currentdict end definefont pop
end
%%EndProlog
mpldict begin
100.694 313.428 translate
410.611 165.143 0 0 clipbox
gsave
0 0 m
410.611199 0 l
410.611199 165.143125 l
0 165.143125 l
cl
grestore
gsave
40.590625 62.809375 m
119.438451 62.809375 l
119.438451 144.349375 l
40.590625 144.349375 l
cl
grestore
0.800 setlinewidth
1 setlinejoin
0 setlinecap
[] 0 setdash
0.000 setgray
gsave
/o {
gsave
newpath
translate
0.8 setlinewidth
1 setlinejoin
0 setlinecap
0 0 m
0 -3.5 l

gsave
0.000 setgray
fill
grestore
stroke
grestore
} bind def
44.1746 62.8094 o
grestore
/DejaVuSans findfont
10.000 scalefont
setfont
gsave
40.994930 48.215625 translate
0.000000 rotate
0.000000 0.000000 m /zero glyphshow
grestore
gsave
/o {
gsave
newpath
translate
0.8 setlinewidth
1 setlinejoin
0 setlinecap
0 0 m
0 -3.5 l

gsave
0.000 setgray
fill
grestore
stroke
grestore
} bind def
80.0145 62.8094 o
grestore
gsave
76.834851 48.215625 translate
0.000000 rotate
0.000000 0.000000 m /seven glyphshow
grestore
gsave
/o {
gsave
newpath
translate
0.8 setlinewidth
1 setlinejoin
0 setlinecap
0 0 m
0 -3.5 l

gsave
0.000 setgray
fill
grestore
stroke
grestore
} bind def
115.854 62.8094 o
grestore
gsave
109.495084 48.215625 translate
0.000000 rotate
0.000000 0.000000 m /one glyphshow
6.362305 0.000000 m /four glyphshow
grestore
gsave
52.623913 34.543750 translate
0.000000 rotate
0.000000 0.000000 m /T glyphshow
6.108398 0.000000 m /i glyphshow
8.886719 0.000000 m /m glyphshow
18.627930 0.000000 m /e glyphshow
24.780273 0.000000 m /comma glyphshow
27.958984 0.000000 m /space glyphshow
31.137695 0.000000 m /d glyphshow
37.485352 0.000000 m /a glyphshow
43.613281 0.000000 m /y glyphshow
49.531250 0.000000 m /s glyphshow
grestore
gsave
/o {
gsave
newpath
translate
0.8 setlinewidth
1 setlinejoin
0 setlinecap
0 0 m
-3.5 0 l

gsave
0.000 setgray
fill
grestore
stroke
grestore
} bind def
40.5906 62.8094 o
grestore
gsave
27.231250 59.012500 translate
0.000000 rotate
0.000000 0.000000 m /zero glyphshow
grestore
gsave
/o {
gsave
newpath
translate
0.8 setlinewidth
1 setlinejoin
0 setlinecap
0 0 m
-3.5 0 l

gsave
0.000 setgray
fill
grestore
stroke
grestore
} bind def
40.5906 103.579 o
grestore
gsave
27.231250 99.782500 translate
0.000000 rotate
0.000000 0.000000 m /five glyphshow
grestore
gsave
/o {
gsave
newpath
translate
0.8 setlinewidth
1 setlinejoin
0 setlinecap
0 0 m
-3.5 0 l

gsave
0.000 setgray
fill
grestore
stroke
grestore
} bind def
40.5906 144.349 o
grestore
gsave
20.871875 140.552500 translate
0.000000 rotate
0.000000 0.000000 m /one glyphshow
6.362305 0.000000 m /zero glyphshow
grestore
gsave
14.793750 77.790312 translate
90.000000 rotate
0.000000 0.000000 m /P glyphshow
6.030273 0.000000 m /a glyphshow
12.158203 0.000000 m /i glyphshow
14.936523 0.000000 m /n glyphshow
21.274414 0.000000 m /space glyphshow
24.453125 0.000000 m /s glyphshow
29.663086 0.000000 m /c glyphshow
35.161133 0.000000 m /o glyphshow
41.279297 0.000000 m /r glyphshow
45.390625 0.000000 m /e glyphshow
grestore
3.000 setlinewidth
2 setlinecap
0.122 0.467 0.706 setrgbcolor
gsave
78.85 81.54 40.59 62.81 clipbox
44.174617 137.010775 m
69.599062 137.010775 l
69.812713 106.840975 l
92.459697 106.840975 l
92.673348 121.518175 l
104.744618 121.518175 l
104.958268 106.840975 l
115.854459 106.840975 l
115.854459 106.840975 l
stroke
grestore
0.800 setlinewidth
0 setlinejoin
[] 0 setdash
0.000 setgray
gsave
40.590625 62.809375 m
40.590625 144.349375 l
stroke
grestore
gsave
119.438451 62.809375 m
119.438451 144.349375 l
stroke
grestore
gsave
40.590625 62.809375 m
119.438451 62.809375 l
stroke
grestore
gsave
40.590625 144.349375 m
119.438451 144.349375 l
stroke
grestore
gsave
36.350476 150.349375 translate
0.000000 rotate
0.000000 0.000000 m /N glyphshow
7.480469 0.000000 m /e glyphshow
13.632812 0.000000 m /a glyphshow
19.760742 0.000000 m /r glyphshow
23.872070 0.000000 m /e glyphshow
30.024414 0.000000 m /s glyphshow
35.234375 0.000000 m /t glyphshow
39.155273 0.000000 m /hyphen glyphshow
42.763672 0.000000 m /n glyphshow
49.101562 0.000000 m /e glyphshow
55.253906 0.000000 m /i glyphshow
58.032227 0.000000 m /g glyphshow
64.379883 0.000000 m /h glyphshow
70.717773 0.000000 m /b glyphshow
77.065430 0.000000 m /o glyphshow
83.183594 0.000000 m /r glyphshow
grestore
1.000 setlinewidth
1 setlinejoin
0 setlinecap
[] 0 setdash
gsave
78.85 81.54 40.59 62.81 clipbox
/o {
gsave
newpath
translate
1.0 setlinewidth
1 setlinejoin
0 setlinecap
0 -3 m
0.795609 -3 1.55874 -2.683901 2.12132 -2.12132 c
2.683901 -1.55874 3 -0.795609 3 0 c
3 0.795609 2.683901 1.55874 2.12132 2.12132 c
1.55874 2.683901 0.795609 3 0 3 c
-0.795609 3 -1.55874 2.683901 -2.12132 2.12132 c
-2.683901 1.55874 -3 0.795609 -3 0 c
-3 -0.795609 -2.683901 -1.55874 -2.12132 -2.12132 c
-1.55874 -2.683901 -0.795609 -3 0 -3 c
cl

gsave
1.000 0.498 0.055 setrgbcolor
fill
grestore
stroke
grestore
} bind def
56.4341 137.011 o
82.8839 106.841 o
102.247 121.518 o
107.435 106.841 o
grestore
gsave
135.208016 62.809375 m
214.055842 62.809375 l
214.055842 144.349375 l
135.208016 144.349375 l
cl
grestore
0.800 setlinewidth
gsave
/o {
gsave
newpath
translate
0.8 setlinewidth
1 setlinejoin
0 setlinecap
0 0 m
0 -3.5 l

gsave
0.000 setgray
fill
grestore
stroke
grestore
} bind def
138.792 62.8094 o
grestore
gsave
135.612321 48.215625 translate
0.000000 rotate
0.000000 0.000000 m /zero glyphshow
grestore
gsave
/o {
gsave
newpath
translate
0.8 setlinewidth
1 setlinejoin
0 setlinecap
0 0 m
0 -3.5 l

gsave
0.000 setgray
fill
grestore
stroke
grestore
} bind def
174.632 62.8094 o
grestore
gsave
171.452242 48.215625 translate
0.000000 rotate
0.000000 0.000000 m /seven glyphshow
grestore
gsave
/o {
gsave
newpath
translate
0.8 setlinewidth
1 setlinejoin
0 setlinecap
0 0 m
0 -3.5 l

gsave
0.000 setgray
fill
grestore
stroke
grestore
} bind def
210.472 62.8094 o
grestore
gsave
204.112475 48.215625 translate
0.000000 rotate
0.000000 0.000000 m /one glyphshow
6.362305 0.000000 m /four glyphshow
grestore
gsave
147.241304 34.543750 translate
0.000000 rotate
0.000000 0.000000 m /T glyphshow
6.108398 0.000000 m /i glyphshow
8.886719 0.000000 m /m glyphshow
18.627930 0.000000 m /e glyphshow
24.780273 0.000000 m /comma glyphshow
27.958984 0.000000 m /space glyphshow
31.137695 0.000000 m /d glyphshow
37.485352 0.000000 m /a glyphshow
43.613281 0.000000 m /y glyphshow
49.531250 0.000000 m /s glyphshow
grestore
gsave
/o {
gsave
newpath
translate
0.8 setlinewidth
1 setlinejoin
0 setlinecap
0 0 m
-3.5 0 l

gsave
0.000 setgray
fill
grestore
stroke
grestore
} bind def
135.208 62.8094 o
grestore
gsave
/o {
gsave
newpath
translate
0.8 setlinewidth
1 setlinejoin
0 setlinecap
0 0 m
-3.5 0 l

gsave
0.000 setgray
fill
grestore
stroke
grestore
} bind def
135.208 103.579 o
grestore
gsave
/o {
gsave
newpath
translate
0.8 setlinewidth
1 setlinejoin
0 setlinecap
0 0 m
-3.5 0 l

gsave
0.000 setgray
fill
grestore
stroke
grestore
} bind def
135.208 144.349 o
grestore
3.000 setlinewidth
2 setlinecap
0.122 0.467 0.706 setrgbcolor
gsave
78.85 81.54 135.2 62.81 clipbox
138.792008 137.010775 m
151.076929 136.981811 l
177.569628 106.892799 l
196.798199 121.467716 l
196.905025 121.404279 l
202.139469 106.840975 l
210.47185 106.840975 l
210.47185 106.840975 l
stroke
grestore
0.800 setlinewidth
0 setlinejoin
[] 0 setdash
0.000 setgray
gsave
135.208016 62.809375 m
135.208016 144.349375 l
stroke
grestore
gsave
214.055842 62.809375 m
214.055842 144.349375 l
stroke
grestore
gsave
135.208016 62.809375 m
214.055842 62.809375 l
stroke
grestore
gsave
135.208016 144.349375 m
214.055842 144.349375 l
stroke
grestore
gsave
159.085054 150.349375 translate
0.000000 rotate
0.000000 0.000000 m /L glyphshow
5.571289 0.000000 m /i glyphshow
8.349609 0.000000 m /n glyphshow
14.687500 0.000000 m /e glyphshow
20.839844 0.000000 m /a glyphshow
26.967773 0.000000 m /r glyphshow
grestore
1.000 setlinewidth
1 setlinejoin
0 setlinecap
[] 0 setdash
gsave
78.85 81.54 135.2 62.81 clipbox
/o {
gsave
newpath
translate
1.0 setlinewidth
1 setlinejoin
0 setlinecap
0 -3 m
0.795609 -3 1.55874 -2.683901 2.12132 -2.12132 c
2.683901 -1.55874 3 -0.795609 3 0 c
3 0.795609 2.683901 1.55874 2.12132 2.12132 c
1.55874 2.683901 0.795609 3 0 3 c
-0.795609 3 -1.55874 2.683901 -2.12132 2.12132 c
-2.683901 1.55874 -3 0.795609 -3 0 c
-3 -0.795609 -2.683901 -1.55874 -2.12132 -2.12132 c
-1.55874 -2.683901 -0.795609 -3 0 -3 c
cl

gsave
1.000 0.498 0.055 setrgbcolor
fill
grestore
stroke
grestore
} bind def
151.052 137.011 o
177.501 106.841 o
196.865 121.518 o
202.052 106.841 o
grestore
gsave
229.825408 62.809375 m
308.673234 62.809375 l
308.673234 144.349375 l
229.825408 144.349375 l
cl
grestore
0.500 setlinewidth
2 setlinecap
gsave
78.85 81.54 229.8 62.81 clipbox
233.4094 78.760947 m
305.089242 78.760947 l
stroke
grestore
gsave
78.85 81.54 229.8 62.81 clipbox
234.433397 78.760947 m
242.625379 78.760947 l
242.625379 140.643011 l
234.433397 140.643011 l
cl
0.122 0.467 0.706 setrgbcolor
fill
grestore
gsave
78.85 81.54 229.8 62.81 clipbox
244.673375 78.760947 m
252.865357 78.760947 l
252.865357 92.7387 l
244.673375 92.7387 l
cl
0.122 0.467 0.706 setrgbcolor
fill
grestore
gsave
78.85 81.54 229.8 62.81 clipbox
254.913352 78.760947 m
263.105334 78.760947 l
263.105334 83.505017 l
254.913352 83.505017 l
cl
0.122 0.467 0.706 setrgbcolor
fill
grestore
gsave
78.85 81.54 229.8 62.81 clipbox
265.15333 78.760947 m
273.345312 78.760947 l
273.345312 66.515739 l
265.15333 66.515739 l
cl
0.122 0.467 0.706 setrgbcolor
fill
grestore
gsave
78.85 81.54 229.8 62.81 clipbox
275.393307 78.760947 m
283.585289 78.760947 l
283.585289 78.760947 l
275.393307 78.760947 l
cl
0.122 0.467 0.706 setrgbcolor
fill
grestore
gsave
78.85 81.54 229.8 62.81 clipbox
285.633285 78.760947 m
293.825266 78.760947 l
293.825266 81.044418 l
285.633285 81.044418 l
cl
0.122 0.467 0.706 setrgbcolor
fill
grestore
gsave
78.85 81.54 229.8 62.81 clipbox
295.873262 78.760947 m
304.065244 78.760947 l
304.065244 76.219024 l
295.873262 76.219024 l
cl
0.122 0.467 0.706 setrgbcolor
fill
grestore
0.800 setlinewidth
0 setlinecap
gsave
/o {
gsave
newpath
translate
0.8 setlinewidth
1 setlinejoin
0 setlinecap
0 0 m
0 -3.5 l

gsave
0.000 setgray
fill
grestore
stroke
grestore
} bind def
238.529 62.8094 o
grestore
gsave
241.287201 28.559375 translate
90.000000 rotate
0.000000 0.000000 m /M glyphshow
8.627930 0.000000 m /e glyphshow
14.780273 0.000000 m /a glyphshow
20.908203 0.000000 m /n glyphshow
grestore
gsave
/o {
gsave
newpath
translate
0.8 setlinewidth
1 setlinejoin
0 setlinecap
0 0 m
0 -3.5 l

gsave
0.000 setgray
fill
grestore
stroke
grestore
} bind def
248.769 62.8094 o
grestore
gsave
251.527178 11.215625 translate
90.000000 rotate
0.000000 0.000000 m /S glyphshow
6.347656 0.000000 m /t glyphshow
10.268555 0.000000 m /d glyphshow
16.616211 0.000000 m /period glyphshow
19.794922 0.000000 m /space glyphshow
22.973633 0.000000 m /d glyphshow
29.321289 0.000000 m /e glyphshow
35.473633 0.000000 m /v glyphshow
41.391602 0.000000 m /period glyphshow
grestore
gsave
/o {
gsave
newpath
translate
0.8 setlinewidth
1 setlinejoin
0 setlinecap
0 0 m
0 -3.5 l

gsave
0.000 setgray
fill
grestore
stroke
grestore
} bind def
259.009 62.8094 o
grestore
gsave
261.767156 29.325000 translate
90.000000 rotate
0.000000 0.000000 m /S glyphshow
6.347656 0.000000 m /k glyphshow
12.138672 0.000000 m /e glyphshow
18.291016 0.000000 m /w glyphshow
grestore
gsave
/o {
gsave
newpath
translate
0.8 setlinewidth
1 setlinejoin
0 setlinecap
0 0 m
0 -3.5 l

gsave
0.000 setgray
fill
grestore
stroke
grestore
} bind def
269.249 62.8094 o
grestore
gsave
272.007133 31.684375 translate
90.000000 rotate
0.000000 0.000000 m /K glyphshow
6.557617 0.000000 m /u glyphshow
12.895508 0.000000 m /r glyphshow
17.006836 0.000000 m /t glyphshow
20.927734 0.000000 m /period glyphshow
grestore
gsave
/o {
gsave
newpath
translate
0.8 setlinewidth
1 setlinejoin
0 setlinecap
0 0 m
0 -3.5 l

gsave
0.000 setgray
fill
grestore
stroke
grestore
} bind def
279.489 62.8094 o
grestore
gsave
282.247111 10.293750 translate
90.000000 rotate
0.000000 0.000000 m /L glyphshow
5.571289 0.000000 m /o glyphshow
11.689453 0.000000 m /w glyphshow
19.868164 0.000000 m /space glyphshow
23.046875 0.000000 m /f glyphshow
26.567383 0.000000 m /r glyphshow
30.678711 0.000000 m /a glyphshow
36.806641 0.000000 m /c glyphshow
42.304688 0.000000 m /period glyphshow
grestore
gsave
/o {
gsave
newpath
translate
0.8 setlinewidth
1 setlinejoin
0 setlinecap
0 0 m
0 -3.5 l

gsave
0.000 setgray
fill
grestore
stroke
grestore
} bind def
289.729 62.8094 o
grestore
gsave
292.487088 7.200000 translate
90.000000 rotate
0.000000 0.000000 m /H glyphshow
7.519531 0.000000 m /i glyphshow
10.297852 0.000000 m /g glyphshow
16.645508 0.000000 m /h glyphshow
22.983398 0.000000 m /space glyphshow
26.162109 0.000000 m /f glyphshow
29.682617 0.000000 m /r glyphshow
33.793945 0.000000 m /a glyphshow
39.921875 0.000000 m /c glyphshow
45.419922 0.000000 m /period glyphshow
grestore
gsave
/o {
gsave
newpath
translate
0.8 setlinewidth
1 setlinejoin
0 setlinecap
0 0 m
0 -3.5 l

gsave
0.000 setgray
fill
grestore
stroke
grestore
} bind def
299.969 62.8094 o
grestore
gsave
302.727065 28.059375 translate
90.000000 rotate
0.000000 0.000000 m /S glyphshow
6.347656 0.000000 m /l glyphshow
9.125977 0.000000 m /o glyphshow
15.244141 0.000000 m /p glyphshow
21.591797 0.000000 m /e glyphshow
grestore
gsave
/o {
gsave
newpath
translate
0.8 setlinewidth
1 setlinejoin
0 setlinecap
0 0 m
-3.5 0 l

gsave
0.000 setgray
fill
grestore
stroke
grestore
} bind def
229.825 78.7609 o
grestore
gsave
216.466033 74.964072 translate
0.000000 rotate
0.000000 0.000000 m /zero glyphshow
grestore
gsave
/o {
gsave
newpath
translate
0.8 setlinewidth
1 setlinejoin
0 setlinecap
0 0 m
-3.5 0 l

gsave
0.000 setgray
fill
grestore
stroke
grestore
} bind def
229.825 97.0287 o
grestore
gsave
216.466033 93.231840 translate
0.000000 rotate
0.000000 0.000000 m /two glyphshow
grestore
gsave
/o {
gsave
newpath
translate
0.8 setlinewidth
1 setlinejoin
0 setlinecap
0 0 m
-3.5 0 l

gsave
0.000 setgray
fill
grestore
stroke
grestore
} bind def
229.825 115.296 o
grestore
gsave
216.466033 111.499608 translate
0.000000 rotate
0.000000 0.000000 m /four glyphshow
grestore
gsave
/o {
gsave
newpath
translate
0.8 setlinewidth
1 setlinejoin
0 setlinecap
0 0 m
-3.5 0 l

gsave
0.000 setgray
fill
grestore
stroke
grestore
} bind def
229.825 133.564 o
grestore
gsave
216.466033 129.767376 translate
0.000000 rotate
0.000000 0.000000 m /six glyphshow
grestore
0 setlinejoin
2 setlinecap
[] 0 setdash
gsave
229.825408 62.809375 m
229.825408 144.349375 l
stroke
grestore
gsave
308.673234 62.809375 m
308.673234 144.349375 l
stroke
grestore
gsave
229.825408 62.809375 m
308.673234 62.809375 l
stroke
grestore
gsave
229.825408 144.349375 m
308.673234 144.349375 l
stroke
grestore
gsave
231.132133 150.349375 translate
0.000000 rotate
0.000000 0.000000 m /B glyphshow
6.860352 0.000000 m /u glyphshow
13.198242 0.000000 m /l glyphshow
15.976562 0.000000 m /k glyphshow
21.767578 0.000000 m /space glyphshow
24.946289 0.000000 m /p glyphshow
31.293945 0.000000 m /r glyphshow
35.405273 0.000000 m /o glyphshow
41.523438 0.000000 m /p glyphshow
47.871094 0.000000 m /e glyphshow
54.023438 0.000000 m /r glyphshow
58.134766 0.000000 m /t glyphshow
62.055664 0.000000 m /i glyphshow
64.833984 0.000000 m /e glyphshow
70.986328 0.000000 m /s glyphshow
grestore
gsave
324.442799 62.809375 m
403.290625 62.809375 l
403.290625 144.349375 l
324.442799 144.349375 l
cl
grestore
gsave
78.85 81.54 324.4 62.81 clipbox
328.026791 62.809375 m
333.336409 62.809375 l
333.336409 62.809375 l
328.026791 62.809375 l
cl
0.122 0.467 0.706 setrgbcolor
fill
grestore
gsave
78.85 81.54 324.4 62.81 clipbox
331.519961 62.809375 m
336.829579 62.809375 l
336.829579 62.809375 l
331.519961 62.809375 l
cl
0.122 0.467 0.706 setrgbcolor
fill
grestore
gsave
78.85 81.54 324.4 62.81 clipbox
335.01313 62.809375 m
340.322748 62.809375 l
340.322748 62.809375 l
335.01313 62.809375 l
cl
0.122 0.467 0.706 setrgbcolor
fill
grestore
gsave
78.85 81.54 324.4 62.81 clipbox
338.5063 62.809375 m
343.815918 62.809375 l
343.815918 62.809375 l
338.5063 62.809375 l
cl
0.122 0.467 0.706 setrgbcolor
fill
grestore
gsave
78.85 81.54 324.4 62.81 clipbox
341.99947 62.809375 m
347.309088 62.809375 l
347.309088 62.809375 l
341.99947 62.809375 l
cl
0.122 0.467 0.706 setrgbcolor
fill
grestore
gsave
78.85 81.54 324.4 62.81 clipbox
345.492639 62.809375 m
350.802257 62.809375 l
350.802257 62.809375 l
345.492639 62.809375 l
cl
0.122 0.467 0.706 setrgbcolor
fill
grestore
gsave
78.85 81.54 324.4 62.81 clipbox
348.985809 62.809375 m
354.295427 62.809375 l
354.295427 62.809375 l
348.985809 62.809375 l
cl
0.122 0.467 0.706 setrgbcolor
fill
grestore
gsave
78.85 81.54 324.4 62.81 clipbox
352.478979 62.809375 m
357.788597 62.809375 l
357.788597 62.809375 l
352.478979 62.809375 l
cl
0.122 0.467 0.706 setrgbcolor
fill
grestore
gsave
78.85 81.54 324.4 62.81 clipbox
355.972148 62.809375 m
361.281766 62.809375 l
361.281766 62.809375 l
355.972148 62.809375 l
cl
0.122 0.467 0.706 setrgbcolor
fill
grestore
gsave
78.85 81.54 324.4 62.81 clipbox
359.465318 62.809375 m
364.774936 62.809375 l
364.774936 62.809375 l
359.465318 62.809375 l
cl
0.122 0.467 0.706 setrgbcolor
fill
grestore
gsave
78.85 81.54 324.4 62.81 clipbox
362.958488 62.809375 m
368.268106 62.809375 l
368.268106 140.466518 l
362.958488 140.466518 l
cl
0.122 0.467 0.706 setrgbcolor
fill
grestore
gsave
78.85 81.54 324.4 62.81 clipbox
366.451658 62.809375 m
371.761275 62.809375 l
371.761275 62.809375 l
366.451658 62.809375 l
cl
0.122 0.467 0.706 setrgbcolor
fill
grestore
gsave
78.85 81.54 324.4 62.81 clipbox
369.944827 62.809375 m
375.254445 62.809375 l
375.254445 62.809375 l
369.944827 62.809375 l
cl
0.122 0.467 0.706 setrgbcolor
fill
grestore
gsave
78.85 81.54 324.4 62.81 clipbox
373.437997 62.809375 m
378.747615 62.809375 l
378.747615 62.809375 l
373.437997 62.809375 l
cl
0.122 0.467 0.706 setrgbcolor
fill
grestore
gsave
78.85 81.54 324.4 62.81 clipbox
376.931167 62.809375 m
382.240784 62.809375 l
382.240784 101.637946 l
376.931167 101.637946 l
cl
0.122 0.467 0.706 setrgbcolor
fill
grestore
gsave
78.85 81.54 324.4 62.81 clipbox
380.424336 62.809375 m
385.733954 62.809375 l
385.733954 62.809375 l
380.424336 62.809375 l
cl
0.122 0.467 0.706 setrgbcolor
fill
grestore
gsave
78.85 81.54 324.4 62.81 clipbox
383.917506 62.809375 m
389.227124 62.809375 l
389.227124 62.809375 l
383.917506 62.809375 l
cl
0.122 0.467 0.706 setrgbcolor
fill
grestore
gsave
78.85 81.54 324.4 62.81 clipbox
387.410676 62.809375 m
392.720294 62.809375 l
392.720294 62.809375 l
387.410676 62.809375 l
cl
0.122 0.467 0.706 setrgbcolor
fill
grestore
gsave
78.85 81.54 324.4 62.81 clipbox
390.903845 62.809375 m
396.213463 62.809375 l
396.213463 101.637946 l
390.903845 101.637946 l
cl
0.122 0.467 0.706 setrgbcolor
fill
grestore
gsave
78.85 81.54 324.4 62.81 clipbox
394.397015 62.809375 m
399.706633 62.809375 l
399.706633 62.809375 l
394.397015 62.809375 l
cl
0.122 0.467 0.706 setrgbcolor
fill
grestore
1 setlinejoin
0 setlinecap
[] 0 setdash
gsave
/o {
gsave
newpath
translate
0.8 setlinewidth
1 setlinejoin
0 setlinecap
0 0 m
0 -3.5 l

gsave
0.000 setgray
fill
grestore
stroke
grestore
} bind def
330.682 62.8094 o
grestore
gsave
327.501912 48.215625 translate
0.000000 rotate
0.000000 0.000000 m /zero glyphshow
grestore
gsave
/o {
gsave
newpath
translate
0.8 setlinewidth
1 setlinejoin
0 setlinecap
0 0 m
0 -3.5 l

gsave
0.000 setgray
fill
grestore
stroke
grestore
} bind def
363.867 62.8094 o
grestore
gsave
360.687024 48.215625 translate
0.000000 rotate
0.000000 0.000000 m /five glyphshow
grestore
gsave
/o {
gsave
newpath
translate
0.8 setlinewidth
1 setlinejoin
0 setlinecap
0 0 m
0 -3.5 l

gsave
0.000 setgray
fill
grestore
stroke
grestore
} bind def
397.052 62.8094 o
grestore
gsave
390.692449 48.215625 translate
0.000000 rotate
0.000000 0.000000 m /one glyphshow
6.362305 0.000000 m /zero glyphshow
grestore
gsave
338.077649 34.543750 translate
0.000000 rotate
0.000000 0.000000 m /P glyphshow
6.030273 0.000000 m /a glyphshow
12.158203 0.000000 m /i glyphshow
14.936523 0.000000 m /n glyphshow
21.274414 0.000000 m /space glyphshow
24.453125 0.000000 m /s glyphshow
29.663086 0.000000 m /c glyphshow
35.161133 0.000000 m /o glyphshow
41.279297 0.000000 m /r glyphshow
45.390625 0.000000 m /e glyphshow
grestore
gsave
/o {
gsave
newpath
translate
0.8 setlinewidth
1 setlinejoin
0 setlinecap
0 0 m
-3.5 0 l

gsave
0.000 setgray
fill
grestore
stroke
grestore
} bind def
324.443 62.8094 o
grestore
gsave
311.083424 59.012500 translate
0.000000 rotate
0.000000 0.000000 m /zero glyphshow
grestore
gsave
/o {
gsave
newpath
translate
0.8 setlinewidth
1 setlinejoin
0 setlinecap
0 0 m
-3.5 0 l

gsave
0.000 setgray
fill
grestore
stroke
grestore
} bind def
324.443 140.467 o
grestore
gsave
311.083424 136.669643 translate
0.000000 rotate
0.000000 0.000000 m /one glyphshow
grestore
0 setlinejoin
2 setlinecap
[] 0 setdash
gsave
324.442799 62.809375 m
324.442799 144.349375 l
stroke
grestore
gsave
403.290625 62.809375 m
403.290625 144.349375 l
stroke
grestore
gsave
324.442799 62.809375 m
403.290625 62.809375 l
stroke
grestore
gsave
324.442799 144.349375 m
403.290625 144.349375 l
stroke
grestore
gsave
337.921399 150.349375 translate
0.000000 rotate
0.000000 0.000000 m /H glyphshow
7.519531 0.000000 m /i glyphshow
10.297852 0.000000 m /s glyphshow
15.507812 0.000000 m /t glyphshow
19.428711 0.000000 m /o glyphshow
25.546875 0.000000 m /g glyphshow
31.894531 0.000000 m /r glyphshow
36.005859 0.000000 m /a glyphshow
42.133789 0.000000 m /m glyphshow
grestore

end
showpage
