%!PS-Adobe-3.0 EPSF-3.0
%%Title: ../Figures/ExampleSamples.eps
%%Creator: matplotlib version 3.3.1, http://matplotlib.org/
%%CreationDate: Tue Feb  2 13:36:23 2021
%%Orientation: portrait
%%BoundingBox: 223.89999999999998 318.41507211538465 388.1 473.5849278846154
%%EndComments
%%BeginProlog
/mpldict 8 dict def
mpldict begin
/m { moveto } bind def
/l { lineto } bind def
/r { rlineto } bind def
/c { curveto } bind def
/cl { closepath } bind def
/box {
      m
      1 index 0 r
      0 exch r
      neg 0 r
      cl
    } bind def
/clipbox {
      box
      clip
      newpath
    } bind def
%!PS-Adobe-3.0 Resource-Font
%%Title: DejaVu Sans
%%Copyright: Copyright (c) 2003 by Bitstream, Inc. All Rights Reserved. Copyright (c) 2006 by Tavmjong Bah. All Rights Reserved. DejaVu changes are in public domain 
%%Creator: Converted from TrueType to type 3 by PPR
25 dict begin
/_d{bind def}bind def
/_m{moveto}_d
/_l{lineto}_d
/_cl{closepath eofill}_d
/_c{curveto}_d
/_sc{7 -1 roll{setcachedevice}{pop pop pop pop pop pop}ifelse}_d
/_e{exec}_d
/FontName /DejaVuSans def
/PaintType 0 def
/FontMatrix[.001 0 0 .001 0 0]def
/FontBBox[-1021 -463 1793 1232]def
/FontType 3 def
/Encoding [ /space /parenleft /parenright /zero /one /two /four /six /seven /eight /P /T /a /d /e /i /l /m /n /s /v /y ] def
/FontInfo 10 dict dup begin
/FamilyName (DejaVu Sans) def
/FullName (DejaVu Sans) def
/Notice (Copyright (c) 2003 by Bitstream, Inc. All Rights Reserved. Copyright (c) 2006 by Tavmjong Bah. All Rights Reserved. DejaVu changes are in public domain ) def
/Weight (Book) def
/Version (Version 2.35) def
/ItalicAngle 0.0 def
/isFixedPitch false def
/UnderlinePosition -130 def
/UnderlineThickness 90 def
end readonly def
/CharStrings 23 dict dup begin
/.notdef 0 def
/space{318 0 0 0 0 0 _sc
}_d
/parenleft{390 0 86 -131 310 759 _sc
310 759 _m
266 683 234 609 213 536 _c
191 463 181 389 181 314 _c
181 238 191 164 213 91 _c
234 17 266 -56 310 -131 _c
232 -131 _l
183 -54 146 20 122 94 _c
98 168 86 241 86 314 _c
86 386 98 459 122 533 _c
146 607 182 682 232 759 _c
310 759 _l
_cl}_d
/parenright{390 0 80 -131 304 759 _sc
80 759 _m
158 759 _l
206 682 243 607 267 533 _c
291 459 304 386 304 314 _c
304 241 291 168 267 94 _c
243 20 206 -54 158 -131 _c
80 -131 _l
123 -56 155 17 177 91 _c
198 164 209 238 209 314 _c
209 389 198 463 177 536 _c
155 609 123 683 80 759 _c
_cl}_d
/zero{636 0 66 -13 570 742 _sc
318 664 _m
267 664 229 639 203 589 _c
177 539 165 464 165 364 _c
165 264 177 189 203 139 _c
229 89 267 64 318 64 _c
369 64 407 89 433 139 _c
458 189 471 264 471 364 _c
471 464 458 539 433 589 _c
407 639 369 664 318 664 _c
318 742 _m
399 742 461 709 505 645 _c
548 580 570 486 570 364 _c
570 241 548 147 505 83 _c
461 19 399 -13 318 -13 _c
236 -13 173 19 130 83 _c
87 147 66 241 66 364 _c
66 486 87 580 130 645 _c
173 709 236 742 318 742 _c
_cl}_d
/one{636 0 110 0 544 729 _sc
124 83 _m
285 83 _l
285 639 _l
110 604 _l
110 694 _l
284 729 _l
383 729 _l
383 83 _l
544 83 _l
544 0 _l
124 0 _l
124 83 _l
_cl}_d
/two{{636 0 73 0 536 742 _sc
192 83 _m
536 83 _l
536 0 _l
73 0 _l
73 83 _l
110 121 161 173 226 239 _c
290 304 331 346 348 365 _c
380 400 402 430 414 455 _c
426 479 433 504 433 528 _c
433 566 419 598 392 622 _c
365 646 330 659 286 659 _c
255 659 222 653 188 643 _c
154 632 117 616 78 594 _c
78 694 _l
118 710 155 722 189 730 _c
223 738 255 742 284 742 _c
}_e{359 742 419 723 464 685 _c
509 647 532 597 532 534 _c
532 504 526 475 515 449 _c
504 422 484 390 454 354 _c
446 344 420 317 376 272 _c
332 227 271 164 192 83 _c
_cl}_e}_d
/four{636 0 49 0 580 729 _sc
378 643 _m
129 254 _l
378 254 _l
378 643 _l
352 729 _m
476 729 _l
476 254 _l
580 254 _l
580 172 _l
476 172 _l
476 0 _l
378 0 _l
378 172 _l
49 172 _l
49 267 _l
352 729 _l
_cl}_d
/six{{636 0 70 -13 573 742 _sc
330 404 _m
286 404 251 388 225 358 _c
199 328 186 286 186 234 _c
186 181 199 139 225 109 _c
251 79 286 64 330 64 _c
374 64 409 79 435 109 _c
461 139 474 181 474 234 _c
474 286 461 328 435 358 _c
409 388 374 404 330 404 _c
526 713 _m
526 623 _l
501 635 476 644 451 650 _c
425 656 400 659 376 659 _c
310 659 260 637 226 593 _c
}_e{192 549 172 482 168 394 _c
187 422 211 444 240 459 _c
269 474 301 482 336 482 _c
409 482 467 459 509 415 _c
551 371 573 310 573 234 _c
573 159 550 99 506 54 _c
462 9 403 -13 330 -13 _c
246 -13 181 19 137 83 _c
92 147 70 241 70 364 _c
70 479 97 571 152 639 _c
206 707 280 742 372 742 _c
396 742 421 739 447 735 _c
472 730 498 723 526 713 _c
_cl}_e}_d
/seven{636 0 82 0 551 729 _sc
82 729 _m
551 729 _l
551 687 _l
286 0 _l
183 0 _l
432 646 _l
82 646 _l
82 729 _l
_cl}_d
/eight{{636 0 68 -13 568 742 _sc
318 346 _m
271 346 234 333 207 308 _c
180 283 167 249 167 205 _c
167 161 180 126 207 101 _c
234 76 271 64 318 64 _c
364 64 401 76 428 102 _c
455 127 469 161 469 205 _c
469 249 455 283 429 308 _c
402 333 365 346 318 346 _c
219 388 _m
177 398 144 418 120 447 _c
96 476 85 511 85 553 _c
85 611 105 657 147 691 _c
188 725 245 742 318 742 _c
}_e{390 742 447 725 489 691 _c
530 657 551 611 551 553 _c
551 511 539 476 515 447 _c
491 418 459 398 417 388 _c
464 377 501 355 528 323 _c
554 291 568 251 568 205 _c
568 134 546 80 503 43 _c
459 5 398 -13 318 -13 _c
237 -13 175 5 132 43 _c
89 80 68 134 68 205 _c
68 251 81 291 108 323 _c
134 355 171 377 219 388 _c
183 544 _m
183 506 194 476 218 455 _c
}_e{242 434 275 424 318 424 _c
360 424 393 434 417 455 _c
441 476 453 506 453 544 _c
453 582 441 611 417 632 _c
393 653 360 664 318 664 _c
275 664 242 653 218 632 _c
194 611 183 582 183 544 _c
_cl}_e}_d
/P{603 0 98 0 569 729 _sc
197 648 _m
197 374 _l
321 374 _l
367 374 402 385 427 409 _c
452 433 465 467 465 511 _c
465 555 452 588 427 612 _c
402 636 367 648 321 648 _c
197 648 _l
98 729 _m
321 729 _l
402 729 464 710 506 673 _c
548 636 569 582 569 511 _c
569 439 548 384 506 348 _c
464 311 402 293 321 293 _c
197 293 _l
197 0 _l
98 0 _l
98 729 _l
_cl}_d
/T{611 0 -2 0 614 729 _sc
-2 729 _m
614 729 _l
614 646 _l
355 646 _l
355 0 _l
256 0 _l
256 646 _l
-2 646 _l
-2 729 _l
_cl}_d
/a{{613 0 60 -13 522 560 _sc
343 275 _m
270 275 220 266 192 250 _c
164 233 150 205 150 165 _c
150 133 160 107 181 89 _c
202 70 231 61 267 61 _c
317 61 357 78 387 114 _c
417 149 432 196 432 255 _c
432 275 _l
343 275 _l
522 312 _m
522 0 _l
432 0 _l
432 83 _l
411 49 385 25 355 10 _c
325 -5 287 -13 243 -13 _c
187 -13 142 2 109 33 _c
76 64 60 106 60 159 _c
}_e{60 220 80 266 122 298 _c
163 329 224 345 306 345 _c
432 345 _l
432 354 _l
432 395 418 427 391 450 _c
364 472 326 484 277 484 _c
245 484 215 480 185 472 _c
155 464 127 453 100 439 _c
100 522 _l
132 534 164 544 195 550 _c
226 556 256 560 286 560 _c
365 560 424 539 463 498 _c
502 457 522 395 522 312 _c
_cl}_e}_d
/d{{635 0 55 -13 544 760 _sc
454 464 _m
454 760 _l
544 760 _l
544 0 _l
454 0 _l
454 82 _l
435 49 411 25 382 10 _c
353 -5 319 -13 279 -13 _c
213 -13 159 13 117 65 _c
75 117 55 187 55 273 _c
55 359 75 428 117 481 _c
159 533 213 560 279 560 _c
319 560 353 552 382 536 _c
411 520 435 496 454 464 _c
148 273 _m
148 207 161 155 188 117 _c
215 79 253 61 301 61 _c
}_e{348 61 385 79 413 117 _c
440 155 454 207 454 273 _c
454 339 440 390 413 428 _c
385 466 348 485 301 485 _c
253 485 215 466 188 428 _c
161 390 148 339 148 273 _c
_cl}_e}_d
/e{{615 0 55 -13 562 560 _sc
562 296 _m
562 252 _l
149 252 _l
153 190 171 142 205 110 _c
238 78 284 62 344 62 _c
378 62 412 66 444 74 _c
476 82 509 95 541 113 _c
541 28 _l
509 14 476 3 442 -3 _c
408 -9 373 -13 339 -13 _c
251 -13 182 12 131 62 _c
80 112 55 181 55 268 _c
55 357 79 428 127 481 _c
175 533 241 560 323 560 _c
397 560 455 536 498 489 _c
}_e{540 441 562 377 562 296 _c
472 322 _m
471 371 457 410 431 440 _c
404 469 368 484 324 484 _c
274 484 234 469 204 441 _c
174 413 156 373 152 322 _c
472 322 _l
_cl}_e}_d
/i{278 0 94 0 184 760 _sc
94 547 _m
184 547 _l
184 0 _l
94 0 _l
94 547 _l
94 760 _m
184 760 _l
184 646 _l
94 646 _l
94 760 _l
_cl}_d
/l{278 0 94 0 184 760 _sc
94 760 _m
184 760 _l
184 0 _l
94 0 _l
94 760 _l
_cl}_d
/m{{974 0 91 0 889 560 _sc
520 442 _m
542 482 569 511 600 531 _c
631 550 668 560 711 560 _c
767 560 811 540 842 500 _c
873 460 889 403 889 330 _c
889 0 _l
799 0 _l
799 327 _l
799 379 789 418 771 444 _c
752 469 724 482 686 482 _c
639 482 602 466 575 435 _c
548 404 535 362 535 309 _c
535 0 _l
445 0 _l
445 327 _l
445 379 435 418 417 444 _c
398 469 369 482 331 482 _c
}_e{285 482 248 466 221 435 _c
194 404 181 362 181 309 _c
181 0 _l
91 0 _l
91 547 _l
181 547 _l
181 462 _l
201 495 226 520 255 536 _c
283 552 317 560 357 560 _c
397 560 430 550 458 530 _c
486 510 506 480 520 442 _c
_cl}_e}_d
/n{634 0 91 0 549 560 _sc
549 330 _m
549 0 _l
459 0 _l
459 327 _l
459 379 448 417 428 443 _c
408 469 378 482 338 482 _c
289 482 251 466 223 435 _c
195 404 181 362 181 309 _c
181 0 _l
91 0 _l
91 547 _l
181 547 _l
181 462 _l
202 494 227 519 257 535 _c
286 551 320 560 358 560 _c
420 560 468 540 500 501 _c
532 462 549 405 549 330 _c
_cl}_d
/s{{521 0 54 -13 472 560 _sc
443 531 _m
443 446 _l
417 458 391 468 364 475 _c
336 481 308 485 279 485 _c
234 485 200 478 178 464 _c
156 450 145 430 145 403 _c
145 382 153 366 169 354 _c
185 342 217 330 265 320 _c
296 313 _l
360 299 405 279 432 255 _c
458 230 472 195 472 151 _c
472 100 452 60 412 31 _c
372 1 316 -13 246 -13 _c
216 -13 186 -10 154 -5 _c
}_e{122 0 89 8 54 20 _c
54 113 _l
87 95 120 82 152 74 _c
184 65 216 61 248 61 _c
290 61 323 68 346 82 _c
368 96 380 117 380 144 _c
380 168 371 187 355 200 _c
339 213 303 226 247 238 _c
216 245 _l
160 257 119 275 95 299 _c
70 323 58 356 58 399 _c
58 450 76 490 112 518 _c
148 546 200 560 268 560 _c
301 560 332 557 362 552 _c
391 547 418 540 443 531 _c
}_e{_cl}_e}_d
/v{592 0 30 0 562 547 _sc
30 547 _m
125 547 _l
296 88 _l
467 547 _l
562 547 _l
357 0 _l
235 0 _l
30 547 _l
_cl}_d
/y{592 0 30 -207 562 547 _sc
322 -50 _m
296 -114 271 -157 247 -177 _c
223 -197 191 -207 151 -207 _c
79 -207 _l
79 -132 _l
132 -132 _l
156 -132 175 -126 189 -114 _c
203 -102 218 -75 235 -31 _c
251 9 _l
30 547 _l
125 547 _l
296 119 _l
467 547 _l
562 547 _l
322 -50 _l
_cl}_d
end readonly def

/BuildGlyph
 {exch begin
 CharStrings exch
 2 copy known not{pop /.notdef}if
 true 3 1 roll get exec
 end}_d

/BuildChar {
 1 index /Encoding get exch get
 1 index /BuildGlyph get exec
}_d

FontName currentdict end definefont pop
end
%%EndProlog
mpldict begin
223.9 318.415 translate
164.2 155.17 0 0 clipbox
gsave
0 0 m
164.2 0 l
164.2 155.169856 l
0 155.169856 l
cl
grestore
gsave
40.590625 37.54375 m
152.190625 37.54375 l
152.190625 146.26375 l
40.590625 146.26375 l
cl
grestore
1.500 setlinewidth
1 setlinejoin
2 setlinecap
[] 0 setdash
0.502 setgray
gsave
111.6 108.7 40.59 37.54 clipbox
44.31511 130.582981 m
45.006959 144.172981 l
48.355694 131.628365 l
50.44649 112.811442 l
52.84307 98.176058 l
56.189204 144.172981 l
58.25318 144.172981 l
61.319812 112.811442 l
63.943061 144.172981 l
66.247789 143.127596 l
66.868597 144.172981 l
67.26704 134.764519 l
68.824126 143.127596 l
71.346195 144.172981 l
71.679606 144.172981 l
74.181493 144.172981 l
76.172543 109.675288 l
79.170466 144.172981 l
79.44342 144.172981 l
81.344233 131.628365 l
83.993585 144.172981 l
87.295408 144.172981 l
89.079971 141.036827 l
92.256126 132.67375 l
94.948623 137.900673 l
96.32667 144.172981 l
97.20294 132.67375 l
99.729314 133.719135 l
102.875958 142.082212 l
104.624641 135.809904 l
107.756574 139.991442 l
110.812442 144.172981 l
115.199624 144.172981 l
118.003617 144.172981 l
118.194586 144.172981 l
120.274708 144.172981 l
121.443576 143.127596 l
126.024418 144.172981 l
138.806806 135.809904 l
141.574112 142.082212 l
143.43447 132.67375 l
144.801305 142.082212 l
146.351664 144.172981 l
149.45274 144.172981 l
stroke
grestore
1.000 setlinewidth
0 setlinecap
gsave
111.6 108.7 40.59 37.54 clipbox
/o {
gsave
newpath
translate
1.0 setlinewidth
1 setlinejoin
0 setlinecap
0 -3 m
0.795609 -3 1.55874 -2.683901 2.12132 -2.12132 c
2.683901 -1.55874 3 -0.795609 3 0 c
3 0.795609 2.683901 1.55874 2.12132 2.12132 c
1.55874 2.683901 0.795609 3 0 3 c
-0.795609 3 -1.55874 2.683901 -2.12132 2.12132 c
-2.683901 1.55874 -3 0.795609 -3 0 c
-3 -0.795609 -2.683901 -1.55874 -2.12132 -2.12132 c
-1.55874 -2.683901 -0.795609 -3 0 -3 c
cl

gsave
0.502 setgray
fill
grestore
stroke
grestore
} bind def
44.3151 130.583 o
45.007 144.173 o
48.3557 131.628 o
50.4465 112.811 o
52.8431 98.1761 o
56.1892 144.173 o
58.2532 144.173 o
61.3198 112.811 o
63.9431 144.173 o
66.2478 143.128 o
66.8686 144.173 o
67.267 134.765 o
68.8241 143.128 o
71.3462 144.173 o
71.6796 144.173 o
74.1815 144.173 o
76.1725 109.675 o
79.1705 144.173 o
79.4434 144.173 o
81.3442 131.628 o
83.9936 144.173 o
87.2954 144.173 o
89.08 141.037 o
92.2561 132.674 o
94.9486 137.901 o
96.3267 144.173 o
97.2029 132.674 o
99.7293 133.719 o
102.876 142.082 o
104.625 135.81 o
107.757 139.991 o
110.812 144.173 o
115.2 144.173 o
118.004 144.173 o
118.195 144.173 o
120.275 144.173 o
121.444 143.128 o
126.024 144.173 o
138.807 135.81 o
141.574 142.082 o
143.434 132.674 o
144.801 142.082 o
146.352 144.173 o
149.453 144.173 o
grestore
1.500 setlinewidth
2 setlinecap
gsave
111.6 108.7 40.59 37.54 clipbox
43.35542 131.628365 m
49.373869 124.310673 l
50.32728 124.310673 l
51.041374 128.492212 l
56.320255 123.265288 l
64.073843 144.172981 l
64.303383 144.172981 l
65.834635 144.172981 l
79.484592 144.172981 l
81.325576 132.67375 l
87.998738 131.628365 l
95.165784 144.172981 l
97.702743 135.809904 l
102.862413 126.401442 l
104.695503 131.628365 l
110.633313 130.582981 l
112.32737 135.809904 l
118.208938 130.582981 l
118.636803 132.67375 l
127.842529 132.67375 l
135.440937 144.172981 l
141.491947 129.537596 l
143.395541 134.764519 l
149.269575 132.67375 l
stroke
grestore
1.000 setlinewidth
0 setlinecap
gsave
111.6 108.7 40.59 37.54 clipbox
/o {
gsave
newpath
translate
1.0 setlinewidth
1 setlinejoin
0 setlinecap
0 -3 m
0.795609 -3 1.55874 -2.683901 2.12132 -2.12132 c
2.683901 -1.55874 3 -0.795609 3 0 c
3 0.795609 2.683901 1.55874 2.12132 2.12132 c
1.55874 2.683901 0.795609 3 0 3 c
-0.795609 3 -1.55874 2.683901 -2.12132 2.12132 c
-2.683901 1.55874 -3 0.795609 -3 0 c
-3 -0.795609 -2.683901 -1.55874 -2.12132 -2.12132 c
-1.55874 -2.683901 -0.795609 -3 0 -3 c
cl

gsave
0.502 setgray
fill
grestore
stroke
grestore
} bind def
43.3554 131.628 o
49.3739 124.311 o
50.3273 124.311 o
51.0414 128.492 o
56.3203 123.265 o
64.0738 144.173 o
64.3034 144.173 o
65.8346 144.173 o
79.4846 144.173 o
81.3256 132.674 o
87.9987 131.628 o
95.1658 144.173 o
97.7027 135.81 o
102.862 126.401 o
104.696 131.628 o
110.633 130.583 o
112.327 135.81 o
118.209 130.583 o
118.637 132.674 o
127.843 132.674 o
135.441 144.173 o
141.492 129.538 o
143.396 134.765 o
149.27 132.674 o
grestore
1.500 setlinewidth
2 setlinecap
gsave
111.6 108.7 40.59 37.54 clipbox
59.495064 88.767596 m
82.722818 104.448365 l
112.994552 92.949135 l
118.868585 62.632981 l
120.754777 86.676827 l
128.467821 64.72375 l
stroke
grestore
1.000 setlinewidth
0 setlinecap
gsave
111.6 108.7 40.59 37.54 clipbox
/o {
gsave
newpath
translate
1.0 setlinewidth
1 setlinejoin
0 setlinecap
0 -3 m
0.795609 -3 1.55874 -2.683901 2.12132 -2.12132 c
2.683901 -1.55874 3 -0.795609 3 0 c
3 0.795609 2.683901 1.55874 2.12132 2.12132 c
1.55874 2.683901 0.795609 3 0 3 c
-0.795609 3 -1.55874 2.683901 -2.12132 2.12132 c
-2.683901 1.55874 -3 0.795609 -3 0 c
-3 -0.795609 -2.683901 -1.55874 -2.12132 -2.12132 c
-1.55874 -2.683901 -0.795609 -3 0 -3 c
cl

gsave
0.502 setgray
fill
grestore
stroke
grestore
} bind def
59.4951 88.7676 o
82.7228 104.448 o
112.995 92.9491 o
118.869 62.633 o
120.755 86.6768 o
128.468 64.7237 o
grestore
1.500 setlinewidth
2 setlinecap
gsave
111.6 108.7 40.59 37.54 clipbox
52.600793 131.628365 m
55.597549 134.764519 l
57.639459 130.582981 l
73.158296 128.492212 l
87.241678 123.265288 l
96.398698 129.537596 l
101.553524 130.582981 l
111.887216 123.265288 l
119.637575 130.582981 l
127.680622 125.356058 l
133.072344 128.492212 l
140.706094 127.446827 l
stroke
grestore
1.000 setlinewidth
0 setlinecap
gsave
111.6 108.7 40.59 37.54 clipbox
/o {
gsave
newpath
translate
1.0 setlinewidth
1 setlinejoin
0 setlinecap
0 -3 m
0.795609 -3 1.55874 -2.683901 2.12132 -2.12132 c
2.683901 -1.55874 3 -0.795609 3 0 c
3 0.795609 2.683901 1.55874 2.12132 2.12132 c
1.55874 2.683901 0.795609 3 0 3 c
-0.795609 3 -1.55874 2.683901 -2.12132 2.12132 c
-2.683901 1.55874 -3 0.795609 -3 0 c
-3 -0.795609 -2.683901 -1.55874 -2.12132 -2.12132 c
-1.55874 -2.683901 -0.795609 -3 0 -3 c
cl

gsave
0.502 setgray
fill
grestore
stroke
grestore
} bind def
52.6008 131.628 o
55.5975 134.765 o
57.6395 130.583 o
73.1583 128.492 o
87.2417 123.265 o
96.3987 129.538 o
101.554 130.583 o
111.887 123.265 o
119.638 130.583 o
127.681 125.356 o
133.072 128.492 o
140.706 127.447 o
grestore
1.500 setlinewidth
2 setlinecap
gsave
111.6 108.7 40.59 37.54 clipbox
52.807011 130.582981 m
65.392239 118.038365 l
80.585648 126.401442 l
88.495402 130.582981 l
103.816811 124.310673 l
110.754138 122.219904 l
111.569592 131.628365 l
119.382471 130.582981 l
126.630246 133.719135 l
stroke
grestore
1.000 setlinewidth
0 setlinecap
gsave
111.6 108.7 40.59 37.54 clipbox
/o {
gsave
newpath
translate
1.0 setlinewidth
1 setlinejoin
0 setlinecap
0 -3 m
0.795609 -3 1.55874 -2.683901 2.12132 -2.12132 c
2.683901 -1.55874 3 -0.795609 3 0 c
3 0.795609 2.683901 1.55874 2.12132 2.12132 c
1.55874 2.683901 0.795609 3 0 3 c
-0.795609 3 -1.55874 2.683901 -2.12132 2.12132 c
-2.683901 1.55874 -3 0.795609 -3 0 c
-3 -0.795609 -2.683901 -1.55874 -2.12132 -2.12132 c
-1.55874 -2.683901 -0.795609 -3 0 -3 c
cl

gsave
0.502 setgray
fill
grestore
stroke
grestore
} bind def
52.807 130.583 o
65.3922 118.038 o
80.5856 126.401 o
88.4954 130.583 o
103.817 124.311 o
110.754 122.22 o
111.57 131.628 o
119.382 130.583 o
126.63 133.719 o
grestore
1.500 setlinewidth
2 setlinecap
gsave
111.6 108.7 40.59 37.54 clipbox
42.804398 133.719135 m
54.776265 130.582981 l
62.482132 125.356058 l
72.243904 125.356058 l
72.815735 124.310673 l
80.607624 133.719135 l
94.091279 129.537596 l
102.160249 131.628365 l
111.565286 134.764519 l
119.034977 127.446827 l
127.018553 129.537596 l
134.818337 131.628365 l
stroke
grestore
1.000 setlinewidth
0 setlinecap
gsave
111.6 108.7 40.59 37.54 clipbox
/o {
gsave
newpath
translate
1.0 setlinewidth
1 setlinejoin
0 setlinecap
0 -3 m
0.795609 -3 1.55874 -2.683901 2.12132 -2.12132 c
2.683901 -1.55874 3 -0.795609 3 0 c
3 0.795609 2.683901 1.55874 2.12132 2.12132 c
1.55874 2.683901 0.795609 3 0 3 c
-0.795609 3 -1.55874 2.683901 -2.12132 2.12132 c
-2.683901 1.55874 -3 0.795609 -3 0 c
-3 -0.795609 -2.683901 -1.55874 -2.12132 -2.12132 c
-1.55874 -2.683901 -0.795609 -3 0 -3 c
cl

gsave
0.502 setgray
fill
grestore
stroke
grestore
} bind def
42.8044 133.719 o
54.7763 130.583 o
62.4821 125.356 o
72.2439 125.356 o
72.8157 124.311 o
80.6076 133.719 o
94.0913 129.538 o
102.16 131.628 o
111.565 134.765 o
119.035 127.447 o
127.019 129.538 o
134.818 131.628 o
grestore
1.500 setlinewidth
2 setlinecap
gsave
111.6 108.7 40.59 37.54 clipbox
42.14807 93.994519 m
42.155694 93.994519 l
42.160897 100.266827 l
42.736586 107.584519 l
43.733322 119.08375 l
47.559256 121.174519 l
50.966027 87.722212 l
59.234488 95.039904 l
60.203507 118.038365 l
65.713273 130.582981 l
73.166279 88.767596 l
76.408811 67.859904 l
81.198652 96.085288 l
81.20206 78.31375 l
84.258825 74.132212 l
93.026102 127.446827 l
94.893547 62.632981 l
98.869369 91.90375 l
100.331195 110.720673 l
103.701727 124.310673 l
103.889019 121.174519 l
112.136131 59.496827 l
118.942587 107.584519 l
123.373452 90.858365 l
123.375964 80.404519 l
125.851658 93.994519 l
125.853362 92.949135 l
129.003056 82.495288 l
129.006913 95.039904 l
133.556539 109.675288 l
141.743643 53.224519 l
146.096291 115.947596 l
150.151406 58.451442 l
stroke
grestore
1.000 setlinewidth
0 setlinecap
gsave
111.6 108.7 40.59 37.54 clipbox
/o {
gsave
newpath
translate
1.0 setlinewidth
1 setlinejoin
0 setlinecap
0 -3 m
0.795609 -3 1.55874 -2.683901 2.12132 -2.12132 c
2.683901 -1.55874 3 -0.795609 3 0 c
3 0.795609 2.683901 1.55874 2.12132 2.12132 c
1.55874 2.683901 0.795609 3 0 3 c
-0.795609 3 -1.55874 2.683901 -2.12132 2.12132 c
-2.683901 1.55874 -3 0.795609 -3 0 c
-3 -0.795609 -2.683901 -1.55874 -2.12132 -2.12132 c
-1.55874 -2.683901 -0.795609 -3 0 -3 c
cl

gsave
0.502 setgray
fill
grestore
stroke
grestore
} bind def
42.1481 93.9945 o
42.1557 93.9945 o
42.1609 100.267 o
42.7366 107.585 o
43.7333 119.084 o
47.5593 121.175 o
50.966 87.7222 o
59.2345 95.0399 o
60.2035 118.038 o
65.7133 130.583 o
73.1663 88.7676 o
76.4088 67.8599 o
81.1987 96.0853 o
81.2021 78.3137 o
84.2588 74.1322 o
93.0261 127.447 o
94.8935 62.633 o
98.8694 91.9038 o
100.331 110.721 o
103.702 124.311 o
103.889 121.175 o
112.136 59.4968 o
118.943 107.585 o
123.373 90.8584 o
123.376 80.4045 o
125.852 93.9945 o
125.853 92.9491 o
129.003 82.4953 o
129.007 95.0399 o
133.557 109.675 o
141.744 53.2245 o
146.096 115.948 o
150.151 58.4514 o
grestore
1.500 setlinewidth
2 setlinecap
gsave
111.6 108.7 40.59 37.54 clipbox
43.925367 77.268365 m
44.944618 52.179135 l
60.242257 100.266827 l
73.293113 39.634519 l
82.731968 39.634519 l
91.84952 69.950673 l
91.854184 61.587596 l
97.140599 50.088365 l
98.363736 75.177596 l
98.948394 49.042981 l
103.532824 74.132212 l
104.919392 39.634519 l
105.989144 75.177596 l
112.344771 83.540673 l
113.088108 90.858365 l
114.70305 81.449904 l
120.268698 39.634519 l
122.493235 89.812981 l
127.647972 88.767596 l
128.993637 62.632981 l
129.593186 39.634519 l
135.856782 39.634519 l
137.419789 87.722212 l
138.542104 81.449904 l
stroke
grestore
1.000 setlinewidth
0 setlinecap
gsave
111.6 108.7 40.59 37.54 clipbox
/o {
gsave
newpath
translate
1.0 setlinewidth
1 setlinejoin
0 setlinecap
0 -3 m
0.795609 -3 1.55874 -2.683901 2.12132 -2.12132 c
2.683901 -1.55874 3 -0.795609 3 0 c
3 0.795609 2.683901 1.55874 2.12132 2.12132 c
1.55874 2.683901 0.795609 3 0 3 c
-0.795609 3 -1.55874 2.683901 -2.12132 2.12132 c
-2.683901 1.55874 -3 0.795609 -3 0 c
-3 -0.795609 -2.683901 -1.55874 -2.12132 -2.12132 c
-1.55874 -2.683901 -0.795609 -3 0 -3 c
cl

gsave
0.502 setgray
fill
grestore
stroke
grestore
} bind def
43.9254 77.2684 o
44.9446 52.1791 o
60.2423 100.267 o
73.2931 39.6345 o
82.732 39.6345 o
91.8495 69.9507 o
91.8542 61.5876 o
97.1406 50.0884 o
98.3637 75.1776 o
98.9484 49.043 o
103.533 74.1322 o
104.919 39.6345 o
105.989 75.1776 o
112.345 83.5407 o
113.088 90.8584 o
114.703 81.4499 o
120.269 39.6345 o
122.493 89.813 o
127.648 88.7676 o
128.994 62.633 o
129.593 39.6345 o
135.857 39.6345 o
137.42 87.7222 o
138.542 81.4499 o
grestore
1.500 setlinewidth
2 setlinecap
gsave
111.6 108.7 40.59 37.54 clipbox
63.803669 65.769135 m
71.80366 55.315288 l
79.643987 47.997596 l
83.970084 49.042981 l
86.62114 57.406058 l
99.470802 53.224519 l
102.414546 54.269904 l
109.846024 62.632981 l
117.999491 55.315288 l
138.016736 67.859904 l
138.020952 68.905288 l
stroke
grestore
1.000 setlinewidth
0 setlinecap
gsave
111.6 108.7 40.59 37.54 clipbox
/o {
gsave
newpath
translate
1.0 setlinewidth
1 setlinejoin
0 setlinecap
0 -3 m
0.795609 -3 1.55874 -2.683901 2.12132 -2.12132 c
2.683901 -1.55874 3 -0.795609 3 0 c
3 0.795609 2.683901 1.55874 2.12132 2.12132 c
1.55874 2.683901 0.795609 3 0 3 c
-0.795609 3 -1.55874 2.683901 -2.12132 2.12132 c
-2.683901 1.55874 -3 0.795609 -3 0 c
-3 -0.795609 -2.683901 -1.55874 -2.12132 -2.12132 c
-1.55874 -2.683901 -0.795609 -3 0 -3 c
cl

gsave
0.502 setgray
fill
grestore
stroke
grestore
} bind def
63.8037 65.7691 o
71.8037 55.3153 o
79.644 47.9976 o
83.9701 49.043 o
86.6211 57.4061 o
99.4708 53.2245 o
102.415 54.2699 o
109.846 62.633 o
117.999 55.3153 o
138.017 67.8599 o
138.021 68.9053 o
grestore
1.500 setlinewidth
2 setlinecap
gsave
111.6 108.7 40.59 37.54 clipbox
56.237822 104.448365 m
60.96864 97.130673 l
64.127573 90.858365 l
72.389665 72.041442 l
79.484771 78.31375 l
84.955428 82.495288 l
125.986834 65.769135 l
134.392445 62.632981 l
150.341299 67.859904 l
150.345515 61.587596 l
stroke
grestore
1.000 setlinewidth
0 setlinecap
gsave
111.6 108.7 40.59 37.54 clipbox
/o {
gsave
newpath
translate
1.0 setlinewidth
1 setlinejoin
0 setlinecap
0 -3 m
0.795609 -3 1.55874 -2.683901 2.12132 -2.12132 c
2.683901 -1.55874 3 -0.795609 3 0 c
3 0.795609 2.683901 1.55874 2.12132 2.12132 c
1.55874 2.683901 0.795609 3 0 3 c
-0.795609 3 -1.55874 2.683901 -2.12132 2.12132 c
-2.683901 1.55874 -3 0.795609 -3 0 c
-3 -0.795609 -2.683901 -1.55874 -2.12132 -2.12132 c
-1.55874 -2.683901 -0.795609 -3 0 -3 c
cl

gsave
0.502 setgray
fill
grestore
stroke
grestore
} bind def
56.2378 104.448 o
60.9686 97.1307 o
64.1276 90.8584 o
72.3897 72.0414 o
79.4848 78.3137 o
84.9554 82.4953 o
125.987 65.7691 o
134.392 62.633 o
150.341 67.8599 o
150.346 61.5876 o
grestore
1.500 setlinewidth
2 setlinecap
gsave
111.6 108.7 40.59 37.54 clipbox
46.569606 39.634519 m
49.110333 103.402981 l
53.032245 126.401442 l
64.664152 96.085288 l
67.449936 97.130673 l
83.442653 70.996058 l
87.57195 79.359135 l
92.26958 116.992981 l
95.147216 84.586058 l
98.455139 104.448365 l
106.131944 110.720673 l
111.762983 80.404519 l
132.237335 69.950673 l
stroke
grestore
1.000 setlinewidth
0 setlinecap
gsave
111.6 108.7 40.59 37.54 clipbox
/o {
gsave
newpath
translate
1.0 setlinewidth
1 setlinejoin
0 setlinecap
0 -3 m
0.795609 -3 1.55874 -2.683901 2.12132 -2.12132 c
2.683901 -1.55874 3 -0.795609 3 0 c
3 0.795609 2.683901 1.55874 2.12132 2.12132 c
1.55874 2.683901 0.795609 3 0 3 c
-0.795609 3 -1.55874 2.683901 -2.12132 2.12132 c
-2.683901 1.55874 -3 0.795609 -3 0 c
-3 -0.795609 -2.683901 -1.55874 -2.12132 -2.12132 c
-1.55874 -2.683901 -0.795609 -3 0 -3 c
cl

gsave
0.502 setgray
fill
grestore
stroke
grestore
} bind def
46.5696 39.6345 o
49.1103 103.403 o
53.0322 126.401 o
64.6642 96.0853 o
67.4499 97.1307 o
83.4427 70.9961 o
87.572 79.3591 o
92.2696 116.993 o
95.1472 84.5861 o
98.4551 104.448 o
106.132 110.721 o
111.763 80.4045 o
132.237 69.9507 o
grestore
1.500 setlinewidth
2 setlinecap
gsave
111.6 108.7 40.59 37.54 clipbox
52.419332 89.812981 m
57.718843 64.72375 l
68.893374 75.177596 l
72.225156 74.132212 l
80.741904 70.996058 l
82.937737 39.634519 l
87.440003 70.996058 l
121.578304 91.90375 l
123.801765 112.811442 l
126.188209 107.584519 l
139.2257 95.039904 l
142.101094 84.586058 l
145.648872 84.586058 l
stroke
grestore
1.000 setlinewidth
0 setlinecap
gsave
111.6 108.7 40.59 37.54 clipbox
/o {
gsave
newpath
translate
1.0 setlinewidth
1 setlinejoin
0 setlinecap
0 -3 m
0.795609 -3 1.55874 -2.683901 2.12132 -2.12132 c
2.683901 -1.55874 3 -0.795609 3 0 c
3 0.795609 2.683901 1.55874 2.12132 2.12132 c
1.55874 2.683901 0.795609 3 0 3 c
-0.795609 3 -1.55874 2.683901 -2.12132 2.12132 c
-2.683901 1.55874 -3 0.795609 -3 0 c
-3 -0.795609 -2.683901 -1.55874 -2.12132 -2.12132 c
-1.55874 -2.683901 -0.795609 -3 0 -3 c
cl

gsave
0.502 setgray
fill
grestore
stroke
grestore
} bind def
52.4193 89.813 o
57.7188 64.7237 o
68.8934 75.1776 o
72.2252 74.1322 o
80.7419 70.9961 o
82.9377 39.6345 o
87.44 70.9961 o
121.578 91.9038 o
123.802 112.811 o
126.188 107.585 o
139.226 95.0399 o
142.101 84.5861 o
145.649 84.5861 o
grestore
1.500 setlinewidth
2 setlinecap
gsave
111.6 108.7 40.59 37.54 clipbox
44.509847 92.949135 m
58.753432 39.634519 l
58.928524 39.634519 l
66.756742 39.634519 l
66.763559 39.634519 l
66.765712 39.634519 l
68.815246 64.72375 l
69.439193 69.950673 l
70.951788 47.997596 l
74.206609 56.360673 l
83.600434 88.767596 l
90.216369 55.315288 l
136.366991 56.360673 l
stroke
grestore
1.000 setlinewidth
0 setlinecap
gsave
111.6 108.7 40.59 37.54 clipbox
/o {
gsave
newpath
translate
1.0 setlinewidth
1 setlinejoin
0 setlinecap
0 -3 m
0.795609 -3 1.55874 -2.683901 2.12132 -2.12132 c
2.683901 -1.55874 3 -0.795609 3 0 c
3 0.795609 2.683901 1.55874 2.12132 2.12132 c
1.55874 2.683901 0.795609 3 0 3 c
-0.795609 3 -1.55874 2.683901 -2.12132 2.12132 c
-2.683901 1.55874 -3 0.795609 -3 0 c
-3 -0.795609 -2.683901 -1.55874 -2.12132 -2.12132 c
-1.55874 -2.683901 -0.795609 -3 0 -3 c
cl

gsave
0.502 setgray
fill
grestore
stroke
grestore
} bind def
44.5098 92.9491 o
58.7534 39.6345 o
58.9285 39.6345 o
66.7567 39.6345 o
66.7636 39.6345 o
66.7657 39.6345 o
68.8152 64.7237 o
69.4392 69.9507 o
70.9518 47.9976 o
74.2066 56.3607 o
83.6004 88.7676 o
90.2164 55.3153 o
136.367 56.3607 o
grestore
1.500 setlinewidth
2 setlinecap
gsave
111.6 108.7 40.59 37.54 clipbox
52.384528 39.634519 m
53.853889 68.905288 l
61.066861 79.359135 l
76.913727 39.634519 l
83.232668 86.676827 l
83.234641 39.634519 l
130.846372 69.950673 l
stroke
grestore
1.000 setlinewidth
0 setlinecap
gsave
111.6 108.7 40.59 37.54 clipbox
/o {
gsave
newpath
translate
1.0 setlinewidth
1 setlinejoin
0 setlinecap
0 -3 m
0.795609 -3 1.55874 -2.683901 2.12132 -2.12132 c
2.683901 -1.55874 3 -0.795609 3 0 c
3 0.795609 2.683901 1.55874 2.12132 2.12132 c
1.55874 2.683901 0.795609 3 0 3 c
-0.795609 3 -1.55874 2.683901 -2.12132 2.12132 c
-2.683901 1.55874 -3 0.795609 -3 0 c
-3 -0.795609 -2.683901 -1.55874 -2.12132 -2.12132 c
-1.55874 -2.683901 -0.795609 -3 0 -3 c
cl

gsave
0.502 setgray
fill
grestore
stroke
grestore
} bind def
52.3845 39.6345 o
53.8539 68.9053 o
61.0669 79.3591 o
76.9137 39.6345 o
83.2327 86.6768 o
83.2346 39.6345 o
130.846 69.9507 o
grestore
1.500 setlinewidth
2 setlinecap
gsave
111.6 108.7 40.59 37.54 clipbox
74.335417 46.952212 m
94.689931 46.952212 l
99.399132 54.269904 l
102.041667 44.861442 l
111.696875 50.088365 l
131.448611 49.042981 l
142.255556 49.042981 l
stroke
grestore
1.000 setlinewidth
0 setlinecap
gsave
111.6 108.7 40.59 37.54 clipbox
/o {
gsave
newpath
translate
1.0 setlinewidth
1 setlinejoin
0 setlinecap
0 -3 m
0.795609 -3 1.55874 -2.683901 2.12132 -2.12132 c
2.683901 -1.55874 3 -0.795609 3 0 c
3 0.795609 2.683901 1.55874 2.12132 2.12132 c
1.55874 2.683901 0.795609 3 0 3 c
-0.795609 3 -1.55874 2.683901 -2.12132 2.12132 c
-2.683901 1.55874 -3 0.795609 -3 0 c
-3 -0.795609 -2.683901 -1.55874 -2.12132 -2.12132 c
-1.55874 -2.683901 -0.795609 -3 0 -3 c
cl

gsave
0.502 setgray
fill
grestore
stroke
grestore
} bind def
74.3354 46.9522 o
94.6899 46.9522 o
99.3991 54.2699 o
102.042 44.8614 o
111.697 50.0884 o
131.449 49.043 o
142.256 49.043 o
grestore
1.500 setlinewidth
2 setlinecap
gsave
111.6 108.7 40.59 37.54 clipbox
46.898264 79.359135 m
56.984028 77.268365 l
64.222743 76.222981 l
88.393056 39.634519 l
88.403819 91.90375 l
92.838542 86.676827 l
stroke
grestore
1.000 setlinewidth
0 setlinecap
gsave
111.6 108.7 40.59 37.54 clipbox
/o {
gsave
newpath
translate
1.0 setlinewidth
1 setlinejoin
0 setlinecap
0 -3 m
0.795609 -3 1.55874 -2.683901 2.12132 -2.12132 c
2.683901 -1.55874 3 -0.795609 3 0 c
3 0.795609 2.683901 1.55874 2.12132 2.12132 c
1.55874 2.683901 0.795609 3 0 3 c
-0.795609 3 -1.55874 2.683901 -2.12132 2.12132 c
-2.683901 1.55874 -3 0.795609 -3 0 c
-3 -0.795609 -2.683901 -1.55874 -2.12132 -2.12132 c
-1.55874 -2.683901 -0.795609 -3 0 -3 c
cl

gsave
0.502 setgray
fill
grestore
stroke
grestore
} bind def
46.8983 79.3591 o
56.984 77.2684 o
64.2227 76.223 o
88.3931 39.6345 o
88.4038 91.9038 o
92.8385 86.6768 o
grestore
1.500 setlinewidth
2 setlinecap
gsave
111.6 108.7 40.59 37.54 clipbox
43.513021 113.856827 m
48.372917 39.634519 l
51.515972 108.629904 l
118.844097 100.266827 l
143.800174 96.085288 l
144.295312 124.310673 l
stroke
grestore
1.000 setlinewidth
0 setlinecap
gsave
111.6 108.7 40.59 37.54 clipbox
/o {
gsave
newpath
translate
1.0 setlinewidth
1 setlinejoin
0 setlinecap
0 -3 m
0.795609 -3 1.55874 -2.683901 2.12132 -2.12132 c
2.683901 -1.55874 3 -0.795609 3 0 c
3 0.795609 2.683901 1.55874 2.12132 2.12132 c
1.55874 2.683901 0.795609 3 0 3 c
-0.795609 3 -1.55874 2.683901 -2.12132 2.12132 c
-2.683901 1.55874 -3 0.795609 -3 0 c
-3 -0.795609 -2.683901 -1.55874 -2.12132 -2.12132 c
-1.55874 -2.683901 -0.795609 -3 0 -3 c
cl

gsave
0.502 setgray
fill
grestore
stroke
grestore
} bind def
43.513 113.857 o
48.3729 39.6345 o
51.516 108.63 o
118.844 100.267 o
143.8 96.0853 o
144.295 124.311 o
grestore
1.500 setlinewidth
2 setlinecap
gsave
111.6 108.7 40.59 37.54 clipbox
46.031771 81.449904 m
49.43316 69.950673 l
61.590972 65.769135 l
72.155729 68.905288 l
77.505382 66.814519 l
92.311111 67.859904 l
103.537847 69.950673 l
118.946354 74.132212 l
139.338542 91.90375 l
142.002604 84.586058 l
146.867882 86.676827 l
150.500694 93.994519 l
stroke
grestore
1.000 setlinewidth
0 setlinecap
gsave
111.6 108.7 40.59 37.54 clipbox
/o {
gsave
newpath
translate
1.0 setlinewidth
1 setlinejoin
0 setlinecap
0 -3 m
0.795609 -3 1.55874 -2.683901 2.12132 -2.12132 c
2.683901 -1.55874 3 -0.795609 3 0 c
3 0.795609 2.683901 1.55874 2.12132 2.12132 c
1.55874 2.683901 0.795609 3 0 3 c
-0.795609 3 -1.55874 2.683901 -2.12132 2.12132 c
-2.683901 1.55874 -3 0.795609 -3 0 c
-3 -0.795609 -2.683901 -1.55874 -2.12132 -2.12132 c
-1.55874 -2.683901 -0.795609 -3 0 -3 c
cl

gsave
0.502 setgray
fill
grestore
stroke
grestore
} bind def
46.0318 81.4499 o
49.4332 69.9507 o
61.591 65.7691 o
72.1557 68.9053 o
77.5054 66.8145 o
92.3111 67.8599 o
103.538 69.9507 o
118.946 74.1322 o
139.339 91.9038 o
142.003 84.5861 o
146.868 86.6768 o
150.501 93.9945 o
grestore
1.500 setlinewidth
2 setlinecap
gsave
111.6 108.7 40.59 37.54 clipbox
46.467708 81.449904 m
61.273438 90.858365 l
69.33559 63.678365 l
76.773438 65.769135 l
84.270486 104.448365 l
92.434896 86.676827 l
96.1 85.631442 l
100.157986 62.632981 l
116.115451 67.859904 l
124.974132 75.177596 l
133.725174 87.722212 l
stroke
grestore
1.000 setlinewidth
0 setlinecap
gsave
111.6 108.7 40.59 37.54 clipbox
/o {
gsave
newpath
translate
1.0 setlinewidth
1 setlinejoin
0 setlinecap
0 -3 m
0.795609 -3 1.55874 -2.683901 2.12132 -2.12132 c
2.683901 -1.55874 3 -0.795609 3 0 c
3 0.795609 2.683901 1.55874 2.12132 2.12132 c
1.55874 2.683901 0.795609 3 0 3 c
-0.795609 3 -1.55874 2.683901 -2.12132 2.12132 c
-2.683901 1.55874 -3 0.795609 -3 0 c
-3 -0.795609 -2.683901 -1.55874 -2.12132 -2.12132 c
-1.55874 -2.683901 -0.795609 -3 0 -3 c
cl

gsave
0.502 setgray
fill
grestore
stroke
grestore
} bind def
46.4677 81.4499 o
61.2734 90.8584 o
69.3356 63.6784 o
76.7734 65.7691 o
84.2705 104.448 o
92.4349 86.6768 o
96.1 85.6314 o
100.158 62.633 o
116.115 67.8599 o
124.974 75.1776 o
133.725 87.7222 o
grestore
1.500 setlinewidth
2 setlinecap
gsave
111.6 108.7 40.59 37.54 clipbox
42.770313 112.811442 m
49.142535 105.49375 l
65.008507 39.634519 l
72.62934 92.949135 l
74.20625 80.404519 l
80.562326 98.176058 l
88.236979 77.268365 l
89.598611 39.634519 l
96.282986 126.401442 l
102.429167 77.268365 l
105.959722 120.129135 l
120.803125 91.90375 l
126.771701 76.222981 l
135.888715 58.451442 l
141.189931 68.905288 l
148.961458 39.634519 l
stroke
grestore
1.000 setlinewidth
0 setlinecap
gsave
111.6 108.7 40.59 37.54 clipbox
/o {
gsave
newpath
translate
1.0 setlinewidth
1 setlinejoin
0 setlinecap
0 -3 m
0.795609 -3 1.55874 -2.683901 2.12132 -2.12132 c
2.683901 -1.55874 3 -0.795609 3 0 c
3 0.795609 2.683901 1.55874 2.12132 2.12132 c
1.55874 2.683901 0.795609 3 0 3 c
-0.795609 3 -1.55874 2.683901 -2.12132 2.12132 c
-2.683901 1.55874 -3 0.795609 -3 0 c
-3 -0.795609 -2.683901 -1.55874 -2.12132 -2.12132 c
-1.55874 -2.683901 -0.795609 -3 0 -3 c
cl

gsave
0.502 setgray
fill
grestore
stroke
grestore
} bind def
42.7703 112.811 o
49.1425 105.494 o
65.0085 39.6345 o
72.6293 92.9491 o
74.2062 80.4045 o
80.5623 98.1761 o
88.237 77.2684 o
89.5986 39.6345 o
96.283 126.401 o
102.429 77.2684 o
105.96 120.129 o
120.803 91.9038 o
126.772 76.223 o
135.889 58.4514 o
141.19 68.9053 o
148.961 39.6345 o
grestore
1.500 setlinewidth
2 setlinecap
gsave
111.6 108.7 40.59 37.54 clipbox
43.163194 67.859904 m
45.714236 57.406058 l
51.994965 54.269904 l
55.089583 80.404519 l
60.45 66.814519 l
66.547743 66.814519 l
68.081597 55.315288 l
75.853125 56.360673 l
76.676563 60.542212 l
81.423438 62.632981 l
84.222049 98.176058 l
89.447917 55.315288 l
96.799653 39.634519 l
99.469097 55.315288 l
106.094271 73.086827 l
113.575174 106.539135 l
115.162847 84.586058 l
115.867882 63.678365 l
119.985069 65.769135 l
123.413368 70.996058 l
127.665104 83.540673 l
131.631597 73.086827 l
138.262153 53.224519 l
142.896007 78.31375 l
146.507292 72.041442 l
stroke
grestore
1.000 setlinewidth
0 setlinecap
gsave
111.6 108.7 40.59 37.54 clipbox
/o {
gsave
newpath
translate
1.0 setlinewidth
1 setlinejoin
0 setlinecap
0 -3 m
0.795609 -3 1.55874 -2.683901 2.12132 -2.12132 c
2.683901 -1.55874 3 -0.795609 3 0 c
3 0.795609 2.683901 1.55874 2.12132 2.12132 c
1.55874 2.683901 0.795609 3 0 3 c
-0.795609 3 -1.55874 2.683901 -2.12132 2.12132 c
-2.683901 1.55874 -3 0.795609 -3 0 c
-3 -0.795609 -2.683901 -1.55874 -2.12132 -2.12132 c
-1.55874 -2.683901 -0.795609 -3 0 -3 c
cl

gsave
0.502 setgray
fill
grestore
stroke
grestore
} bind def
43.1632 67.8599 o
45.7142 57.4061 o
51.995 54.2699 o
55.0896 80.4045 o
60.45 66.8145 o
66.5477 66.8145 o
68.0816 55.3153 o
75.8531 56.3607 o
76.6766 60.5422 o
81.4234 62.633 o
84.222 98.1761 o
89.4479 55.3153 o
96.7997 39.6345 o
99.4691 55.3153 o
106.094 73.0868 o
113.575 106.539 o
115.163 84.5861 o
115.868 63.6784 o
119.985 65.7691 o
123.413 70.9961 o
127.665 83.5407 o
131.632 73.0868 o
138.262 53.2245 o
142.896 78.3137 o
146.507 72.0414 o
grestore
1.500 setlinewidth
2 setlinecap
gsave
111.6 108.7 40.59 37.54 clipbox
49.513889 65.769135 m
75.067361 83.540673 l
83.904514 69.950673 l
97.972917 72.041442 l
105.95434 83.540673 l
119.694444 76.222981 l
127.595139 39.634519 l
135.915625 87.722212 l
stroke
grestore
1.000 setlinewidth
0 setlinecap
gsave
111.6 108.7 40.59 37.54 clipbox
/o {
gsave
newpath
translate
1.0 setlinewidth
1 setlinejoin
0 setlinecap
0 -3 m
0.795609 -3 1.55874 -2.683901 2.12132 -2.12132 c
2.683901 -1.55874 3 -0.795609 3 0 c
3 0.795609 2.683901 1.55874 2.12132 2.12132 c
1.55874 2.683901 0.795609 3 0 3 c
-0.795609 3 -1.55874 2.683901 -2.12132 2.12132 c
-2.683901 1.55874 -3 0.795609 -3 0 c
-3 -0.795609 -2.683901 -1.55874 -2.12132 -2.12132 c
-1.55874 -2.683901 -0.795609 -3 0 -3 c
cl

gsave
0.502 setgray
fill
grestore
stroke
grestore
} bind def
49.5139 65.7691 o
75.0674 83.5407 o
83.9045 69.9507 o
97.9729 72.0414 o
105.954 83.5407 o
119.694 76.223 o
127.595 39.6345 o
135.916 87.7222 o
grestore
1.500 setlinewidth
2 setlinecap
gsave
111.6 108.7 40.59 37.54 clipbox
51.817361 39.634519 m
60.735243 39.634519 l
100.3625 39.634519 l
116.303819 67.859904 l
131.174132 39.634519 l
144.349132 39.634519 l
stroke
grestore
1.000 setlinewidth
0 setlinecap
gsave
111.6 108.7 40.59 37.54 clipbox
/o {
gsave
newpath
translate
1.0 setlinewidth
1 setlinejoin
0 setlinecap
0 -3 m
0.795609 -3 1.55874 -2.683901 2.12132 -2.12132 c
2.683901 -1.55874 3 -0.795609 3 0 c
3 0.795609 2.683901 1.55874 2.12132 2.12132 c
1.55874 2.683901 0.795609 3 0 3 c
-0.795609 3 -1.55874 2.683901 -2.12132 2.12132 c
-2.683901 1.55874 -3 0.795609 -3 0 c
-3 -0.795609 -2.683901 -1.55874 -2.12132 -2.12132 c
-1.55874 -2.683901 -0.795609 -3 0 -3 c
cl

gsave
0.502 setgray
fill
grestore
stroke
grestore
} bind def
51.8174 39.6345 o
60.7352 39.6345 o
100.362 39.6345 o
116.304 67.8599 o
131.174 39.6345 o
144.349 39.6345 o
grestore
1.500 setlinewidth
2 setlinecap
gsave
111.6 108.7 40.59 37.54 clipbox
72.941493 106.539135 m
115.830208 124.310673 l
115.851736 120.129135 l
119.080903 113.856827 l
119.15625 121.174519 l
119.280035 122.219904 l
127.299132 118.038365 l
127.390625 123.265288 l
127.455208 120.129135 l
127.471354 125.356058 l
127.4875 129.537596 l
133.402257 93.994519 l
133.418403 111.766058 l
142.330903 110.720673 l
142.347049 115.947596 l
146.076736 107.584519 l
149.784896 129.537596 l
150.468403 116.992981 l
150.479167 133.719135 l
stroke
grestore
1.000 setlinewidth
0 setlinecap
gsave
111.6 108.7 40.59 37.54 clipbox
/o {
gsave
newpath
translate
1.0 setlinewidth
1 setlinejoin
0 setlinecap
0 -3 m
0.795609 -3 1.55874 -2.683901 2.12132 -2.12132 c
2.683901 -1.55874 3 -0.795609 3 0 c
3 0.795609 2.683901 1.55874 2.12132 2.12132 c
1.55874 2.683901 0.795609 3 0 3 c
-0.795609 3 -1.55874 2.683901 -2.12132 2.12132 c
-2.683901 1.55874 -3 0.795609 -3 0 c
-3 -0.795609 -2.683901 -1.55874 -2.12132 -2.12132 c
-1.55874 -2.683901 -0.795609 -3 0 -3 c
cl

gsave
0.502 setgray
fill
grestore
stroke
grestore
} bind def
72.9415 106.539 o
115.83 124.311 o
115.852 120.129 o
119.081 113.857 o
119.156 121.175 o
119.28 122.22 o
127.299 118.038 o
127.391 123.265 o
127.455 120.129 o
127.471 125.356 o
127.487 129.538 o
133.402 93.9945 o
133.418 111.766 o
142.331 110.721 o
142.347 115.948 o
146.077 107.585 o
149.785 129.538 o
150.468 116.993 o
150.479 133.719 o
grestore
1.500 setlinewidth
2 setlinecap
gsave
111.6 108.7 40.59 37.54 clipbox
77.247049 101.312212 m
79.679688 98.176058 l
96.282986 89.812981 l
96.315278 97.130673 l
96.369097 96.085288 l
118.553472 96.085288 l
133.068576 114.902212 l
stroke
grestore
1.000 setlinewidth
0 setlinecap
gsave
111.6 108.7 40.59 37.54 clipbox
/o {
gsave
newpath
translate
1.0 setlinewidth
1 setlinejoin
0 setlinecap
0 -3 m
0.795609 -3 1.55874 -2.683901 2.12132 -2.12132 c
2.683901 -1.55874 3 -0.795609 3 0 c
3 0.795609 2.683901 1.55874 2.12132 2.12132 c
1.55874 2.683901 0.795609 3 0 3 c
-0.795609 3 -1.55874 2.683901 -2.12132 2.12132 c
-2.683901 1.55874 -3 0.795609 -3 0 c
-3 -0.795609 -2.683901 -1.55874 -2.12132 -2.12132 c
-1.55874 -2.683901 -0.795609 -3 0 -3 c
cl

gsave
0.502 setgray
fill
grestore
stroke
grestore
} bind def
77.247 101.312 o
79.6797 98.1761 o
96.283 89.813 o
96.3153 97.1307 o
96.3691 96.0853 o
118.553 96.0853 o
133.069 114.902 o
grestore
1.500 setlinewidth
2 setlinecap
gsave
111.6 108.7 40.59 37.54 clipbox
49.061806 108.629904 m
56.488889 108.629904 l
67.715625 110.720673 l
72.930729 110.720673 l
87.677257 111.766058 l
120.453299 105.49375 l
stroke
grestore
1.000 setlinewidth
0 setlinecap
gsave
111.6 108.7 40.59 37.54 clipbox
/o {
gsave
newpath
translate
1.0 setlinewidth
1 setlinejoin
0 setlinecap
0 -3 m
0.795609 -3 1.55874 -2.683901 2.12132 -2.12132 c
2.683901 -1.55874 3 -0.795609 3 0 c
3 0.795609 2.683901 1.55874 2.12132 2.12132 c
1.55874 2.683901 0.795609 3 0 3 c
-0.795609 3 -1.55874 2.683901 -2.12132 2.12132 c
-2.683901 1.55874 -3 0.795609 -3 0 c
-3 -0.795609 -2.683901 -1.55874 -2.12132 -2.12132 c
-1.55874 -2.683901 -0.795609 -3 0 -3 c
cl

gsave
0.502 setgray
fill
grestore
stroke
grestore
} bind def
49.0618 108.63 o
56.4889 108.63 o
67.7156 110.721 o
72.9307 110.721 o
87.6773 111.766 o
120.453 105.494 o
grestore
1.500 setlinewidth
2 setlinecap
gsave
111.6 108.7 40.59 37.54 clipbox
54.27691 39.634519 m
61.407986 39.634519 l
69.303299 39.634519 l
76.455903 39.634519 l
84.135937 39.634519 l
92.025868 39.634519 l
99.630556 61.587596 l
107.375174 39.634519 l
123.784722 39.634519 l
131.620833 39.634519 l
146.8625 39.634519 l
stroke
grestore
1.000 setlinewidth
0 setlinecap
gsave
111.6 108.7 40.59 37.54 clipbox
/o {
gsave
newpath
translate
1.0 setlinewidth
1 setlinejoin
0 setlinecap
0 -3 m
0.795609 -3 1.55874 -2.683901 2.12132 -2.12132 c
2.683901 -1.55874 3 -0.795609 3 0 c
3 0.795609 2.683901 1.55874 2.12132 2.12132 c
1.55874 2.683901 0.795609 3 0 3 c
-0.795609 3 -1.55874 2.683901 -2.12132 2.12132 c
-2.683901 1.55874 -3 0.795609 -3 0 c
-3 -0.795609 -2.683901 -1.55874 -2.12132 -2.12132 c
-1.55874 -2.683901 -0.795609 -3 0 -3 c
cl

gsave
0.502 setgray
fill
grestore
stroke
grestore
} bind def
54.2769 39.6345 o
61.408 39.6345 o
69.3033 39.6345 o
76.4559 39.6345 o
84.1359 39.6345 o
92.0259 39.6345 o
99.6306 61.5876 o
107.375 39.6345 o
123.785 39.6345 o
131.621 39.6345 o
146.862 39.6345 o
grestore
1.500 setlinewidth
2 setlinecap
gsave
111.6 108.7 40.59 37.54 clipbox
46.225521 57.406058 m
53.539583 39.634519 l
68.657465 39.634519 l
76.407465 39.634519 l
83.834549 39.634519 l
99.603646 39.634519 l
114.856076 69.950673 l
123.165799 55.315288 l
130.716667 39.634519 l
138.671181 39.634519 l
145.802257 39.634519 l
stroke
grestore
1.000 setlinewidth
0 setlinecap
gsave
111.6 108.7 40.59 37.54 clipbox
/o {
gsave
newpath
translate
1.0 setlinewidth
1 setlinejoin
0 setlinecap
0 -3 m
0.795609 -3 1.55874 -2.683901 2.12132 -2.12132 c
2.683901 -1.55874 3 -0.795609 3 0 c
3 0.795609 2.683901 1.55874 2.12132 2.12132 c
1.55874 2.683901 0.795609 3 0 3 c
-0.795609 3 -1.55874 2.683901 -2.12132 2.12132 c
-2.683901 1.55874 -3 0.795609 -3 0 c
-3 -0.795609 -2.683901 -1.55874 -2.12132 -2.12132 c
-1.55874 -2.683901 -0.795609 -3 0 -3 c
cl

gsave
0.502 setgray
fill
grestore
stroke
grestore
} bind def
46.2255 57.4061 o
53.5396 39.6345 o
68.6575 39.6345 o
76.4075 39.6345 o
83.8345 39.6345 o
99.6036 39.6345 o
114.856 69.9507 o
123.166 55.3153 o
130.717 39.6345 o
138.671 39.6345 o
145.802 39.6345 o
grestore
1.500 setlinewidth
2 setlinecap
gsave
111.6 108.7 40.59 37.54 clipbox
70.202083 141.036827 m
77.198611 129.537596 l
80.067187 136.855288 l
94.754514 141.036827 l
98.532639 141.036827 l
110.308333 131.628365 l
117.719271 144.172981 l
125.679167 135.809904 l
134.855382 144.172981 l
141.297569 139.991442 l
stroke
grestore
1.000 setlinewidth
0 setlinecap
gsave
111.6 108.7 40.59 37.54 clipbox
/o {
gsave
newpath
translate
1.0 setlinewidth
1 setlinejoin
0 setlinecap
0 -3 m
0.795609 -3 1.55874 -2.683901 2.12132 -2.12132 c
2.683901 -1.55874 3 -0.795609 3 0 c
3 0.795609 2.683901 1.55874 2.12132 2.12132 c
1.55874 2.683901 0.795609 3 0 3 c
-0.795609 3 -1.55874 2.683901 -2.12132 2.12132 c
-2.683901 1.55874 -3 0.795609 -3 0 c
-3 -0.795609 -2.683901 -1.55874 -2.12132 -2.12132 c
-1.55874 -2.683901 -0.795609 -3 0 -3 c
cl

gsave
0.502 setgray
fill
grestore
stroke
grestore
} bind def
70.2021 141.037 o
77.1986 129.538 o
80.0672 136.855 o
94.7545 141.037 o
98.5326 141.037 o
110.308 131.628 o
117.719 144.173 o
125.679 135.81 o
134.855 144.173 o
141.298 139.991 o
grestore
1.500 setlinewidth
2 setlinecap
gsave
111.6 108.7 40.59 37.54 clipbox
60.740625 85.631442 m
68.2 108.629904 l
75.831597 110.720673 l
83.360937 83.540673 l
100.028819 98.176058 l
114.177951 95.039904 l
122.579167 90.858365 l
129.920139 92.949135 l
137.196528 89.812981 l
stroke
grestore
1.000 setlinewidth
0 setlinecap
gsave
111.6 108.7 40.59 37.54 clipbox
/o {
gsave
newpath
translate
1.0 setlinewidth
1 setlinejoin
0 setlinecap
0 -3 m
0.795609 -3 1.55874 -2.683901 2.12132 -2.12132 c
2.683901 -1.55874 3 -0.795609 3 0 c
3 0.795609 2.683901 1.55874 2.12132 2.12132 c
1.55874 2.683901 0.795609 3 0 3 c
-0.795609 3 -1.55874 2.683901 -2.12132 2.12132 c
-2.683901 1.55874 -3 0.795609 -3 0 c
-3 -0.795609 -2.683901 -1.55874 -2.12132 -2.12132 c
-1.55874 -2.683901 -0.795609 -3 0 -3 c
cl

gsave
0.502 setgray
fill
grestore
stroke
grestore
} bind def
60.7406 85.6314 o
68.2 108.63 o
75.8316 110.721 o
83.3609 83.5407 o
100.029 98.1761 o
114.178 95.0399 o
122.579 90.8584 o
129.92 92.9491 o
137.197 89.813 o
grestore
1.500 setlinewidth
2 setlinecap
gsave
111.6 108.7 40.59 37.54 clipbox
51.505208 73.086827 m
60.051736 91.90375 l
66.181771 81.449904 l
88.242361 101.312212 l
96.837326 70.996058 l
113.376042 66.814519 l
128.746875 59.496827 l
139.203993 86.676827 l
stroke
grestore
1.000 setlinewidth
0 setlinecap
gsave
111.6 108.7 40.59 37.54 clipbox
/o {
gsave
newpath
translate
1.0 setlinewidth
1 setlinejoin
0 setlinecap
0 -3 m
0.795609 -3 1.55874 -2.683901 2.12132 -2.12132 c
2.683901 -1.55874 3 -0.795609 3 0 c
3 0.795609 2.683901 1.55874 2.12132 2.12132 c
1.55874 2.683901 0.795609 3 0 3 c
-0.795609 3 -1.55874 2.683901 -2.12132 2.12132 c
-2.683901 1.55874 -3 0.795609 -3 0 c
-3 -0.795609 -2.683901 -1.55874 -2.12132 -2.12132 c
-1.55874 -2.683901 -0.795609 -3 0 -3 c
cl

gsave
0.502 setgray
fill
grestore
stroke
grestore
} bind def
51.5052 73.0868 o
60.0517 91.9038 o
66.1818 81.4499 o
88.2424 101.312 o
96.8373 70.9961 o
113.376 66.8145 o
128.747 59.4968 o
139.204 86.6768 o
grestore
1.500 setlinewidth
2 setlinecap
gsave
111.6 108.7 40.59 37.54 clipbox
43.631424 96.085288 m
51.483681 86.676827 l
64.416493 39.634519 l
76.407465 39.634519 l
91.977431 39.634519 l
105.959722 39.634519 l
stroke
grestore
1.000 setlinewidth
0 setlinecap
gsave
111.6 108.7 40.59 37.54 clipbox
/o {
gsave
newpath
translate
1.0 setlinewidth
1 setlinejoin
0 setlinecap
0 -3 m
0.795609 -3 1.55874 -2.683901 2.12132 -2.12132 c
2.683901 -1.55874 3 -0.795609 3 0 c
3 0.795609 2.683901 1.55874 2.12132 2.12132 c
1.55874 2.683901 0.795609 3 0 3 c
-0.795609 3 -1.55874 2.683901 -2.12132 2.12132 c
-2.683901 1.55874 -3 0.795609 -3 0 c
-3 -0.795609 -2.683901 -1.55874 -2.12132 -2.12132 c
-1.55874 -2.683901 -0.795609 -3 0 -3 c
cl

gsave
0.502 setgray
fill
grestore
stroke
grestore
} bind def
43.6314 96.0853 o
51.4837 86.6768 o
64.4165 39.6345 o
76.4075 39.6345 o
91.9774 39.6345 o
105.96 39.6345 o
grestore
1.500 setlinewidth
2 setlinecap
gsave
111.6 108.7 40.59 37.54 clipbox
49.530035 65.769135 m
49.551563 53.224519 l
64.411111 39.634519 l
72.360243 39.634519 l
81.450347 39.634519 l
98.914757 39.634519 l
114.172569 45.906827 l
126.51875 65.769135 l
136.722917 124.310673 l
141.566667 118.038365 l
149.871007 116.992981 l
stroke
grestore
1.000 setlinewidth
0 setlinecap
gsave
111.6 108.7 40.59 37.54 clipbox
/o {
gsave
newpath
translate
1.0 setlinewidth
1 setlinejoin
0 setlinecap
0 -3 m
0.795609 -3 1.55874 -2.683901 2.12132 -2.12132 c
2.683901 -1.55874 3 -0.795609 3 0 c
3 0.795609 2.683901 1.55874 2.12132 2.12132 c
1.55874 2.683901 0.795609 3 0 3 c
-0.795609 3 -1.55874 2.683901 -2.12132 2.12132 c
-2.683901 1.55874 -3 0.795609 -3 0 c
-3 -0.795609 -2.683901 -1.55874 -2.12132 -2.12132 c
-1.55874 -2.683901 -0.795609 -3 0 -3 c
cl

gsave
0.502 setgray
fill
grestore
stroke
grestore
} bind def
49.53 65.7691 o
49.5516 53.2245 o
64.4111 39.6345 o
72.3602 39.6345 o
81.4503 39.6345 o
98.9148 39.6345 o
114.173 45.9068 o
126.519 65.7691 o
136.723 124.311 o
141.567 118.038 o
149.871 116.993 o
grestore
1.500 setlinewidth
2 setlinecap
gsave
111.6 108.7 40.59 37.54 clipbox
48.647396 39.634519 m
56.897917 39.634519 l
56.897917 39.634519 l
64.061285 39.634519 l
74.690625 85.631442 l
79.523611 39.634519 l
87.494271 65.769135 l
102.816667 73.086827 l
136.636806 39.634519 l
stroke
grestore
1.000 setlinewidth
0 setlinecap
gsave
111.6 108.7 40.59 37.54 clipbox
/o {
gsave
newpath
translate
1.0 setlinewidth
1 setlinejoin
0 setlinecap
0 -3 m
0.795609 -3 1.55874 -2.683901 2.12132 -2.12132 c
2.683901 -1.55874 3 -0.795609 3 0 c
3 0.795609 2.683901 1.55874 2.12132 2.12132 c
1.55874 2.683901 0.795609 3 0 3 c
-0.795609 3 -1.55874 2.683901 -2.12132 2.12132 c
-2.683901 1.55874 -3 0.795609 -3 0 c
-3 -0.795609 -2.683901 -1.55874 -2.12132 -2.12132 c
-1.55874 -2.683901 -0.795609 -3 0 -3 c
cl

gsave
0.502 setgray
fill
grestore
stroke
grestore
} bind def
48.6474 39.6345 o
56.8979 39.6345 o
56.8979 39.6345 o
64.0613 39.6345 o
74.6906 85.6314 o
79.5236 39.6345 o
87.4943 65.7691 o
102.817 73.0868 o
136.637 39.6345 o
grestore
0.800 setlinewidth
0.000 setgray
gsave
/o {
gsave
newpath
translate
0.8 setlinewidth
1 setlinejoin
0 setlinecap
0 0 m
0 -3.5 l

gsave
0.000 setgray
fill
grestore
stroke
grestore
} bind def
42.1406 37.5437 o
grestore
/DejaVuSans findfont
10.000 scalefont
setfont
gsave
38.960938 22.950000 translate
0.000000 rotate
0.000000 0 m /zero glyphshow
grestore
gsave
/o {
gsave
newpath
translate
0.8 setlinewidth
1 setlinejoin
0 setlinecap
0 0 m
0 -3.5 l

gsave
0.000 setgray
fill
grestore
stroke
grestore
} bind def
96.3906 37.5437 o
grestore
gsave
93.210938 22.950000 translate
0.000000 rotate
0.000000 0 m /seven glyphshow
grestore
gsave
/o {
gsave
newpath
translate
0.8 setlinewidth
1 setlinejoin
0 setlinecap
0 0 m
0 -3.5 l

gsave
0.000 setgray
fill
grestore
stroke
grestore
} bind def
150.641 37.5437 o
grestore
gsave
144.281250 22.950000 translate
0.000000 rotate
0.000000 0 m /one glyphshow
6.362305 0 m /four glyphshow
grestore
gsave
66.812500 9.278125 translate
0.000000 rotate
0.000000 0 m /T glyphshow
5.858398 0 m /i glyphshow
8.636719 0 m /m glyphshow
18.377930 0 m /e glyphshow
24.530273 0 m /space glyphshow
27.708984 0 m /parenleft glyphshow
31.610352 0 m /d glyphshow
37.958008 0 m /a glyphshow
44.085938 0 m /y glyphshow
50.003906 0 m /s glyphshow
55.213867 0 m /parenright glyphshow
grestore
gsave
/o {
gsave
newpath
translate
0.8 setlinewidth
1 setlinejoin
0 setlinecap
-0 0 m
-3.5 0 l

gsave
0.000 setgray
fill
grestore
stroke
grestore
} bind def
40.5906 39.6345 o
grestore
gsave
27.231250 35.837644 translate
0.000000 rotate
0.000000 0 m /zero glyphshow
grestore
gsave
/o {
gsave
newpath
translate
0.8 setlinewidth
1 setlinejoin
0 setlinecap
-0 0 m
-3.5 0 l

gsave
0.000 setgray
fill
grestore
stroke
grestore
} bind def
40.5906 60.5422 o
grestore
gsave
27.231250 56.745337 translate
0.000000 rotate
0.000000 0 m /two glyphshow
grestore
gsave
/o {
gsave
newpath
translate
0.8 setlinewidth
1 setlinejoin
0 setlinecap
-0 0 m
-3.5 0 l

gsave
0.000 setgray
fill
grestore
stroke
grestore
} bind def
40.5906 81.4499 o
grestore
gsave
27.231250 77.653029 translate
0.000000 rotate
0.000000 0 m /four glyphshow
grestore
gsave
/o {
gsave
newpath
translate
0.8 setlinewidth
1 setlinejoin
0 setlinecap
-0 0 m
-3.5 0 l

gsave
0.000 setgray
fill
grestore
stroke
grestore
} bind def
40.5906 102.358 o
grestore
gsave
27.231250 98.560721 translate
0.000000 rotate
0.000000 0 m /six glyphshow
grestore
gsave
/o {
gsave
newpath
translate
0.8 setlinewidth
1 setlinejoin
0 setlinecap
-0 0 m
-3.5 0 l

gsave
0.000 setgray
fill
grestore
stroke
grestore
} bind def
40.5906 123.265 o
grestore
gsave
27.231250 119.468413 translate
0.000000 rotate
0.000000 0 m /eight glyphshow
grestore
gsave
/o {
gsave
newpath
translate
0.8 setlinewidth
1 setlinejoin
0 setlinecap
-0 0 m
-3.5 0 l

gsave
0.000 setgray
fill
grestore
stroke
grestore
} bind def
40.5906 144.173 o
grestore
gsave
20.871875 140.376106 translate
0.000000 rotate
0.000000 0 m /one glyphshow
6.362305 0 m /zero glyphshow
grestore
gsave
14.793750 68.020938 translate
90.000000 rotate
0.000000 0 m /P glyphshow
5.530273 0 m /a glyphshow
11.658203 0 m /i glyphshow
14.436523 0 m /n glyphshow
20.774414 0 m /space glyphshow
23.953125 0 m /l glyphshow
26.731445 0 m /e glyphshow
32.883789 0 m /v glyphshow
38.801758 0 m /e glyphshow
44.954102 0 m /l glyphshow
grestore
1.500 setlinewidth
2 setlinecap
gsave
111.6 108.7 40.59 37.54 clipbox
42.61612 144.172981 m
45.802321 144.172981 l
48.834867 144.172981 l
56.195932 144.172981 l
58.112173 144.172981 l
61.403232 135.809904 l
63.795417 133.719135 l
66.065072 132.67375 l
71.689832 136.855288 l
73.582393 136.855288 l
76.665888 132.67375 l
79.627662 143.127596 l
82.920425 137.900673 l
84.541019 136.855288 l
87.208669 135.809904 l
89.093785 133.719135 l
95.139771 134.764519 l
95.147486 133.719135 l
103.095272 132.67375 l
105.159248 132.67375 l
112.438238 132.67375 l
115.593313 133.719135 l
118.707306 134.764519 l
120.606505 136.855288 l
128.014303 133.719135 l
135.581406 127.446827 l
141.440909 129.537596 l
143.449181 129.537596 l
143.452679 130.582981 l
149.541453 133.719135 l
stroke
grestore
1.000 setlinewidth
0 setlinecap
gsave
111.6 108.7 40.59 37.54 clipbox
/o {
gsave
newpath
translate
1.0 setlinewidth
1 setlinejoin
0 setlinecap
0 -3 m
0.795609 -3 1.55874 -2.683901 2.12132 -2.12132 c
2.683901 -1.55874 3 -0.795609 3 0 c
3 0.795609 2.683901 1.55874 2.12132 2.12132 c
1.55874 2.683901 0.795609 3 0 3 c
-0.795609 3 -1.55874 2.683901 -2.12132 2.12132 c
-2.683901 1.55874 -3 0.795609 -3 0 c
-3 -0.795609 -2.683901 -1.55874 -2.12132 -2.12132 c
-1.55874 -2.683901 -0.795609 -3 0 -3 c
cl

gsave
0.000 setgray
fill
grestore
stroke
grestore
} bind def
42.6161 144.173 o
45.8023 144.173 o
48.8349 144.173 o
56.1959 144.173 o
58.1122 144.173 o
61.4032 135.81 o
63.7954 133.719 o
66.0651 132.674 o
71.6898 136.855 o
73.5824 136.855 o
76.6659 132.674 o
79.6277 143.128 o
82.9204 137.901 o
84.541 136.855 o
87.2087 135.81 o
89.0938 133.719 o
95.1398 134.765 o
95.1475 133.719 o
103.095 132.674 o
105.159 132.674 o
112.438 132.674 o
115.593 133.719 o
118.707 134.765 o
120.607 136.855 o
128.014 133.719 o
135.581 127.447 o
141.441 129.538 o
143.449 129.538 o
143.453 130.583 o
149.541 133.719 o
grestore
1.500 setlinewidth
2 setlinecap
gsave
111.6 108.7 40.59 37.54 clipbox
61.6273 88.767596 m
81.958762 91.90375 l
83.76557 97.130673 l
88.693817 90.858365 l
90.021632 87.722212 l
96.407488 92.949135 l
107.267445 96.085288 l
118.42 77.268365 l
120.322248 53.224519 l
129.836808 82.495288 l
133.978484 106.539135 l
135.817225 88.767596 l
137.991082 102.357596 l
142.908206 92.949135 l
stroke
grestore
1.000 setlinewidth
0 setlinecap
gsave
111.6 108.7 40.59 37.54 clipbox
/o {
gsave
newpath
translate
1.0 setlinewidth
1 setlinejoin
0 setlinecap
0 -3 m
0.795609 -3 1.55874 -2.683901 2.12132 -2.12132 c
2.683901 -1.55874 3 -0.795609 3 0 c
3 0.795609 2.683901 1.55874 2.12132 2.12132 c
1.55874 2.683901 0.795609 3 0 3 c
-0.795609 3 -1.55874 2.683901 -2.12132 2.12132 c
-2.683901 1.55874 -3 0.795609 -3 0 c
-3 -0.795609 -2.683901 -1.55874 -2.12132 -2.12132 c
-1.55874 -2.683901 -0.795609 -3 0 -3 c
cl

gsave
0.000 setgray
fill
grestore
stroke
grestore
} bind def
61.6273 88.7676 o
81.9588 91.9038 o
83.7656 97.1307 o
88.6938 90.8584 o
90.0216 87.7222 o
96.4075 92.9491 o
107.267 96.0853 o
118.42 77.2684 o
120.322 53.2245 o
129.837 82.4953 o
133.978 106.539 o
135.817 88.7676 o
137.991 102.358 o
142.908 92.9491 o
grestore
1.500 setlinewidth
2 setlinecap
gsave
111.6 108.7 40.59 37.54 clipbox
44.924974 53.224519 m
48.631071 72.041442 l
56.614288 58.451442 l
63.66329 63.678365 l
71.728492 56.360673 l
79.18428 55.315288 l
82.071962 62.632981 l
86.663119 59.496827 l
99.237584 55.315288 l
102.427104 47.997596 l
105.34035 59.496827 l
110.543614 55.315288 l
125.789227 56.360673 l
140.729236 74.132212 l
144.084878 61.587596 l
stroke
grestore
1.000 setlinewidth
0 setlinecap
gsave
111.6 108.7 40.59 37.54 clipbox
/o {
gsave
newpath
translate
1.0 setlinewidth
1 setlinejoin
0 setlinecap
0 -3 m
0.795609 -3 1.55874 -2.683901 2.12132 -2.12132 c
2.683901 -1.55874 3 -0.795609 3 0 c
3 0.795609 2.683901 1.55874 2.12132 2.12132 c
1.55874 2.683901 0.795609 3 0 3 c
-0.795609 3 -1.55874 2.683901 -2.12132 2.12132 c
-2.683901 1.55874 -3 0.795609 -3 0 c
-3 -0.795609 -2.683901 -1.55874 -2.12132 -2.12132 c
-1.55874 -2.683901 -0.795609 -3 0 -3 c
cl

gsave
0.000 setgray
fill
grestore
stroke
grestore
} bind def
44.925 53.2245 o
48.6311 72.0414 o
56.6143 58.4514 o
63.6633 63.6784 o
71.7285 56.3607 o
79.1843 55.3153 o
82.072 62.633 o
86.6631 59.4968 o
99.2376 55.3153 o
102.427 47.9976 o
105.34 59.4968 o
110.544 55.3153 o
125.789 56.3607 o
140.729 74.1322 o
144.085 61.5876 o
grestore
0.800 setlinewidth
0 setlinejoin
2 setlinecap
gsave
40.590625 37.54375 m
40.590625 146.26375 l
stroke
grestore
gsave
152.190625 37.54375 m
152.190625 146.26375 l
stroke
grestore
gsave
40.590625 37.54375 m
152.190625 37.54375 l
stroke
grestore
gsave
40.590625 146.26375 m
152.190625 146.26375 l
stroke
grestore

end
showpage
