%!PS-Adobe-3.0 EPSF-3.0
%%Title: ../Figures/GroupHistograms.eps
%%Creator: matplotlib version 3.3.1, http://matplotlib.org/
%%CreationDate: Tue Feb  2 13:04:26 2021
%%Orientation: portrait
%%BoundingBox: -55.87500000000002 284.525625 667.875 507.474375
%%EndComments
%%BeginProlog
/mpldict 8 dict def
mpldict begin
/m { moveto } bind def
/l { lineto } bind def
/r { rlineto } bind def
/c { curveto } bind def
/cl { closepath } bind def
/box {
      m
      1 index 0 r
      0 exch r
      neg 0 r
      cl
    } bind def
/clipbox {
      box
      clip
      newpath
    } bind def
%!PS-Adobe-3.0 Resource-Font
%%Title: DejaVu Sans
%%Copyright: Copyright (c) 2003 by Bitstream, Inc. All Rights Reserved. Copyright (c) 2006 by Tavmjong Bah. All Rights Reserved. DejaVu changes are in public domain 
%%Creator: Converted from TrueType to type 3 by PPR
25 dict begin
/_d{bind def}bind def
/_m{moveto}_d
/_l{lineto}_d
/_cl{closepath eofill}_d
/_c{curveto}_d
/_sc{7 -1 roll{setcachedevice}{pop pop pop pop pop pop}ifelse}_d
/_e{exec}_d
/FontName /DejaVuSans def
/PaintType 0 def
/FontMatrix[.001 0 0 .001 0 0]def
/FontBBox[-1021 -463 1793 1232]def
/FontType 3 def
/Encoding [ /space /zero /one /two /three /four /five /six /eight /C /G /P /a /c /e /i /n /o /p /r /s /t /u ] def
/FontInfo 10 dict dup begin
/FamilyName (DejaVu Sans) def
/FullName (DejaVu Sans) def
/Notice (Copyright (c) 2003 by Bitstream, Inc. All Rights Reserved. Copyright (c) 2006 by Tavmjong Bah. All Rights Reserved. DejaVu changes are in public domain ) def
/Weight (Book) def
/Version (Version 2.35) def
/ItalicAngle 0.0 def
/isFixedPitch false def
/UnderlinePosition -130 def
/UnderlineThickness 90 def
end readonly def
/CharStrings 24 dict dup begin
/.notdef 0 def
/space{318 0 0 0 0 0 _sc
}_d
/zero{636 0 66 -13 570 742 _sc
318 664 _m
267 664 229 639 203 589 _c
177 539 165 464 165 364 _c
165 264 177 189 203 139 _c
229 89 267 64 318 64 _c
369 64 407 89 433 139 _c
458 189 471 264 471 364 _c
471 464 458 539 433 589 _c
407 639 369 664 318 664 _c
318 742 _m
399 742 461 709 505 645 _c
548 580 570 486 570 364 _c
570 241 548 147 505 83 _c
461 19 399 -13 318 -13 _c
236 -13 173 19 130 83 _c
87 147 66 241 66 364 _c
66 486 87 580 130 645 _c
173 709 236 742 318 742 _c
_cl}_d
/one{636 0 110 0 544 729 _sc
124 83 _m
285 83 _l
285 639 _l
110 604 _l
110 694 _l
284 729 _l
383 729 _l
383 83 _l
544 83 _l
544 0 _l
124 0 _l
124 83 _l
_cl}_d
/two{{636 0 73 0 536 742 _sc
192 83 _m
536 83 _l
536 0 _l
73 0 _l
73 83 _l
110 121 161 173 226 239 _c
290 304 331 346 348 365 _c
380 400 402 430 414 455 _c
426 479 433 504 433 528 _c
433 566 419 598 392 622 _c
365 646 330 659 286 659 _c
255 659 222 653 188 643 _c
154 632 117 616 78 594 _c
78 694 _l
118 710 155 722 189 730 _c
223 738 255 742 284 742 _c
}_e{359 742 419 723 464 685 _c
509 647 532 597 532 534 _c
532 504 526 475 515 449 _c
504 422 484 390 454 354 _c
446 344 420 317 376 272 _c
332 227 271 164 192 83 _c
_cl}_e}_d
/three{{636 0 76 -13 556 742 _sc
406 393 _m
453 383 490 362 516 330 _c
542 298 556 258 556 212 _c
556 140 531 84 482 45 _c
432 6 362 -13 271 -13 _c
240 -13 208 -10 176 -4 _c
144 1 110 10 76 22 _c
76 117 _l
103 101 133 89 166 81 _c
198 73 232 69 268 69 _c
330 69 377 81 409 105 _c
441 129 458 165 458 212 _c
458 254 443 288 413 312 _c
383 336 341 349 287 349 _c
}_e{202 349 _l
202 430 _l
291 430 _l
339 430 376 439 402 459 _c
428 478 441 506 441 543 _c
441 580 427 609 401 629 _c
374 649 336 659 287 659 _c
260 659 231 656 200 650 _c
169 644 135 635 98 623 _c
98 711 _l
135 721 170 729 203 734 _c
235 739 266 742 296 742 _c
370 742 429 725 473 691 _c
517 657 539 611 539 553 _c
539 513 527 479 504 451 _c
481 423 448 403 406 393 _c
_cl}_e}_d
/four{636 0 49 0 580 729 _sc
378 643 _m
129 254 _l
378 254 _l
378 643 _l
352 729 _m
476 729 _l
476 254 _l
580 254 _l
580 172 _l
476 172 _l
476 0 _l
378 0 _l
378 172 _l
49 172 _l
49 267 _l
352 729 _l
_cl}_d
/five{{636 0 77 -13 549 729 _sc
108 729 _m
495 729 _l
495 646 _l
198 646 _l
198 467 _l
212 472 227 476 241 478 _c
255 480 270 482 284 482 _c
365 482 429 459 477 415 _c
525 370 549 310 549 234 _c
549 155 524 94 475 51 _c
426 8 357 -13 269 -13 _c
238 -13 207 -10 175 -6 _c
143 -1 111 6 77 17 _c
77 116 _l
106 100 136 88 168 80 _c
199 72 232 69 267 69 _c
}_e{323 69 368 83 401 113 _c
433 143 450 183 450 234 _c
450 284 433 324 401 354 _c
368 384 323 399 267 399 _c
241 399 214 396 188 390 _c
162 384 135 375 108 363 _c
108 729 _l
_cl}_e}_d
/six{{636 0 70 -13 573 742 _sc
330 404 _m
286 404 251 388 225 358 _c
199 328 186 286 186 234 _c
186 181 199 139 225 109 _c
251 79 286 64 330 64 _c
374 64 409 79 435 109 _c
461 139 474 181 474 234 _c
474 286 461 328 435 358 _c
409 388 374 404 330 404 _c
526 713 _m
526 623 _l
501 635 476 644 451 650 _c
425 656 400 659 376 659 _c
310 659 260 637 226 593 _c
}_e{192 549 172 482 168 394 _c
187 422 211 444 240 459 _c
269 474 301 482 336 482 _c
409 482 467 459 509 415 _c
551 371 573 310 573 234 _c
573 159 550 99 506 54 _c
462 9 403 -13 330 -13 _c
246 -13 181 19 137 83 _c
92 147 70 241 70 364 _c
70 479 97 571 152 639 _c
206 707 280 742 372 742 _c
396 742 421 739 447 735 _c
472 730 498 723 526 713 _c
_cl}_e}_d
/eight{{636 0 68 -13 568 742 _sc
318 346 _m
271 346 234 333 207 308 _c
180 283 167 249 167 205 _c
167 161 180 126 207 101 _c
234 76 271 64 318 64 _c
364 64 401 76 428 102 _c
455 127 469 161 469 205 _c
469 249 455 283 429 308 _c
402 333 365 346 318 346 _c
219 388 _m
177 398 144 418 120 447 _c
96 476 85 511 85 553 _c
85 611 105 657 147 691 _c
188 725 245 742 318 742 _c
}_e{390 742 447 725 489 691 _c
530 657 551 611 551 553 _c
551 511 539 476 515 447 _c
491 418 459 398 417 388 _c
464 377 501 355 528 323 _c
554 291 568 251 568 205 _c
568 134 546 80 503 43 _c
459 5 398 -13 318 -13 _c
237 -13 175 5 132 43 _c
89 80 68 134 68 205 _c
68 251 81 291 108 323 _c
134 355 171 377 219 388 _c
183 544 _m
183 506 194 476 218 455 _c
}_e{242 434 275 424 318 424 _c
360 424 393 434 417 455 _c
441 476 453 506 453 544 _c
453 582 441 611 417 632 _c
393 653 360 664 318 664 _c
275 664 242 653 218 632 _c
194 611 183 582 183 544 _c
_cl}_e}_d
/C{{698 0 56 -13 644 742 _sc
644 673 _m
644 569 _l
610 599 575 622 537 638 _c
499 653 460 661 418 661 _c
334 661 270 635 226 584 _c
182 533 160 460 160 364 _c
160 268 182 194 226 143 _c
270 92 334 67 418 67 _c
460 67 499 74 537 90 _c
575 105 610 128 644 159 _c
644 56 _l
609 32 572 15 534 4 _c
496 -7 455 -13 412 -13 _c
302 -13 215 20 151 87 _c
}_e{87 154 56 246 56 364 _c
56 481 87 573 151 641 _c
215 708 302 742 412 742 _c
456 742 497 736 535 725 _c
573 713 610 696 644 673 _c
_cl}_e}_d
/G{{775 0 56 -13 693 742 _sc
595 104 _m
595 300 _l
434 300 _l
434 381 _l
693 381 _l
693 68 _l
655 40 613 20 567 7 _c
521 -6 472 -13 420 -13 _c
306 -13 216 20 152 86 _c
88 152 56 245 56 364 _c
56 482 88 575 152 642 _c
216 708 306 742 420 742 _c
467 742 512 736 555 724 _c
598 712 638 695 674 673 _c
674 568 _l
637 598 598 621 557 637 _c
516 653 473 661 428 661 _c
}_e{338 661 271 636 227 586 _c
182 536 160 462 160 364 _c
160 265 182 191 227 141 _c
271 91 338 67 428 67 _c
462 67 493 70 521 76 _c
549 82 573 91 595 104 _c
_cl}_e}_d
/P{603 0 98 0 569 729 _sc
197 648 _m
197 374 _l
321 374 _l
367 374 402 385 427 409 _c
452 433 465 467 465 511 _c
465 555 452 588 427 612 _c
402 636 367 648 321 648 _c
197 648 _l
98 729 _m
321 729 _l
402 729 464 710 506 673 _c
548 636 569 582 569 511 _c
569 439 548 384 506 348 _c
464 311 402 293 321 293 _c
197 293 _l
197 0 _l
98 0 _l
98 729 _l
_cl}_d
/a{{613 0 60 -13 522 560 _sc
343 275 _m
270 275 220 266 192 250 _c
164 233 150 205 150 165 _c
150 133 160 107 181 89 _c
202 70 231 61 267 61 _c
317 61 357 78 387 114 _c
417 149 432 196 432 255 _c
432 275 _l
343 275 _l
522 312 _m
522 0 _l
432 0 _l
432 83 _l
411 49 385 25 355 10 _c
325 -5 287 -13 243 -13 _c
187 -13 142 2 109 33 _c
76 64 60 106 60 159 _c
}_e{60 220 80 266 122 298 _c
163 329 224 345 306 345 _c
432 345 _l
432 354 _l
432 395 418 427 391 450 _c
364 472 326 484 277 484 _c
245 484 215 480 185 472 _c
155 464 127 453 100 439 _c
100 522 _l
132 534 164 544 195 550 _c
226 556 256 560 286 560 _c
365 560 424 539 463 498 _c
502 457 522 395 522 312 _c
_cl}_e}_d
/c{{550 0 55 -13 488 560 _sc
488 526 _m
488 442 _l
462 456 437 466 411 473 _c
385 480 360 484 334 484 _c
276 484 230 465 198 428 _c
166 391 150 339 150 273 _c
150 206 166 154 198 117 _c
230 80 276 62 334 62 _c
360 62 385 65 411 72 _c
437 79 462 90 488 104 _c
488 21 _l
462 9 436 0 410 -5 _c
383 -10 354 -13 324 -13 _c
242 -13 176 12 128 64 _c
}_e{79 115 55 185 55 273 _c
55 362 79 432 128 483 _c
177 534 244 560 330 560 _c
358 560 385 557 411 551 _c
437 545 463 537 488 526 _c
_cl}_e}_d
/e{{615 0 55 -13 562 560 _sc
562 296 _m
562 252 _l
149 252 _l
153 190 171 142 205 110 _c
238 78 284 62 344 62 _c
378 62 412 66 444 74 _c
476 82 509 95 541 113 _c
541 28 _l
509 14 476 3 442 -3 _c
408 -9 373 -13 339 -13 _c
251 -13 182 12 131 62 _c
80 112 55 181 55 268 _c
55 357 79 428 127 481 _c
175 533 241 560 323 560 _c
397 560 455 536 498 489 _c
}_e{540 441 562 377 562 296 _c
472 322 _m
471 371 457 410 431 440 _c
404 469 368 484 324 484 _c
274 484 234 469 204 441 _c
174 413 156 373 152 322 _c
472 322 _l
_cl}_e}_d
/i{278 0 94 0 184 760 _sc
94 547 _m
184 547 _l
184 0 _l
94 0 _l
94 547 _l
94 760 _m
184 760 _l
184 646 _l
94 646 _l
94 760 _l
_cl}_d
/n{634 0 91 0 549 560 _sc
549 330 _m
549 0 _l
459 0 _l
459 327 _l
459 379 448 417 428 443 _c
408 469 378 482 338 482 _c
289 482 251 466 223 435 _c
195 404 181 362 181 309 _c
181 0 _l
91 0 _l
91 547 _l
181 547 _l
181 462 _l
202 494 227 519 257 535 _c
286 551 320 560 358 560 _c
420 560 468 540 500 501 _c
532 462 549 405 549 330 _c
_cl}_d
/o{612 0 55 -13 557 560 _sc
306 484 _m
258 484 220 465 192 427 _c
164 389 150 338 150 273 _c
150 207 163 156 191 118 _c
219 80 257 62 306 62 _c
354 62 392 80 420 118 _c
448 156 462 207 462 273 _c
462 337 448 389 420 427 _c
392 465 354 484 306 484 _c
306 560 _m
384 560 445 534 490 484 _c
534 433 557 363 557 273 _c
557 183 534 113 490 63 _c
445 12 384 -13 306 -13 _c
227 -13 165 12 121 63 _c
77 113 55 183 55 273 _c
55 363 77 433 121 484 _c
165 534 227 560 306 560 _c
_cl}_d
/p{{635 0 91 -207 580 560 _sc
181 82 _m
181 -207 _l
91 -207 _l
91 547 _l
181 547 _l
181 464 _l
199 496 223 520 252 536 _c
281 552 316 560 356 560 _c
422 560 476 533 518 481 _c
559 428 580 359 580 273 _c
580 187 559 117 518 65 _c
476 13 422 -13 356 -13 _c
316 -13 281 -5 252 10 _c
223 25 199 49 181 82 _c
487 273 _m
487 339 473 390 446 428 _c
418 466 381 485 334 485 _c
}_e{286 485 249 466 222 428 _c
194 390 181 339 181 273 _c
181 207 194 155 222 117 _c
249 79 286 61 334 61 _c
381 61 418 79 446 117 _c
473 155 487 207 487 273 _c
_cl}_e}_d
/r{411 0 91 0 411 560 _sc
411 463 _m
401 469 390 473 378 476 _c
366 478 353 480 339 480 _c
288 480 249 463 222 430 _c
194 397 181 350 181 288 _c
181 0 _l
91 0 _l
91 547 _l
181 547 _l
181 462 _l
199 495 224 520 254 536 _c
284 552 321 560 365 560 _c
371 560 378 559 386 559 _c
393 558 401 557 411 555 _c
411 463 _l
_cl}_d
/s{{521 0 54 -13 472 560 _sc
443 531 _m
443 446 _l
417 458 391 468 364 475 _c
336 481 308 485 279 485 _c
234 485 200 478 178 464 _c
156 450 145 430 145 403 _c
145 382 153 366 169 354 _c
185 342 217 330 265 320 _c
296 313 _l
360 299 405 279 432 255 _c
458 230 472 195 472 151 _c
472 100 452 60 412 31 _c
372 1 316 -13 246 -13 _c
216 -13 186 -10 154 -5 _c
}_e{122 0 89 8 54 20 _c
54 113 _l
87 95 120 82 152 74 _c
184 65 216 61 248 61 _c
290 61 323 68 346 82 _c
368 96 380 117 380 144 _c
380 168 371 187 355 200 _c
339 213 303 226 247 238 _c
216 245 _l
160 257 119 275 95 299 _c
70 323 58 356 58 399 _c
58 450 76 490 112 518 _c
148 546 200 560 268 560 _c
301 560 332 557 362 552 _c
391 547 418 540 443 531 _c
}_e{_cl}_e}_d
/t{392 0 27 0 368 702 _sc
183 702 _m
183 547 _l
368 547 _l
368 477 _l
183 477 _l
183 180 _l
183 135 189 106 201 94 _c
213 81 238 75 276 75 _c
368 75 _l
368 0 _l
276 0 _l
206 0 158 13 132 39 _c
106 65 93 112 93 180 _c
93 477 _l
27 477 _l
27 547 _l
93 547 _l
93 702 _l
183 702 _l
_cl}_d
/u{634 0 85 -13 543 560 _sc
85 216 _m
85 547 _l
175 547 _l
175 219 _l
175 167 185 129 205 103 _c
225 77 255 64 296 64 _c
344 64 383 79 411 110 _c
439 141 453 183 453 237 _c
453 547 _l
543 547 _l
543 0 _l
453 0 _l
453 84 _l
431 50 405 26 377 10 _c
348 -5 315 -13 277 -13 _c
214 -13 166 6 134 45 _c
101 83 85 140 85 216 _c
311 560 _m
311 560 _l
_cl}_d
end readonly def

/BuildGlyph
 {exch begin
 CharStrings exch
 2 copy known not{pop /.notdef}if
 true 3 1 roll get exec
 end}_d

/BuildChar {
 1 index /Encoding get exch get
 1 index /BuildGlyph get exec
}_d

FontName currentdict end definefont pop
end
%%EndProlog
mpldict begin
-55.875 284.526 translate
723.75 222.949 0 0 clipbox
gsave
0 0 m
723.75 0 l
723.75 222.94875 l
0 222.94875 l
cl
grestore
gsave
46.95 37.54375 m
243.891176 37.54375 l
243.891176 200.62375 l
46.95 200.62375 l
cl
grestore
gsave
196.9 163.1 46.95 37.54 clipbox
55.901872 37.54375 m
73.805615 37.54375 l
73.805615 148.082746 l
55.901872 148.082746 l
cl
0.267 0.005 0.329 setrgbcolor
fill
grestore
gsave
196.9 163.1 46.95 37.54 clipbox
73.805615 37.54375 m
91.709358 37.54375 l
91.709358 67.627148 l
73.805615 67.627148 l
cl
0.267 0.005 0.329 setrgbcolor
fill
grestore
gsave
196.9 163.1 46.95 37.54 clipbox
91.709358 37.54375 m
109.613102 37.54375 l
109.613102 66.927534 l
91.709358 66.927534 l
cl
0.267 0.005 0.329 setrgbcolor
fill
grestore
gsave
196.9 163.1 46.95 37.54 clipbox
109.613102 37.54375 m
127.516845 37.54375 l
127.516845 45.239503 l
109.613102 45.239503 l
cl
0.267 0.005 0.329 setrgbcolor
fill
grestore
gsave
196.9 163.1 46.95 37.54 clipbox
127.516845 37.54375 m
145.420588 37.54375 l
145.420588 39.642592 l
127.516845 39.642592 l
cl
0.267 0.005 0.329 setrgbcolor
fill
grestore
gsave
196.9 163.1 46.95 37.54 clipbox
145.420588 37.54375 m
163.324332 37.54375 l
163.324332 38.942978 l
145.420588 38.942978 l
cl
0.267 0.005 0.329 setrgbcolor
fill
grestore
gsave
196.9 163.1 46.95 37.54 clipbox
163.324332 37.54375 m
181.228075 37.54375 l
181.228075 37.54375 l
163.324332 37.54375 l
cl
0.267 0.005 0.329 setrgbcolor
fill
grestore
gsave
196.9 163.1 46.95 37.54 clipbox
181.228075 37.54375 m
199.131818 37.54375 l
199.131818 37.54375 l
181.228075 37.54375 l
cl
0.267 0.005 0.329 setrgbcolor
fill
grestore
gsave
196.9 163.1 46.95 37.54 clipbox
199.131818 37.54375 m
217.035561 37.54375 l
217.035561 37.54375 l
199.131818 37.54375 l
cl
0.267 0.005 0.329 setrgbcolor
fill
grestore
gsave
196.9 163.1 46.95 37.54 clipbox
217.035561 37.54375 m
234.939305 37.54375 l
234.939305 37.54375 l
217.035561 37.54375 l
cl
0.267 0.005 0.329 setrgbcolor
fill
grestore
0.800 setlinewidth
1 setlinejoin
0 setlinecap
[] 0 setdash
0.000 setgray
gsave
/o {
gsave
newpath
translate
0.8 setlinewidth
1 setlinejoin
0 setlinecap
0 0 m
0 -3.5 l

gsave
0.000 setgray
fill
grestore
stroke
grestore
} bind def
55.9019 37.5438 o
grestore
/DejaVuSans findfont
10.000 scalefont
setfont
gsave
52.722184 22.950000 translate
0.000000 rotate
0.000000 0 m /zero glyphshow
grestore
gsave
/o {
gsave
newpath
translate
0.8 setlinewidth
1 setlinejoin
0 setlinecap
0 0 m
0 -3.5 l

gsave
0.000 setgray
fill
grestore
stroke
grestore
} bind def
91.7094 37.5438 o
grestore
gsave
88.529671 22.950000 translate
0.000000 rotate
0.000000 0 m /two glyphshow
grestore
gsave
/o {
gsave
newpath
translate
0.8 setlinewidth
1 setlinejoin
0 setlinecap
0 0 m
0 -3.5 l

gsave
0.000 setgray
fill
grestore
stroke
grestore
} bind def
127.517 37.5438 o
grestore
gsave
124.337157 22.950000 translate
0.000000 rotate
0.000000 0 m /four glyphshow
grestore
gsave
/o {
gsave
newpath
translate
0.8 setlinewidth
1 setlinejoin
0 setlinecap
0 0 m
0 -3.5 l

gsave
0.000 setgray
fill
grestore
stroke
grestore
} bind def
163.324 37.5438 o
grestore
gsave
160.144644 22.950000 translate
0.000000 rotate
0.000000 0 m /six glyphshow
grestore
gsave
/o {
gsave
newpath
translate
0.8 setlinewidth
1 setlinejoin
0 setlinecap
0 0 m
0 -3.5 l

gsave
0.000 setgray
fill
grestore
stroke
grestore
} bind def
199.132 37.5438 o
grestore
gsave
195.952131 22.950000 translate
0.000000 rotate
0.000000 0 m /eight glyphshow
grestore
gsave
/o {
gsave
newpath
translate
0.8 setlinewidth
1 setlinejoin
0 setlinecap
0 0 m
0 -3.5 l

gsave
0.000 setgray
fill
grestore
stroke
grestore
} bind def
234.939 37.5438 o
grestore
gsave
228.579930 22.950000 translate
0.000000 rotate
0.000000 0 m /one glyphshow
6.362305 0 m /zero glyphshow
grestore
gsave
/o {
gsave
newpath
translate
0.8 setlinewidth
1 setlinejoin
0 setlinecap
-0 0 m
-3.5 0 l

gsave
0.000 setgray
fill
grestore
stroke
grestore
} bind def
46.95 37.5438 o
grestore
gsave
33.590625 33.746875 translate
0.000000 rotate
0.000000 0 m /zero glyphshow
grestore
gsave
/o {
gsave
newpath
translate
0.8 setlinewidth
1 setlinejoin
0 setlinecap
-0 0 m
-3.5 0 l

gsave
0.000 setgray
fill
grestore
stroke
grestore
} bind def
46.95 72.5244 o
grestore
gsave
27.231250 68.727570 translate
0.000000 rotate
0.000000 0 m /five glyphshow
6.362305 0 m /zero glyphshow
grestore
gsave
/o {
gsave
newpath
translate
0.8 setlinewidth
1 setlinejoin
0 setlinecap
-0 0 m
-3.5 0 l

gsave
0.000 setgray
fill
grestore
stroke
grestore
} bind def
46.95 107.505 o
grestore
gsave
20.871875 103.708265 translate
0.000000 rotate
0.000000 0 m /one glyphshow
6.362305 0 m /zero glyphshow
12.724609 0 m /zero glyphshow
grestore
gsave
/o {
gsave
newpath
translate
0.8 setlinewidth
1 setlinejoin
0 setlinecap
-0 0 m
-3.5 0 l

gsave
0.000 setgray
fill
grestore
stroke
grestore
} bind def
46.95 142.486 o
grestore
gsave
20.871875 138.688960 translate
0.000000 rotate
0.000000 0 m /one glyphshow
6.362305 0 m /five glyphshow
12.724609 0 m /zero glyphshow
grestore
gsave
/o {
gsave
newpath
translate
0.8 setlinewidth
1 setlinejoin
0 setlinecap
-0 0 m
-3.5 0 l

gsave
0.000 setgray
fill
grestore
stroke
grestore
} bind def
46.95 177.467 o
grestore
gsave
20.871875 173.669655 translate
0.000000 rotate
0.000000 0 m /two glyphshow
6.362305 0 m /zero glyphshow
12.724609 0 m /zero glyphshow
grestore
gsave
14.793750 104.224375 translate
90.000000 rotate
0.000000 0 m /C glyphshow
6.982422 0 m /o glyphshow
13.100586 0 m /u glyphshow
19.438477 0 m /n glyphshow
25.776367 0 m /t glyphshow
grestore
0 setlinejoin
2 setlinecap
gsave
46.95 37.54375 m
46.95 200.62375 l
stroke
grestore
gsave
243.891176 37.54375 m
243.891176 200.62375 l
stroke
grestore
gsave
46.95 37.54375 m
243.891176 37.54375 l
stroke
grestore
gsave
46.95 200.62375 m
243.891176 200.62375 l
stroke
grestore
/DejaVuSans findfont
12.000 scalefont
setfont
gsave
121.412776 206.623750 translate
0.000000 rotate
0.000000 0 m /G glyphshow
9.298828 0 m /r glyphshow
13.982422 0 m /o glyphshow
21.324219 0 m /u glyphshow
28.929688 0 m /p glyphshow
36.546875 0 m /space glyphshow
40.361328 0 m /one glyphshow
grestore
gsave
283.279412 37.54375 m
480.220588 37.54375 l
480.220588 200.62375 l
283.279412 200.62375 l
cl
grestore
gsave
196.9 163.1 283.3 37.54 clipbox
292.231283 37.54375 m
310.135027 37.54375 l
310.135027 117.299735 l
292.231283 117.299735 l
cl
0.128 0.567 0.551 setrgbcolor
fill
grestore
gsave
196.9 163.1 283.3 37.54 clipbox
310.135027 37.54375 m
328.03877 37.54375 l
328.03877 77.421742 l
310.135027 77.421742 l
cl
0.128 0.567 0.551 setrgbcolor
fill
grestore
gsave
196.9 163.1 283.3 37.54 clipbox
328.03877 37.54375 m
345.942513 37.54375 l
345.942513 156.478113 l
328.03877 156.478113 l
cl
0.128 0.567 0.551 setrgbcolor
fill
grestore
gsave
196.9 163.1 283.3 37.54 clipbox
345.942513 37.54375 m
363.846257 37.54375 l
363.846257 190.759194 l
345.942513 190.759194 l
cl
0.128 0.567 0.551 setrgbcolor
fill
grestore
gsave
196.9 163.1 283.3 37.54 clipbox
363.846257 37.54375 m
381.75 37.54375 l
381.75 192.858036 l
363.846257 192.858036 l
cl
0.128 0.567 0.551 setrgbcolor
fill
grestore
gsave
196.9 163.1 283.3 37.54 clipbox
381.75 37.54375 m
399.653743 37.54375 l
399.653743 148.78236 l
381.75 148.78236 l
cl
0.128 0.567 0.551 setrgbcolor
fill
grestore
gsave
196.9 163.1 283.3 37.54 clipbox
399.653743 37.54375 m
417.557487 37.54375 l
417.557487 131.991626 l
399.653743 131.991626 l
cl
0.128 0.567 0.551 setrgbcolor
fill
grestore
gsave
196.9 163.1 283.3 37.54 clipbox
417.557487 37.54375 m
435.46123 37.54375 l
435.46123 113.102051 l
417.557487 113.102051 l
cl
0.128 0.567 0.551 setrgbcolor
fill
grestore
gsave
196.9 163.1 283.3 37.54 clipbox
435.46123 37.54375 m
453.364973 37.54375 l
453.364973 80.220198 l
435.46123 80.220198 l
cl
0.128 0.567 0.551 setrgbcolor
fill
grestore
gsave
196.9 163.1 283.3 37.54 clipbox
453.364973 37.54375 m
471.268717 37.54375 l
471.268717 48.037958 l
453.364973 48.037958 l
cl
0.128 0.567 0.551 setrgbcolor
fill
grestore
1 setlinejoin
0 setlinecap
gsave
/o {
gsave
newpath
translate
0.8 setlinewidth
1 setlinejoin
0 setlinecap
0 0 m
0 -3.5 l

gsave
0.000 setgray
fill
grestore
stroke
grestore
} bind def
292.231 37.5438 o
grestore
/DejaVuSans findfont
10.000 scalefont
setfont
gsave
289.051596 22.950000 translate
0.000000 rotate
0.000000 0 m /zero glyphshow
grestore
gsave
/o {
gsave
newpath
translate
0.8 setlinewidth
1 setlinejoin
0 setlinecap
0 0 m
0 -3.5 l

gsave
0.000 setgray
fill
grestore
stroke
grestore
} bind def
328.039 37.5438 o
grestore
gsave
324.859083 22.950000 translate
0.000000 rotate
0.000000 0 m /two glyphshow
grestore
gsave
/o {
gsave
newpath
translate
0.8 setlinewidth
1 setlinejoin
0 setlinecap
0 0 m
0 -3.5 l

gsave
0.000 setgray
fill
grestore
stroke
grestore
} bind def
363.846 37.5438 o
grestore
gsave
360.666569 22.950000 translate
0.000000 rotate
0.000000 0 m /four glyphshow
grestore
gsave
/o {
gsave
newpath
translate
0.8 setlinewidth
1 setlinejoin
0 setlinecap
0 0 m
0 -3.5 l

gsave
0.000 setgray
fill
grestore
stroke
grestore
} bind def
399.654 37.5438 o
grestore
gsave
396.474056 22.950000 translate
0.000000 rotate
0.000000 0 m /six glyphshow
grestore
gsave
/o {
gsave
newpath
translate
0.8 setlinewidth
1 setlinejoin
0 setlinecap
0 0 m
0 -3.5 l

gsave
0.000 setgray
fill
grestore
stroke
grestore
} bind def
435.461 37.5438 o
grestore
gsave
432.281542 22.950000 translate
0.000000 rotate
0.000000 0 m /eight glyphshow
grestore
gsave
/o {
gsave
newpath
translate
0.8 setlinewidth
1 setlinejoin
0 setlinecap
0 0 m
0 -3.5 l

gsave
0.000 setgray
fill
grestore
stroke
grestore
} bind def
471.269 37.5438 o
grestore
gsave
464.909342 22.950000 translate
0.000000 rotate
0.000000 0 m /one glyphshow
6.362305 0 m /zero glyphshow
grestore
gsave
356.335938 9.278125 translate
0.000000 rotate
0.000000 0 m /P glyphshow
5.530273 0 m /a glyphshow
11.658203 0 m /i glyphshow
14.436523 0 m /n glyphshow
20.774414 0 m /space glyphshow
23.953125 0 m /s glyphshow
29.163086 0 m /c glyphshow
34.661133 0 m /o glyphshow
40.779297 0 m /r glyphshow
44.640625 0 m /e glyphshow
grestore
gsave
/o {
gsave
newpath
translate
0.8 setlinewidth
1 setlinejoin
0 setlinecap
-0 0 m
-3.5 0 l

gsave
0.000 setgray
fill
grestore
stroke
grestore
} bind def
283.279 37.5438 o
grestore
gsave
/o {
gsave
newpath
translate
0.8 setlinewidth
1 setlinejoin
0 setlinecap
-0 0 m
-3.5 0 l

gsave
0.000 setgray
fill
grestore
stroke
grestore
} bind def
283.279 72.5244 o
grestore
gsave
/o {
gsave
newpath
translate
0.8 setlinewidth
1 setlinejoin
0 setlinecap
-0 0 m
-3.5 0 l

gsave
0.000 setgray
fill
grestore
stroke
grestore
} bind def
283.279 107.505 o
grestore
gsave
/o {
gsave
newpath
translate
0.8 setlinewidth
1 setlinejoin
0 setlinecap
-0 0 m
-3.5 0 l

gsave
0.000 setgray
fill
grestore
stroke
grestore
} bind def
283.279 142.486 o
grestore
gsave
/o {
gsave
newpath
translate
0.8 setlinewidth
1 setlinejoin
0 setlinecap
-0 0 m
-3.5 0 l

gsave
0.000 setgray
fill
grestore
stroke
grestore
} bind def
283.279 177.467 o
grestore
0 setlinejoin
2 setlinecap
gsave
283.279412 37.54375 m
283.279412 200.62375 l
stroke
grestore
gsave
480.220588 37.54375 m
480.220588 200.62375 l
stroke
grestore
gsave
283.279412 37.54375 m
480.220588 37.54375 l
stroke
grestore
gsave
283.279412 200.62375 m
480.220588 200.62375 l
stroke
grestore
/DejaVuSans findfont
12.000 scalefont
setfont
gsave
357.742188 206.623750 translate
0.000000 rotate
0.000000 0 m /G glyphshow
9.298828 0 m /r glyphshow
13.982422 0 m /o glyphshow
21.324219 0 m /u glyphshow
28.929688 0 m /p glyphshow
36.546875 0 m /space glyphshow
40.361328 0 m /two glyphshow
grestore
gsave
519.608824 37.54375 m
716.55 37.54375 l
716.55 200.62375 l
519.608824 200.62375 l
cl
grestore
gsave
196.9 163.1 519.6 37.54 clipbox
528.560695 37.54375 m
546.464439 37.54375 l
546.464439 37.54375 l
528.560695 37.54375 l
cl
0.993 0.906 0.144 setrgbcolor
fill
grestore
gsave
196.9 163.1 519.6 37.54 clipbox
546.464439 37.54375 m
564.368182 37.54375 l
564.368182 37.54375 l
546.464439 37.54375 l
cl
0.993 0.906 0.144 setrgbcolor
fill
grestore
gsave
196.9 163.1 519.6 37.54 clipbox
564.368182 37.54375 m
582.271925 37.54375 l
582.271925 37.54375 l
564.368182 37.54375 l
cl
0.993 0.906 0.144 setrgbcolor
fill
grestore
gsave
196.9 163.1 519.6 37.54 clipbox
582.271925 37.54375 m
600.175668 37.54375 l
600.175668 37.54375 l
582.271925 37.54375 l
cl
0.993 0.906 0.144 setrgbcolor
fill
grestore
gsave
196.9 163.1 519.6 37.54 clipbox
600.175668 37.54375 m
618.079412 37.54375 l
618.079412 37.54375 l
600.175668 37.54375 l
cl
0.993 0.906 0.144 setrgbcolor
fill
grestore
gsave
196.9 163.1 519.6 37.54 clipbox
618.079412 37.54375 m
635.983155 37.54375 l
635.983155 38.243364 l
618.079412 38.243364 l
cl
0.993 0.906 0.144 setrgbcolor
fill
grestore
gsave
196.9 163.1 519.6 37.54 clipbox
635.983155 37.54375 m
653.886898 37.54375 l
653.886898 41.041819 l
635.983155 41.041819 l
cl
0.993 0.906 0.144 setrgbcolor
fill
grestore
gsave
196.9 163.1 519.6 37.54 clipbox
653.886898 37.54375 m
671.790642 37.54375 l
671.790642 62.72985 l
653.886898 62.72985 l
cl
0.993 0.906 0.144 setrgbcolor
fill
grestore
gsave
196.9 163.1 519.6 37.54 clipbox
671.790642 37.54375 m
689.694385 37.54375 l
689.694385 188.660352 l
671.790642 188.660352 l
cl
0.993 0.906 0.144 setrgbcolor
fill
grestore
gsave
196.9 163.1 519.6 37.54 clipbox
689.694385 37.54375 m
707.598128 37.54375 l
707.598128 162.075024 l
689.694385 162.075024 l
cl
0.993 0.906 0.144 setrgbcolor
fill
grestore
1 setlinejoin
0 setlinecap
gsave
/o {
gsave
newpath
translate
0.8 setlinewidth
1 setlinejoin
0 setlinecap
0 0 m
0 -3.5 l

gsave
0.000 setgray
fill
grestore
stroke
grestore
} bind def
528.561 37.5438 o
grestore
/DejaVuSans findfont
10.000 scalefont
setfont
gsave
525.381008 22.950000 translate
0.000000 rotate
0.000000 0 m /zero glyphshow
grestore
gsave
/o {
gsave
newpath
translate
0.8 setlinewidth
1 setlinejoin
0 setlinecap
0 0 m
0 -3.5 l

gsave
0.000 setgray
fill
grestore
stroke
grestore
} bind def
564.368 37.5438 o
grestore
gsave
561.188494 22.950000 translate
0.000000 rotate
0.000000 0 m /two glyphshow
grestore
gsave
/o {
gsave
newpath
translate
0.8 setlinewidth
1 setlinejoin
0 setlinecap
0 0 m
0 -3.5 l

gsave
0.000 setgray
fill
grestore
stroke
grestore
} bind def
600.176 37.5438 o
grestore
gsave
596.995981 22.950000 translate
0.000000 rotate
0.000000 0 m /four glyphshow
grestore
gsave
/o {
gsave
newpath
translate
0.8 setlinewidth
1 setlinejoin
0 setlinecap
0 0 m
0 -3.5 l

gsave
0.000 setgray
fill
grestore
stroke
grestore
} bind def
635.983 37.5438 o
grestore
gsave
632.803468 22.950000 translate
0.000000 rotate
0.000000 0 m /six glyphshow
grestore
gsave
/o {
gsave
newpath
translate
0.8 setlinewidth
1 setlinejoin
0 setlinecap
0 0 m
0 -3.5 l

gsave
0.000 setgray
fill
grestore
stroke
grestore
} bind def
671.791 37.5438 o
grestore
gsave
668.610954 22.950000 translate
0.000000 rotate
0.000000 0 m /eight glyphshow
grestore
gsave
/o {
gsave
newpath
translate
0.8 setlinewidth
1 setlinejoin
0 setlinecap
0 0 m
0 -3.5 l

gsave
0.000 setgray
fill
grestore
stroke
grestore
} bind def
707.598 37.5438 o
grestore
gsave
701.238753 22.950000 translate
0.000000 rotate
0.000000 0 m /one glyphshow
6.362305 0 m /zero glyphshow
grestore
gsave
/o {
gsave
newpath
translate
0.8 setlinewidth
1 setlinejoin
0 setlinecap
-0 0 m
-3.5 0 l

gsave
0.000 setgray
fill
grestore
stroke
grestore
} bind def
519.609 37.5438 o
grestore
gsave
/o {
gsave
newpath
translate
0.8 setlinewidth
1 setlinejoin
0 setlinecap
-0 0 m
-3.5 0 l

gsave
0.000 setgray
fill
grestore
stroke
grestore
} bind def
519.609 72.5244 o
grestore
gsave
/o {
gsave
newpath
translate
0.8 setlinewidth
1 setlinejoin
0 setlinecap
-0 0 m
-3.5 0 l

gsave
0.000 setgray
fill
grestore
stroke
grestore
} bind def
519.609 107.505 o
grestore
gsave
/o {
gsave
newpath
translate
0.8 setlinewidth
1 setlinejoin
0 setlinecap
-0 0 m
-3.5 0 l

gsave
0.000 setgray
fill
grestore
stroke
grestore
} bind def
519.609 142.486 o
grestore
gsave
/o {
gsave
newpath
translate
0.8 setlinewidth
1 setlinejoin
0 setlinecap
-0 0 m
-3.5 0 l

gsave
0.000 setgray
fill
grestore
stroke
grestore
} bind def
519.609 177.467 o
grestore
0 setlinejoin
2 setlinecap
gsave
519.608824 37.54375 m
519.608824 200.62375 l
stroke
grestore
gsave
716.55 37.54375 m
716.55 200.62375 l
stroke
grestore
gsave
519.608824 37.54375 m
716.55 37.54375 l
stroke
grestore
gsave
519.608824 200.62375 m
716.55 200.62375 l
stroke
grestore
/DejaVuSans findfont
12.000 scalefont
setfont
gsave
594.071599 206.623750 translate
0.000000 rotate
0.000000 0 m /G glyphshow
9.298828 0 m /r glyphshow
13.982422 0 m /o glyphshow
21.324219 0 m /u glyphshow
28.929688 0 m /p glyphshow
36.546875 0 m /space glyphshow
40.361328 0 m /three glyphshow
grestore

end
showpage
