%!PS-Adobe-3.0 EPSF-3.0
%%Title: ../Figures/TrialComparison_uniform.eps
%%Creator: matplotlib version 3.3.1, http://matplotlib.org/
%%CreationDate: Tue Jan 12 12:08:01 2021
%%Orientation: portrait
%%BoundingBox: 18.0 270.0 594.0 522.0
%%EndComments
%%BeginProlog
/mpldict 8 dict def
mpldict begin
/m { moveto } bind def
/l { lineto } bind def
/r { rlineto } bind def
/c { curveto } bind def
/cl { closepath } bind def
/box {
      m
      1 index 0 r
      0 exch r
      neg 0 r
      cl
    } bind def
/clipbox {
      box
      clip
      newpath
    } bind def
%!PS-Adobe-3.0 Resource-Font
%%Title: DejaVu Sans
%%Copyright: Copyright (c) 2003 by Bitstream, Inc. All Rights Reserved. Copyright (c) 2006 by Tavmjong Bah. All Rights Reserved. DejaVu changes are in public domain 
%%Creator: Converted from TrueType to type 3 by PPR
25 dict begin
/_d{bind def}bind def
/_m{moveto}_d
/_l{lineto}_d
/_cl{closepath eofill}_d
/_c{curveto}_d
/_sc{7 -1 roll{setcachedevice}{pop pop pop pop pop pop}ifelse}_d
/_e{exec}_d
/FontName /DejaVuSans def
/PaintType 0 def
/FontMatrix[.001 0 0 .001 0 0]def
/FontBBox[-1021 -463 1793 1232]def
/FontType 3 def
/Encoding [ /period /zero /one /two /three /four /five /six /eight /underscore /b /d /e /g /h /i /m /n /o /r /s /t ] def
/FontInfo 10 dict dup begin
/FamilyName (DejaVu Sans) def
/FullName (DejaVu Sans) def
/Notice (Copyright (c) 2003 by Bitstream, Inc. All Rights Reserved. Copyright (c) 2006 by Tavmjong Bah. All Rights Reserved. DejaVu changes are in public domain ) def
/Weight (Book) def
/Version (Version 2.35) def
/ItalicAngle 0.0 def
/isFixedPitch false def
/UnderlinePosition -130 def
/UnderlineThickness 90 def
end readonly def
/CharStrings 23 dict dup begin
/.notdef 0 def
/period{318 0 107 0 210 124 _sc
107 124 _m
210 124 _l
210 0 _l
107 0 _l
107 124 _l
_cl}_d
/zero{636 0 66 -13 570 742 _sc
318 664 _m
267 664 229 639 203 589 _c
177 539 165 464 165 364 _c
165 264 177 189 203 139 _c
229 89 267 64 318 64 _c
369 64 407 89 433 139 _c
458 189 471 264 471 364 _c
471 464 458 539 433 589 _c
407 639 369 664 318 664 _c
318 742 _m
399 742 461 709 505 645 _c
548 580 570 486 570 364 _c
570 241 548 147 505 83 _c
461 19 399 -13 318 -13 _c
236 -13 173 19 130 83 _c
87 147 66 241 66 364 _c
66 486 87 580 130 645 _c
173 709 236 742 318 742 _c
_cl}_d
/one{636 0 110 0 544 729 _sc
124 83 _m
285 83 _l
285 639 _l
110 604 _l
110 694 _l
284 729 _l
383 729 _l
383 83 _l
544 83 _l
544 0 _l
124 0 _l
124 83 _l
_cl}_d
/two{{636 0 73 0 536 742 _sc
192 83 _m
536 83 _l
536 0 _l
73 0 _l
73 83 _l
110 121 161 173 226 239 _c
290 304 331 346 348 365 _c
380 400 402 430 414 455 _c
426 479 433 504 433 528 _c
433 566 419 598 392 622 _c
365 646 330 659 286 659 _c
255 659 222 653 188 643 _c
154 632 117 616 78 594 _c
78 694 _l
118 710 155 722 189 730 _c
223 738 255 742 284 742 _c
}_e{359 742 419 723 464 685 _c
509 647 532 597 532 534 _c
532 504 526 475 515 449 _c
504 422 484 390 454 354 _c
446 344 420 317 376 272 _c
332 227 271 164 192 83 _c
_cl}_e}_d
/three{{636 0 76 -13 556 742 _sc
406 393 _m
453 383 490 362 516 330 _c
542 298 556 258 556 212 _c
556 140 531 84 482 45 _c
432 6 362 -13 271 -13 _c
240 -13 208 -10 176 -4 _c
144 1 110 10 76 22 _c
76 117 _l
103 101 133 89 166 81 _c
198 73 232 69 268 69 _c
330 69 377 81 409 105 _c
441 129 458 165 458 212 _c
458 254 443 288 413 312 _c
383 336 341 349 287 349 _c
}_e{202 349 _l
202 430 _l
291 430 _l
339 430 376 439 402 459 _c
428 478 441 506 441 543 _c
441 580 427 609 401 629 _c
374 649 336 659 287 659 _c
260 659 231 656 200 650 _c
169 644 135 635 98 623 _c
98 711 _l
135 721 170 729 203 734 _c
235 739 266 742 296 742 _c
370 742 429 725 473 691 _c
517 657 539 611 539 553 _c
539 513 527 479 504 451 _c
481 423 448 403 406 393 _c
_cl}_e}_d
/four{636 0 49 0 580 729 _sc
378 643 _m
129 254 _l
378 254 _l
378 643 _l
352 729 _m
476 729 _l
476 254 _l
580 254 _l
580 172 _l
476 172 _l
476 0 _l
378 0 _l
378 172 _l
49 172 _l
49 267 _l
352 729 _l
_cl}_d
/five{{636 0 77 -13 549 729 _sc
108 729 _m
495 729 _l
495 646 _l
198 646 _l
198 467 _l
212 472 227 476 241 478 _c
255 480 270 482 284 482 _c
365 482 429 459 477 415 _c
525 370 549 310 549 234 _c
549 155 524 94 475 51 _c
426 8 357 -13 269 -13 _c
238 -13 207 -10 175 -6 _c
143 -1 111 6 77 17 _c
77 116 _l
106 100 136 88 168 80 _c
199 72 232 69 267 69 _c
}_e{323 69 368 83 401 113 _c
433 143 450 183 450 234 _c
450 284 433 324 401 354 _c
368 384 323 399 267 399 _c
241 399 214 396 188 390 _c
162 384 135 375 108 363 _c
108 729 _l
_cl}_e}_d
/six{{636 0 70 -13 573 742 _sc
330 404 _m
286 404 251 388 225 358 _c
199 328 186 286 186 234 _c
186 181 199 139 225 109 _c
251 79 286 64 330 64 _c
374 64 409 79 435 109 _c
461 139 474 181 474 234 _c
474 286 461 328 435 358 _c
409 388 374 404 330 404 _c
526 713 _m
526 623 _l
501 635 476 644 451 650 _c
425 656 400 659 376 659 _c
310 659 260 637 226 593 _c
}_e{192 549 172 482 168 394 _c
187 422 211 444 240 459 _c
269 474 301 482 336 482 _c
409 482 467 459 509 415 _c
551 371 573 310 573 234 _c
573 159 550 99 506 54 _c
462 9 403 -13 330 -13 _c
246 -13 181 19 137 83 _c
92 147 70 241 70 364 _c
70 479 97 571 152 639 _c
206 707 280 742 372 742 _c
396 742 421 739 447 735 _c
472 730 498 723 526 713 _c
_cl}_e}_d
/eight{{636 0 68 -13 568 742 _sc
318 346 _m
271 346 234 333 207 308 _c
180 283 167 249 167 205 _c
167 161 180 126 207 101 _c
234 76 271 64 318 64 _c
364 64 401 76 428 102 _c
455 127 469 161 469 205 _c
469 249 455 283 429 308 _c
402 333 365 346 318 346 _c
219 388 _m
177 398 144 418 120 447 _c
96 476 85 511 85 553 _c
85 611 105 657 147 691 _c
188 725 245 742 318 742 _c
}_e{390 742 447 725 489 691 _c
530 657 551 611 551 553 _c
551 511 539 476 515 447 _c
491 418 459 398 417 388 _c
464 377 501 355 528 323 _c
554 291 568 251 568 205 _c
568 134 546 80 503 43 _c
459 5 398 -13 318 -13 _c
237 -13 175 5 132 43 _c
89 80 68 134 68 205 _c
68 251 81 291 108 323 _c
134 355 171 377 219 388 _c
183 544 _m
183 506 194 476 218 455 _c
}_e{242 434 275 424 318 424 _c
360 424 393 434 417 455 _c
441 476 453 506 453 544 _c
453 582 441 611 417 632 _c
393 653 360 664 318 664 _c
275 664 242 653 218 632 _c
194 611 183 582 183 544 _c
_cl}_e}_d
/underscore{500 0 -9 -235 510 -165 _sc
510 -165 _m
510 -235 _l
-9 -235 _l
-9 -165 _l
510 -165 _l
_cl}_d
/b{{635 0 91 -13 580 760 _sc
487 273 _m
487 339 473 390 446 428 _c
418 466 381 485 334 485 _c
286 485 249 466 222 428 _c
194 390 181 339 181 273 _c
181 207 194 155 222 117 _c
249 79 286 61 334 61 _c
381 61 418 79 446 117 _c
473 155 487 207 487 273 _c
181 464 _m
199 496 223 520 252 536 _c
281 552 316 560 356 560 _c
422 560 476 533 518 481 _c
559 428 580 359 580 273 _c
}_e{580 187 559 117 518 65 _c
476 13 422 -13 356 -13 _c
316 -13 281 -5 252 10 _c
223 25 199 49 181 82 _c
181 0 _l
91 0 _l
91 760 _l
181 760 _l
181 464 _l
_cl}_e}_d
/d{{635 0 55 -13 544 760 _sc
454 464 _m
454 760 _l
544 760 _l
544 0 _l
454 0 _l
454 82 _l
435 49 411 25 382 10 _c
353 -5 319 -13 279 -13 _c
213 -13 159 13 117 65 _c
75 117 55 187 55 273 _c
55 359 75 428 117 481 _c
159 533 213 560 279 560 _c
319 560 353 552 382 536 _c
411 520 435 496 454 464 _c
148 273 _m
148 207 161 155 188 117 _c
215 79 253 61 301 61 _c
}_e{348 61 385 79 413 117 _c
440 155 454 207 454 273 _c
454 339 440 390 413 428 _c
385 466 348 485 301 485 _c
253 485 215 466 188 428 _c
161 390 148 339 148 273 _c
_cl}_e}_d
/e{{615 0 55 -13 562 560 _sc
562 296 _m
562 252 _l
149 252 _l
153 190 171 142 205 110 _c
238 78 284 62 344 62 _c
378 62 412 66 444 74 _c
476 82 509 95 541 113 _c
541 28 _l
509 14 476 3 442 -3 _c
408 -9 373 -13 339 -13 _c
251 -13 182 12 131 62 _c
80 112 55 181 55 268 _c
55 357 79 428 127 481 _c
175 533 241 560 323 560 _c
397 560 455 536 498 489 _c
}_e{540 441 562 377 562 296 _c
472 322 _m
471 371 457 410 431 440 _c
404 469 368 484 324 484 _c
274 484 234 469 204 441 _c
174 413 156 373 152 322 _c
472 322 _l
_cl}_e}_d
/g{{635 0 55 -207 544 560 _sc
454 280 _m
454 344 440 395 414 431 _c
387 467 349 485 301 485 _c
253 485 215 467 188 431 _c
161 395 148 344 148 280 _c
148 215 161 165 188 129 _c
215 93 253 75 301 75 _c
349 75 387 93 414 129 _c
440 165 454 215 454 280 _c
544 68 _m
544 -24 523 -93 482 -139 _c
440 -184 377 -207 292 -207 _c
260 -207 231 -204 203 -200 _c
175 -195 147 -188 121 -178 _c
}_e{121 -91 _l
147 -105 173 -115 199 -122 _c
225 -129 251 -133 278 -133 _c
336 -133 380 -117 410 -87 _c
439 -56 454 -10 454 52 _c
454 96 _l
435 64 411 40 382 24 _c
353 8 319 0 279 0 _c
211 0 157 25 116 76 _c
75 127 55 195 55 280 _c
55 364 75 432 116 483 _c
157 534 211 560 279 560 _c
319 560 353 552 382 536 _c
411 520 435 496 454 464 _c
454 547 _l
544 547 _l
}_e{544 68 _l
_cl}_e}_d
/h{634 0 91 0 549 760 _sc
549 330 _m
549 0 _l
459 0 _l
459 327 _l
459 379 448 417 428 443 _c
408 469 378 482 338 482 _c
289 482 251 466 223 435 _c
195 404 181 362 181 309 _c
181 0 _l
91 0 _l
91 760 _l
181 760 _l
181 462 _l
202 494 227 519 257 535 _c
286 551 320 560 358 560 _c
420 560 468 540 500 501 _c
532 462 549 405 549 330 _c
_cl}_d
/i{278 0 94 0 184 760 _sc
94 547 _m
184 547 _l
184 0 _l
94 0 _l
94 547 _l
94 760 _m
184 760 _l
184 646 _l
94 646 _l
94 760 _l
_cl}_d
/m{{974 0 91 0 889 560 _sc
520 442 _m
542 482 569 511 600 531 _c
631 550 668 560 711 560 _c
767 560 811 540 842 500 _c
873 460 889 403 889 330 _c
889 0 _l
799 0 _l
799 327 _l
799 379 789 418 771 444 _c
752 469 724 482 686 482 _c
639 482 602 466 575 435 _c
548 404 535 362 535 309 _c
535 0 _l
445 0 _l
445 327 _l
445 379 435 418 417 444 _c
398 469 369 482 331 482 _c
}_e{285 482 248 466 221 435 _c
194 404 181 362 181 309 _c
181 0 _l
91 0 _l
91 547 _l
181 547 _l
181 462 _l
201 495 226 520 255 536 _c
283 552 317 560 357 560 _c
397 560 430 550 458 530 _c
486 510 506 480 520 442 _c
_cl}_e}_d
/n{634 0 91 0 549 560 _sc
549 330 _m
549 0 _l
459 0 _l
459 327 _l
459 379 448 417 428 443 _c
408 469 378 482 338 482 _c
289 482 251 466 223 435 _c
195 404 181 362 181 309 _c
181 0 _l
91 0 _l
91 547 _l
181 547 _l
181 462 _l
202 494 227 519 257 535 _c
286 551 320 560 358 560 _c
420 560 468 540 500 501 _c
532 462 549 405 549 330 _c
_cl}_d
/o{612 0 55 -13 557 560 _sc
306 484 _m
258 484 220 465 192 427 _c
164 389 150 338 150 273 _c
150 207 163 156 191 118 _c
219 80 257 62 306 62 _c
354 62 392 80 420 118 _c
448 156 462 207 462 273 _c
462 337 448 389 420 427 _c
392 465 354 484 306 484 _c
306 560 _m
384 560 445 534 490 484 _c
534 433 557 363 557 273 _c
557 183 534 113 490 63 _c
445 12 384 -13 306 -13 _c
227 -13 165 12 121 63 _c
77 113 55 183 55 273 _c
55 363 77 433 121 484 _c
165 534 227 560 306 560 _c
_cl}_d
/r{411 0 91 0 411 560 _sc
411 463 _m
401 469 390 473 378 476 _c
366 478 353 480 339 480 _c
288 480 249 463 222 430 _c
194 397 181 350 181 288 _c
181 0 _l
91 0 _l
91 547 _l
181 547 _l
181 462 _l
199 495 224 520 254 536 _c
284 552 321 560 365 560 _c
371 560 378 559 386 559 _c
393 558 401 557 411 555 _c
411 463 _l
_cl}_d
/s{{521 0 54 -13 472 560 _sc
443 531 _m
443 446 _l
417 458 391 468 364 475 _c
336 481 308 485 279 485 _c
234 485 200 478 178 464 _c
156 450 145 430 145 403 _c
145 382 153 366 169 354 _c
185 342 217 330 265 320 _c
296 313 _l
360 299 405 279 432 255 _c
458 230 472 195 472 151 _c
472 100 452 60 412 31 _c
372 1 316 -13 246 -13 _c
216 -13 186 -10 154 -5 _c
}_e{122 0 89 8 54 20 _c
54 113 _l
87 95 120 82 152 74 _c
184 65 216 61 248 61 _c
290 61 323 68 346 82 _c
368 96 380 117 380 144 _c
380 168 371 187 355 200 _c
339 213 303 226 247 238 _c
216 245 _l
160 257 119 275 95 299 _c
70 323 58 356 58 399 _c
58 450 76 490 112 518 _c
148 546 200 560 268 560 _c
301 560 332 557 362 552 _c
391 547 418 540 443 531 _c
}_e{_cl}_e}_d
/t{392 0 27 0 368 702 _sc
183 702 _m
183 547 _l
368 547 _l
368 477 _l
183 477 _l
183 180 _l
183 135 189 106 201 94 _c
213 81 238 75 276 75 _c
368 75 _l
368 0 _l
276 0 _l
206 0 158 13 132 39 _c
106 65 93 112 93 180 _c
93 477 _l
27 477 _l
27 547 _l
93 547 _l
93 702 _l
183 702 _l
_cl}_d
end readonly def

/BuildGlyph
 {exch begin
 CharStrings exch
 2 copy known not{pop /.notdef}if
 true 3 1 roll get exec
 end}_d

/BuildChar {
 1 index /Encoding get exch get
 1 index /BuildGlyph get exec
}_d

FontName currentdict end definefont pop
end
%%EndProlog
mpldict begin
18 270 translate
576 252 0 0 clipbox
gsave
0 0 m
576 0 l
576 252 l
0 252 l
cl
grestore
gsave
72 133.56 m
203.294118 133.56 l
203.294118 221.76 l
72 221.76 l
cl
grestore
gsave
131.3 88.2 72 133.6 clipbox
72 221.76 m
93.882353 221.76 l
93.882353 204.12 l
72 204.12 l
72 221.76 l
0.136 0.541 0.554 setrgbcolor
fill
grestore
gsave
131.3 88.2 72 133.6 clipbox
93.882353 221.76 m
115.764706 221.76 l
115.764706 204.12 l
93.882353 204.12 l
93.882353 221.76 l
0.123 0.585 0.547 setrgbcolor
fill
grestore
gsave
131.3 88.2 72 133.6 clipbox
115.764706 221.76 m
137.647059 221.76 l
137.647059 204.12 l
115.764706 204.12 l
115.764706 221.76 l
0.124 0.578 0.548 setrgbcolor
fill
grestore
gsave
131.3 88.2 72 133.6 clipbox
137.647059 221.76 m
159.529412 221.76 l
159.529412 204.12 l
137.647059 204.12 l
137.647059 221.76 l
0.123 0.585 0.547 setrgbcolor
fill
grestore
gsave
131.3 88.2 72 133.6 clipbox
159.529412 221.76 m
181.411765 221.76 l
181.411765 204.12 l
159.529412 204.12 l
159.529412 221.76 l
0.129 0.563 0.551 setrgbcolor
fill
grestore
gsave
131.3 88.2 72 133.6 clipbox
181.411765 221.76 m
203.294118 221.76 l
203.294118 204.12 l
181.411765 204.12 l
181.411765 221.76 l
0.143 0.523 0.556 setrgbcolor
fill
grestore
gsave
131.3 88.2 72 133.6 clipbox
72 204.12 m
93.882353 204.12 l
93.882353 186.48 l
72 186.48 l
72 204.12 l
0.487 0.824 0.312 setrgbcolor
fill
grestore
gsave
131.3 88.2 72 133.6 clipbox
93.882353 204.12 m
115.764706 204.12 l
115.764706 186.48 l
93.882353 186.48 l
93.882353 204.12 l
0.536 0.836 0.282 setrgbcolor
fill
grestore
gsave
131.3 88.2 72 133.6 clipbox
115.764706 204.12 m
137.647059 204.12 l
137.647059 186.48 l
115.764706 186.48 l
115.764706 204.12 l
0.478 0.821 0.318 setrgbcolor
fill
grestore
gsave
131.3 88.2 72 133.6 clipbox
137.647059 204.12 m
159.529412 204.12 l
159.529412 186.48 l
137.647059 186.48 l
137.647059 204.12 l
0.386 0.795 0.373 setrgbcolor
fill
grestore
gsave
131.3 88.2 72 133.6 clipbox
159.529412 204.12 m
181.411765 204.12 l
181.411765 186.48 l
159.529412 186.48 l
159.529412 204.12 l
0.404 0.800 0.363 setrgbcolor
fill
grestore
gsave
131.3 88.2 72 133.6 clipbox
181.411765 204.12 m
203.294118 204.12 l
203.294118 186.48 l
181.411765 186.48 l
181.411765 204.12 l
0.369 0.789 0.383 setrgbcolor
fill
grestore
gsave
131.3 88.2 72 133.6 clipbox
72 186.48 m
93.882353 186.48 l
93.882353 168.84 l
72 168.84 l
72 186.48 l
0.526 0.833 0.288 setrgbcolor
fill
grestore
gsave
131.3 88.2 72 133.6 clipbox
93.882353 186.48 m
115.764706 186.48 l
115.764706 168.84 l
93.882353 168.84 l
93.882353 186.48 l
0.468 0.819 0.324 setrgbcolor
fill
grestore
gsave
131.3 88.2 72 133.6 clipbox
115.764706 186.48 m
137.647059 186.48 l
137.647059 168.84 l
115.764706 168.84 l
115.764706 186.48 l
0.459 0.816 0.330 setrgbcolor
fill
grestore
gsave
131.3 88.2 72 133.6 clipbox
137.647059 186.48 m
159.529412 186.48 l
159.529412 168.84 l
137.647059 168.84 l
137.647059 186.48 l
0.478 0.821 0.318 setrgbcolor
fill
grestore
gsave
131.3 88.2 72 133.6 clipbox
159.529412 186.48 m
181.411765 186.48 l
181.411765 168.84 l
159.529412 168.84 l
159.529412 186.48 l
0.459 0.816 0.330 setrgbcolor
fill
grestore
gsave
131.3 88.2 72 133.6 clipbox
181.411765 186.48 m
203.294118 186.48 l
203.294118 168.84 l
181.411765 168.84 l
181.411765 186.48 l
0.459 0.816 0.330 setrgbcolor
fill
grestore
gsave
131.3 88.2 72 133.6 clipbox
72 168.84 m
93.882353 168.84 l
93.882353 151.2 l
72 151.2 l
72 168.84 l
0.506 0.829 0.300 setrgbcolor
fill
grestore
gsave
131.3 88.2 72 133.6 clipbox
93.882353 168.84 m
115.764706 168.84 l
115.764706 151.2 l
93.882353 151.2 l
93.882353 168.84 l
0.497 0.826 0.306 setrgbcolor
fill
grestore
gsave
131.3 88.2 72 133.6 clipbox
115.764706 168.84 m
137.647059 168.84 l
137.647059 151.2 l
115.764706 151.2 l
115.764706 168.84 l
0.506 0.829 0.300 setrgbcolor
fill
grestore
gsave
131.3 88.2 72 133.6 clipbox
137.647059 168.84 m
159.529412 168.84 l
159.529412 151.2 l
137.647059 151.2 l
137.647059 168.84 l
0.459 0.816 0.330 setrgbcolor
fill
grestore
gsave
131.3 88.2 72 133.6 clipbox
159.529412 168.84 m
181.411765 168.84 l
181.411765 151.2 l
159.529412 151.2 l
159.529412 168.84 l
0.546 0.838 0.276 setrgbcolor
fill
grestore
gsave
131.3 88.2 72 133.6 clipbox
181.411765 168.84 m
203.294118 168.84 l
203.294118 151.2 l
181.411765 151.2 l
181.411765 168.84 l
0.497 0.826 0.306 setrgbcolor
fill
grestore
gsave
131.3 88.2 72 133.6 clipbox
72 151.2 m
93.882353 151.2 l
93.882353 133.56 l
72 133.56 l
72 151.2 l
0.497 0.826 0.306 setrgbcolor
fill
grestore
gsave
131.3 88.2 72 133.6 clipbox
93.882353 151.2 m
115.764706 151.2 l
115.764706 133.56 l
93.882353 133.56 l
93.882353 151.2 l
0.526 0.833 0.288 setrgbcolor
fill
grestore
gsave
131.3 88.2 72 133.6 clipbox
115.764706 151.2 m
137.647059 151.2 l
137.647059 133.56 l
115.764706 133.56 l
115.764706 151.2 l
0.459 0.816 0.330 setrgbcolor
fill
grestore
gsave
131.3 88.2 72 133.6 clipbox
137.647059 151.2 m
159.529412 151.2 l
159.529412 133.56 l
137.647059 133.56 l
137.647059 151.2 l
0.369 0.789 0.383 setrgbcolor
fill
grestore
gsave
131.3 88.2 72 133.6 clipbox
159.529412 151.2 m
181.411765 151.2 l
181.411765 133.56 l
159.529412 133.56 l
159.529412 151.2 l
0.431 0.808 0.346 setrgbcolor
fill
grestore
gsave
131.3 88.2 72 133.6 clipbox
181.411765 151.2 m
203.294118 151.2 l
203.294118 133.56 l
181.411765 133.56 l
181.411765 151.2 l
0.468 0.819 0.324 setrgbcolor
fill
grestore
0.800 setlinewidth
1 setlinejoin
0 setlinecap
[] 0 setdash
0.000 setgray
gsave
/o {
gsave
newpath
translate
0.8 setlinewidth
1 setlinejoin
0 setlinecap
0 0 m
0 -3.5 l

gsave
0.000 setgray
fill
grestore
stroke
grestore
} bind def
82.9412 133.56 o
grestore
gsave
/o {
gsave
newpath
translate
0.8 setlinewidth
1 setlinejoin
0 setlinecap
0 0 m
0 -3.5 l

gsave
0.000 setgray
fill
grestore
stroke
grestore
} bind def
104.824 133.56 o
grestore
gsave
/o {
gsave
newpath
translate
0.8 setlinewidth
1 setlinejoin
0 setlinecap
0 0 m
0 -3.5 l

gsave
0.000 setgray
fill
grestore
stroke
grestore
} bind def
126.706 133.56 o
grestore
gsave
/o {
gsave
newpath
translate
0.8 setlinewidth
1 setlinejoin
0 setlinecap
0 0 m
0 -3.5 l

gsave
0.000 setgray
fill
grestore
stroke
grestore
} bind def
148.588 133.56 o
grestore
gsave
/o {
gsave
newpath
translate
0.8 setlinewidth
1 setlinejoin
0 setlinecap
0 0 m
0 -3.5 l

gsave
0.000 setgray
fill
grestore
stroke
grestore
} bind def
170.471 133.56 o
grestore
gsave
/o {
gsave
newpath
translate
0.8 setlinewidth
1 setlinejoin
0 setlinecap
0 0 m
0 -3.5 l

gsave
0.000 setgray
fill
grestore
stroke
grestore
} bind def
192.353 133.56 o
grestore
gsave
/o {
gsave
newpath
translate
0.8 setlinewidth
1 setlinejoin
0 setlinecap
-0 0 m
-3.5 0 l

gsave
0.000 setgray
fill
grestore
stroke
grestore
} bind def
72 212.94 o
grestore
/DejaVuSans findfont
10.000 scalefont
setfont
gsave
58.640625 209.143125 translate
0.000000 rotate
0.000000 0 m /five glyphshow
grestore
gsave
/o {
gsave
newpath
translate
0.8 setlinewidth
1 setlinejoin
0 setlinecap
-0 0 m
-3.5 0 l

gsave
0.000 setgray
fill
grestore
stroke
grestore
} bind def
72 195.3 o
grestore
gsave
52.281250 191.503125 translate
0.000000 rotate
0.000000 0 m /one glyphshow
6.362305 0 m /five glyphshow
grestore
gsave
/o {
gsave
newpath
translate
0.8 setlinewidth
1 setlinejoin
0 setlinecap
-0 0 m
-3.5 0 l

gsave
0.000 setgray
fill
grestore
stroke
grestore
} bind def
72 177.66 o
grestore
gsave
52.281250 173.863125 translate
0.000000 rotate
0.000000 0 m /three glyphshow
6.362305 0 m /zero glyphshow
grestore
gsave
/o {
gsave
newpath
translate
0.8 setlinewidth
1 setlinejoin
0 setlinecap
-0 0 m
-3.5 0 l

gsave
0.000 setgray
fill
grestore
stroke
grestore
} bind def
72 160.02 o
grestore
gsave
52.281250 156.223125 translate
0.000000 rotate
0.000000 0 m /five glyphshow
6.362305 0 m /zero glyphshow
grestore
gsave
/o {
gsave
newpath
translate
0.8 setlinewidth
1 setlinejoin
0 setlinecap
-0 0 m
-3.5 0 l

gsave
0.000 setgray
fill
grestore
stroke
grestore
} bind def
72 142.38 o
grestore
gsave
45.921875 138.583125 translate
0.000000 rotate
0.000000 0 m /one glyphshow
6.362305 0 m /zero glyphshow
12.724609 0 m /zero glyphshow
grestore
gsave
39.562500 147.105312 translate
90.000000 rotate
0.000000 0 m /n glyphshow
6.337891 0 m /underscore glyphshow
11.337891 0 m /n glyphshow
17.675781 0 m /e glyphshow
23.828125 0 m /i glyphshow
26.606445 0 m /g glyphshow
32.954102 0 m /h glyphshow
39.291992 0 m /b glyphshow
45.639648 0 m /o glyphshow
51.757812 0 m /r glyphshow
55.869141 0 m /s glyphshow
grestore
0 setlinejoin
2 setlinecap
gsave
72 133.56 m
72 221.76 l
stroke
grestore
gsave
203.294118 133.56 m
203.294118 221.76 l
stroke
grestore
gsave
72 133.56 m
203.294118 133.56 l
stroke
grestore
gsave
72 221.76 m
203.294118 221.76 l
stroke
grestore
gsave
229.552941 133.56 m
360.847059 133.56 l
360.847059 221.76 l
229.552941 221.76 l
cl
grestore
gsave
131.3 88.2 229.6 133.6 clipbox
229.552941 221.76 m
251.435294 221.76 l
251.435294 204.12 l
229.552941 204.12 l
229.552941 221.76 l
0.312 0.768 0.416 setrgbcolor
fill
grestore
gsave
131.3 88.2 229.6 133.6 clipbox
251.435294 221.76 m
273.317647 221.76 l
273.317647 204.12 l
251.435294 204.12 l
251.435294 221.76 l
0.202 0.715 0.476 setrgbcolor
fill
grestore
gsave
131.3 88.2 229.6 133.6 clipbox
273.317647 221.76 m
295.2 221.76 l
295.2 204.12 l
273.317647 204.12 l
273.317647 221.76 l
0.274 0.752 0.437 setrgbcolor
fill
grestore
gsave
131.3 88.2 229.6 133.6 clipbox
295.2 221.76 m
317.082353 221.76 l
317.082353 204.12 l
295.2 204.12 l
295.2 221.76 l
0.191 0.708 0.482 setrgbcolor
fill
grestore
gsave
131.3 88.2 229.6 133.6 clipbox
317.082353 221.76 m
338.964706 221.76 l
338.964706 204.12 l
317.082353 204.12 l
317.082353 221.76 l
0.186 0.705 0.485 setrgbcolor
fill
grestore
gsave
131.3 88.2 229.6 133.6 clipbox
338.964706 221.76 m
360.847059 221.76 l
360.847059 204.12 l
338.964706 204.12 l
338.964706 221.76 l
0.239 0.736 0.456 setrgbcolor
fill
grestore
gsave
131.3 88.2 229.6 133.6 clipbox
229.552941 204.12 m
251.435294 204.12 l
251.435294 186.48 l
229.552941 186.48 l
229.552941 204.12 l
0.336 0.777 0.402 setrgbcolor
fill
grestore
gsave
131.3 88.2 229.6 133.6 clipbox
251.435294 204.12 m
273.317647 204.12 l
273.317647 186.48 l
251.435294 186.48 l
251.435294 204.12 l
0.413 0.803 0.357 setrgbcolor
fill
grestore
gsave
131.3 88.2 229.6 133.6 clipbox
273.317647 204.12 m
295.2 204.12 l
295.2 186.48 l
273.317647 186.48 l
273.317647 204.12 l
0.459 0.816 0.330 setrgbcolor
fill
grestore
gsave
131.3 88.2 229.6 133.6 clipbox
295.2 204.12 m
317.082353 204.12 l
317.082353 186.48 l
295.2 186.48 l
295.2 204.12 l
0.267 0.749 0.441 setrgbcolor
fill
grestore
gsave
131.3 88.2 229.6 133.6 clipbox
317.082353 204.12 m
338.964706 204.12 l
338.964706 186.48 l
317.082353 186.48 l
317.082353 204.12 l
0.226 0.729 0.463 setrgbcolor
fill
grestore
gsave
131.3 88.2 229.6 133.6 clipbox
338.964706 204.12 m
360.847059 204.12 l
360.847059 186.48 l
338.964706 186.48 l
338.964706 204.12 l
0.132 0.552 0.553 setrgbcolor
fill
grestore
gsave
131.3 88.2 229.6 133.6 clipbox
229.552941 186.48 m
251.435294 186.48 l
251.435294 168.84 l
229.552941 168.84 l
229.552941 186.48 l
0.126 0.571 0.550 setrgbcolor
fill
grestore
gsave
131.3 88.2 229.6 133.6 clipbox
251.435294 186.48 m
273.317647 186.48 l
273.317647 168.84 l
251.435294 168.84 l
251.435294 186.48 l
0.126 0.644 0.525 setrgbcolor
fill
grestore
gsave
131.3 88.2 229.6 133.6 clipbox
273.317647 186.48 m
295.2 186.48 l
295.2 168.84 l
273.317647 168.84 l
273.317647 186.48 l
0.120 0.600 0.543 setrgbcolor
fill
grestore
gsave
131.3 88.2 229.6 133.6 clipbox
295.2 186.48 m
317.082353 186.48 l
317.082353 168.84 l
295.2 168.84 l
295.2 186.48 l
0.120 0.622 0.535 setrgbcolor
fill
grestore
gsave
131.3 88.2 229.6 133.6 clipbox
317.082353 186.48 m
338.964706 186.48 l
338.964706 168.84 l
317.082353 168.84 l
317.082353 186.48 l
0.145 0.519 0.557 setrgbcolor
fill
grestore
gsave
131.3 88.2 229.6 133.6 clipbox
338.964706 186.48 m
360.847059 186.48 l
360.847059 168.84 l
338.964706 168.84 l
338.964706 186.48 l
0.177 0.438 0.558 setrgbcolor
fill
grestore
gsave
131.3 88.2 229.6 133.6 clipbox
229.552941 168.84 m
251.435294 168.84 l
251.435294 151.2 l
229.552941 151.2 l
229.552941 168.84 l
0.135 0.659 0.518 setrgbcolor
fill
grestore
gsave
131.3 88.2 229.6 133.6 clipbox
251.435294 168.84 m
273.317647 168.84 l
273.317647 151.2 l
251.435294 151.2 l
251.435294 168.84 l
0.137 0.662 0.516 setrgbcolor
fill
grestore
gsave
131.3 88.2 229.6 133.6 clipbox
273.317647 168.84 m
295.2 168.84 l
295.2 151.2 l
273.317647 151.2 l
273.317647 168.84 l
0.125 0.640 0.527 setrgbcolor
fill
grestore
gsave
131.3 88.2 229.6 133.6 clipbox
295.2 168.84 m
317.082353 168.84 l
317.082353 151.2 l
295.2 151.2 l
295.2 168.84 l
0.126 0.644 0.525 setrgbcolor
fill
grestore
gsave
131.3 88.2 229.6 133.6 clipbox
317.082353 168.84 m
338.964706 168.84 l
338.964706 151.2 l
317.082353 151.2 l
317.082353 168.84 l
0.134 0.549 0.554 setrgbcolor
fill
grestore
gsave
131.3 88.2 229.6 133.6 clipbox
338.964706 168.84 m
360.847059 168.84 l
360.847059 151.2 l
338.964706 151.2 l
338.964706 168.84 l
0.181 0.430 0.557 setrgbcolor
fill
grestore
gsave
131.3 88.2 229.6 133.6 clipbox
229.552941 151.2 m
251.435294 151.2 l
251.435294 133.56 l
229.552941 133.56 l
229.552941 151.2 l
0.119 0.611 0.539 setrgbcolor
fill
grestore
gsave
131.3 88.2 229.6 133.6 clipbox
251.435294 151.2 m
273.317647 151.2 l
273.317647 133.56 l
251.435294 133.56 l
251.435294 151.2 l
0.121 0.629 0.532 setrgbcolor
fill
grestore
gsave
131.3 88.2 229.6 133.6 clipbox
273.317647 151.2 m
295.2 151.2 l
295.2 133.56 l
273.317647 133.56 l
273.317647 151.2 l
0.147 0.673 0.509 setrgbcolor
fill
grestore
gsave
131.3 88.2 229.6 133.6 clipbox
295.2 151.2 m
317.082353 151.2 l
317.082353 133.56 l
295.2 133.56 l
295.2 151.2 l
0.121 0.629 0.532 setrgbcolor
fill
grestore
gsave
131.3 88.2 229.6 133.6 clipbox
317.082353 151.2 m
338.964706 151.2 l
338.964706 133.56 l
317.082353 133.56 l
317.082353 151.2 l
0.142 0.526 0.556 setrgbcolor
fill
grestore
gsave
131.3 88.2 229.6 133.6 clipbox
338.964706 151.2 m
360.847059 151.2 l
360.847059 133.56 l
338.964706 133.56 l
338.964706 151.2 l
0.158 0.486 0.558 setrgbcolor
fill
grestore
1 setlinejoin
0 setlinecap
gsave
/o {
gsave
newpath
translate
0.8 setlinewidth
1 setlinejoin
0 setlinecap
0 0 m
0 -3.5 l

gsave
0.000 setgray
fill
grestore
stroke
grestore
} bind def
240.494 133.56 o
grestore
gsave
/o {
gsave
newpath
translate
0.8 setlinewidth
1 setlinejoin
0 setlinecap
0 0 m
0 -3.5 l

gsave
0.000 setgray
fill
grestore
stroke
grestore
} bind def
262.376 133.56 o
grestore
gsave
/o {
gsave
newpath
translate
0.8 setlinewidth
1 setlinejoin
0 setlinecap
0 0 m
0 -3.5 l

gsave
0.000 setgray
fill
grestore
stroke
grestore
} bind def
284.259 133.56 o
grestore
gsave
/o {
gsave
newpath
translate
0.8 setlinewidth
1 setlinejoin
0 setlinecap
0 0 m
0 -3.5 l

gsave
0.000 setgray
fill
grestore
stroke
grestore
} bind def
306.141 133.56 o
grestore
gsave
/o {
gsave
newpath
translate
0.8 setlinewidth
1 setlinejoin
0 setlinecap
0 0 m
0 -3.5 l

gsave
0.000 setgray
fill
grestore
stroke
grestore
} bind def
328.024 133.56 o
grestore
gsave
/o {
gsave
newpath
translate
0.8 setlinewidth
1 setlinejoin
0 setlinecap
0 0 m
0 -3.5 l

gsave
0.000 setgray
fill
grestore
stroke
grestore
} bind def
349.906 133.56 o
grestore
gsave
/o {
gsave
newpath
translate
0.8 setlinewidth
1 setlinejoin
0 setlinecap
-0 0 m
-3.5 0 l

gsave
0.000 setgray
fill
grestore
stroke
grestore
} bind def
229.553 212.94 o
grestore
gsave
/o {
gsave
newpath
translate
0.8 setlinewidth
1 setlinejoin
0 setlinecap
-0 0 m
-3.5 0 l

gsave
0.000 setgray
fill
grestore
stroke
grestore
} bind def
229.553 195.3 o
grestore
gsave
/o {
gsave
newpath
translate
0.8 setlinewidth
1 setlinejoin
0 setlinecap
-0 0 m
-3.5 0 l

gsave
0.000 setgray
fill
grestore
stroke
grestore
} bind def
229.553 177.66 o
grestore
gsave
/o {
gsave
newpath
translate
0.8 setlinewidth
1 setlinejoin
0 setlinecap
-0 0 m
-3.5 0 l

gsave
0.000 setgray
fill
grestore
stroke
grestore
} bind def
229.553 160.02 o
grestore
gsave
/o {
gsave
newpath
translate
0.8 setlinewidth
1 setlinejoin
0 setlinecap
-0 0 m
-3.5 0 l

gsave
0.000 setgray
fill
grestore
stroke
grestore
} bind def
229.553 142.38 o
grestore
0 setlinejoin
2 setlinecap
gsave
229.552941 133.56 m
229.552941 221.76 l
stroke
grestore
gsave
360.847059 133.56 m
360.847059 221.76 l
stroke
grestore
gsave
229.552941 133.56 m
360.847059 133.56 l
stroke
grestore
gsave
229.552941 221.76 m
360.847059 221.76 l
stroke
grestore
gsave
72 27.72 m
203.294118 27.72 l
203.294118 115.92 l
72 115.92 l
cl
grestore
gsave
131.3 88.2 72 27.72 clipbox
72 115.92 m
93.882353 115.92 l
93.882353 98.28 l
72 98.28 l
72 115.92 l
0.130 0.560 0.552 setrgbcolor
fill
grestore
gsave
131.3 88.2 72 27.72 clipbox
93.882353 115.92 m
115.764706 115.92 l
115.764706 98.28 l
93.882353 98.28 l
93.882353 115.92 l
0.134 0.549 0.554 setrgbcolor
fill
grestore
gsave
131.3 88.2 72 27.72 clipbox
115.764706 115.92 m
137.647059 115.92 l
137.647059 98.28 l
115.764706 98.28 l
115.764706 115.92 l
0.123 0.582 0.547 setrgbcolor
fill
grestore
gsave
131.3 88.2 72 27.72 clipbox
137.647059 115.92 m
159.529412 115.92 l
159.529412 98.28 l
137.647059 98.28 l
137.647059 115.92 l
0.138 0.537 0.555 setrgbcolor
fill
grestore
gsave
131.3 88.2 72 27.72 clipbox
159.529412 115.92 m
181.411765 115.92 l
181.411765 98.28 l
159.529412 98.28 l
159.529412 115.92 l
0.146 0.515 0.557 setrgbcolor
fill
grestore
gsave
131.3 88.2 72 27.72 clipbox
181.411765 115.92 m
203.294118 115.92 l
203.294118 98.28 l
181.411765 98.28 l
181.411765 115.92 l
0.142 0.526 0.556 setrgbcolor
fill
grestore
gsave
131.3 88.2 72 27.72 clipbox
72 98.28 m
93.882353 98.28 l
93.882353 80.64 l
72 80.64 l
72 98.28 l
0.126 0.644 0.525 setrgbcolor
fill
grestore
gsave
131.3 88.2 72 27.72 clipbox
93.882353 98.28 m
115.764706 98.28 l
115.764706 80.64 l
93.882353 80.64 l
93.882353 98.28 l
0.120 0.618 0.536 setrgbcolor
fill
grestore
gsave
131.3 88.2 72 27.72 clipbox
115.764706 98.28 m
137.647059 98.28 l
137.647059 80.64 l
115.764706 80.64 l
115.764706 98.28 l
0.120 0.618 0.536 setrgbcolor
fill
grestore
gsave
131.3 88.2 72 27.72 clipbox
137.647059 98.28 m
159.529412 98.28 l
159.529412 80.64 l
137.647059 80.64 l
137.647059 98.28 l
0.120 0.618 0.536 setrgbcolor
fill
grestore
gsave
131.3 88.2 72 27.72 clipbox
159.529412 98.28 m
181.411765 98.28 l
181.411765 80.64 l
159.529412 80.64 l
159.529412 98.28 l
0.125 0.574 0.549 setrgbcolor
fill
grestore
gsave
131.3 88.2 72 27.72 clipbox
181.411765 98.28 m
203.294118 98.28 l
203.294118 80.64 l
181.411765 80.64 l
181.411765 98.28 l
0.142 0.526 0.556 setrgbcolor
fill
grestore
gsave
131.3 88.2 72 27.72 clipbox
72 80.64 m
93.882353 80.64 l
93.882353 63 l
72 63 l
72 80.64 l
0.153 0.497 0.558 setrgbcolor
fill
grestore
gsave
131.3 88.2 72 27.72 clipbox
93.882353 80.64 m
115.764706 80.64 l
115.764706 63 l
93.882353 63 l
93.882353 80.64 l
0.161 0.479 0.558 setrgbcolor
fill
grestore
gsave
131.3 88.2 72 27.72 clipbox
115.764706 80.64 m
137.647059 80.64 l
137.647059 63 l
115.764706 63 l
115.764706 80.64 l
0.132 0.552 0.553 setrgbcolor
fill
grestore
gsave
131.3 88.2 72 27.72 clipbox
137.647059 80.64 m
159.529412 80.64 l
159.529412 63 l
137.647059 63 l
137.647059 80.64 l
0.152 0.501 0.558 setrgbcolor
fill
grestore
gsave
131.3 88.2 72 27.72 clipbox
159.529412 80.64 m
181.411765 80.64 l
181.411765 63 l
159.529412 63 l
159.529412 80.64 l
0.145 0.519 0.557 setrgbcolor
fill
grestore
gsave
131.3 88.2 72 27.72 clipbox
181.411765 80.64 m
203.294118 80.64 l
203.294118 63 l
181.411765 63 l
181.411765 80.64 l
0.155 0.493 0.558 setrgbcolor
fill
grestore
gsave
131.3 88.2 72 27.72 clipbox
72 63 m
93.882353 63 l
93.882353 45.36 l
72 45.36 l
72 63 l
0.150 0.504 0.557 setrgbcolor
fill
grestore
gsave
131.3 88.2 72 27.72 clipbox
93.882353 63 m
115.764706 63 l
115.764706 45.36 l
93.882353 45.36 l
93.882353 63 l
0.156 0.490 0.558 setrgbcolor
fill
grestore
gsave
131.3 88.2 72 27.72 clipbox
115.764706 63 m
137.647059 63 l
137.647059 45.36 l
115.764706 45.36 l
115.764706 63 l
0.125 0.574 0.549 setrgbcolor
fill
grestore
gsave
131.3 88.2 72 27.72 clipbox
137.647059 63 m
159.529412 63 l
159.529412 45.36 l
137.647059 45.36 l
137.647059 63 l
0.156 0.490 0.558 setrgbcolor
fill
grestore
gsave
131.3 88.2 72 27.72 clipbox
159.529412 63 m
181.411765 63 l
181.411765 45.36 l
159.529412 45.36 l
159.529412 63 l
0.158 0.486 0.558 setrgbcolor
fill
grestore
gsave
131.3 88.2 72 27.72 clipbox
181.411765 63 m
203.294118 63 l
203.294118 45.36 l
181.411765 45.36 l
181.411765 63 l
0.158 0.486 0.558 setrgbcolor
fill
grestore
gsave
131.3 88.2 72 27.72 clipbox
72 45.36 m
93.882353 45.36 l
93.882353 27.72 l
72 27.72 l
72 45.36 l
0.143 0.523 0.556 setrgbcolor
fill
grestore
gsave
131.3 88.2 72 27.72 clipbox
93.882353 45.36 m
115.764706 45.36 l
115.764706 27.72 l
93.882353 27.72 l
93.882353 45.36 l
0.167 0.464 0.558 setrgbcolor
fill
grestore
gsave
131.3 88.2 72 27.72 clipbox
115.764706 45.36 m
137.647059 45.36 l
137.647059 27.72 l
115.764706 27.72 l
115.764706 45.36 l
0.155 0.493 0.558 setrgbcolor
fill
grestore
gsave
131.3 88.2 72 27.72 clipbox
137.647059 45.36 m
159.529412 45.36 l
159.529412 27.72 l
137.647059 27.72 l
137.647059 45.36 l
0.148 0.512 0.557 setrgbcolor
fill
grestore
gsave
131.3 88.2 72 27.72 clipbox
159.529412 45.36 m
181.411765 45.36 l
181.411765 27.72 l
159.529412 27.72 l
159.529412 45.36 l
0.164 0.471 0.558 setrgbcolor
fill
grestore
gsave
131.3 88.2 72 27.72 clipbox
181.411765 45.36 m
203.294118 45.36 l
203.294118 27.72 l
181.411765 27.72 l
181.411765 45.36 l
0.168 0.460 0.558 setrgbcolor
fill
grestore
1 setlinejoin
0 setlinecap
gsave
/o {
gsave
newpath
translate
0.8 setlinewidth
1 setlinejoin
0 setlinecap
0 0 m
0 -3.5 l

gsave
0.000 setgray
fill
grestore
stroke
grestore
} bind def
82.9412 27.72 o
grestore
gsave
74.988051 13.126250 translate
0.000000 rotate
0.000000 0 m /zero glyphshow
6.362305 0 m /period glyphshow
9.541016 0 m /zero glyphshow
grestore
gsave
/o {
gsave
newpath
translate
0.8 setlinewidth
1 setlinejoin
0 setlinecap
0 0 m
0 -3.5 l

gsave
0.000 setgray
fill
grestore
stroke
grestore
} bind def
104.824 27.72 o
grestore
gsave
93.690717 13.126250 translate
0.000000 rotate
0.000000 0 m /zero glyphshow
6.362305 0 m /period glyphshow
9.541016 0 m /zero glyphshow
15.903320 0 m /one glyphshow
grestore
gsave
/o {
gsave
newpath
translate
0.8 setlinewidth
1 setlinejoin
0 setlinecap
0 0 m
0 -3.5 l

gsave
0.000 setgray
fill
grestore
stroke
grestore
} bind def
126.706 27.72 o
grestore
gsave
115.573070 13.126250 translate
0.000000 rotate
0.000000 0 m /zero glyphshow
6.362305 0 m /period glyphshow
9.541016 0 m /zero glyphshow
15.903320 0 m /five glyphshow
grestore
gsave
/o {
gsave
newpath
translate
0.8 setlinewidth
1 setlinejoin
0 setlinecap
0 0 m
0 -3.5 l

gsave
0.000 setgray
fill
grestore
stroke
grestore
} bind def
148.588 27.72 o
grestore
gsave
140.635110 13.126250 translate
0.000000 rotate
0.000000 0 m /zero glyphshow
6.362305 0 m /period glyphshow
9.541016 0 m /one glyphshow
grestore
gsave
/o {
gsave
newpath
translate
0.8 setlinewidth
1 setlinejoin
0 setlinecap
0 0 m
0 -3.5 l

gsave
0.000 setgray
fill
grestore
stroke
grestore
} bind def
170.471 27.72 o
grestore
gsave
162.517463 13.126250 translate
0.000000 rotate
0.000000 0 m /zero glyphshow
6.362305 0 m /period glyphshow
9.541016 0 m /five glyphshow
grestore
gsave
/o {
gsave
newpath
translate
0.8 setlinewidth
1 setlinejoin
0 setlinecap
0 0 m
0 -3.5 l

gsave
0.000 setgray
fill
grestore
stroke
grestore
} bind def
192.353 27.72 o
grestore
gsave
189.173254 13.126250 translate
0.000000 rotate
0.000000 0 m /one glyphshow
grestore
gsave
116.576746 -0.545625 translate
0.000000 rotate
0.000000 0 m /m glyphshow
9.741211 0 m /i glyphshow
12.519531 0 m /n glyphshow
18.857422 0 m /underscore glyphshow
23.857422 0 m /d glyphshow
30.205078 0 m /i glyphshow
32.983398 0 m /s glyphshow
38.193359 0 m /t glyphshow
grestore
gsave
/o {
gsave
newpath
translate
0.8 setlinewidth
1 setlinejoin
0 setlinecap
-0 0 m
-3.5 0 l

gsave
0.000 setgray
fill
grestore
stroke
grestore
} bind def
72 107.1 o
grestore
gsave
58.640625 103.303125 translate
0.000000 rotate
0.000000 0 m /five glyphshow
grestore
gsave
/o {
gsave
newpath
translate
0.8 setlinewidth
1 setlinejoin
0 setlinecap
-0 0 m
-3.5 0 l

gsave
0.000 setgray
fill
grestore
stroke
grestore
} bind def
72 89.46 o
grestore
gsave
52.281250 85.663125 translate
0.000000 rotate
0.000000 0 m /one glyphshow
6.362305 0 m /five glyphshow
grestore
gsave
/o {
gsave
newpath
translate
0.8 setlinewidth
1 setlinejoin
0 setlinecap
-0 0 m
-3.5 0 l

gsave
0.000 setgray
fill
grestore
stroke
grestore
} bind def
72 71.82 o
grestore
gsave
52.281250 68.023125 translate
0.000000 rotate
0.000000 0 m /three glyphshow
6.362305 0 m /zero glyphshow
grestore
gsave
/o {
gsave
newpath
translate
0.8 setlinewidth
1 setlinejoin
0 setlinecap
-0 0 m
-3.5 0 l

gsave
0.000 setgray
fill
grestore
stroke
grestore
} bind def
72 54.18 o
grestore
gsave
52.281250 50.383125 translate
0.000000 rotate
0.000000 0 m /five glyphshow
6.362305 0 m /zero glyphshow
grestore
gsave
/o {
gsave
newpath
translate
0.8 setlinewidth
1 setlinejoin
0 setlinecap
-0 0 m
-3.5 0 l

gsave
0.000 setgray
fill
grestore
stroke
grestore
} bind def
72 36.54 o
grestore
gsave
45.921875 32.743125 translate
0.000000 rotate
0.000000 0 m /one glyphshow
6.362305 0 m /zero glyphshow
12.724609 0 m /zero glyphshow
grestore
gsave
39.562500 41.265312 translate
90.000000 rotate
0.000000 0 m /n glyphshow
6.337891 0 m /underscore glyphshow
11.337891 0 m /n glyphshow
17.675781 0 m /e glyphshow
23.828125 0 m /i glyphshow
26.606445 0 m /g glyphshow
32.954102 0 m /h glyphshow
39.291992 0 m /b glyphshow
45.639648 0 m /o glyphshow
51.757812 0 m /r glyphshow
55.869141 0 m /s glyphshow
grestore
0 setlinejoin
2 setlinecap
gsave
72 27.72 m
72 115.92 l
stroke
grestore
gsave
203.294118 27.72 m
203.294118 115.92 l
stroke
grestore
gsave
72 27.72 m
203.294118 27.72 l
stroke
grestore
gsave
72 115.92 m
203.294118 115.92 l
stroke
grestore
gsave
229.552941 27.72 m
360.847059 27.72 l
360.847059 115.92 l
229.552941 115.92 l
cl
grestore
gsave
131.3 88.2 229.6 27.72 clipbox
229.552941 115.92 m
251.435294 115.92 l
251.435294 98.28 l
229.552941 98.28 l
229.552941 115.92 l
0.149 0.508 0.557 setrgbcolor
fill
grestore
gsave
131.3 88.2 229.6 27.72 clipbox
251.435294 115.92 m
273.317647 115.92 l
273.317647 98.28 l
251.435294 98.28 l
251.435294 115.92 l
0.152 0.501 0.558 setrgbcolor
fill
grestore
gsave
131.3 88.2 229.6 27.72 clipbox
273.317647 115.92 m
295.2 115.92 l
295.2 98.28 l
273.317647 98.28 l
273.317647 115.92 l
0.156 0.490 0.558 setrgbcolor
fill
grestore
gsave
131.3 88.2 229.6 27.72 clipbox
295.2 115.92 m
317.082353 115.92 l
317.082353 98.28 l
295.2 98.28 l
295.2 115.92 l
0.167 0.464 0.558 setrgbcolor
fill
grestore
gsave
131.3 88.2 229.6 27.72 clipbox
317.082353 115.92 m
338.964706 115.92 l
338.964706 98.28 l
317.082353 98.28 l
317.082353 115.92 l
0.189 0.411 0.556 setrgbcolor
fill
grestore
gsave
131.3 88.2 229.6 27.72 clipbox
338.964706 115.92 m
360.847059 115.92 l
360.847059 98.28 l
338.964706 98.28 l
338.964706 115.92 l
0.203 0.380 0.554 setrgbcolor
fill
grestore
gsave
131.3 88.2 229.6 27.72 clipbox
229.552941 98.28 m
251.435294 98.28 l
251.435294 80.64 l
229.552941 80.64 l
229.552941 98.28 l
0.191 0.407 0.556 setrgbcolor
fill
grestore
gsave
131.3 88.2 229.6 27.72 clipbox
251.435294 98.28 m
273.317647 98.28 l
273.317647 80.64 l
251.435294 80.64 l
251.435294 98.28 l
0.189 0.411 0.556 setrgbcolor
fill
grestore
gsave
131.3 88.2 229.6 27.72 clipbox
273.317647 98.28 m
295.2 98.28 l
295.2 80.64 l
273.317647 80.64 l
273.317647 98.28 l
0.179 0.434 0.557 setrgbcolor
fill
grestore
gsave
131.3 88.2 229.6 27.72 clipbox
295.2 98.28 m
317.082353 98.28 l
317.082353 80.64 l
295.2 80.64 l
295.2 98.28 l
0.198 0.392 0.555 setrgbcolor
fill
grestore
gsave
131.3 88.2 229.6 27.72 clipbox
317.082353 98.28 m
338.964706 98.28 l
338.964706 80.64 l
317.082353 80.64 l
317.082353 98.28 l
0.176 0.441 0.558 setrgbcolor
fill
grestore
gsave
131.3 88.2 229.6 27.72 clipbox
338.964706 98.28 m
360.847059 98.28 l
360.847059 80.64 l
338.964706 80.64 l
338.964706 98.28 l
0.177 0.438 0.558 setrgbcolor
fill
grestore
gsave
131.3 88.2 229.6 27.72 clipbox
229.552941 80.64 m
251.435294 80.64 l
251.435294 63 l
229.552941 63 l
229.552941 80.64 l
0.201 0.384 0.554 setrgbcolor
fill
grestore
gsave
131.3 88.2 229.6 27.72 clipbox
251.435294 80.64 m
273.317647 80.64 l
273.317647 63 l
251.435294 63 l
251.435294 80.64 l
0.199 0.388 0.555 setrgbcolor
fill
grestore
gsave
131.3 88.2 229.6 27.72 clipbox
273.317647 80.64 m
295.2 80.64 l
295.2 63 l
273.317647 63 l
273.317647 80.64 l
0.212 0.360 0.552 setrgbcolor
fill
grestore
gsave
131.3 88.2 229.6 27.72 clipbox
295.2 80.64 m
317.082353 80.64 l
317.082353 63 l
295.2 63 l
295.2 80.64 l
0.207 0.372 0.553 setrgbcolor
fill
grestore
gsave
131.3 88.2 229.6 27.72 clipbox
317.082353 80.64 m
338.964706 80.64 l
338.964706 63 l
317.082353 63 l
317.082353 80.64 l
0.199 0.388 0.555 setrgbcolor
fill
grestore
gsave
131.3 88.2 229.6 27.72 clipbox
338.964706 80.64 m
360.847059 80.64 l
360.847059 63 l
338.964706 63 l
338.964706 80.64 l
0.203 0.380 0.554 setrgbcolor
fill
grestore
gsave
131.3 88.2 229.6 27.72 clipbox
229.552941 63 m
251.435294 63 l
251.435294 45.36 l
229.552941 45.36 l
229.552941 63 l
0.212 0.360 0.552 setrgbcolor
fill
grestore
gsave
131.3 88.2 229.6 27.72 clipbox
251.435294 63 m
273.317647 63 l
273.317647 45.36 l
251.435294 45.36 l
251.435294 63 l
0.205 0.376 0.554 setrgbcolor
fill
grestore
gsave
131.3 88.2 229.6 27.72 clipbox
273.317647 63 m
295.2 63 l
295.2 45.36 l
273.317647 45.36 l
273.317647 63 l
0.220 0.343 0.549 setrgbcolor
fill
grestore
gsave
131.3 88.2 229.6 27.72 clipbox
295.2 63 m
317.082353 63 l
317.082353 45.36 l
295.2 45.36 l
295.2 63 l
0.211 0.364 0.552 setrgbcolor
fill
grestore
gsave
131.3 88.2 229.6 27.72 clipbox
317.082353 63 m
338.964706 63 l
338.964706 45.36 l
317.082353 45.36 l
317.082353 63 l
0.216 0.352 0.551 setrgbcolor
fill
grestore
gsave
131.3 88.2 229.6 27.72 clipbox
338.964706 63 m
360.847059 63 l
360.847059 45.36 l
338.964706 45.36 l
338.964706 63 l
0.209 0.368 0.553 setrgbcolor
fill
grestore
gsave
131.3 88.2 229.6 27.72 clipbox
229.552941 45.36 m
251.435294 45.36 l
251.435294 27.72 l
229.552941 27.72 l
229.552941 45.36 l
0.198 0.392 0.555 setrgbcolor
fill
grestore
gsave
131.3 88.2 229.6 27.72 clipbox
251.435294 45.36 m
273.317647 45.36 l
273.317647 27.72 l
251.435294 27.72 l
251.435294 45.36 l
0.199 0.388 0.555 setrgbcolor
fill
grestore
gsave
131.3 88.2 229.6 27.72 clipbox
273.317647 45.36 m
295.2 45.36 l
295.2 27.72 l
273.317647 27.72 l
273.317647 45.36 l
0.209 0.368 0.553 setrgbcolor
fill
grestore
gsave
131.3 88.2 229.6 27.72 clipbox
295.2 45.36 m
317.082353 45.36 l
317.082353 27.72 l
295.2 27.72 l
295.2 45.36 l
0.212 0.360 0.552 setrgbcolor
fill
grestore
gsave
131.3 88.2 229.6 27.72 clipbox
317.082353 45.36 m
338.964706 45.36 l
338.964706 27.72 l
317.082353 27.72 l
317.082353 45.36 l
0.212 0.360 0.552 setrgbcolor
fill
grestore
gsave
131.3 88.2 229.6 27.72 clipbox
338.964706 45.36 m
360.847059 45.36 l
360.847059 27.72 l
338.964706 27.72 l
338.964706 45.36 l
0.212 0.360 0.552 setrgbcolor
fill
grestore
1 setlinejoin
0 setlinecap
gsave
/o {
gsave
newpath
translate
0.8 setlinewidth
1 setlinejoin
0 setlinecap
0 0 m
0 -3.5 l

gsave
0.000 setgray
fill
grestore
stroke
grestore
} bind def
240.494 27.72 o
grestore
gsave
232.540993 13.126250 translate
0.000000 rotate
0.000000 0 m /zero glyphshow
6.362305 0 m /period glyphshow
9.541016 0 m /zero glyphshow
grestore
gsave
/o {
gsave
newpath
translate
0.8 setlinewidth
1 setlinejoin
0 setlinecap
0 0 m
0 -3.5 l

gsave
0.000 setgray
fill
grestore
stroke
grestore
} bind def
262.376 27.72 o
grestore
gsave
251.243658 13.126250 translate
0.000000 rotate
0.000000 0 m /zero glyphshow
6.362305 0 m /period glyphshow
9.541016 0 m /zero glyphshow
15.903320 0 m /one glyphshow
grestore
gsave
/o {
gsave
newpath
translate
0.8 setlinewidth
1 setlinejoin
0 setlinecap
0 0 m
0 -3.5 l

gsave
0.000 setgray
fill
grestore
stroke
grestore
} bind def
284.259 27.72 o
grestore
gsave
273.126011 13.126250 translate
0.000000 rotate
0.000000 0 m /zero glyphshow
6.362305 0 m /period glyphshow
9.541016 0 m /zero glyphshow
15.903320 0 m /five glyphshow
grestore
gsave
/o {
gsave
newpath
translate
0.8 setlinewidth
1 setlinejoin
0 setlinecap
0 0 m
0 -3.5 l

gsave
0.000 setgray
fill
grestore
stroke
grestore
} bind def
306.141 27.72 o
grestore
gsave
298.188051 13.126250 translate
0.000000 rotate
0.000000 0 m /zero glyphshow
6.362305 0 m /period glyphshow
9.541016 0 m /one glyphshow
grestore
gsave
/o {
gsave
newpath
translate
0.8 setlinewidth
1 setlinejoin
0 setlinecap
0 0 m
0 -3.5 l

gsave
0.000 setgray
fill
grestore
stroke
grestore
} bind def
328.024 27.72 o
grestore
gsave
320.070404 13.126250 translate
0.000000 rotate
0.000000 0 m /zero glyphshow
6.362305 0 m /period glyphshow
9.541016 0 m /five glyphshow
grestore
gsave
/o {
gsave
newpath
translate
0.8 setlinewidth
1 setlinejoin
0 setlinecap
0 0 m
0 -3.5 l

gsave
0.000 setgray
fill
grestore
stroke
grestore
} bind def
349.906 27.72 o
grestore
gsave
346.726195 13.126250 translate
0.000000 rotate
0.000000 0 m /one glyphshow
grestore
gsave
274.129688 -0.545625 translate
0.000000 rotate
0.000000 0 m /m glyphshow
9.741211 0 m /i glyphshow
12.519531 0 m /n glyphshow
18.857422 0 m /underscore glyphshow
23.857422 0 m /d glyphshow
30.205078 0 m /i glyphshow
32.983398 0 m /s glyphshow
38.193359 0 m /t glyphshow
grestore
gsave
/o {
gsave
newpath
translate
0.8 setlinewidth
1 setlinejoin
0 setlinecap
-0 0 m
-3.5 0 l

gsave
0.000 setgray
fill
grestore
stroke
grestore
} bind def
229.553 107.1 o
grestore
gsave
/o {
gsave
newpath
translate
0.8 setlinewidth
1 setlinejoin
0 setlinecap
-0 0 m
-3.5 0 l

gsave
0.000 setgray
fill
grestore
stroke
grestore
} bind def
229.553 89.46 o
grestore
gsave
/o {
gsave
newpath
translate
0.8 setlinewidth
1 setlinejoin
0 setlinecap
-0 0 m
-3.5 0 l

gsave
0.000 setgray
fill
grestore
stroke
grestore
} bind def
229.553 71.82 o
grestore
gsave
/o {
gsave
newpath
translate
0.8 setlinewidth
1 setlinejoin
0 setlinecap
-0 0 m
-3.5 0 l

gsave
0.000 setgray
fill
grestore
stroke
grestore
} bind def
229.553 54.18 o
grestore
gsave
/o {
gsave
newpath
translate
0.8 setlinewidth
1 setlinejoin
0 setlinecap
-0 0 m
-3.5 0 l

gsave
0.000 setgray
fill
grestore
stroke
grestore
} bind def
229.553 36.54 o
grestore
0 setlinejoin
2 setlinecap
gsave
229.552941 27.72 m
229.552941 115.92 l
stroke
grestore
gsave
360.847059 27.72 m
360.847059 115.92 l
stroke
grestore
gsave
229.552941 27.72 m
360.847059 27.72 l
stroke
grestore
gsave
229.552941 115.92 m
360.847059 115.92 l
stroke
grestore
0.010 setlinewidth
0 setlinecap
1.000 setgray
gsave
9.702 194 498.7 27.72 clipbox
498.705882 27.72 m
498.705882 37.422 l
498.705882 212.058 l
498.705882 221.76 l
508.407882 221.76 l
508.407882 212.058 l
508.407882 37.422 l
508.407882 27.72 l
cl
gsave
fill
grestore
stroke
grestore
gsave
9.702 194 498.7 27.72 clipbox
498.705882 27.72 m
508.407882 27.72 l
508.407882 37.422 l
498.705882 37.422 l
498.705882 27.72 l
0.267 0.005 0.329 setrgbcolor
fill
grestore
gsave
9.702 194 498.7 27.72 clipbox
498.705882 37.422 m
508.407882 37.422 l
508.407882 47.124 l
498.705882 47.124 l
498.705882 37.422 l
0.281 0.079 0.402 setrgbcolor
fill
grestore
gsave
9.702 194 498.7 27.72 clipbox
498.705882 47.124 m
508.407882 47.124 l
508.407882 56.826 l
498.705882 56.826 l
498.705882 47.124 l
0.282 0.146 0.462 setrgbcolor
fill
grestore
gsave
9.702 194 498.7 27.72 clipbox
498.705882 56.826 m
508.407882 56.826 l
508.407882 66.528 l
498.705882 66.528 l
498.705882 56.826 l
0.271 0.214 0.507 setrgbcolor
fill
grestore
gsave
9.702 194 498.7 27.72 clipbox
498.705882 66.528 m
508.407882 66.528 l
508.407882 76.23 l
498.705882 76.23 l
498.705882 66.528 l
0.250 0.274 0.533 setrgbcolor
fill
grestore
gsave
9.702 194 498.7 27.72 clipbox
498.705882 76.23 m
508.407882 76.23 l
508.407882 85.932 l
498.705882 85.932 l
498.705882 76.23 l
0.224 0.335 0.548 setrgbcolor
fill
grestore
gsave
9.702 194 498.7 27.72 clipbox
498.705882 85.932 m
508.407882 85.932 l
508.407882 95.634 l
498.705882 95.634 l
498.705882 85.932 l
0.199 0.388 0.555 setrgbcolor
fill
grestore
gsave
9.702 194 498.7 27.72 clipbox
498.705882 95.634 m
508.407882 95.634 l
508.407882 105.336 l
498.705882 105.336 l
498.705882 95.634 l
0.176 0.441 0.558 setrgbcolor
fill
grestore
gsave
9.702 194 498.7 27.72 clipbox
498.705882 105.336 m
508.407882 105.336 l
508.407882 115.038 l
498.705882 115.038 l
498.705882 105.336 l
0.156 0.490 0.558 setrgbcolor
fill
grestore
gsave
9.702 194 498.7 27.72 clipbox
498.705882 115.038 m
508.407882 115.038 l
508.407882 124.74 l
498.705882 124.74 l
498.705882 115.038 l
0.136 0.541 0.554 setrgbcolor
fill
grestore
gsave
9.702 194 498.7 27.72 clipbox
498.705882 124.74 m
508.407882 124.74 l
508.407882 134.442 l
498.705882 134.442 l
498.705882 124.74 l
0.122 0.589 0.546 setrgbcolor
fill
grestore
gsave
9.702 194 498.7 27.72 clipbox
498.705882 134.442 m
508.407882 134.442 l
508.407882 144.144 l
498.705882 144.144 l
498.705882 134.442 l
0.125 0.640 0.527 setrgbcolor
fill
grestore
gsave
9.702 194 498.7 27.72 clipbox
498.705882 144.144 m
508.407882 144.144 l
508.407882 153.846 l
498.705882 153.846 l
498.705882 144.144 l
0.162 0.687 0.499 setrgbcolor
fill
grestore
gsave
9.702 194 498.7 27.72 clipbox
498.705882 153.846 m
508.407882 153.846 l
508.407882 163.548 l
498.705882 163.548 l
498.705882 153.846 l
0.239 0.736 0.456 setrgbcolor
fill
grestore
gsave
9.702 194 498.7 27.72 clipbox
498.705882 163.548 m
508.407882 163.548 l
508.407882 173.25 l
498.705882 173.25 l
498.705882 163.548 l
0.336 0.777 0.402 setrgbcolor
fill
grestore
gsave
9.702 194 498.7 27.72 clipbox
498.705882 173.25 m
508.407882 173.25 l
508.407882 182.952 l
498.705882 182.952 l
498.705882 173.25 l
0.459 0.816 0.330 setrgbcolor
fill
grestore
gsave
9.702 194 498.7 27.72 clipbox
498.705882 182.952 m
508.407882 182.952 l
508.407882 192.654 l
498.705882 192.654 l
498.705882 182.952 l
0.586 0.847 0.250 setrgbcolor
fill
grestore
gsave
9.702 194 498.7 27.72 clipbox
498.705882 192.654 m
508.407882 192.654 l
508.407882 202.356 l
498.705882 202.356 l
498.705882 192.654 l
0.731 0.872 0.156 setrgbcolor
fill
grestore
gsave
9.702 194 498.7 27.72 clipbox
498.705882 202.356 m
508.407882 202.356 l
508.407882 212.058 l
498.705882 212.058 l
498.705882 202.356 l
0.866 0.890 0.096 setrgbcolor
fill
grestore
gsave
9.702 194 498.7 27.72 clipbox
498.705882 212.058 m
508.407882 212.058 l
508.407882 221.76 l
498.705882 221.76 l
498.705882 212.058 l
0.993 0.906 0.144 setrgbcolor
fill
grestore
0.800 setlinewidth
1 setlinejoin
0.000 setgray
gsave
/o {
gsave
newpath
translate
0.8 setlinewidth
1 setlinejoin
0 setlinecap
0 0 m
3.5 0 l

gsave
0.000 setgray
fill
grestore
stroke
grestore
} bind def
508.408 32.571 o
grestore
gsave
515.407882 28.774125 translate
0.000000 rotate
0.000000 0 m /zero glyphshow
6.362305 0 m /period glyphshow
9.541016 0 m /zero glyphshow
grestore
gsave
/o {
gsave
newpath
translate
0.8 setlinewidth
1 setlinejoin
0 setlinecap
0 0 m
3.5 0 l

gsave
0.000 setgray
fill
grestore
stroke
grestore
} bind def
508.408 69.4386 o
grestore
gsave
515.407882 65.641725 translate
0.000000 rotate
0.000000 0 m /zero glyphshow
6.362305 0 m /period glyphshow
9.541016 0 m /two glyphshow
grestore
gsave
/o {
gsave
newpath
translate
0.8 setlinewidth
1 setlinejoin
0 setlinecap
0 0 m
3.5 0 l

gsave
0.000 setgray
fill
grestore
stroke
grestore
} bind def
508.408 106.306 o
grestore
gsave
515.407882 102.509325 translate
0.000000 rotate
0.000000 0 m /zero glyphshow
6.362305 0 m /period glyphshow
9.541016 0 m /four glyphshow
grestore
gsave
/o {
gsave
newpath
translate
0.8 setlinewidth
1 setlinejoin
0 setlinecap
0 0 m
3.5 0 l

gsave
0.000 setgray
fill
grestore
stroke
grestore
} bind def
508.408 143.174 o
grestore
gsave
515.407882 139.376925 translate
0.000000 rotate
0.000000 0 m /zero glyphshow
6.362305 0 m /period glyphshow
9.541016 0 m /six glyphshow
grestore
gsave
/o {
gsave
newpath
translate
0.8 setlinewidth
1 setlinejoin
0 setlinecap
0 0 m
3.5 0 l

gsave
0.000 setgray
fill
grestore
stroke
grestore
} bind def
508.408 180.041 o
grestore
gsave
515.407882 176.244525 translate
0.000000 rotate
0.000000 0 m /zero glyphshow
6.362305 0 m /period glyphshow
9.541016 0 m /eight glyphshow
grestore
gsave
/o {
gsave
newpath
translate
0.8 setlinewidth
1 setlinejoin
0 setlinecap
0 0 m
3.5 0 l

gsave
0.000 setgray
fill
grestore
stroke
grestore
} bind def
508.408 216.909 o
grestore
gsave
515.407882 213.112125 translate
0.000000 rotate
0.000000 0 m /one glyphshow
6.362305 0 m /period glyphshow
9.541016 0 m /zero glyphshow
grestore
0 setlinejoin
gsave
498.705882 27.72 m
498.705882 37.422 l
498.705882 212.058 l
498.705882 221.76 l
508.407882 221.76 l
508.407882 212.058 l
508.407882 37.422 l
508.407882 27.72 l
cl
stroke
grestore

end
showpage
