%!PS-Adobe-3.0 EPSF-3.0
%%Title: ../Figures/UMAPexample.eps
%%Creator: matplotlib version 3.3.1, http://matplotlib.org/
%%CreationDate: Tue Feb  2 13:07:29 2021
%%Orientation: portrait
%%BoundingBox: 90.0 252.0 522.0 540.0
%%EndComments
%%BeginProlog
/mpldict 8 dict def
mpldict begin
/m { moveto } bind def
/l { lineto } bind def
/r { rlineto } bind def
/c { curveto } bind def
/cl { closepath } bind def
/box {
      m
      1 index 0 r
      0 exch r
      neg 0 r
      cl
    } bind def
/clipbox {
      box
      clip
      newpath
    } bind def
%!PS-Adobe-3.0 Resource-Font
%%Title: DejaVu Sans
%%Copyright: Copyright (c) 2003 by Bitstream, Inc. All Rights Reserved. Copyright (c) 2006 by Tavmjong Bah. All Rights Reserved. DejaVu changes are in public domain 
%%Creator: Converted from TrueType to type 3 by PPR
25 dict begin
/_d{bind def}bind def
/_m{moveto}_d
/_l{lineto}_d
/_cl{closepath eofill}_d
/_c{curveto}_d
/_sc{7 -1 roll{setcachedevice}{pop pop pop pop pop pop}ifelse}_d
/_e{exec}_d
/FontName /DejaVuSans def
/PaintType 0 def
/FontMatrix[.001 0 0 .001 0 0]def
/FontBBox[-1021 -463 1793 1232]def
/FontType 3 def
/Encoding [ /period /zero /one /two /five /minus ] def
/FontInfo 10 dict dup begin
/FamilyName (DejaVu Sans) def
/FullName (DejaVu Sans) def
/Notice (Copyright (c) 2003 by Bitstream, Inc. All Rights Reserved. Copyright (c) 2006 by Tavmjong Bah. All Rights Reserved. DejaVu changes are in public domain ) def
/Weight (Book) def
/Version (Version 2.35) def
/ItalicAngle 0.0 def
/isFixedPitch false def
/UnderlinePosition -130 def
/UnderlineThickness 90 def
end readonly def
/CharStrings 7 dict dup begin
/.notdef 0 def
/period{318 0 107 0 210 124 _sc
107 124 _m
210 124 _l
210 0 _l
107 0 _l
107 124 _l
_cl}_d
/zero{636 0 66 -13 570 742 _sc
318 664 _m
267 664 229 639 203 589 _c
177 539 165 464 165 364 _c
165 264 177 189 203 139 _c
229 89 267 64 318 64 _c
369 64 407 89 433 139 _c
458 189 471 264 471 364 _c
471 464 458 539 433 589 _c
407 639 369 664 318 664 _c
318 742 _m
399 742 461 709 505 645 _c
548 580 570 486 570 364 _c
570 241 548 147 505 83 _c
461 19 399 -13 318 -13 _c
236 -13 173 19 130 83 _c
87 147 66 241 66 364 _c
66 486 87 580 130 645 _c
173 709 236 742 318 742 _c
_cl}_d
/one{636 0 110 0 544 729 _sc
124 83 _m
285 83 _l
285 639 _l
110 604 _l
110 694 _l
284 729 _l
383 729 _l
383 83 _l
544 83 _l
544 0 _l
124 0 _l
124 83 _l
_cl}_d
/two{{636 0 73 0 536 742 _sc
192 83 _m
536 83 _l
536 0 _l
73 0 _l
73 83 _l
110 121 161 173 226 239 _c
290 304 331 346 348 365 _c
380 400 402 430 414 455 _c
426 479 433 504 433 528 _c
433 566 419 598 392 622 _c
365 646 330 659 286 659 _c
255 659 222 653 188 643 _c
154 632 117 616 78 594 _c
78 694 _l
118 710 155 722 189 730 _c
223 738 255 742 284 742 _c
}_e{359 742 419 723 464 685 _c
509 647 532 597 532 534 _c
532 504 526 475 515 449 _c
504 422 484 390 454 354 _c
446 344 420 317 376 272 _c
332 227 271 164 192 83 _c
_cl}_e}_d
/five{{636 0 77 -13 549 729 _sc
108 729 _m
495 729 _l
495 646 _l
198 646 _l
198 467 _l
212 472 227 476 241 478 _c
255 480 270 482 284 482 _c
365 482 429 459 477 415 _c
525 370 549 310 549 234 _c
549 155 524 94 475 51 _c
426 8 357 -13 269 -13 _c
238 -13 207 -10 175 -6 _c
143 -1 111 6 77 17 _c
77 116 _l
106 100 136 88 168 80 _c
199 72 232 69 267 69 _c
}_e{323 69 368 83 401 113 _c
433 143 450 183 450 234 _c
450 284 433 324 401 354 _c
368 384 323 399 267 399 _c
241 399 214 396 188 390 _c
162 384 135 375 108 363 _c
108 729 _l
_cl}_e}_d
/minus{838 0 106 272 732 355 _sc
106 355 _m
732 355 _l
732 272 _l
106 272 _l
106 355 _l
_cl}_d
end readonly def

/BuildGlyph
 {exch begin
 CharStrings exch
 2 copy known not{pop /.notdef}if
 true 3 1 roll get exec
 end}_d

/BuildChar {
 1 index /Encoding get exch get
 1 index /BuildGlyph get exec
}_d

FontName currentdict end definefont pop
end
%%EndProlog
mpldict begin
90 252 translate
432 288 0 0 clipbox
gsave
0 0 m
432 0 l
432 288 l
0 288 l
cl
grestore
gsave
54 86.293811 m
388.8 86.293811 l
388.8 203.146189 l
54 203.146189 l
cl
1.000 setgray
fill
grestore
/p0_0 {
newpath
translate
0 -3 m
0.795609 -3 1.55874 -2.683901 2.12132 -2.12132 c
2.683901 -1.55874 3 -0.795609 3 0 c
3 0.795609 2.683901 1.55874 2.12132 2.12132 c
1.55874 2.683901 0.795609 3 0 3 c
-0.795609 3 -1.55874 2.683901 -2.12132 2.12132 c
-2.683901 1.55874 -3 0.795609 -3 0 c
-3 -0.795609 -2.683901 -1.55874 -2.12132 -2.12132 c
-1.55874 -2.683901 -0.795609 -3 0 -3 c
cl

} bind def
1.000 setlinewidth
1 setlinejoin
0 setlinecap
[] 0 setdash
0.993 0.906 0.144 setrgbcolor
gsave
334.8 116.9 54 86.29 clipbox
360.797 137.847 p0_0
gsave
fill
grestore
stroke
grestore
gsave
334.8 116.9 54 86.29 clipbox
367.062 145.79 p0_0
gsave
fill
grestore
stroke
grestore
gsave
334.8 116.9 54 86.29 clipbox
369.49 142.695 p0_0
gsave
fill
grestore
stroke
grestore
gsave
334.8 116.9 54 86.29 clipbox
359.42 135.893 p0_0
gsave
fill
grestore
stroke
grestore
gsave
334.8 116.9 54 86.29 clipbox
369.12 135.048 p0_0
gsave
fill
grestore
stroke
grestore
gsave
334.8 116.9 54 86.29 clipbox
368.421 141.648 p0_0
gsave
fill
grestore
stroke
grestore
gsave
334.8 116.9 54 86.29 clipbox
373.582 139.496 p0_0
gsave
fill
grestore
stroke
grestore
gsave
334.8 116.9 54 86.29 clipbox
352.056 132.704 p0_0
gsave
fill
grestore
stroke
grestore
gsave
334.8 116.9 54 86.29 clipbox
372.891 142.132 p0_0
gsave
fill
grestore
stroke
grestore
gsave
334.8 116.9 54 86.29 clipbox
353.194 128.864 p0_0
gsave
fill
grestore
stroke
grestore
0.128 0.567 0.551 setrgbcolor
gsave
334.8 116.9 54 86.29 clipbox
168.828 143.04 p0_0
gsave
fill
grestore
stroke
grestore
gsave
334.8 116.9 54 86.29 clipbox
157.805 182.246 p0_0
gsave
fill
grestore
stroke
grestore
gsave
334.8 116.9 54 86.29 clipbox
152.844 193.546 p0_0
gsave
fill
grestore
stroke
grestore
0.993 0.906 0.144 setrgbcolor
gsave
334.8 116.9 54 86.29 clipbox
358.31 130.554 p0_0
gsave
fill
grestore
stroke
grestore
gsave
334.8 116.9 54 86.29 clipbox
354.876 133.744 p0_0
gsave
fill
grestore
stroke
grestore
gsave
334.8 116.9 54 86.29 clipbox
370.707 140.036 p0_0
gsave
fill
grestore
stroke
grestore
0.128 0.567 0.551 setrgbcolor
gsave
334.8 116.9 54 86.29 clipbox
150.89 193.514 p0_0
gsave
fill
grestore
stroke
grestore
gsave
334.8 116.9 54 86.29 clipbox
177.894 170.765 p0_0
gsave
fill
grestore
stroke
grestore
0.993 0.906 0.144 setrgbcolor
gsave
334.8 116.9 54 86.29 clipbox
349.326 128.58 p0_0
gsave
fill
grestore
stroke
grestore
gsave
334.8 116.9 54 86.29 clipbox
354.063 131.818 p0_0
gsave
fill
grestore
stroke
grestore
gsave
334.8 116.9 54 86.29 clipbox
351.802 132.824 p0_0
gsave
fill
grestore
stroke
grestore
gsave
334.8 116.9 54 86.29 clipbox
373.37 140.164 p0_0
gsave
fill
grestore
stroke
grestore
gsave
334.8 116.9 54 86.29 clipbox
370.788 141.071 p0_0
gsave
fill
grestore
stroke
grestore
gsave
334.8 116.9 54 86.29 clipbox
368.103 132.962 p0_0
gsave
fill
grestore
stroke
grestore
gsave
334.8 116.9 54 86.29 clipbox
369.893 143.117 p0_0
gsave
fill
grestore
stroke
grestore
gsave
334.8 116.9 54 86.29 clipbox
367.887 138.889 p0_0
gsave
fill
grestore
stroke
grestore
gsave
334.8 116.9 54 86.29 clipbox
366.426 133.379 p0_0
gsave
fill
grestore
stroke
grestore
0.267 0.005 0.329 setrgbcolor
gsave
334.8 116.9 54 86.29 clipbox
86.8112 101.964 p0_0
gsave
fill
grestore
stroke
grestore
0.128 0.567 0.551 setrgbcolor
gsave
334.8 116.9 54 86.29 clipbox
127.531 157.09 p0_0
gsave
fill
grestore
stroke
grestore
gsave
334.8 116.9 54 86.29 clipbox
157.49 177.779 p0_0
gsave
fill
grestore
stroke
grestore
gsave
334.8 116.9 54 86.29 clipbox
169.544 159.772 p0_0
gsave
fill
grestore
stroke
grestore
gsave
334.8 116.9 54 86.29 clipbox
139.69 183.479 p0_0
gsave
fill
grestore
stroke
grestore
gsave
334.8 116.9 54 86.29 clipbox
169.439 142.146 p0_0
gsave
fill
grestore
stroke
grestore
gsave
334.8 116.9 54 86.29 clipbox
174.205 167.24 p0_0
gsave
fill
grestore
stroke
grestore
gsave
334.8 116.9 54 86.29 clipbox
117.716 159.15 p0_0
gsave
fill
grestore
stroke
grestore
gsave
334.8 116.9 54 86.29 clipbox
132.052 145.749 p0_0
gsave
fill
grestore
stroke
grestore
gsave
334.8 116.9 54 86.29 clipbox
132.046 144.484 p0_0
gsave
fill
grestore
stroke
grestore
gsave
334.8 116.9 54 86.29 clipbox
126.753 177.158 p0_0
gsave
fill
grestore
stroke
grestore
0.267 0.005 0.329 setrgbcolor
gsave
334.8 116.9 54 86.29 clipbox
72.9345 103.146 p0_0
gsave
fill
grestore
stroke
grestore
gsave
334.8 116.9 54 86.29 clipbox
74.3326 103.713 p0_0
gsave
fill
grestore
stroke
grestore
gsave
334.8 116.9 54 86.29 clipbox
74.5826 99.9921 p0_0
gsave
fill
grestore
stroke
grestore
gsave
334.8 116.9 54 86.29 clipbox
73.2614 101.673 p0_0
gsave
fill
grestore
stroke
grestore
0.128 0.567 0.551 setrgbcolor
gsave
334.8 116.9 54 86.29 clipbox
148.143 175.549 p0_0
gsave
fill
grestore
stroke
grestore
gsave
334.8 116.9 54 86.29 clipbox
154.878 186.967 p0_0
gsave
fill
grestore
stroke
grestore
gsave
334.8 116.9 54 86.29 clipbox
126.104 183.856 p0_0
gsave
fill
grestore
stroke
grestore
gsave
334.8 116.9 54 86.29 clipbox
165.092 141.172 p0_0
gsave
fill
grestore
stroke
grestore
gsave
334.8 116.9 54 86.29 clipbox
152.121 179.72 p0_0
gsave
fill
grestore
stroke
grestore
gsave
334.8 116.9 54 86.29 clipbox
121.164 156.826 p0_0
gsave
fill
grestore
stroke
grestore
gsave
334.8 116.9 54 86.29 clipbox
142.768 153.286 p0_0
gsave
fill
grestore
stroke
grestore
gsave
334.8 116.9 54 86.29 clipbox
149.403 176.863 p0_0
gsave
fill
grestore
stroke
grestore
gsave
334.8 116.9 54 86.29 clipbox
131.041 179.459 p0_0
gsave
fill
grestore
stroke
grestore
gsave
334.8 116.9 54 86.29 clipbox
152.651 185.005 p0_0
gsave
fill
grestore
stroke
grestore
gsave
334.8 116.9 54 86.29 clipbox
151.225 188.656 p0_0
gsave
fill
grestore
stroke
grestore
gsave
334.8 116.9 54 86.29 clipbox
179.337 157.995 p0_0
gsave
fill
grestore
stroke
grestore
gsave
334.8 116.9 54 86.29 clipbox
158.189 181.207 p0_0
gsave
fill
grestore
stroke
grestore
gsave
334.8 116.9 54 86.29 clipbox
153.554 154.657 p0_0
gsave
fill
grestore
stroke
grestore
gsave
334.8 116.9 54 86.29 clipbox
144.8 151.303 p0_0
gsave
fill
grestore
stroke
grestore
gsave
334.8 116.9 54 86.29 clipbox
164.169 177.226 p0_0
gsave
fill
grestore
stroke
grestore
gsave
334.8 116.9 54 86.29 clipbox
160.576 176.702 p0_0
gsave
fill
grestore
stroke
grestore
gsave
334.8 116.9 54 86.29 clipbox
162.31 178.606 p0_0
gsave
fill
grestore
stroke
grestore
0.267 0.005 0.329 setrgbcolor
gsave
334.8 116.9 54 86.29 clipbox
90.6786 102.404 p0_0
gsave
fill
grestore
stroke
grestore
0.128 0.567 0.551 setrgbcolor
gsave
334.8 116.9 54 86.29 clipbox
174.507 141.28 p0_0
gsave
fill
grestore
stroke
grestore
gsave
334.8 116.9 54 86.29 clipbox
115.775 177.028 p0_0
gsave
fill
grestore
stroke
grestore
gsave
334.8 116.9 54 86.29 clipbox
135.217 166.653 p0_0
gsave
fill
grestore
stroke
grestore
gsave
334.8 116.9 54 86.29 clipbox
133.769 169.546 p0_0
gsave
fill
grestore
stroke
grestore
gsave
334.8 116.9 54 86.29 clipbox
115.155 171.009 p0_0
gsave
fill
grestore
stroke
grestore
gsave
334.8 116.9 54 86.29 clipbox
175.622 156.441 p0_0
gsave
fill
grestore
stroke
grestore
gsave
334.8 116.9 54 86.29 clipbox
140.356 150.554 p0_0
gsave
fill
grestore
stroke
grestore
gsave
334.8 116.9 54 86.29 clipbox
127.924 145.106 p0_0
gsave
fill
grestore
stroke
grestore
0.267 0.005 0.329 setrgbcolor
gsave
334.8 116.9 54 86.29 clipbox
80.1131 94.7288 p0_0
gsave
fill
grestore
stroke
grestore
gsave
334.8 116.9 54 86.29 clipbox
70.6589 93.0191 p0_0
gsave
fill
grestore
stroke
grestore
gsave
334.8 116.9 54 86.29 clipbox
82.9579 106.207 p0_0
gsave
fill
grestore
stroke
grestore
0.128 0.567 0.551 setrgbcolor
gsave
334.8 116.9 54 86.29 clipbox
172.394 139.02 p0_0
gsave
fill
grestore
stroke
grestore
gsave
334.8 116.9 54 86.29 clipbox
118.713 160.471 p0_0
gsave
fill
grestore
stroke
grestore
gsave
334.8 116.9 54 86.29 clipbox
171.972 161.078 p0_0
gsave
fill
grestore
stroke
grestore
gsave
334.8 116.9 54 86.29 clipbox
150.037 173.396 p0_0
gsave
fill
grestore
stroke
grestore
0.267 0.005 0.329 setrgbcolor
gsave
334.8 116.9 54 86.29 clipbox
87.8257 104.968 p0_0
gsave
fill
grestore
stroke
grestore
0.128 0.567 0.551 setrgbcolor
gsave
334.8 116.9 54 86.29 clipbox
118.913 144.267 p0_0
gsave
fill
grestore
stroke
grestore
gsave
334.8 116.9 54 86.29 clipbox
171.081 160.955 p0_0
gsave
fill
grestore
stroke
grestore
gsave
334.8 116.9 54 86.29 clipbox
179.221 156.437 p0_0
gsave
fill
grestore
stroke
grestore
gsave
334.8 116.9 54 86.29 clipbox
171.444 157.367 p0_0
gsave
fill
grestore
stroke
grestore
gsave
334.8 116.9 54 86.29 clipbox
165.254 157.404 p0_0
gsave
fill
grestore
stroke
grestore
gsave
334.8 116.9 54 86.29 clipbox
150.012 160.123 p0_0
gsave
fill
grestore
stroke
grestore
gsave
334.8 116.9 54 86.29 clipbox
138.375 182.806 p0_0
gsave
fill
grestore
stroke
grestore
gsave
334.8 116.9 54 86.29 clipbox
146.72 149.636 p0_0
gsave
fill
grestore
stroke
grestore
gsave
334.8 116.9 54 86.29 clipbox
124.297 152.347 p0_0
gsave
fill
grestore
stroke
grestore
gsave
334.8 116.9 54 86.29 clipbox
166.239 156.455 p0_0
gsave
fill
grestore
stroke
grestore
gsave
334.8 116.9 54 86.29 clipbox
138.217 179.783 p0_0
gsave
fill
grestore
stroke
grestore
gsave
334.8 116.9 54 86.29 clipbox
165.203 144.735 p0_0
gsave
fill
grestore
stroke
grestore
gsave
334.8 116.9 54 86.29 clipbox
177.61 154.391 p0_0
gsave
fill
grestore
stroke
grestore
gsave
334.8 116.9 54 86.29 clipbox
129.786 159.577 p0_0
gsave
fill
grestore
stroke
grestore
gsave
334.8 116.9 54 86.29 clipbox
119.903 150.918 p0_0
gsave
fill
grestore
stroke
grestore
gsave
334.8 116.9 54 86.29 clipbox
168.932 167.425 p0_0
gsave
fill
grestore
stroke
grestore
gsave
334.8 116.9 54 86.29 clipbox
160.744 175.088 p0_0
gsave
fill
grestore
stroke
grestore
gsave
334.8 116.9 54 86.29 clipbox
165.434 178.559 p0_0
gsave
fill
grestore
stroke
grestore
gsave
334.8 116.9 54 86.29 clipbox
171.506 141.143 p0_0
gsave
fill
grestore
stroke
grestore
gsave
334.8 116.9 54 86.29 clipbox
122.985 168.386 p0_0
gsave
fill
grestore
stroke
grestore
gsave
334.8 116.9 54 86.29 clipbox
150.084 153.212 p0_0
gsave
fill
grestore
stroke
grestore
gsave
334.8 116.9 54 86.29 clipbox
119.739 183.447 p0_0
gsave
fill
grestore
stroke
grestore
gsave
334.8 116.9 54 86.29 clipbox
127.508 149.538 p0_0
gsave
fill
grestore
stroke
grestore
gsave
334.8 116.9 54 86.29 clipbox
124.021 142.32 p0_0
gsave
fill
grestore
stroke
grestore
gsave
334.8 116.9 54 86.29 clipbox
121.195 144.432 p0_0
gsave
fill
grestore
stroke
grestore
gsave
334.8 116.9 54 86.29 clipbox
117.079 147.095 p0_0
gsave
fill
grestore
stroke
grestore
gsave
334.8 116.9 54 86.29 clipbox
119.411 155.971 p0_0
gsave
fill
grestore
stroke
grestore
0.267 0.005 0.329 setrgbcolor
gsave
334.8 116.9 54 86.29 clipbox
88.474 103.718 p0_0
gsave
fill
grestore
stroke
grestore
0.128 0.567 0.551 setrgbcolor
gsave
334.8 116.9 54 86.29 clipbox
120.189 171.659 p0_0
gsave
fill
grestore
stroke
grestore
gsave
334.8 116.9 54 86.29 clipbox
116.036 161.933 p0_0
gsave
fill
grestore
stroke
grestore
0.267 0.005 0.329 setrgbcolor
gsave
334.8 116.9 54 86.29 clipbox
69.2182 91.6863 p0_0
gsave
fill
grestore
stroke
grestore
gsave
334.8 116.9 54 86.29 clipbox
70.1136 92.3884 p0_0
gsave
fill
grestore
stroke
grestore
gsave
334.8 116.9 54 86.29 clipbox
82.5545 104.466 p0_0
gsave
fill
grestore
stroke
grestore
gsave
334.8 116.9 54 86.29 clipbox
78.2045 95.8095 p0_0
gsave
fill
grestore
stroke
grestore
gsave
334.8 116.9 54 86.29 clipbox
70.4258 92.8844 p0_0
gsave
fill
grestore
stroke
grestore
gsave
334.8 116.9 54 86.29 clipbox
77.0563 98.2824 p0_0
gsave
fill
grestore
stroke
grestore
0.128 0.567 0.551 setrgbcolor
gsave
334.8 116.9 54 86.29 clipbox
123.827 152.301 p0_0
gsave
fill
grestore
stroke
grestore
gsave
334.8 116.9 54 86.29 clipbox
124.075 170.557 p0_0
gsave
fill
grestore
stroke
grestore
gsave
334.8 116.9 54 86.29 clipbox
151.266 197.835 p0_0
gsave
fill
grestore
stroke
grestore
gsave
334.8 116.9 54 86.29 clipbox
176.626 168.263 p0_0
gsave
fill
grestore
stroke
grestore
gsave
334.8 116.9 54 86.29 clipbox
119.516 183.436 p0_0
gsave
fill
grestore
stroke
grestore
0.993 0.906 0.144 setrgbcolor
gsave
334.8 116.9 54 86.29 clipbox
351.031 133.947 p0_0
gsave
fill
grestore
stroke
grestore
gsave
334.8 116.9 54 86.29 clipbox
352.124 131.073 p0_0
gsave
fill
grestore
stroke
grestore
0.128 0.567 0.551 setrgbcolor
gsave
334.8 116.9 54 86.29 clipbox
150.841 192.433 p0_0
gsave
fill
grestore
stroke
grestore
gsave
334.8 116.9 54 86.29 clipbox
181.071 161.658 p0_0
gsave
fill
grestore
stroke
grestore
0.993 0.906 0.144 setrgbcolor
gsave
334.8 116.9 54 86.29 clipbox
346.296 128.465 p0_0
gsave
fill
grestore
stroke
grestore
0.128 0.567 0.551 setrgbcolor
gsave
334.8 116.9 54 86.29 clipbox
135.259 145.166 p0_0
gsave
fill
grestore
stroke
grestore
gsave
334.8 116.9 54 86.29 clipbox
172.727 175.814 p0_0
gsave
fill
grestore
stroke
grestore
gsave
334.8 116.9 54 86.29 clipbox
171.386 178.127 p0_0
gsave
fill
grestore
stroke
grestore
gsave
334.8 116.9 54 86.29 clipbox
153.055 195.633 p0_0
gsave
fill
grestore
stroke
grestore
gsave
334.8 116.9 54 86.29 clipbox
151.943 192.658 p0_0
gsave
fill
grestore
stroke
grestore
gsave
334.8 116.9 54 86.29 clipbox
174.799 161.964 p0_0
gsave
fill
grestore
stroke
grestore
gsave
334.8 116.9 54 86.29 clipbox
117.092 182.683 p0_0
gsave
fill
grestore
stroke
grestore
0.267 0.005 0.329 setrgbcolor
gsave
334.8 116.9 54 86.29 clipbox
76.6057 91.6053 p0_0
gsave
fill
grestore
stroke
grestore
gsave
334.8 116.9 54 86.29 clipbox
75.3515 92.1576 p0_0
gsave
fill
grestore
stroke
grestore
gsave
334.8 116.9 54 86.29 clipbox
69.7996 92.2461 p0_0
gsave
fill
grestore
stroke
grestore
gsave
334.8 116.9 54 86.29 clipbox
75.841 94.5636 p0_0
gsave
fill
grestore
stroke
grestore
gsave
334.8 116.9 54 86.29 clipbox
77.7432 92.8951 p0_0
gsave
fill
grestore
stroke
grestore
gsave
334.8 116.9 54 86.29 clipbox
83.3405 97.7428 p0_0
gsave
fill
grestore
stroke
grestore
gsave
334.8 116.9 54 86.29 clipbox
83.7039 96.2475 p0_0
gsave
fill
grestore
stroke
grestore
0.993 0.906 0.144 setrgbcolor
gsave
334.8 116.9 54 86.29 clipbox
372.014 143.7 p0_0
gsave
fill
grestore
stroke
grestore
gsave
334.8 116.9 54 86.29 clipbox
367.698 134.224 p0_0
gsave
fill
grestore
stroke
grestore
gsave
334.8 116.9 54 86.29 clipbox
368.88 135.558 p0_0
gsave
fill
grestore
stroke
grestore
gsave
334.8 116.9 54 86.29 clipbox
368.407 144.682 p0_0
gsave
fill
grestore
stroke
grestore
gsave
334.8 116.9 54 86.29 clipbox
356.808 130.801 p0_0
gsave
fill
grestore
stroke
grestore
0.128 0.567 0.551 setrgbcolor
gsave
334.8 116.9 54 86.29 clipbox
181.113 155.893 p0_0
gsave
fill
grestore
stroke
grestore
gsave
334.8 116.9 54 86.29 clipbox
178.375 146.692 p0_0
gsave
fill
grestore
stroke
grestore
gsave
334.8 116.9 54 86.29 clipbox
120.621 166.183 p0_0
gsave
fill
grestore
stroke
grestore
gsave
334.8 116.9 54 86.29 clipbox
152.869 191.065 p0_0
gsave
fill
grestore
stroke
grestore
gsave
334.8 116.9 54 86.29 clipbox
125.352 178.597 p0_0
gsave
fill
grestore
stroke
grestore
gsave
334.8 116.9 54 86.29 clipbox
119.78 182.85 p0_0
gsave
fill
grestore
stroke
grestore
gsave
334.8 116.9 54 86.29 clipbox
133.533 146.862 p0_0
gsave
fill
grestore
stroke
grestore
gsave
334.8 116.9 54 86.29 clipbox
171.821 140.345 p0_0
gsave
fill
grestore
stroke
grestore
gsave
334.8 116.9 54 86.29 clipbox
122.382 169.809 p0_0
gsave
fill
grestore
stroke
grestore
gsave
334.8 116.9 54 86.29 clipbox
164.874 144.601 p0_0
gsave
fill
grestore
stroke
grestore
gsave
334.8 116.9 54 86.29 clipbox
160.478 162.718 p0_0
gsave
fill
grestore
stroke
grestore
gsave
334.8 116.9 54 86.29 clipbox
118.852 181.53 p0_0
gsave
fill
grestore
stroke
grestore
gsave
334.8 116.9 54 86.29 clipbox
130.652 182.037 p0_0
gsave
fill
grestore
stroke
grestore
gsave
334.8 116.9 54 86.29 clipbox
171.842 138.896 p0_0
gsave
fill
grestore
stroke
grestore
gsave
334.8 116.9 54 86.29 clipbox
171.322 151.758 p0_0
gsave
fill
grestore
stroke
grestore
gsave
334.8 116.9 54 86.29 clipbox
175.731 142.244 p0_0
gsave
fill
grestore
stroke
grestore
gsave
334.8 116.9 54 86.29 clipbox
122.126 142.027 p0_0
gsave
fill
grestore
stroke
grestore
gsave
334.8 116.9 54 86.29 clipbox
117.168 179.798 p0_0
gsave
fill
grestore
stroke
grestore
gsave
334.8 116.9 54 86.29 clipbox
115.639 164.124 p0_0
gsave
fill
grestore
stroke
grestore
gsave
334.8 116.9 54 86.29 clipbox
112.579 167.246 p0_0
gsave
fill
grestore
stroke
grestore
gsave
334.8 116.9 54 86.29 clipbox
169.516 139.188 p0_0
gsave
fill
grestore
stroke
grestore
0.267 0.005 0.329 setrgbcolor
gsave
334.8 116.9 54 86.29 clipbox
79.5292 99.5942 p0_0
gsave
fill
grestore
stroke
grestore
0.128 0.567 0.551 setrgbcolor
gsave
334.8 116.9 54 86.29 clipbox
115.842 177.688 p0_0
gsave
fill
grestore
stroke
grestore
0.267 0.005 0.329 setrgbcolor
gsave
334.8 116.9 54 86.29 clipbox
86.5415 105.045 p0_0
gsave
fill
grestore
stroke
grestore
0.800 setlinewidth
0.000 setgray
gsave
/o {
gsave
newpath
translate
0.8 setlinewidth
1 setlinejoin
0 setlinecap
0 0 m
0 -3.5 l

gsave
0.000 setgray
fill
grestore
stroke
grestore
} bind def
71.2745 86.2938 o
grestore
/DejaVuSans findfont
10.000 scalefont
setfont
gsave
59.133855 71.700061 translate
0.000000 rotate
0.000000 0 m /minus glyphshow
8.378906 0 m /one glyphshow
14.741211 0 m /period glyphshow
17.919922 0 m /five glyphshow
grestore
gsave
/o {
gsave
newpath
translate
0.8 setlinewidth
1 setlinejoin
0 setlinecap
0 0 m
0 -3.5 l

gsave
0.000 setgray
fill
grestore
stroke
grestore
} bind def
116.094 86.2938 o
grestore
gsave
103.953070 71.700061 translate
0.000000 rotate
0.000000 0 m /minus glyphshow
8.378906 0 m /one glyphshow
14.741211 0 m /period glyphshow
17.919922 0 m /zero glyphshow
grestore
gsave
/o {
gsave
newpath
translate
0.8 setlinewidth
1 setlinejoin
0 setlinecap
0 0 m
0 -3.5 l

gsave
0.000 setgray
fill
grestore
stroke
grestore
} bind def
160.913 86.2938 o
grestore
gsave
148.772284 71.700061 translate
0.000000 rotate
0.000000 0 m /minus glyphshow
8.378906 0 m /zero glyphshow
14.741211 0 m /period glyphshow
17.919922 0 m /five glyphshow
grestore
gsave
/o {
gsave
newpath
translate
0.8 setlinewidth
1 setlinejoin
0 setlinecap
0 0 m
0 -3.5 l

gsave
0.000 setgray
fill
grestore
stroke
grestore
} bind def
205.732 86.2938 o
grestore
gsave
197.778999 71.700061 translate
0.000000 rotate
0.000000 0 m /zero glyphshow
6.362305 0 m /period glyphshow
9.541016 0 m /zero glyphshow
grestore
gsave
/o {
gsave
newpath
translate
0.8 setlinewidth
1 setlinejoin
0 setlinecap
0 0 m
0 -3.5 l

gsave
0.000 setgray
fill
grestore
stroke
grestore
} bind def
250.551 86.2938 o
grestore
gsave
242.598213 71.700061 translate
0.000000 rotate
0.000000 0 m /zero glyphshow
6.362305 0 m /period glyphshow
9.541016 0 m /five glyphshow
grestore
gsave
/o {
gsave
newpath
translate
0.8 setlinewidth
1 setlinejoin
0 setlinecap
0 0 m
0 -3.5 l

gsave
0.000 setgray
fill
grestore
stroke
grestore
} bind def
295.371 86.2938 o
grestore
gsave
287.417427 71.700061 translate
0.000000 rotate
0.000000 0 m /one glyphshow
6.362305 0 m /period glyphshow
9.541016 0 m /zero glyphshow
grestore
gsave
/o {
gsave
newpath
translate
0.8 setlinewidth
1 setlinejoin
0 setlinecap
0 0 m
0 -3.5 l

gsave
0.000 setgray
fill
grestore
stroke
grestore
} bind def
340.19 86.2938 o
grestore
gsave
332.236642 71.700061 translate
0.000000 rotate
0.000000 0 m /one glyphshow
6.362305 0 m /period glyphshow
9.541016 0 m /five glyphshow
grestore
gsave
/o {
gsave
newpath
translate
0.8 setlinewidth
1 setlinejoin
0 setlinecap
0 0 m
0 -3.5 l

gsave
0.000 setgray
fill
grestore
stroke
grestore
} bind def
385.009 86.2938 o
grestore
gsave
377.055856 71.700061 translate
0.000000 rotate
0.000000 0 m /two glyphshow
6.362305 0 m /period glyphshow
9.541016 0 m /zero glyphshow
grestore
gsave
/o {
gsave
newpath
translate
0.8 setlinewidth
1 setlinejoin
0 setlinecap
-0 0 m
-3.5 0 l

gsave
0.000 setgray
fill
grestore
stroke
grestore
} bind def
54 109.826 o
grestore
gsave
31.093750 106.029458 translate
0.000000 rotate
0.000000 0 m /zero glyphshow
6.362305 0 m /period glyphshow
9.541016 0 m /five glyphshow
grestore
gsave
/o {
gsave
newpath
translate
0.8 setlinewidth
1 setlinejoin
0 setlinecap
-0 0 m
-3.5 0 l

gsave
0.000 setgray
fill
grestore
stroke
grestore
} bind def
54 154.646 o
grestore
gsave
31.093750 150.848673 translate
0.000000 rotate
0.000000 0 m /one glyphshow
6.362305 0 m /period glyphshow
9.541016 0 m /zero glyphshow
grestore
gsave
/o {
gsave
newpath
translate
0.8 setlinewidth
1 setlinejoin
0 setlinecap
-0 0 m
-3.5 0 l

gsave
0.000 setgray
fill
grestore
stroke
grestore
} bind def
54 199.465 o
grestore
gsave
31.093750 195.667887 translate
0.000000 rotate
0.000000 0 m /one glyphshow
6.362305 0 m /period glyphshow
9.541016 0 m /five glyphshow
grestore
0 setlinejoin
2 setlinecap
gsave
54 86.293811 m
54 203.146189 l
stroke
grestore
gsave
388.8 86.293811 m
388.8 203.146189 l
stroke
grestore
gsave
54 86.293811 m
388.8 86.293811 l
stroke
grestore
gsave
54 203.146189 m
388.8 203.146189 l
stroke
grestore

end
showpage
